Coverage: 25, Tot. Cov: 75.000000, 1/104, STDB: 959745000.000000, IPB: 505323696.000000, STDT: 3962535705.000000, IPT: 542552844.000000, BOH/LOH: 1.899268,7.303502, MAX:1
Coverage: 25, Tot. Cov: 101.000000, 2/104, STDB: 825112500.000000, IPB: 365980828.000000, STDT: 7581225407.000000, IPT: 821796716.000000, BOH/LOH: 2.254524,9.225183, MAX:1
Coverage: 25, Tot. Cov: 730.000000, 3/104, STDB: 1826662500.000000, IPB: 49516112.000000, STDT: 18973616964.000000, IPT: 3026401554.000000, BOH/LOH: 36.890265,6.269365, MAX:1
Coverage: 25, Tot. Cov: 411.000000, 4/104, STDB: 58230000.000000, IPB: 16632040.000000, STDT: 4563678026.000000, IPT: 1638291436.000000, BOH/LOH: 3.501074,2.785633, MAX:1
Coverage: 25, Tot. Cov: 87.000000, 5/104, STDB: 5045000.000000, IPB: 2896068.000000, STDT: 646306981.000000, IPT: 273229037.000000, BOH/LOH: 1.742017,2.365440, MAX:1
Coverage: 25, Tot. Cov: 59.000000, 6/104, STDB: 5470000.000000, IPB: 1820060.000000, STDT: 422133006.000000, IPT: 179756440.000000, BOH/LOH: 3.005395,2.348361, MAX:1
Coverage: 25, Tot. Cov: 126.000000, 7/104, STDB: 19552500.000000, IPB: 7093496.000000, STDT: 1050171649.000000, IPT: 438614594.000000, BOH/LOH: 2.756398,2.394293, MAX:1
Coverage: 25, Tot. Cov: 241.000000, 8/104, STDB: 27870000.000000, IPB: 10971244.000000, STDT: 2809123853.000000, IPT: 779923216.000000, BOH/LOH: 2.540277,3.601795, MAX:1
Coverage: 25, Tot. Cov: 41.000000, 9/104, STDB: 5535000.000000, IPB: 2614284.000000, STDT: 395505081.000000, IPT: 151841699.000000, BOH/LOH: 2.117215,2.604720, MAX:1
Coverage: 25, Tot. Cov: 27.000000, 10/104, STDB: 3142500.000000, IPB: 1041040.000000, STDT: 372174183.000000, IPT: 157145634.000000, BOH/LOH: 3.018616,2.368339, MAX:1
Coverage: 25, Tot. Cov: 25.000000, 11/104, STDB: 2207500.000000, IPB: 831348.000000, STDT: 141151628.000000, IPT: 85067499.000000, BOH/LOH: 2.655326,1.659290, MAX:1
Coverage: 25, Tot. Cov: 419.000000, 12/104, STDB: 148207500.000000, IPB: 36351104.000000, STDT: 6720349587.000000, IPT: 1831863876.000000, BOH/LOH: 4.077111,3.668586, MAX:1
Coverage: 25, Tot. Cov: 616.000000, 13/104, STDB: 176670000.000000, IPB: 50970448.000000, STDT: 11287568404.000000, IPT: 3180529421.000000, BOH/LOH: 3.466126,3.548959, MAX:1
Coverage: 25, Tot. Cov: 126.000000, 14/104, STDB: 170860000.000000, IPB: 60978312.000000, STDT: 6981144946.000000, IPT: 895840738.000000, BOH/LOH: 2.801980,7.792842, MAX:1
Coverage: 25, Tot. Cov: 158.000000, 15/104, STDB: 225510000.000000, IPB: 102276092.000000, STDT: 5501379845.000000, IPT: 613669774.000000, BOH/LOH: 2.204914,8.964724, MAX:1
Coverage: 25, Tot. Cov: 263.000000, 16/104, STDB: 324795000.000000, IPB: 149763880.000000, STDT: 13740570574.000000, IPT: 1430039288.000000, BOH/LOH: 2.168714,9.608527, MAX:1
Coverage: 25, Tot. Cov: 298.000000, 17/104, STDB: 386435000.000000, IPB: 167429224.000000, STDT: 11201768450.000000, IPT: 1698229258.000000, BOH/LOH: 2.308050,6.596146, MAX:1
Coverage: 25, Tot. Cov: 27.000000, 18/104, STDB: 38910000.000000, IPB: 12957176.000000, STDT: 480662770.000000, IPT: 116061658.000000, BOH/LOH: 3.002969,4.141443, MAX:1
Coverage: 25, Tot. Cov: 60.000000, 19/104, STDB: 79380000.000000, IPB: 25686896.000000, STDT: 1960525753.000000, IPT: 330074374.000000, BOH/LOH: 3.090292,5.939648, MAX:1
Coverage: 25, Tot. Cov: 136.000000, 20/104, STDB: 118360000.000000, IPB: 53155044.000000, STDT: 4443888917.000000, IPT: 673342667.000000, BOH/LOH: 2.226694,6.599744, MAX:1
Coverage: 25, Tot. Cov: 399.000000, 21/104, STDB: 316350000.000000, IPB: 141039468.000000, STDT: 9283174618.000000, IPT: 1714945284.000000, BOH/LOH: 2.242989,5.413103, MAX:1
Coverage: 25, Tot. Cov: 291.000000, 22/104, STDB: 196245000.000000, IPB: 73079348.000000, STDT: 7685379772.000000, IPT: 1744051132.000000, BOH/LOH: 2.685369,4.406625, MAX:1
Coverage: 25, Tot. Cov: 95.000000, 23/104, STDB: 158985000.000000, IPB: 55638692.000000, STDT: 4087004201.000000, IPT: 467903113.000000, BOH/LOH: 2.857454,8.734723, MAX:1
Coverage: 25, Tot. Cov: 355.000000, 24/104, STDB: 470452500.000000, IPB: 200190888.000000, STDT: 15811106591.000000, IPT: 1714412571.000000, BOH/LOH: 2.350020,9.222463, MAX:1
Coverage: 25, Tot. Cov: 223.000000, 25/104, STDB: 311212500.000000, IPB: 141061456.000000, STDT: 16713871356.000000, IPT: 1128255362.000000, BOH/LOH: 2.206219,14.813908, MAX:1
Coverage: 25, Tot. Cov: 182.000000, 26/104, STDB: 268287500.000000, IPB: 120232264.000000, STDT: 5682258597.000000, IPT: 768221202.000000, BOH/LOH: 2.231410,7.396644, MAX:1
Coverage: 25, Tot. Cov: 231.000000, 27/104, STDB: 249555000.000000, IPB: 122778400.000000, STDT: 10663873000.000000, IPT: 1055585721.000000, BOH/LOH: 2.032564,10.102328, MAX:1
Coverage: 25, Tot. Cov: 166.000000, 28/104, STDB: 167837500.000000, IPB: 63515108.000000, STDT: 7315678168.000000, IPT: 818078554.000000, BOH/LOH: 2.642482,8.942513, MAX:1
Coverage: 25, Tot. Cov: 132.000000, 29/104, STDB: 136580000.000000, IPB: 54669648.000000, STDT: 3990274424.000000, IPT: 568853036.000000, BOH/LOH: 2.498278,7.014596, MAX:1
Coverage: 25, Tot. Cov: 810.000000, 30/104, STDB: 859797500.000000, IPB: 386478860.000000, STDT: 26816548630.000000, IPT: 3820757300.000000, BOH/LOH: 2.224695,7.018647, MAX:1
Coverage: 25, Tot. Cov: 52.000000, 31/104, STDB: 185580000.000000, IPB: 61003604.000000, STDT: 2925269783.000000, IPT: 277222996.000000, BOH/LOH: 3.042115,10.552046, MAX:1
Coverage: 25, Tot. Cov: 87.000000, 32/104, STDB: 175852500.000000, IPB: 58965576.000000, STDT: 3706869778.000000, IPT: 496778850.000000, BOH/LOH: 2.982291,7.461811, MAX:1
Coverage: 25, Tot. Cov: 514.000000, 33/104, STDB: 1024020000.000000, IPB: 505256044.000000, STDT: 30919261867.000000, IPT: 2649346449.000000, BOH/LOH: 2.026735,11.670524, MAX:1
Coverage: 25, Tot. Cov: 98.000000, 34/104, STDB: 187372500.000000, IPB: 83460880.000000, STDT: 3610493918.000000, IPT: 427910258.000000, BOH/LOH: 2.245034,8.437503, MAX:1
Coverage: 25, Tot. Cov: 101.000000, 35/104, STDB: 176730000.000000, IPB: 75317484.000000, STDT: 5503340834.000000, IPT: 566809940.000000, BOH/LOH: 2.346467,9.709323, MAX:1
Coverage: 25, Tot. Cov: 225.000000, 36/104, STDB: 383580000.000000, IPB: 176222552.000000, STDT: 11827119747.000000, IPT: 973670431.000000, BOH/LOH: 2.176679,12.146944, MAX:1
Coverage: 25, Tot. Cov: 187.000000, 37/104, STDB: 322862500.000000, IPB: 155453920.000000, STDT: 9886426298.000000, IPT: 872808632.000000, BOH/LOH: 2.076902,11.327141, MAX:1
Coverage: 25, Tot. Cov: 165.000000, 38/104, STDB: 337800000.000000, IPB: 128692004.000000, STDT: 8316016980.000000, IPT: 939328003.000000, BOH/LOH: 2.624872,8.853156, MAX:1
Coverage: 25, Tot. Cov: 333.000000, 39/104, STDB: 576760000.000000, IPB: 247237396.000000, STDT: 14756217278.000000, IPT: 1622668283.000000, BOH/LOH: 2.332819,9.093798, MAX:1
Coverage: 25, Tot. Cov: 86.000000, 40/104, STDB: 199732500.000000, IPB: 74893188.000000, STDT: 4885067561.000000, IPT: 407311342.000000, BOH/LOH: 2.666898,11.993448, MAX:1
Coverage: 25, Tot. Cov: 65.000000, 41/104, STDB: 152300000.000000, IPB: 62360588.000000, STDT: 3815324323.000000, IPT: 336717421.000000, BOH/LOH: 2.442248,11.330938, MAX:1
Coverage: 25, Tot. Cov: 76.000000, 42/104, STDB: 171255000.000000, IPB: 63484356.000000, STDT: 3098238105.000000, IPT: 623372642.000000, BOH/LOH: 2.697594,4.970122, MAX:1
Coverage: 25, Tot. Cov: 72.000000, 43/104, STDB: 43160000.000000, IPB: 17820424.000000, STDT: 1856389340.000000, IPT: 268352251.000000, BOH/LOH: 2.421940,6.917733, MAX:1
Coverage: 25, Tot. Cov: 360.000000, 44/104, STDB: 107900000.000000, IPB: 46161960.000000, STDT: 12302246084.000000, IPT: 1640454441.000000, BOH/LOH: 2.337422,7.499292, MAX:1
Coverage: 25, Tot. Cov: 72.000000, 45/104, STDB: 44955000.000000, IPB: 15657816.000000, STDT: 2790028535.000000, IPT: 433553953.000000, BOH/LOH: 2.871090,6.435251, MAX:1
Coverage: 25, Tot. Cov: 209.000000, 46/104, STDB: 83162500.000000, IPB: 34837492.000000, STDT: 2407421393.000000, IPT: 789591437.000000, BOH/LOH: 2.387155,3.048946, MAX:1
Coverage: 25, Tot. Cov: 711.000000, 47/104, STDB: 268720000.000000, IPB: 114100752.000000, STDT: 14918185443.000000, IPT: 2842317890.000000, BOH/LOH: 2.355112,5.248599, MAX:1
Coverage: 25, Tot. Cov: 295.000000, 48/104, STDB: 168880000.000000, IPB: 60690580.000000, STDT: 6537908036.000000, IPT: 1321161658.000000, BOH/LOH: 2.782639,4.948606, MAX:1
Coverage: 25, Tot. Cov: 2164.000000, 49/104, STDB: 2028620000.000000, IPB: 625736388.000000, STDT: 60105719231.000000, IPT: 9094877188.000000, BOH/LOH: 3.241972,6.608744, MAX:1
Coverage: 25, Tot. Cov: 112.000000, 50/104, STDB: 86332500.000000, IPB: 37483848.000000, STDT: 3621600057.000000, IPT: 590063870.000000, BOH/LOH: 2.303192,6.137641, MAX:1
Coverage: 25, Tot. Cov: 117.000000, 51/104, STDB: 72315000.000000, IPB: 23073756.000000, STDT: 4551711774.000000, IPT: 977171635.000000, BOH/LOH: 3.134080,4.658047, MAX:1
Coverage: 25, Tot. Cov: 62.000000, 52/104, STDB: 42360000.000000, IPB: 14153728.000000, STDT: 1625750338.000000, IPT: 330255787.000000, BOH/LOH: 2.992851,4.922701, MAX:1
Coverage: 25, Tot. Cov: 451.000000, 53/104, STDB: 266125000.000000, IPB: 117543612.000000, STDT: 12335822689.000000, IPT: 2085767416.000000, BOH/LOH: 2.264053,5.914285, MAX:1
Coverage: 25, Tot. Cov: 81.000000, 54/104, STDB: 31985000.000000, IPB: 10822580.000000, STDT: 2553141594.000000, IPT: 673794958.000000, BOH/LOH: 2.955395,3.789197, MAX:1
Coverage: 25, Tot. Cov: 458.000000, 55/104, STDB: 199677500.000000, IPB: 68511768.000000, STDT: 6456766918.000000, IPT: 1999043799.000000, BOH/LOH: 2.914499,3.229928, MAX:1
Coverage: 25, Tot. Cov: 83.000000, 56/104, STDB: 34155000.000000, IPB: 13100004.000000, STDT: 1602718582.000000, IPT: 450847861.000000, BOH/LOH: 2.607251,3.554899, MAX:1
Coverage: 25, Tot. Cov: 166.000000, 57/104, STDB: 78420000.000000, IPB: 32772996.000000, STDT: 3933945815.000000, IPT: 705665066.000000, BOH/LOH: 2.392824,5.574806, MAX:1
Coverage: 25, Tot. Cov: 129.000000, 58/104, STDB: 53205000.000000, IPB: 20954432.000000, STDT: 3755371765.000000, IPT: 1081038103.000000, BOH/LOH: 2.539081,3.473857, MAX:1
Coverage: 25, Tot. Cov: 30.000000, 59/104, STDB: 26587500.000000, IPB: 8372524.000000, STDT: 817314166.000000, IPT: 133389455.000000, BOH/LOH: 3.175566,6.127277, MAX:1
Coverage: 25, Tot. Cov: 126.000000, 60/104, STDB: 35040000.000000, IPB: 12145256.000000, STDT: 1111668262.000000, IPT: 465958817.000000, BOH/LOH: 2.885077,2.385765, MAX:1
Coverage: 25, Tot. Cov: 126.000000, 61/104, STDB: 27105000.000000, IPB: 10569356.000000, STDT: 2730141071.000000, IPT: 509879878.000000, BOH/LOH: 2.564489,5.354479, MAX:1
Coverage: 25, Tot. Cov: 120.000000, 62/104, STDB: 20085000.000000, IPB: 8802684.000000, STDT: 1840286200.000000, IPT: 453708731.000000, BOH/LOH: 2.281690,4.056096, MAX:1
Coverage: 25, Tot. Cov: 73.000000, 63/104, STDB: 26390000.000000, IPB: 9688108.000000, STDT: 1163619093.000000, IPT: 314261686.000000, BOH/LOH: 2.723958,3.702707, MAX:1
Coverage: 25, Tot. Cov: 59.000000, 64/104, STDB: 22405000.000000, IPB: 8631852.000000, STDT: 1405105588.000000, IPT: 272138534.000000, BOH/LOH: 2.595619,5.163200, MAX:1
Coverage: 25, Tot. Cov: 73.000000, 65/104, STDB: 15580000.000000, IPB: 6148868.000000, STDT: 895666736.000000, IPT: 262473404.000000, BOH/LOH: 2.533800,3.412409, MAX:1
Coverage: 25, Tot. Cov: 155.000000, 66/104, STDB: 41220000.000000, IPB: 16789540.000000, STDT: 2076485677.000000, IPT: 614210418.000000, BOH/LOH: 2.455100,3.380740, MAX:1
Coverage: 25, Tot. Cov: 26.000000, 67/104, STDB: 10975000.000000, IPB: 3270764.000000, STDT: 406956568.000000, IPT: 120094024.000000, BOH/LOH: 3.355485,3.388650, MAX:1
Coverage: 25, Tot. Cov: 26.000000, 68/104, STDB: 13715000.000000, IPB: 4247452.000000, STDT: 500093873.000000, IPT: 105656446.000000, BOH/LOH: 3.228995,4.733207, MAX:1
Coverage: 25, Tot. Cov: 27.000000, 69/104, STDB: 16187500.000000, IPB: 4462928.000000, STDT: 564751821.000000, IPT: 120025211.000000, BOH/LOH: 3.627103,4.705277, MAX:1
Coverage: 25, Tot. Cov: 34.000000, 70/104, STDB: 9620000.000000, IPB: 3681760.000000, STDT: 424866170.000000, IPT: 148751687.000000, BOH/LOH: 2.612881,2.856211, MAX:1
Coverage: 25, Tot. Cov: 74.000000, 71/104, STDB: 65225000.000000, IPB: 30486928.000000, STDT: 2555622968.000000, IPT: 444483766.000000, BOH/LOH: 2.139442,5.749643, MAX:1
Coverage: 25, Tot. Cov: 66.000000, 72/104, STDB: 68580000.000000, IPB: 25892816.000000, STDT: 2915062807.000000, IPT: 465782750.000000, BOH/LOH: 2.648611,6.258417, MAX:1
Coverage: 25, Tot. Cov: 86.000000, 73/104, STDB: 59670000.000000, IPB: 28361388.000000, STDT: 3601271559.000000, IPT: 729080861.000000, BOH/LOH: 2.103917,4.939468, MAX:1
Coverage: 25, Tot. Cov: 72.000000, 74/104, STDB: 49005000.000000, IPB: 19143620.000000, STDT: 2591574183.000000, IPT: 417720988.000000, BOH/LOH: 2.559861,6.204079, MAX:1
Coverage: 25, Tot. Cov: 114.000000, 75/104, STDB: 81075000.000000, IPB: 35231472.000000, STDT: 3308508531.000000, IPT: 614010115.000000, BOH/LOH: 2.301210,5.388362, MAX:1
Coverage: 25, Tot. Cov: 72.000000, 76/104, STDB: 90445000.000000, IPB: 27042408.000000, STDT: 2214291039.000000, IPT: 662936491.000000, BOH/LOH: 3.344562,3.340125, MAX:1
Coverage: 25, Tot. Cov: 76.000000, 77/104, STDB: 97905000.000000, IPB: 38085700.000000, STDT: 3240288527.000000, IPT: 391145833.000000, BOH/LOH: 2.570650,8.284093, MAX:1
Coverage: 25, Tot. Cov: 117.000000, 78/104, STDB: 137715000.000000, IPB: 57843336.000000, STDT: 6763275511.000000, IPT: 844790137.000000, BOH/LOH: 2.380827,8.005865, MAX:1
Coverage: 25, Tot. Cov: 162.000000, 79/104, STDB: 203150000.000000, IPB: 92604052.000000, STDT: 6628594843.000000, IPT: 1057495859.000000, BOH/LOH: 2.193748,6.268199, MAX:1
Coverage: 25, Tot. Cov: 64.000000, 80/104, STDB: 273295000.000000, IPB: 106833544.000000, STDT: 1846599814.000000, IPT: 355062277.000000, BOH/LOH: 2.558138,5.200777, MAX:1
Coverage: 25, Tot. Cov: 127.000000, 81/104, STDB: 440130000.000000, IPB: 175511252.000000, STDT: 9345770953.000000, IPT: 935946027.000000, BOH/LOH: 2.507702,9.985374, MAX:1
Coverage: 25, Tot. Cov: 96.000000, 82/104, STDB: 340222500.000000, IPB: 119289748.000000, STDT: 4576946643.000000, IPT: 478710874.000000, BOH/LOH: 2.852068,9.560983, MAX:1
Coverage: 25, Tot. Cov: 133.000000, 83/104, STDB: 372967500.000000, IPB: 217747848.000000, STDT: 3755045337.000000, IPT: 594697744.000000, BOH/LOH: 1.712841,6.314208, MAX:1
Coverage: 25, Tot. Cov: 33.000000, 84/104, STDB: 136280000.000000, IPB: 66330596.000000, STDT: 1229942567.000000, IPT: 158190952.000000, BOH/LOH: 2.054557,7.775050, MAX:1
Coverage: 25, Tot. Cov: 399.000000, 85/104, STDB: 756675000.000000, IPB: 346378220.000000, STDT: 18161930092.000000, IPT: 2763076050.000000, BOH/LOH: 2.184534,6.573084, MAX:1
Coverage: 25, Tot. Cov: 55.000000, 86/104, STDB: 179825000.000000, IPB: 69983944.000000, STDT: 2357430185.000000, IPT: 238971311.000000, BOH/LOH: 2.569518,9.864909, MAX:1
Coverage: 25, Tot. Cov: 64.000000, 87/104, STDB: 185560000.000000, IPB: 75577376.000000, STDT: 2403400138.000000, IPT: 303729772.000000, BOH/LOH: 2.455232,7.912955, MAX:1
Coverage: 25, Tot. Cov: 25.000000, 88/104, STDB: 81082500.000000, IPB: 30937340.000000, STDT: 929163211.000000, IPT: 125410788.000000, BOH/LOH: 2.620862,7.408958, MAX:1
Coverage: 25, Tot. Cov: 523.000000, 89/104, STDB: 1351805000.000000, IPB: 667904536.000000, STDT: 30338871279.000000, IPT: 2755623590.000000, BOH/LOH: 2.023949,11.009802, MAX:1
Coverage: 25, Tot. Cov: 116.000000, 90/104, STDB: 166560000.000000, IPB: 52590216.000000, STDT: 5643935643.000000, IPT: 1034723779.000000, BOH/LOH: 3.167129,5.454534, MAX:1
Coverage: 25, Tot. Cov: 134.000000, 91/104, STDB: 206842500.000000, IPB: 97258500.000000, STDT: 4641681237.000000, IPT: 954413772.000000, BOH/LOH: 2.126729,4.863385, MAX:1
Coverage: 25, Tot. Cov: 78.000000, 92/104, STDB: 133800000.000000, IPB: 59034700.000000, STDT: 2480073819.000000, IPT: 373732973.000000, BOH/LOH: 2.266464,6.635951, MAX:1
Coverage: 25, Tot. Cov: 256.000000, 93/104, STDB: 533235000.000000, IPB: 202345204.000000, STDT: 8038501394.000000, IPT: 2231584241.000000, BOH/LOH: 2.635274,3.602150, MAX:1
Coverage: 25, Tot. Cov: 308.000000, 94/104, STDB: 1159410000.000000, IPB: 481676120.000000, STDT: 10042156179.000000, IPT: 2187100354.000000, BOH/LOH: 2.407032,4.591539, MAX:1
Coverage: 25, Tot. Cov: 384.000000, 95/104, STDB: 900067500.000000, IPB: 383923712.000000, STDT: 26018381771.000000, IPT: 3280560058.000000, BOH/LOH: 2.344392,7.931079, MAX:1
Coverage: 25, Tot. Cov: 132.000000, 96/104, STDB: 504310000.000000, IPB: 192134800.000000, STDT: 7262371056.000000, IPT: 743504329.000000, BOH/LOH: 2.624772,9.767759, MAX:1
Coverage: 25, Tot. Cov: 67.000000, 97/104, STDB: 523655000.000000, IPB: 218727576.000000, STDT: 5182029186.000000, IPT: 485048624.000000, BOH/LOH: 2.394097,10.683525, MAX:1
Coverage: 25, Tot. Cov: 102.000000, 98/104, STDB: 637807500.000000, IPB: 280867516.000000, STDT: 6617446647.000000, IPT: 776181122.000000, BOH/LOH: 2.270848,8.525648, MAX:1
Coverage: 25, Tot. Cov: 335.000000, 99/104, STDB: 1886720000.000000, IPB: 874801456.000000, STDT: 19150280214.000000, IPT: 2731793593.000000, BOH/LOH: 2.156741,7.010149, MAX:1
Coverage: 25, Tot. Cov: 125.000000, 100/104, STDB: 547245000.000000, IPB: 170689304.000000, STDT: 6358589103.000000, IPT: 1204639289.000000, BOH/LOH: 3.206088,5.278417, MAX:1
Coverage: 25, Tot. Cov: 157.000000, 101/104, STDB: 540770000.000000, IPB: 181239792.000000, STDT: 5626328782.000000, IPT: 1289748743.000000, BOH/LOH: 2.983727,4.362345, MAX:1
Coverage: 25, Tot. Cov: 76.000000, 102/104, STDB: 305685000.000000, IPB: 142598560.000000, STDT: 5335357061.000000, IPT: 578074287.000000, BOH/LOH: 2.143675,9.229535, MAX:1
Coverage: 25, Tot. Cov: 629.000000, 103/104, STDB: 3778905000.000000, IPB: 1800872692.000000, STDT: 17244258201.000000, IPT: 3594786217.000000, BOH/LOH: 2.098374,4.797019, MAX:1
