Coverage: 20, Tot. Cov: 70.000000, 1/104, STDB: 957045000.000000, IPB: 470592200.000000, STDT: 3393803934.000000, IPT: 499115824.000000, BOH/LOH: 2.033703,6.799632, MAX:1
Coverage: 20, Tot. Cov: 95.000000, 2/104, STDB: 825382500.000000, IPB: 345160716.000000, STDT: 7071322585.000000, IPT: 767118016.000000, BOH/LOH: 2.391299,9.218037, MAX:1
Coverage: 20, Tot. Cov: 724.000000, 3/104, STDB: 1804762500.000000, IPB: 40571676.000000, STDT: 18467990055.000000, IPT: 2968690137.000000, BOH/LOH: 44.483311,6.220922, MAX:1
Coverage: 20, Tot. Cov: 404.000000, 4/104, STDB: 56070000.000000, IPB: 16139568.000000, STDT: 4425524139.000000, IPT: 1608138304.000000, BOH/LOH: 3.474071,2.751955, MAX:1
Coverage: 20, Tot. Cov: 87.000000, 5/104, STDB: 5045000.000000, IPB: 2896068.000000, STDT: 646306981.000000, IPT: 273229037.000000, BOH/LOH: 1.742017,2.365440, MAX:1
Coverage: 20, Tot. Cov: 50.000000, 6/104, STDB: 5160000.000000, IPB: 1534192.000000, STDT: 402233526.000000, IPT: 151480308.000000, BOH/LOH: 3.363334,2.655352, MAX:1
Coverage: 20, Tot. Cov: 116.000000, 7/104, STDB: 18900000.000000, IPB: 6425204.000000, STDT: 1022329446.000000, IPT: 408311506.000000, BOH/LOH: 2.941541,2.503798, MAX:1
Coverage: 20, Tot. Cov: 251.000000, 8/104, STDB: 28335000.000000, IPB: 11479528.000000, STDT: 2656843427.000000, IPT: 814525544.000000, BOH/LOH: 2.468307,3.261829, MAX:1
Coverage: 20, Tot. Cov: 24.000000, 9/104, STDB: 5292500.000000, IPB: 1568652.000000, STDT: 185250263.000000, IPT: 91282389.000000, BOH/LOH: 3.373916,2.029420, MAX:1
Coverage: 20, Tot. Cov: 27.000000, 10/104, STDB: 3142500.000000, IPB: 1041040.000000, STDT: 372174183.000000, IPT: 157145634.000000, BOH/LOH: 3.018616,2.368339, MAX:1
Coverage: 20, Tot. Cov: 23.000000, 11/104, STDB: 2202500.000000, IPB: 764352.000000, STDT: 146760150.000000, IPT: 78249663.000000, BOH/LOH: 2.881526,1.875537, MAX:1
Coverage: 20, Tot. Cov: 399.000000, 12/104, STDB: 127260000.000000, IPB: 33460064.000000, STDT: 5020876670.000000, IPT: 1724155411.000000, BOH/LOH: 3.803340,2.912079, MAX:1
Coverage: 20, Tot. Cov: 602.000000, 13/104, STDB: 171340000.000000, IPB: 48852184.000000, STDT: 10513460923.000000, IPT: 3083532142.000000, BOH/LOH: 3.507315,3.409551, MAX:1
Coverage: 20, Tot. Cov: 126.000000, 14/104, STDB: 170860000.000000, IPB: 60978312.000000, STDT: 6981144946.000000, IPT: 895840738.000000, BOH/LOH: 2.801980,7.792842, MAX:1
Coverage: 20, Tot. Cov: 134.000000, 15/104, STDB: 223930000.000000, IPB: 86077660.000000, STDT: 3923371022.000000, IPT: 483525307.000000, BOH/LOH: 2.601488,8.114097, MAX:1
Coverage: 20, Tot. Cov: 212.000000, 16/104, STDB: 300525000.000000, IPB: 117601116.000000, STDT: 8052895848.000000, IPT: 1116936759.000000, BOH/LOH: 2.555460,7.209805, MAX:1
Coverage: 20, Tot. Cov: 298.000000, 17/104, STDB: 386435000.000000, IPB: 167429224.000000, STDT: 11201768450.000000, IPT: 1698229258.000000, BOH/LOH: 2.308050,6.596146, MAX:1
Coverage: 20, Tot. Cov: 22.000000, 18/104, STDB: 38380000.000000, IPB: 10520308.000000, STDT: 361902414.000000, IPT: 93333002.000000, BOH/LOH: 3.648182,3.877540, MAX:1
Coverage: 20, Tot. Cov: 49.000000, 19/104, STDB: 77950000.000000, IPB: 20438392.000000, STDT: 1603810123.000000, IPT: 287666290.000000, BOH/LOH: 3.813901,5.575245, MAX:1
Coverage: 20, Tot. Cov: 119.000000, 20/104, STDB: 119210000.000000, IPB: 46420084.000000, STDT: 3716814605.000000, IPT: 590347533.000000, BOH/LOH: 2.568069,6.295977, MAX:1
Coverage: 20, Tot. Cov: 399.000000, 21/104, STDB: 316350000.000000, IPB: 141039468.000000, STDT: 9283174618.000000, IPT: 1714945284.000000, BOH/LOH: 2.242989,5.413103, MAX:1
Coverage: 20, Tot. Cov: 277.000000, 22/104, STDB: 192325000.000000, IPB: 68458100.000000, STDT: 6843737342.000000, IPT: 1654789429.000000, BOH/LOH: 2.809383,4.135715, MAX:1
Coverage: 20, Tot. Cov: 86.000000, 23/104, STDB: 162105000.000000, IPB: 49826392.000000, STDT: 3348660224.000000, IPT: 421704420.000000, BOH/LOH: 3.253396,7.940776, MAX:1
Coverage: 20, Tot. Cov: 336.000000, 24/104, STDB: 474480000.000000, IPB: 187340916.000000, STDT: 12861799002.000000, IPT: 1619707609.000000, BOH/LOH: 2.532709,7.940815, MAX:1
Coverage: 20, Tot. Cov: 135.000000, 25/104, STDB: 260000000.000000, IPB: 81181648.000000, STDT: 5931968920.000000, IPT: 678842261.000000, BOH/LOH: 3.202694,8.738361, MAX:1
Coverage: 20, Tot. Cov: 182.000000, 26/104, STDB: 268287500.000000, IPB: 120232264.000000, STDT: 5682258597.000000, IPT: 768221202.000000, BOH/LOH: 2.231410,7.396644, MAX:1
Coverage: 20, Tot. Cov: 201.000000, 27/104, STDB: 251025000.000000, IPB: 106486796.000000, STDT: 7484091224.000000, IPT: 910992523.000000, BOH/LOH: 2.357335,8.215316, MAX:1
Coverage: 20, Tot. Cov: 123.000000, 28/104, STDB: 156175000.000000, IPB: 46641220.000000, STDT: 4235425459.000000, IPT: 571143383.000000, BOH/LOH: 3.348433,7.415696, MAX:1
Coverage: 20, Tot. Cov: 123.000000, 29/104, STDB: 134170000.000000, IPB: 50702936.000000, STDT: 3011365323.000000, IPT: 529444203.000000, BOH/LOH: 2.646198,5.687786, MAX:1
Coverage: 20, Tot. Cov: 784.000000, 30/104, STDB: 851200000.000000, IPB: 371915620.000000, STDT: 26451355721.000000, IPT: 3697941743.000000, BOH/LOH: 2.288691,7.152994, MAX:1
Coverage: 20, Tot. Cov: 40.000000, 31/104, STDB: 180000000.000000, IPB: 46268740.000000, STDT: 1954542297.000000, IPT: 207747486.000000, BOH/LOH: 3.890316,9.408260, MAX:1
Coverage: 20, Tot. Cov: 70.000000, 32/104, STDB: 172305000.000000, IPB: 45142012.000000, STDT: 2159384552.000000, IPT: 392112226.000000, BOH/LOH: 3.816954,5.507057, MAX:1
Coverage: 20, Tot. Cov: 494.000000, 33/104, STDB: 1021590000.000000, IPB: 483713480.000000, STDT: 29319024966.000000, IPT: 2538784082.000000, BOH/LOH: 2.111973,11.548452, MAX:1
Coverage: 20, Tot. Cov: 98.000000, 34/104, STDB: 187372500.000000, IPB: 83460880.000000, STDT: 3610493918.000000, IPT: 427910258.000000, BOH/LOH: 2.245034,8.437503, MAX:1
Coverage: 20, Tot. Cov: 94.000000, 35/104, STDB: 178755000.000000, IPB: 70305576.000000, STDT: 4877785272.000000, IPT: 504728384.000000, BOH/LOH: 2.542544,9.664179, MAX:1
Coverage: 20, Tot. Cov: 225.000000, 36/104, STDB: 383580000.000000, IPB: 176222552.000000, STDT: 11827119747.000000, IPT: 973670431.000000, BOH/LOH: 2.176679,12.146944, MAX:1
Coverage: 20, Tot. Cov: 162.000000, 37/104, STDB: 319775000.000000, IPB: 134437400.000000, STDT: 8146665283.000000, IPT: 741258112.000000, BOH/LOH: 2.378616,10.990322, MAX:1
Coverage: 20, Tot. Cov: 143.000000, 38/104, STDB: 332225000.000000, IPB: 109374536.000000, STDT: 5783008524.000000, IPT: 815916288.000000, BOH/LOH: 3.037499,7.087747, MAX:1
Coverage: 20, Tot. Cov: 324.000000, 39/104, STDB: 562720000.000000, IPB: 240060452.000000, STDT: 14004772409.000000, IPT: 1564507761.000000, BOH/LOH: 2.344076,8.951552, MAX:1
Coverage: 20, Tot. Cov: 80.000000, 40/104, STDB: 199402500.000000, IPB: 69872644.000000, STDT: 4363029664.000000, IPT: 377866362.000000, BOH/LOH: 2.853799,11.546489, MAX:1
Coverage: 20, Tot. Cov: 49.000000, 41/104, STDB: 151520000.000000, IPB: 46868936.000000, STDT: 2269505489.000000, IPT: 248885613.000000, BOH/LOH: 3.232845,9.118669, MAX:1
Coverage: 20, Tot. Cov: 73.000000, 42/104, STDB: 164615000.000000, IPB: 60362044.000000, STDT: 2750802988.000000, IPT: 601810725.000000, BOH/LOH: 2.727128,4.570877, MAX:1
Coverage: 20, Tot. Cov: 59.000000, 43/104, STDB: 43550000.000000, IPB: 14536056.000000, STDT: 1493298828.000000, IPT: 214736318.000000, BOH/LOH: 2.995998,6.954105, MAX:1
Coverage: 20, Tot. Cov: 360.000000, 44/104, STDB: 107900000.000000, IPB: 46161960.000000, STDT: 12302246084.000000, IPT: 1640454441.000000, BOH/LOH: 2.337422,7.499292, MAX:1
Coverage: 20, Tot. Cov: 67.000000, 45/104, STDB: 43370000.000000, IPB: 14674156.000000, STDT: 2007888858.000000, IPT: 404274244.000000, BOH/LOH: 2.955536,4.966650, MAX:1
Coverage: 20, Tot. Cov: 209.000000, 46/104, STDB: 83162500.000000, IPB: 34837492.000000, STDT: 2407421393.000000, IPT: 789591437.000000, BOH/LOH: 2.387155,3.048946, MAX:1
Coverage: 20, Tot. Cov: 739.000000, 47/104, STDB: 274560000.000000, IPB: 119130436.000000, STDT: 15140568381.000000, IPT: 2965539770.000000, BOH/LOH: 2.304701,5.105502, MAX:1
Coverage: 20, Tot. Cov: 276.000000, 48/104, STDB: 165040000.000000, IPB: 56266964.000000, STDT: 4781640687.000000, IPT: 1236988588.000000, BOH/LOH: 2.933160,3.865550, MAX:1
Coverage: 20, Tot. Cov: 2103.000000, 49/104, STDB: 1824790000.000000, IPB: 593408564.000000, STDT: 51193371083.000000, IPT: 8823022667.000000, BOH/LOH: 3.075099,5.802249, MAX:1
Coverage: 20, Tot. Cov: 107.000000, 50/104, STDB: 82657500.000000, IPB: 35571420.000000, STDT: 2910328292.000000, IPT: 545280484.000000, BOH/LOH: 2.323705,5.337305, MAX:1
Coverage: 20, Tot. Cov: 100.000000, 51/104, STDB: 71047500.000000, IPB: 18939176.000000, STDT: 3085856754.000000, IPT: 851073093.000000, BOH/LOH: 3.751351,3.625842, MAX:1
Coverage: 20, Tot. Cov: 62.000000, 52/104, STDB: 42360000.000000, IPB: 14153728.000000, STDT: 1625750338.000000, IPT: 330255787.000000, BOH/LOH: 2.992851,4.922701, MAX:1
Coverage: 20, Tot. Cov: 411.000000, 53/104, STDB: 260325000.000000, IPB: 105047620.000000, STDT: 9017552403.000000, IPT: 1907834127.000000, BOH/LOH: 2.478162,4.726591, MAX:1
Coverage: 20, Tot. Cov: 70.000000, 54/104, STDB: 30240000.000000, IPB: 8804516.000000, STDT: 1854604818.000000, IPT: 578536376.000000, BOH/LOH: 3.434601,3.205684, MAX:1
Coverage: 20, Tot. Cov: 434.000000, 55/104, STDB: 196267500.000000, IPB: 63775460.000000, STDT: 5969616621.000000, IPT: 1902703718.000000, BOH/LOH: 3.077477,3.137439, MAX:1
Coverage: 20, Tot. Cov: 73.000000, 56/104, STDB: 34110000.000000, IPB: 11254996.000000, STDT: 1187359912.000000, IPT: 393699893.000000, BOH/LOH: 3.030654,3.015901, MAX:1
Coverage: 20, Tot. Cov: 138.000000, 57/104, STDB: 73080000.000000, IPB: 26677416.000000, STDT: 2665698284.000000, IPT: 573855822.000000, BOH/LOH: 2.739396,4.645240, MAX:1
Coverage: 20, Tot. Cov: 120.000000, 58/104, STDB: 49305000.000000, IPB: 19037104.000000, STDT: 3325963357.000000, IPT: 1008364473.000000, BOH/LOH: 2.589942,3.298374, MAX:1
Coverage: 20, Tot. Cov: 21.000000, 59/104, STDB: 26652500.000000, IPB: 5815388.000000, STDT: 402025401.000000, IPT: 91024907.000000, BOH/LOH: 4.583099,4.416653, MAX:1
Coverage: 20, Tot. Cov: 118.000000, 60/104, STDB: 34110000.000000, IPB: 11060888.000000, STDT: 930335178.000000, IPT: 430432129.000000, BOH/LOH: 3.083839,2.161398, MAX:1
Coverage: 20, Tot. Cov: 126.000000, 61/104, STDB: 27105000.000000, IPB: 10569356.000000, STDT: 2730141071.000000, IPT: 509879878.000000, BOH/LOH: 2.564489,5.354479, MAX:1
Coverage: 20, Tot. Cov: 120.000000, 62/104, STDB: 20085000.000000, IPB: 8802684.000000, STDT: 1840286200.000000, IPT: 453708731.000000, BOH/LOH: 2.281690,4.056096, MAX:1
Coverage: 20, Tot. Cov: 65.000000, 63/104, STDB: 25895000.000000, IPB: 8565880.000000, STDT: 1085268943.000000, IPT: 280991617.000000, BOH/LOH: 3.023040,3.862282, MAX:1
Coverage: 20, Tot. Cov: 59.000000, 64/104, STDB: 22405000.000000, IPB: 8631852.000000, STDT: 1405105588.000000, IPT: 272138534.000000, BOH/LOH: 2.595619,5.163200, MAX:1
Coverage: 20, Tot. Cov: 55.000000, 65/104, STDB: 13985000.000000, IPB: 4629372.000000, STDT: 744896291.000000, IPT: 196850939.000000, BOH/LOH: 3.020928,3.784063, MAX:1
Coverage: 20, Tot. Cov: 155.000000, 66/104, STDB: 41220000.000000, IPB: 16789540.000000, STDT: 2076485677.000000, IPT: 614210418.000000, BOH/LOH: 2.455100,3.380740, MAX:1
Coverage: 20, Tot. Cov: 21.000000, 67/104, STDB: 10450000.000000, IPB: 2615048.000000, STDT: 312027377.000000, IPT: 97136900.000000, BOH/LOH: 3.996103,3.212244, MAX:1
Coverage: 20, Tot. Cov: 20.000000, 68/104, STDB: 13877500.000000, IPB: 3268700.000000, STDT: 396514687.000000, IPT: 81615151.000000, BOH/LOH: 4.245572,4.858347, MAX:1
Coverage: 20, Tot. Cov: 20.000000, 69/104, STDB: 14947500.000000, IPB: 3303268.000000, STDT: 378292654.000000, IPT: 88642142.000000, BOH/LOH: 4.525064,4.267639, MAX:1
Coverage: 20, Tot. Cov: 23.000000, 70/104, STDB: 9332500.000000, IPB: 2488640.000000, STDT: 335818969.000000, IPT: 99393933.000000, BOH/LOH: 3.750040,3.378667, MAX:1
Coverage: 20, Tot. Cov: 63.000000, 71/104, STDB: 65645000.000000, IPB: 26493216.000000, STDT: 1767056476.000000, IPT: 356195337.000000, BOH/LOH: 2.477804,4.960920, MAX:1
Coverage: 20, Tot. Cov: 51.000000, 72/104, STDB: 68130000.000000, IPB: 19888600.000000, STDT: 2065435276.000000, IPT: 354979078.000000, BOH/LOH: 3.425580,5.818470, MAX:1
Coverage: 20, Tot. Cov: 69.000000, 73/104, STDB: 58390000.000000, IPB: 22380524.000000, STDT: 2523914341.000000, IPT: 586591195.000000, BOH/LOH: 2.608965,4.302680, MAX:1
Coverage: 20, Tot. Cov: 47.000000, 74/104, STDB: 45960000.000000, IPB: 12297456.000000, STDT: 1432282483.000000, IPT: 273481682.000000, BOH/LOH: 3.737358,5.237215, MAX:1
Coverage: 20, Tot. Cov: 103.000000, 75/104, STDB: 79050000.000000, IPB: 31555560.000000, STDT: 2465084717.000000, IPT: 551474451.000000, BOH/LOH: 2.505105,4.469989, MAX:1
Coverage: 20, Tot. Cov: 60.000000, 76/104, STDB: 76785000.000000, IPB: 20760228.000000, STDT: 1503706104.000000, IPT: 561115041.000000, BOH/LOH: 3.698659,2.679853, MAX:1
Coverage: 20, Tot. Cov: 71.000000, 77/104, STDB: 97170000.000000, IPB: 34883760.000000, STDT: 2614741585.000000, IPT: 355545782.000000, BOH/LOH: 2.785537,7.354163, MAX:1
Coverage: 20, Tot. Cov: 105.000000, 78/104, STDB: 136410000.000000, IPB: 51013048.000000, STDT: 5631613002.000000, IPT: 738847667.000000, BOH/LOH: 2.674022,7.622157, MAX:1
Coverage: 20, Tot. Cov: 162.000000, 79/104, STDB: 203150000.000000, IPB: 92604052.000000, STDT: 6628594843.000000, IPT: 1057495859.000000, BOH/LOH: 2.193748,6.268199, MAX:1
Coverage: 20, Tot. Cov: 58.000000, 80/104, STDB: 268615000.000000, IPB: 95291596.000000, STDT: 1709696341.000000, IPT: 323652528.000000, BOH/LOH: 2.818874,5.282506, MAX:1
Coverage: 20, Tot. Cov: 122.000000, 81/104, STDB: 439425000.000000, IPB: 166377628.000000, STDT: 8693666597.000000, IPT: 892173137.000000, BOH/LOH: 2.641130,9.744372, MAX:1
Coverage: 20, Tot. Cov: 63.000000, 82/104, STDB: 346612500.000000, IPB: 64776780.000000, STDT: 1358592724.000000, IPT: 303292699.000000, BOH/LOH: 5.350876,4.479477, MAX:1
Coverage: 20, Tot. Cov: 124.000000, 83/104, STDB: 355470000.000000, IPB: 203238372.000000, STDT: 3551414124.000000, IPT: 552156252.000000, BOH/LOH: 1.749030,6.431901, MAX:1
Coverage: 20, Tot. Cov: 33.000000, 84/104, STDB: 136280000.000000, IPB: 66330596.000000, STDT: 1229942567.000000, IPT: 158190952.000000, BOH/LOH: 2.054557,7.775050, MAX:1
Coverage: 20, Tot. Cov: 377.000000, 85/104, STDB: 722452500.000000, IPB: 322418492.000000, STDT: 12106116229.000000, IPT: 2594942617.000000, BOH/LOH: 2.240729,4.665273, MAX:1
Coverage: 20, Tot. Cov: 42.000000, 86/104, STDB: 176160000.000000, IPB: 52557828.000000, STDT: 1522878197.000000, IPT: 183631347.000000, BOH/LOH: 3.351737,8.293128, MAX:1
Coverage: 20, Tot. Cov: 64.000000, 87/104, STDB: 185560000.000000, IPB: 75577376.000000, STDT: 2403400138.000000, IPT: 303729772.000000, BOH/LOH: 2.455232,7.912955, MAX:1
Coverage: 20, Tot. Cov: 20.000000, 88/104, STDB: 79605000.000000, IPB: 24724660.000000, STDT: 585440978.000000, IPT: 105402003.000000, BOH/LOH: 3.219660,5.554363, MAX:1
Coverage: 20, Tot. Cov: 488.000000, 89/104, STDB: 1348847500.000000, IPB: 619886288.000000, STDT: 24549654234.000000, IPT: 2551395355.000000, BOH/LOH: 2.175960,9.622050, MAX:1
Coverage: 20, Tot. Cov: 70.000000, 90/104, STDB: 152130000.000000, IPB: 25995680.000000, STDT: 1821285465.000000, IPT: 599880763.000000, BOH/LOH: 5.852126,3.036079, MAX:1
Coverage: 20, Tot. Cov: 134.000000, 91/104, STDB: 206842500.000000, IPB: 97258500.000000, STDT: 4641681237.000000, IPT: 954413772.000000, BOH/LOH: 2.126729,4.863385, MAX:1
Coverage: 20, Tot. Cov: 70.000000, 92/104, STDB: 131545000.000000, IPB: 52581296.000000, STDT: 1972216121.000000, IPT: 323122189.000000, BOH/LOH: 2.501745,6.103623, MAX:1
Coverage: 20, Tot. Cov: 250.000000, 93/104, STDB: 511590000.000000, IPB: 195632068.000000, STDT: 7040567626.000000, IPT: 2188910016.000000, BOH/LOH: 2.615062,3.216472, MAX:1
Coverage: 20, Tot. Cov: 302.000000, 94/104, STDB: 1148805000.000000, IPB: 469117864.000000, STDT: 9196276582.000000, IPT: 2147170543.000000, BOH/LOH: 2.448862,4.282974, MAX:1
Coverage: 20, Tot. Cov: 383.000000, 95/104, STDB: 901552500.000000, IPB: 382866680.000000, STDT: 22904816591.000000, IPT: 3269966111.000000, BOH/LOH: 2.354743,7.004604, MAX:1
Coverage: 20, Tot. Cov: 123.000000, 96/104, STDB: 500420000.000000, IPB: 177386684.000000, STDT: 6165618531.000000, IPT: 689413206.000000, BOH/LOH: 2.821069,8.943285, MAX:1
Coverage: 20, Tot. Cov: 46.000000, 97/104, STDB: 493430000.000000, IPB: 148628040.000000, STDT: 3072168201.000000, IPT: 333254515.000000, BOH/LOH: 3.319898,9.218684, MAX:1
Coverage: 20, Tot. Cov: 98.000000, 98/104, STDB: 634425000.000000, IPB: 268850440.000000, STDT: 6317456371.000000, IPT: 750093253.000000, BOH/LOH: 2.359769,8.422228, MAX:1
Coverage: 20, Tot. Cov: 316.000000, 99/104, STDB: 1855020000.000000, IPB: 817158156.000000, STDT: 18202491241.000000, IPT: 2584698625.000000, BOH/LOH: 2.270087,7.042404, MAX:1
Coverage: 20, Tot. Cov: 120.000000, 100/104, STDB: 526987500.000000, IPB: 158879384.000000, STDT: 5325864457.000000, IPT: 1156908256.000000, BOH/LOH: 3.316903,4.603532, MAX:1
Coverage: 20, Tot. Cov: 150.000000, 101/104, STDB: 523190000.000000, IPB: 169100172.000000, STDT: 4880424882.000000, IPT: 1228377801.000000, BOH/LOH: 3.093965,3.973065, MAX:1
Coverage: 20, Tot. Cov: 72.000000, 102/104, STDB: 300985000.000000, IPB: 134607080.000000, STDT: 5047004016.000000, IPT: 546301758.000000, BOH/LOH: 2.236027,9.238491, MAX:1
Coverage: 20, Tot. Cov: 606.000000, 103/104, STDB: 3695835000.000000, IPB: 1705961632.000000, STDT: 15846166093.000000, IPT: 3450809356.000000, BOH/LOH: 2.166423,4.592014, MAX:1
