Coverage: 15, Tot. Cov: 67.000000, 1/104, STDB: 953005000.000000, IPB: 449590104.000000, STDT: 3060657752.000000, IPT: 473688572.000000, BOH/LOH: 2.119720,6.461329, MAX:1
Coverage: 15, Tot. Cov: 52.000000, 2/104, STDB: 787665000.000000, IPB: 178176424.000000, STDT: 3143357268.000000, IPT: 428469859.000000, BOH/LOH: 4.420703,7.336239, MAX:1
Coverage: 15, Tot. Cov: 719.000000, 3/104, STDB: 1766925000.000000, IPB: 33414668.000000, STDT: 17852516792.000000, IPT: 2920694627.000000, BOH/LOH: 52.878724,6.112422, MAX:1
Coverage: 15, Tot. Cov: 404.000000, 4/104, STDB: 56070000.000000, IPB: 16139568.000000, STDT: 4425524139.000000, IPT: 1608138304.000000, BOH/LOH: 3.474071,2.751955, MAX:1
Coverage: 15, Tot. Cov: 57.000000, 5/104, STDB: 4880000.000000, IPB: 1982248.000000, STDT: 354682202.000000, IPT: 180975961.000000, BOH/LOH: 2.461851,1.959830, MAX:1
Coverage: 15, Tot. Cov: 41.000000, 6/104, STDB: 5020000.000000, IPB: 1260408.000000, STDT: 319478612.000000, IPT: 124955209.000000, BOH/LOH: 3.982837,2.556745, MAX:1
Coverage: 15, Tot. Cov: 111.000000, 7/104, STDB: 18892500.000000, IPB: 6084020.000000, STDT: 908878013.000000, IPT: 391955583.000000, BOH/LOH: 3.105266,2.318829, MAX:1
Coverage: 15, Tot. Cov: 251.000000, 8/104, STDB: 28335000.000000, IPB: 11479528.000000, STDT: 2656843427.000000, IPT: 814525544.000000, BOH/LOH: 2.468307,3.261829, MAX:1
Coverage: 15, Tot. Cov: 24.000000, 9/104, STDB: 5292500.000000, IPB: 1568652.000000, STDT: 185250263.000000, IPT: 91282389.000000, BOH/LOH: 3.373916,2.029420, MAX:1
Coverage: 15, Tot. Cov: 27.000000, 10/104, STDB: 3142500.000000, IPB: 1041040.000000, STDT: 372174183.000000, IPT: 157145634.000000, BOH/LOH: 3.018616,2.368339, MAX:1
Coverage: 15, Tot. Cov: 23.000000, 11/104, STDB: 2202500.000000, IPB: 764352.000000, STDT: 146760150.000000, IPT: 78249663.000000, BOH/LOH: 2.881526,1.875537, MAX:1
Coverage: 15, Tot. Cov: 399.000000, 12/104, STDB: 127260000.000000, IPB: 33460064.000000, STDT: 5020876670.000000, IPT: 1724155411.000000, BOH/LOH: 3.803340,2.912079, MAX:1
Coverage: 15, Tot. Cov: 602.000000, 13/104, STDB: 171340000.000000, IPB: 48852184.000000, STDT: 10513460923.000000, IPT: 3083532142.000000, BOH/LOH: 3.507315,3.409551, MAX:1
Coverage: 15, Tot. Cov: 80.000000, 14/104, STDB: 164130000.000000, IPB: 37923400.000000, STDT: 3855613548.000000, IPT: 586772080.000000, BOH/LOH: 4.327935,6.570888, MAX:1
Coverage: 15, Tot. Cov: 134.000000, 15/104, STDB: 223930000.000000, IPB: 86077660.000000, STDT: 3923371022.000000, IPT: 483525307.000000, BOH/LOH: 2.601488,8.114097, MAX:1
Coverage: 15, Tot. Cov: 197.000000, 16/104, STDB: 306030000.000000, IPB: 108320164.000000, STDT: 6194767644.000000, IPT: 1018722323.000000, BOH/LOH: 2.825236,6.080919, MAX:1
Coverage: 15, Tot. Cov: 298.000000, 17/104, STDB: 386435000.000000, IPB: 167429224.000000, STDT: 11201768450.000000, IPT: 1698229258.000000, BOH/LOH: 2.308050,6.596146, MAX:1
Coverage: 15, Tot. Cov: 22.000000, 18/104, STDB: 38380000.000000, IPB: 10520308.000000, STDT: 361902414.000000, IPT: 93333002.000000, BOH/LOH: 3.648182,3.877540, MAX:1
Coverage: 15, Tot. Cov: 42.000000, 19/104, STDB: 77040000.000000, IPB: 17169668.000000, STDT: 1337207626.000000, IPT: 257846414.000000, BOH/LOH: 4.486983,5.186063, MAX:1
Coverage: 15, Tot. Cov: 119.000000, 20/104, STDB: 119210000.000000, IPB: 46420084.000000, STDT: 3716814605.000000, IPT: 590347533.000000, BOH/LOH: 2.568069,6.295977, MAX:1
Coverage: 15, Tot. Cov: 350.000000, 21/104, STDB: 301995000.000000, IPB: 121366472.000000, STDT: 5870708088.000000, IPT: 1510198717.000000, BOH/LOH: 2.488290,3.887375, MAX:1
Coverage: 15, Tot. Cov: 277.000000, 22/104, STDB: 192325000.000000, IPB: 68458100.000000, STDT: 6843737342.000000, IPT: 1654789429.000000, BOH/LOH: 2.809383,4.135715, MAX:1
Coverage: 15, Tot. Cov: 70.000000, 23/104, STDB: 153517500.000000, IPB: 38865784.000000, STDT: 2161984429.000000, IPT: 333282573.000000, BOH/LOH: 3.949940,6.486941, MAX:1
Coverage: 15, Tot. Cov: 248.000000, 24/104, STDB: 400500000.000000, IPB: 133405796.000000, STDT: 6423967069.000000, IPT: 1194551885.000000, BOH/LOH: 3.002118,5.377721, MAX:1
Coverage: 15, Tot. Cov: 135.000000, 25/104, STDB: 260000000.000000, IPB: 81181648.000000, STDT: 5931968920.000000, IPT: 678842261.000000, BOH/LOH: 3.202694,8.738361, MAX:1
Coverage: 15, Tot. Cov: 155.000000, 26/104, STDB: 255200000.000000, IPB: 100067896.000000, STDT: 4078527917.000000, IPT: 654117148.000000, BOH/LOH: 2.550268,6.235164, MAX:1
Coverage: 15, Tot. Cov: 180.000000, 27/104, STDB: 243420000.000000, IPB: 94189692.000000, STDT: 6059742494.000000, IPT: 815909302.000000, BOH/LOH: 2.584359,7.426981, MAX:1
Coverage: 15, Tot. Cov: 123.000000, 28/104, STDB: 156175000.000000, IPB: 46641220.000000, STDT: 4235425459.000000, IPT: 571143383.000000, BOH/LOH: 3.348433,7.415696, MAX:1
Coverage: 15, Tot. Cov: 103.000000, 29/104, STDB: 135430000.000000, IPB: 42051132.000000, STDT: 2421461037.000000, IPT: 443340211.000000, BOH/LOH: 3.220603,5.461857, MAX:1
Coverage: 15, Tot. Cov: 753.000000, 30/104, STDB: 856235000.000000, IPB: 354357444.000000, STDT: 21979283336.000000, IPT: 3541933560.000000, BOH/LOH: 2.416303,6.205448, MAX:1
Coverage: 15, Tot. Cov: 30.000000, 31/104, STDB: 175870000.000000, IPB: 34415144.000000, STDT: 1196680012.000000, IPT: 153412508.000000, BOH/LOH: 5.110250,7.800407, MAX:1
Coverage: 15, Tot. Cov: 70.000000, 32/104, STDB: 172305000.000000, IPB: 45142012.000000, STDT: 2159384552.000000, IPT: 392112226.000000, BOH/LOH: 3.816954,5.507057, MAX:1
Coverage: 15, Tot. Cov: 482.000000, 33/104, STDB: 1006650000.000000, IPB: 471266020.000000, STDT: 26165540318.000000, IPT: 2452713122.000000, BOH/LOH: 2.136055,10.667999, MAX:1
Coverage: 15, Tot. Cov: 87.000000, 34/104, STDB: 185197500.000000, IPB: 73620008.000000, STDT: 2849593147.000000, IPT: 373960635.000000, BOH/LOH: 2.515587,7.620035, MAX:1
Coverage: 15, Tot. Cov: 74.000000, 35/104, STDB: 178192500.000000, IPB: 54750104.000000, STDT: 3174674085.000000, IPT: 387143689.000000, BOH/LOH: 3.254651,8.200248, MAX:1
Coverage: 15, Tot. Cov: 179.000000, 36/104, STDB: 362025000.000000, IPB: 139196016.000000, STDT: 8055955355.000000, IPT: 765129651.000000, BOH/LOH: 2.600829,10.528876, MAX:1
Coverage: 15, Tot. Cov: 155.000000, 37/104, STDB: 322475000.000000, IPB: 128768568.000000, STDT: 7270044596.000000, IPT: 705001394.000000, BOH/LOH: 2.504299,10.312100, MAX:1
Coverage: 15, Tot. Cov: 113.000000, 38/104, STDB: 325625000.000000, IPB: 84188648.000000, STDT: 3967016480.000000, IPT: 669976484.000000, BOH/LOH: 3.867802,5.921128, MAX:1
Coverage: 15, Tot. Cov: 319.000000, 39/104, STDB: 559580000.000000, IPB: 235891572.000000, STDT: 13120685716.000000, IPT: 1529424213.000000, BOH/LOH: 2.372192,8.578840, MAX:1
Coverage: 15, Tot. Cov: 68.000000, 40/104, STDB: 194617500.000000, IPB: 59125108.000000, STDT: 3274499826.000000, IPT: 320305678.000000, BOH/LOH: 3.291622,10.223046, MAX:1
Coverage: 15, Tot. Cov: 38.000000, 41/104, STDB: 147700000.000000, IPB: 36224616.000000, STDT: 1355541088.000000, IPT: 190355907.000000, BOH/LOH: 4.077338,7.121088, MAX:1
Coverage: 15, Tot. Cov: 63.000000, 42/104, STDB: 157675000.000000, IPB: 50653036.000000, STDT: 2028032473.000000, IPT: 533216392.000000, BOH/LOH: 3.112844,3.803395, MAX:1
Coverage: 15, Tot. Cov: 32.000000, 43/104, STDB: 40525000.000000, IPB: 7909804.000000, STDT: 615812725.000000, IPT: 115574503.000000, BOH/LOH: 5.123389,5.328275, MAX:1
Coverage: 15, Tot. Cov: 360.000000, 44/104, STDB: 107900000.000000, IPB: 46161960.000000, STDT: 12302246084.000000, IPT: 1640454441.000000, BOH/LOH: 2.337422,7.499292, MAX:1
Coverage: 15, Tot. Cov: 67.000000, 45/104, STDB: 43370000.000000, IPB: 14674156.000000, STDT: 2007888858.000000, IPT: 404274244.000000, BOH/LOH: 2.955536,4.966650, MAX:1
Coverage: 15, Tot. Cov: 209.000000, 46/104, STDB: 83162500.000000, IPB: 34837492.000000, STDT: 2407421393.000000, IPT: 789591437.000000, BOH/LOH: 2.387155,3.048946, MAX:1
Coverage: 15, Tot. Cov: 739.000000, 47/104, STDB: 274560000.000000, IPB: 119130436.000000, STDT: 15140568381.000000, IPT: 2965539770.000000, BOH/LOH: 2.304701,5.105502, MAX:1
Coverage: 15, Tot. Cov: 276.000000, 48/104, STDB: 165040000.000000, IPB: 56266964.000000, STDT: 4781640687.000000, IPT: 1236988588.000000, BOH/LOH: 2.933160,3.865550, MAX:1
Coverage: 15, Tot. Cov: 2049.000000, 49/104, STDB: 1540220000.000000, IPB: 571790312.000000, STDT: 43858089568.000000, IPT: 8485614935.000000, BOH/LOH: 2.693680,5.168522, MAX:1
Coverage: 15, Tot. Cov: 107.000000, 50/104, STDB: 82657500.000000, IPB: 35571420.000000, STDT: 2910328292.000000, IPT: 545280484.000000, BOH/LOH: 2.323705,5.337305, MAX:1
Coverage: 15, Tot. Cov: 82.000000, 51/104, STDB: 69840000.000000, IPB: 14711728.000000, STDT: 1978288096.000000, IPT: 712958664.000000, BOH/LOH: 4.747233,2.774758, MAX:1
Coverage: 15, Tot. Cov: 52.000000, 52/104, STDB: 41545000.000000, IPB: 11582020.000000, STDT: 1181537527.000000, IPT: 277082101.000000, BOH/LOH: 3.587025,4.264215, MAX:1
Coverage: 15, Tot. Cov: 411.000000, 53/104, STDB: 260325000.000000, IPB: 105047620.000000, STDT: 9017552403.000000, IPT: 1907834127.000000, BOH/LOH: 2.478162,4.726591, MAX:1
Coverage: 15, Tot. Cov: 65.000000, 54/104, STDB: 30640000.000000, IPB: 7917988.000000, STDT: 1625303466.000000, IPT: 540403244.000000, BOH/LOH: 3.869670,3.007575, MAX:1
Coverage: 15, Tot. Cov: 434.000000, 55/104, STDB: 196267500.000000, IPB: 63775460.000000, STDT: 5969616621.000000, IPT: 1902703718.000000, BOH/LOH: 3.077477,3.137439, MAX:1
Coverage: 15, Tot. Cov: 73.000000, 56/104, STDB: 34110000.000000, IPB: 11254996.000000, STDT: 1187359912.000000, IPT: 393699893.000000, BOH/LOH: 3.030654,3.015901, MAX:1
Coverage: 15, Tot. Cov: 125.000000, 57/104, STDB: 71580000.000000, IPB: 24019136.000000, STDT: 1852459194.000000, IPT: 517261850.000000, BOH/LOH: 2.980124,3.581279, MAX:1
Coverage: 15, Tot. Cov: 120.000000, 58/104, STDB: 49305000.000000, IPB: 19037104.000000, STDT: 3325963357.000000, IPT: 1008364473.000000, BOH/LOH: 2.589942,3.298374, MAX:1
Coverage: 15, Tot. Cov: 16.000000, 59/104, STDB: 26077500.000000, IPB: 4420532.000000, STDT: 418933654.000000, IPT: 68661115.000000, BOH/LOH: 5.899177,6.101469, MAX:1
Coverage: 15, Tot. Cov: 115.000000, 60/104, STDB: 34110000.000000, IPB: 10701048.000000, STDT: 843706102.000000, IPT: 415886512.000000, BOH/LOH: 3.187538,2.028693, MAX:1
Coverage: 15, Tot. Cov: 116.000000, 61/104, STDB: 26160000.000000, IPB: 9428928.000000, STDT: 1979347752.000000, IPT: 426664858.000000, BOH/LOH: 2.774441,4.639116, MAX:1
Coverage: 15, Tot. Cov: 83.000000, 62/104, STDB: 19470000.000000, IPB: 5977280.000000, STDT: 964490980.000000, IPT: 294214338.000000, BOH/LOH: 3.257334,3.278192, MAX:1
Coverage: 15, Tot. Cov: 65.000000, 63/104, STDB: 25895000.000000, IPB: 8565880.000000, STDT: 1085268943.000000, IPT: 280991617.000000, BOH/LOH: 3.023040,3.862282, MAX:1
Coverage: 15, Tot. Cov: 59.000000, 64/104, STDB: 22405000.000000, IPB: 8631852.000000, STDT: 1405105588.000000, IPT: 272138534.000000, BOH/LOH: 2.595619,5.163200, MAX:1
Coverage: 15, Tot. Cov: 56.000000, 65/104, STDB: 14255000.000000, IPB: 4702292.000000, STDT: 601848746.000000, IPT: 198656103.000000, BOH/LOH: 3.031500,3.029601, MAX:1
Coverage: 15, Tot. Cov: 155.000000, 66/104, STDB: 41220000.000000, IPB: 16789540.000000, STDT: 2076485677.000000, IPT: 614210418.000000, BOH/LOH: 2.455100,3.380740, MAX:1
Coverage: 15, Tot. Cov: 17.000000, 67/104, STDB: 10375000.000000, IPB: 2114672.000000, STDT: 247507947.000000, IPT: 78355700.000000, BOH/LOH: 4.906198,3.158774, MAX:1
Coverage: 15, Tot. Cov: 20.000000, 68/104, STDB: 13877500.000000, IPB: 3268700.000000, STDT: 396514687.000000, IPT: 81615151.000000, BOH/LOH: 4.245572,4.858347, MAX:1
Coverage: 15, Tot. Cov: 20.000000, 69/104, STDB: 14947500.000000, IPB: 3303268.000000, STDT: 378292654.000000, IPT: 88642142.000000, BOH/LOH: 4.525064,4.267639, MAX:1
Coverage: 15, Tot. Cov: 16.000000, 70/104, STDB: 8982500.000000, IPB: 1734432.000000, STDT: 215076294.000000, IPT: 69606601.000000, BOH/LOH: 5.178929,3.089884, MAX:1
Coverage: 15, Tot. Cov: 31.000000, 71/104, STDB: 64895000.000000, IPB: 12719576.000000, STDT: 811883872.000000, IPT: 184424917.000000, BOH/LOH: 5.101978,4.402246, MAX:1
Coverage: 15, Tot. Cov: 35.000000, 72/104, STDB: 67760000.000000, IPB: 13552328.000000, STDT: 1183091624.000000, IPT: 242730382.000000, BOH/LOH: 4.999879,4.874098, MAX:1
Coverage: 15, Tot. Cov: 69.000000, 73/104, STDB: 58390000.000000, IPB: 22380524.000000, STDT: 2523914341.000000, IPT: 586591195.000000, BOH/LOH: 2.608965,4.302680, MAX:1
Coverage: 15, Tot. Cov: 40.000000, 74/104, STDB: 45245000.000000, IPB: 10456984.000000, STDT: 1130544863.000000, IPT: 233793447.000000, BOH/LOH: 4.326773,4.835657, MAX:1
Coverage: 15, Tot. Cov: 96.000000, 75/104, STDB: 76440000.000000, IPB: 29538984.000000, STDT: 2264303655.000000, IPT: 506605812.000000, BOH/LOH: 2.587767,4.469557, MAX:1
Coverage: 15, Tot. Cov: 60.000000, 76/104, STDB: 76785000.000000, IPB: 20760228.000000, STDT: 1503706104.000000, IPT: 561115041.000000, BOH/LOH: 3.698659,2.679853, MAX:1
Coverage: 15, Tot. Cov: 60.000000, 77/104, STDB: 93165000.000000, IPB: 28183136.000000, STDT: 1517927184.000000, IPT: 283354259.000000, BOH/LOH: 3.305700,5.356994, MAX:1
Coverage: 15, Tot. Cov: 105.000000, 78/104, STDB: 136410000.000000, IPB: 51013048.000000, STDT: 5631613002.000000, IPT: 738847667.000000, BOH/LOH: 2.674022,7.622157, MAX:1
Coverage: 15, Tot. Cov: 133.000000, 79/104, STDB: 200960000.000000, IPB: 74323916.000000, STDT: 5051809630.000000, IPT: 918705459.000000, BOH/LOH: 2.703840,5.498835, MAX:1
Coverage: 15, Tot. Cov: 58.000000, 80/104, STDB: 268615000.000000, IPB: 95291596.000000, STDT: 1709696341.000000, IPT: 323652528.000000, BOH/LOH: 2.818874,5.282506, MAX:1
Coverage: 15, Tot. Cov: 118.000000, 81/104, STDB: 427702500.000000, IPB: 159059752.000000, STDT: 8245632420.000000, IPT: 860816174.000000, BOH/LOH: 2.688942,9.578854, MAX:1
Coverage: 15, Tot. Cov: 57.000000, 82/104, STDB: 330555000.000000, IPB: 54045916.000000, STDT: 974185819.000000, IPT: 277840449.000000, BOH/LOH: 6.116188,3.506278, MAX:1
Coverage: 15, Tot. Cov: 124.000000, 83/104, STDB: 355470000.000000, IPB: 203238372.000000, STDT: 3551414124.000000, IPT: 552156252.000000, BOH/LOH: 1.749030,6.431901, MAX:1
Coverage: 15, Tot. Cov: 18.000000, 84/104, STDB: 124710000.000000, IPB: 35165900.000000, STDT: 514159686.000000, IPT: 89048351.000000, BOH/LOH: 3.546333,5.773938, MAX:1
Coverage: 15, Tot. Cov: 345.000000, 85/104, STDB: 706207500.000000, IPB: 292623580.000000, STDT: 8783839204.000000, IPT: 2338152876.000000, BOH/LOH: 2.413365,3.756743, MAX:1
Coverage: 15, Tot. Cov: 33.000000, 86/104, STDB: 174195000.000000, IPB: 40469084.000000, STDT: 1011186021.000000, IPT: 144128123.000000, BOH/LOH: 4.304397,7.015883, MAX:1
Coverage: 15, Tot. Cov: 51.000000, 87/104, STDB: 177785000.000000, IPB: 59698952.000000, STDT: 1778954516.000000, IPT: 241171549.000000, BOH/LOH: 2.978025,7.376303, MAX:1
Coverage: 15, Tot. Cov: 20.000000, 88/104, STDB: 79605000.000000, IPB: 24724660.000000, STDT: 585440978.000000, IPT: 105402003.000000, BOH/LOH: 3.219660,5.554363, MAX:1
Coverage: 15, Tot. Cov: 488.000000, 89/104, STDB: 1348847500.000000, IPB: 619886288.000000, STDT: 24549654234.000000, IPT: 2551395355.000000, BOH/LOH: 2.175960,9.622050, MAX:1
Coverage: 15, Tot. Cov: 70.000000, 90/104, STDB: 152130000.000000, IPB: 25995680.000000, STDT: 1821285465.000000, IPT: 599880763.000000, BOH/LOH: 5.852126,3.036079, MAX:1
Coverage: 15, Tot. Cov: 117.000000, 91/104, STDB: 199477500.000000, IPB: 83426528.000000, STDT: 3553457142.000000, IPT: 863406704.000000, BOH/LOH: 2.391056,4.115624, MAX:1
Coverage: 15, Tot. Cov: 70.000000, 92/104, STDB: 131545000.000000, IPB: 52581296.000000, STDT: 1972216121.000000, IPT: 323122189.000000, BOH/LOH: 2.501745,6.103623, MAX:1
Coverage: 15, Tot. Cov: 241.000000, 93/104, STDB: 489765000.000000, IPB: 186380876.000000, STDT: 6419372265.000000, IPT: 2117351138.000000, BOH/LOH: 2.627764,3.031794, MAX:1
Coverage: 15, Tot. Cov: 293.000000, 94/104, STDB: 1125040000.000000, IPB: 450508992.000000, STDT: 8494660509.000000, IPT: 2092022826.000000, BOH/LOH: 2.497264,4.060501, MAX:1
Coverage: 15, Tot. Cov: 348.000000, 95/104, STDB: 874552500.000000, IPB: 340416628.000000, STDT: 15944307703.000000, IPT: 2965643025.000000, BOH/LOH: 2.569065,5.376341, MAX:1
Coverage: 15, Tot. Cov: 101.000000, 96/104, STDB: 483100000.000000, IPB: 143972756.000000, STDT: 4429657038.000000, IPT: 568058243.000000, BOH/LOH: 3.355496,7.797892, MAX:1
Coverage: 15, Tot. Cov: 46.000000, 97/104, STDB: 493430000.000000, IPB: 148628040.000000, STDT: 3072168201.000000, IPT: 333254515.000000, BOH/LOH: 3.319898,9.218684, MAX:1
Coverage: 15, Tot. Cov: 78.000000, 98/104, STDB: 619042500.000000, IPB: 209225760.000000, STDT: 4082540959.000000, IPT: 591219128.000000, BOH/LOH: 2.958730,6.905292, MAX:1
Coverage: 15, Tot. Cov: 274.000000, 99/104, STDB: 1641480000.000000, IPB: 693925568.000000, STDT: 13789157359.000000, IPT: 2236962415.000000, BOH/LOH: 2.365499,6.164233, MAX:1
Coverage: 15, Tot. Cov: 108.000000, 100/104, STDB: 511492500.000000, IPB: 131656980.000000, STDT: 3571687478.000000, IPT: 1045111491.000000, BOH/LOH: 3.885039,3.417518, MAX:1
Coverage: 15, Tot. Cov: 147.000000, 101/104, STDB: 516990000.000000, IPB: 164605172.000000, STDT: 4388101914.000000, IPT: 1200690172.000000, BOH/LOH: 3.140788,3.654650, MAX:1
Coverage: 15, Tot. Cov: 60.000000, 102/104, STDB: 288400000.000000, IPB: 110836916.000000, STDT: 3925512870.000000, IPT: 459589414.000000, BOH/LOH: 2.602021,8.541347, MAX:1
Coverage: 15, Tot. Cov: 606.000000, 103/104, STDB: 3695835000.000000, IPB: 1705961632.000000, STDT: 15846166093.000000, IPT: 3450809356.000000, BOH/LOH: 2.166423,4.592014, MAX:1
