Coverage: 30, Tot. Cov: 170.000000, Cluster: 1/54, ESBytes WO CSB: 34075550.000000, STDBytes WO CSB: 48580000.000000, IP Bytes WO CSB: 17537788.000000, IS_MAX: 0, Tot. Cov: 185.000000, ESBytes WO CSB: 36429600.000000, STDBytes WO CSB: 49880000.000000, IP Bytes WO CSB: 19386272.000000, IS_MAX: 1
Coverage: 30, Tot. Cov: 1143.000000, Cluster: 2/54, ESBytes WO CSB: 110121950.000000, STDBytes WO CSB: 172680000.000000, IP Bytes WO CSB: 50784244.000000, IS_MAX: 0, Tot. Cov: 1135.000000, ESBytes WO CSB: 101973500.000000, STDBytes WO CSB: 161880000.000000, IP Bytes WO CSB: 50351288.000000, IS_MAX: 1
Coverage: 30, Tot. Cov: 718.000000, Cluster: 3/54, ESBytes WO CSB: 142989650.000000, STDBytes WO CSB: 290287500.000000, IP Bytes WO CSB: 62952240.000000, IS_MAX: 0, Tot. Cov: 717.000000, ESBytes WO CSB: 126356050.000000, STDBytes WO CSB: 256987500.000000, IP Bytes WO CSB: 62768064.000000, IS_MAX: 1
Coverage: 30, Tot. Cov: 782.000000, Cluster: 4/54, ESBytes WO CSB: 41369550.000000, STDBytes WO CSB: 99000000.000000, IP Bytes WO CSB: 20407836.000000, IS_MAX: 0, Tot. Cov: 787.000000, ESBytes WO CSB: 41440150.000000, STDBytes WO CSB: 100480000.000000, IP Bytes WO CSB: 20688388.000000, IS_MAX: 1
Coverage: 30, Tot. Cov: 2050.000000, Cluster: 5/54, ESBytes WO CSB: 2520147250.000000, STDBytes WO CSB: 3968370000.000000, IP Bytes WO CSB: 1316523980.000000, IS_MAX: 0, Tot. Cov: 2040.000000, ESBytes WO CSB: 2229223200.000000, STDBytes WO CSB: 3605490000.000000, IP Bytes WO CSB: 1307976672.000000, IS_MAX: 1
Coverage: 30, Tot. Cov: 267.000000, Cluster: 6/54, ESBytes WO CSB: 322769650.000000, STDBytes WO CSB: 405570000.000000, IP Bytes WO CSB: 213785436.000000, IS_MAX: 0, Tot. Cov: 279.000000, ESBytes WO CSB: 325702750.000000, STDBytes WO CSB: 394200000.000000, IP Bytes WO CSB: 225129764.000000, IS_MAX: 1
Coverage: 30, Tot. Cov: 1537.000000, Cluster: 7/54, ESBytes WO CSB: 2081080650.000000, STDBytes WO CSB: 2813760000.000000, IP Bytes WO CSB: 1280251192.000000, IS_MAX: 0, Tot. Cov: 1524.000000, ESBytes WO CSB: 1906428000.000000, STDBytes WO CSB: 2493200000.000000, IP Bytes WO CSB: 1267331064.000000, IS_MAX: 1
Coverage: 30, Tot. Cov: 80.000000, Cluster: 8/54, ESBytes WO CSB: 140457750.000000, STDBytes WO CSB: 195115000.000000, IP Bytes WO CSB: 85525692.000000, IS_MAX: 0, Tot. Cov: 80.000000, ESBytes WO CSB: 136022150.000000, STDBytes WO CSB: 185345000.000000, IP Bytes WO CSB: 85596988.000000, IS_MAX: 1
Coverage: 30, Tot. Cov: 130.000000, Cluster: 9/54, ESBytes WO CSB: 212066700.000000, STDBytes WO CSB: 285045000.000000, IP Bytes WO CSB: 143254240.000000, IS_MAX: 0, Tot. Cov: 129.000000, ESBytes WO CSB: 207995150.000000, STDBytes WO CSB: 275055000.000000, IP Bytes WO CSB: 142663256.000000, IS_MAX: 1
Coverage: 30, Tot. Cov: 205.000000, Cluster: 10/54, ESBytes WO CSB: 331763450.000000, STDBytes WO CSB: 478050000.000000, IP Bytes WO CSB: 232632960.000000, IS_MAX: 0, Tot. Cov: 194.000000, ESBytes WO CSB: 309146550.000000, STDBytes WO CSB: 448175000.000000, IP Bytes WO CSB: 219140932.000000, IS_MAX: 1
Coverage: 30, Tot. Cov: 31.000000, Cluster: 11/54, ESBytes WO CSB: 46776400.000000, STDBytes WO CSB: 77572500.000000, IP Bytes WO CSB: 38453200.000000, IS_MAX: 0, Tot. Cov: 32.000000, ESBytes WO CSB: 48360000.000000, STDBytes WO CSB: 79152500.000000, IP Bytes WO CSB: 39647548.000000, IS_MAX: 1
Coverage: 30, Tot. Cov: 763.000000, Cluster: 12/54, ESBytes WO CSB: 429745900.000000, STDBytes WO CSB: 595040000.000000, IP Bytes WO CSB: 237965556.000000, IS_MAX: 0, Tot. Cov: 730.000000, ESBytes WO CSB: 388778150.000000, STDBytes WO CSB: 555240000.000000, IP Bytes WO CSB: 224191876.000000, IS_MAX: 1
Coverage: 30, Tot. Cov: 129.000000, Cluster: 13/54, ESBytes WO CSB: 81312600.000000, STDBytes WO CSB: 116797500.000000, IP Bytes WO CSB: 54893736.000000, IS_MAX: 0, Tot. Cov: 128.000000, ESBytes WO CSB: 83698800.000000, STDBytes WO CSB: 118020000.000000, IP Bytes WO CSB: 54485324.000000, IS_MAX: 1
Coverage: 30, Tot. Cov: 196.000000, Cluster: 14/54, ESBytes WO CSB: 105782500.000000, STDBytes WO CSB: 144712500.000000, IP Bytes WO CSB: 66388320.000000, IS_MAX: 0, Tot. Cov: 205.000000, ESBytes WO CSB: 110519200.000000, STDBytes WO CSB: 146775000.000000, IP Bytes WO CSB: 69597208.000000, IS_MAX: 1
Coverage: 30, Tot. Cov: 455.000000, Cluster: 15/54, ESBytes WO CSB: 400285500.000000, STDBytes WO CSB: 593525000.000000, IP Bytes WO CSB: 185873140.000000, IS_MAX: 0, Tot. Cov: 457.000000, ESBytes WO CSB: 320995300.000000, STDBytes WO CSB: 491150000.000000, IP Bytes WO CSB: 187081024.000000, IS_MAX: 1
Coverage: 30, Tot. Cov: 109.000000, Cluster: 16/54, ESBytes WO CSB: 49727850.000000, STDBytes WO CSB: 71602500.000000, IP Bytes WO CSB: 35201616.000000, IS_MAX: 0, Tot. Cov: 119.000000, ESBytes WO CSB: 53924650.000000, STDBytes WO CSB: 72675000.000000, IP Bytes WO CSB: 38754024.000000, IS_MAX: 1
Coverage: 30, Tot. Cov: 75.000000, Cluster: 17/54, ESBytes WO CSB: 50711200.000000, STDBytes WO CSB: 70495000.000000, IP Bytes WO CSB: 27797956.000000, IS_MAX: 0, Tot. Cov: 68.000000, ESBytes WO CSB: 41754200.000000, STDBytes WO CSB: 64385000.000000, IP Bytes WO CSB: 25191264.000000, IS_MAX: 1
Coverage: 30, Tot. Cov: 77.000000, Cluster: 18/54, ESBytes WO CSB: 40147800.000000, STDBytes WO CSB: 56200000.000000, IP Bytes WO CSB: 25556804.000000, IS_MAX: 0, Tot. Cov: 80.000000, ESBytes WO CSB: 40749350.000000, STDBytes WO CSB: 58300000.000000, IP Bytes WO CSB: 26621444.000000, IS_MAX: 1
Coverage: 30, Tot. Cov: 32.000000, Cluster: 19/54, ESBytes WO CSB: 17163850.000000, STDBytes WO CSB: 27672500.000000, IP Bytes WO CSB: 10880772.000000, IS_MAX: 0, Tot. Cov: 36.000000, ESBytes WO CSB: 19208550.000000, STDBytes WO CSB: 29585000.000000, IP Bytes WO CSB: 12270484.000000, IS_MAX: 1
Coverage: 30, Tot. Cov: 308.000000, Cluster: 20/54, ESBytes WO CSB: 235576100.000000, STDBytes WO CSB: 322927500.000000, IP Bytes WO CSB: 134482528.000000, IS_MAX: 0, Tot. Cov: 309.000000, ESBytes WO CSB: 220702100.000000, STDBytes WO CSB: 302417500.000000, IP Bytes WO CSB: 135351068.000000, IS_MAX: 1
Coverage: 30, Tot. Cov: 1727.000000, Cluster: 21/54, ESBytes WO CSB: 1953159850.000000, STDBytes WO CSB: 3181325000.000000, IP Bytes WO CSB: 936558584.000000, IS_MAX: 0, Tot. Cov: 1724.000000, ESBytes WO CSB: 1510518550.000000, STDBytes WO CSB: 2611087500.000000, IP Bytes WO CSB: 934270492.000000, IS_MAX: 1
Coverage: 30, Tot. Cov: 209.000000, Cluster: 22/54, ESBytes WO CSB: 210697650.000000, STDBytes WO CSB: 316037500.000000, IP Bytes WO CSB: 120471704.000000, IS_MAX: 0, Tot. Cov: 212.000000, ESBytes WO CSB: 195363400.000000, STDBytes WO CSB: 290200000.000000, IP Bytes WO CSB: 122776284.000000, IS_MAX: 1
Coverage: 30, Tot. Cov: 130.000000, Cluster: 23/54, ESBytes WO CSB: 25705550.000000, STDBytes WO CSB: 32040000.000000, IP Bytes WO CSB: 16280260.000000, IS_MAX: 0, Tot. Cov: 124.000000, ESBytes WO CSB: 25073450.000000, STDBytes WO CSB: 34980000.000000, IP Bytes WO CSB: 15600176.000000, IS_MAX: 1
Coverage: 30, Tot. Cov: 139.000000, Cluster: 24/54, ESBytes WO CSB: 34323450.000000, STDBytes WO CSB: 44377500.000000, IP Bytes WO CSB: 15117540.000000, IS_MAX: 0, Tot. Cov: 130.000000, ESBytes WO CSB: 30178850.000000, STDBytes WO CSB: 40860000.000000, IP Bytes WO CSB: 13842736.000000, IS_MAX: 1
Coverage: 30, Tot. Cov: 174.000000, Cluster: 25/54, ESBytes WO CSB: 84888750.000000, STDBytes WO CSB: 120860000.000000, IP Bytes WO CSB: 35003552.000000, IS_MAX: 0, Tot. Cov: 167.000000, ESBytes WO CSB: 70557450.000000, STDBytes WO CSB: 104040000.000000, IP Bytes WO CSB: 33269104.000000, IS_MAX: 1
Coverage: 30, Tot. Cov: 418.000000, Cluster: 26/54, ESBytes WO CSB: 65663200.000000, STDBytes WO CSB: 117225000.000000, IP Bytes WO CSB: 37310240.000000, IS_MAX: 0, Tot. Cov: 423.000000, ESBytes WO CSB: 69543950.000000, STDBytes WO CSB: 118710000.000000, IP Bytes WO CSB: 38062700.000000, IS_MAX: 1
Coverage: 30, Tot. Cov: 1578.000000, Cluster: 27/54, ESBytes WO CSB: 701447500.000000, STDBytes WO CSB: 1062160000.000000, IP Bytes WO CSB: 269055588.000000, IS_MAX: 0, Tot. Cov: 1572.000000, ESBytes WO CSB: 529729000.000000, STDBytes WO CSB: 851440000.000000, IP Bytes WO CSB: 267759828.000000, IS_MAX: 1
Coverage: 30, Tot. Cov: 70.000000, Cluster: 28/54, ESBytes WO CSB: 22263050.000000, STDBytes WO CSB: 32910000.000000, IP Bytes WO CSB: 16108852.000000, IS_MAX: 0, Tot. Cov: 68.000000, ESBytes WO CSB: 21020850.000000, STDBytes WO CSB: 38485000.000000, IP Bytes WO CSB: 15670576.000000, IS_MAX: 1
Coverage: 30, Tot. Cov: 75.000000, Cluster: 29/54, ESBytes WO CSB: 19310000.000000, STDBytes WO CSB: 29855000.000000, IP Bytes WO CSB: 12714172.000000, IS_MAX: 0, Tot. Cov: 80.000000, ESBytes WO CSB: 20605150.000000, STDBytes WO CSB: 28965000.000000, IP Bytes WO CSB: 13211944.000000, IS_MAX: 1
Coverage: 30, Tot. Cov: 30.000000, Cluster: 30/54, ESBytes WO CSB: 10797900.000000, STDBytes WO CSB: 18597500.000000, IP Bytes WO CSB: 8140372.000000, IS_MAX: 0, Tot. Cov: 30.000000, ESBytes WO CSB: 10638400.000000, STDBytes WO CSB: 19770000.000000, IP Bytes WO CSB: 8146716.000000, IS_MAX: 1
Coverage: 30, Tot. Cov: 33.000000, Cluster: 31/54, ESBytes WO CSB: 13952200.000000, STDBytes WO CSB: 21950000.000000, IP Bytes WO CSB: 8352516.000000, IS_MAX: 0, Tot. Cov: 31.000000, ESBytes WO CSB: 12458400.000000, STDBytes WO CSB: 21437500.000000, IP Bytes WO CSB: 7857924.000000, IS_MAX: 1
Coverage: 30, Tot. Cov: 31.000000, Cluster: 32/54, ESBytes WO CSB: 5566450.000000, STDBytes WO CSB: 9547500.000000, IP Bytes WO CSB: 4354384.000000, IS_MAX: 0, Tot. Cov: 31.000000, ESBytes WO CSB: 5566450.000000, STDBytes WO CSB: 9547500.000000, IP Bytes WO CSB: 4354384.000000, IS_MAX: 1
Coverage: 30, Tot. Cov: 1163.000000, Cluster: 33/54, ESBytes WO CSB: 301402400.000000, STDBytes WO CSB: 501420000.000000, IP Bytes WO CSB: 157242016.000000, IS_MAX: 0, Tot. Cov: 1144.000000, ESBytes WO CSB: 283646000.000000, STDBytes WO CSB: 473940000.000000, IP Bytes WO CSB: 153191676.000000, IS_MAX: 1
Coverage: 30, Tot. Cov: 35.000000, Cluster: 34/54, ESBytes WO CSB: 7107850.000000, STDBytes WO CSB: 10300000.000000, IP Bytes WO CSB: 5710940.000000, IS_MAX: 0, Tot. Cov: 35.000000, ESBytes WO CSB: 7107850.000000, STDBytes WO CSB: 10300000.000000, IP Bytes WO CSB: 5710940.000000, IS_MAX: 1
Coverage: 30, Tot. Cov: 1341.000000, Cluster: 35/54, ESBytes WO CSB: 638670800.000000, STDBytes WO CSB: 958020000.000000, IP Bytes WO CSB: 337805228.000000, IS_MAX: 0, Tot. Cov: 1351.000000, ESBytes WO CSB: 599708850.000000, STDBytes WO CSB: 875980000.000000, IP Bytes WO CSB: 339161796.000000, IS_MAX: 1
Coverage: 30, Tot. Cov: 1633.000000, Cluster: 36/54, ESBytes WO CSB: 829179300.000000, STDBytes WO CSB: 1352775000.000000, IP Bytes WO CSB: 470436372.000000, IS_MAX: 0, Tot. Cov: 1626.000000, ESBytes WO CSB: 786398150.000000, STDBytes WO CSB: 1251965000.000000, IP Bytes WO CSB: 467423128.000000, IS_MAX: 1
Coverage: 30, Tot. Cov: 30.000000, Cluster: 37/54, ESBytes WO CSB: 18652900.000000, STDBytes WO CSB: 32542500.000000, IP Bytes WO CSB: 14037088.000000, IS_MAX: 0, Tot. Cov: 32.000000, ESBytes WO CSB: 20094250.000000, STDBytes WO CSB: 34042500.000000, IP Bytes WO CSB: 14982932.000000, IS_MAX: 1
Coverage: 30, Tot. Cov: 114.000000, Cluster: 38/54, ESBytes WO CSB: 106934150.000000, STDBytes WO CSB: 163200000.000000, IP Bytes WO CSB: 63940092.000000, IS_MAX: 0, Tot. Cov: 112.000000, ESBytes WO CSB: 103611050.000000, STDBytes WO CSB: 163650000.000000, IP Bytes WO CSB: 62483572.000000, IS_MAX: 1
Coverage: 30, Tot. Cov: 116.000000, Cluster: 39/54, ESBytes WO CSB: 283096950.000000, STDBytes WO CSB: 468495000.000000, IP Bytes WO CSB: 187976676.000000, IS_MAX: 0, Tot. Cov: 111.000000, ESBytes WO CSB: 259405200.000000, STDBytes WO CSB: 440655000.000000, IP Bytes WO CSB: 178367208.000000, IS_MAX: 1
Coverage: 30, Tot. Cov: 764.000000, Cluster: 40/54, ESBytes WO CSB: 1202571650.000000, STDBytes WO CSB: 2249960000.000000, IP Bytes WO CSB: 650646176.000000, IS_MAX: 0, Tot. Cov: 762.000000, ESBytes WO CSB: 1023732400.000000, STDBytes WO CSB: 1968280000.000000, IP Bytes WO CSB: 647474736.000000, IS_MAX: 1
Coverage: 30, Tot. Cov: 572.000000, Cluster: 41/54, ESBytes WO CSB: 1146229500.000000, STDBytes WO CSB: 1488955000.000000, IP Bytes WO CSB: 708240384.000000, IS_MAX: 0, Tot. Cov: 579.000000, ESBytes WO CSB: 1075511450.000000, STDBytes WO CSB: 1396102500.000000, IP Bytes WO CSB: 719153988.000000, IS_MAX: 1
Coverage: 30, Tot. Cov: 125.000000, Cluster: 42/54, ESBytes WO CSB: 299912300.000000, STDBytes WO CSB: 392227500.000000, IP Bytes WO CSB: 189484964.000000, IS_MAX: 0, Tot. Cov: 129.000000, ESBytes WO CSB: 292943200.000000, STDBytes WO CSB: 390030000.000000, IP Bytes WO CSB: 197282328.000000, IS_MAX: 1
Coverage: 30, Tot. Cov: 66.000000, Cluster: 43/54, ESBytes WO CSB: 125066650.000000, STDBytes WO CSB: 222035000.000000, IP Bytes WO CSB: 86171048.000000, IS_MAX: 0, Tot. Cov: 66.000000, ESBytes WO CSB: 118283650.000000, STDBytes WO CSB: 210565000.000000, IP Bytes WO CSB: 86284552.000000, IS_MAX: 1
Coverage: 30, Tot. Cov: 62.000000, Cluster: 44/54, ESBytes WO CSB: 104042250.000000, STDBytes WO CSB: 219400000.000000, IP Bytes WO CSB: 79869412.000000, IS_MAX: 0, Tot. Cov: 73.000000, ESBytes WO CSB: 134087750.000000, STDBytes WO CSB: 228350000.000000, IP Bytes WO CSB: 99304252.000000, IS_MAX: 1
Coverage: 30, Tot. Cov: 180.000000, Cluster: 45/54, ESBytes WO CSB: 379388900.000000, STDBytes WO CSB: 472440000.000000, IP Bytes WO CSB: 285312440.000000, IS_MAX: 0, Tot. Cov: 183.000000, ESBytes WO CSB: 384832800.000000, STDBytes WO CSB: 492580000.000000, IP Bytes WO CSB: 290733524.000000, IS_MAX: 1
Coverage: 30, Tot. Cov: 32.000000, Cluster: 46/54, ESBytes WO CSB: 77490200.000000, STDBytes WO CSB: 124362500.000000, IP Bytes WO CSB: 65600144.000000, IS_MAX: 0, Tot. Cov: 37.000000, ESBytes WO CSB: 95583900.000000, STDBytes WO CSB: 136302500.000000, IP Bytes WO CSB: 76253180.000000, IS_MAX: 1
Coverage: 30, Tot. Cov: 563.000000, Cluster: 47/54, ESBytes WO CSB: 2081286450.000000, STDBytes WO CSB: 2835690000.000000, IP Bytes WO CSB: 1546253720.000000, IS_MAX: 0, Tot. Cov: 570.000000, ESBytes WO CSB: 2104294500.000000, STDBytes WO CSB: 2728770000.000000, IP Bytes WO CSB: 1571622560.000000, IS_MAX: 1
Coverage: 30, Tot. Cov: 136.000000, Cluster: 48/54, ESBytes WO CSB: 429279150.000000, STDBytes WO CSB: 557325000.000000, IP Bytes WO CSB: 261456060.000000, IS_MAX: 0, Tot. Cov: 131.000000, ESBytes WO CSB: 385856450.000000, STDBytes WO CSB: 515895000.000000, IP Bytes WO CSB: 250596080.000000, IS_MAX: 1
Coverage: 30, Tot. Cov: 295.000000, Cluster: 49/54, ESBytes WO CSB: 688834350.000000, STDBytes WO CSB: 1191295000.000000, IP Bytes WO CSB: 414896968.000000, IS_MAX: 0, Tot. Cov: 293.000000, ESBytes WO CSB: 645833400.000000, STDBytes WO CSB: 1117305000.000000, IP Bytes WO CSB: 411644200.000000, IS_MAX: 1
Coverage: 30, Tot. Cov: 264.000000, Cluster: 50/54, ESBytes WO CSB: 420264700.000000, STDBytes WO CSB: 618915000.000000, IP Bytes WO CSB: 237808412.000000, IS_MAX: 0, Tot. Cov: 267.000000, ESBytes WO CSB: 395345700.000000, STDBytes WO CSB: 593955000.000000, IP Bytes WO CSB: 241630676.000000, IS_MAX: 1
Coverage: 30, Tot. Cov: 274.000000, Cluster: 51/54, ESBytes WO CSB: 544253800.000000, STDBytes WO CSB: 718215000.000000, IP Bytes WO CSB: 317690904.000000, IS_MAX: 0, Tot. Cov: 264.000000, ESBytes WO CSB: 463943900.000000, STDBytes WO CSB: 650715000.000000, IP Bytes WO CSB: 304463552.000000, IS_MAX: 1
Coverage: 30, Tot. Cov: 148.000000, Cluster: 52/54, ESBytes WO CSB: 363475950.000000, STDBytes WO CSB: 548890000.000000, IP Bytes WO CSB: 215919296.000000, IS_MAX: 0, Tot. Cov: 148.000000, ESBytes WO CSB: 341164400.000000, STDBytes WO CSB: 510830000.000000, IP Bytes WO CSB: 215804016.000000, IS_MAX: 1
Coverage: 30, Tot. Cov: 1481.000000, Cluster: 53/54, ESBytes WO CSB: 7220818400.000000, STDBytes WO CSB: 15289575000.000000, IP Bytes WO CSB: 4429168224.000000, IS_MAX: 0, Tot. Cov: 1457.000000, ESBytes WO CSB: 7373212800.000000, STDBytes WO CSB: 14753100000.000000, IP Bytes WO CSB: 4374764480.000000, IS_MAX: 1
