Coverage: 30, Tot. Cov: 170.000000, Cluster: 1/54, ESBytes W CSB: 44861510.000000, STDBytes W CSB: 59365960.000000, IP Bytes W CSB: 21133108.000000, IS_MAX: 0, Tot. Cov: 185.000000, ESBytes WO CSB: 41670108.000000, STDBytes WO CSB: 55120508.000000, IP Bytes WO CSB: 21133108.000000, IS_MAX: 1
Coverage: 30, Tot. Cov: 1143.000000, Cluster: 2/54, ESBytes W CSB: 125110730.000000, STDBytes W CSB: 187668780.000000, IP Bytes W CSB: 55780504.000000, IS_MAX: 0, Tot. Cov: 1135.000000, ESBytes WO CSB: 118261148.000000, STDBytes WO CSB: 178167648.000000, IP Bytes WO CSB: 55780504.000000, IS_MAX: 1
Coverage: 30, Tot. Cov: 718.000000, Cluster: 3/54, ESBytes W CSB: 162620114.000000, STDBytes W CSB: 309917964.000000, IP Bytes W CSB: 69495728.000000, IS_MAX: 0, Tot. Cov: 717.000000, ESBytes WO CSB: 146539042.000000, STDBytes WO CSB: 277170492.000000, IP Bytes WO CSB: 69495728.000000, IS_MAX: 1
Coverage: 30, Tot. Cov: 782.000000, Cluster: 4/54, ESBytes W CSB: 44828646.000000, STDBytes W CSB: 102459096.000000, IP Bytes W CSB: 21560868.000000, IS_MAX: 0, Tot. Cov: 787.000000, ESBytes WO CSB: 44057590.000000, STDBytes WO CSB: 103097440.000000, IP Bytes WO CSB: 21560868.000000, IS_MAX: 1
Coverage: 30, Tot. Cov: 2050.000000, Cluster: 5/54, ESBytes W CSB: 2662967986.000000, STDBytes W CSB: 4111190736.000000, IP Bytes W CSB: 1364130892.000000, IS_MAX: 0, Tot. Cov: 2040.000000, ESBytes WO CSB: 2397685860.000000, STDBytes WO CSB: 3773952660.000000, IP Bytes WO CSB: 1364130892.000000, IS_MAX: 1
Coverage: 30, Tot. Cov: 267.000000, Cluster: 6/54, ESBytes W CSB: 418639486.000000, STDBytes W CSB: 501439836.000000, IP Bytes W CSB: 245742048.000000, IS_MAX: 0, Tot. Cov: 279.000000, ESBytes WO CSB: 387539602.000000, STDBytes WO CSB: 456036852.000000, IP Bytes WO CSB: 245742048.000000, IS_MAX: 1
Coverage: 30, Tot. Cov: 1537.000000, Cluster: 7/54, ESBytes W CSB: 2333313774.000000, STDBytes W CSB: 3065993124.000000, IP Bytes W CSB: 1364328900.000000, IS_MAX: 0, Tot. Cov: 1524.000000, ESBytes WO CSB: 2197421508.000000, STDBytes WO CSB: 2784193508.000000, IP Bytes WO CSB: 1364328900.000000, IS_MAX: 1
Coverage: 30, Tot. Cov: 80.000000, Cluster: 8/54, ESBytes W CSB: 217362462.000000, STDBytes W CSB: 272019712.000000, IP Bytes W CSB: 111160596.000000, IS_MAX: 0, Tot. Cov: 80.000000, ESBytes WO CSB: 212712974.000000, STDBytes WO CSB: 262035824.000000, IP Bytes WO CSB: 111160596.000000, IS_MAX: 1
Coverage: 30, Tot. Cov: 130.000000, Cluster: 9/54, ESBytes W CSB: 291419304.000000, STDBytes W CSB: 364397604.000000, IP Bytes W CSB: 169705108.000000, IS_MAX: 0, Tot. Cov: 129.000000, ESBytes WO CSB: 289120706.000000, STDBytes WO CSB: 356180556.000000, IP Bytes WO CSB: 169705108.000000, IS_MAX: 1
Coverage: 30, Tot. Cov: 205.000000, Cluster: 10/54, ESBytes W CSB: 523196822.000000, STDBytes W CSB: 669483372.000000, IP Bytes W CSB: 296444084.000000, IS_MAX: 0, Tot. Cov: 194.000000, ESBytes WO CSB: 541056006.000000, STDBytes WO CSB: 680084456.000000, IP Bytes WO CSB: 296444084.000000, IS_MAX: 1
Coverage: 30, Tot. Cov: 31.000000, Cluster: 11/54, ESBytes W CSB: 117658516.000000, STDBytes W CSB: 148454616.000000, IP Bytes W CSB: 62080572.000000, IS_MAX: 0, Tot. Cov: 32.000000, ESBytes WO CSB: 115659072.000000, STDBytes WO CSB: 146451572.000000, IP Bytes WO CSB: 62080572.000000, IS_MAX: 1
Coverage: 30, Tot. Cov: 763.000000, Cluster: 12/54, ESBytes W CSB: 471995332.000000, STDBytes W CSB: 637289432.000000, IP Bytes W CSB: 252048700.000000, IS_MAX: 0, Tot. Cov: 730.000000, ESBytes WO CSB: 472348622.000000, STDBytes WO CSB: 638810472.000000, IP Bytes WO CSB: 252048700.000000, IS_MAX: 1
Coverage: 30, Tot. Cov: 129.000000, Cluster: 13/54, ESBytes W CSB: 128004636.000000, STDBytes W CSB: 163489536.000000, IP Bytes W CSB: 70457748.000000, IS_MAX: 0, Tot. Cov: 128.000000, ESBytes WO CSB: 131616072.000000, STDBytes WO CSB: 165937272.000000, IP Bytes WO CSB: 70457748.000000, IS_MAX: 1
Coverage: 30, Tot. Cov: 196.000000, Cluster: 14/54, ESBytes W CSB: 162536128.000000, STDBytes W CSB: 201466128.000000, IP Bytes W CSB: 85306196.000000, IS_MAX: 0, Tot. Cov: 205.000000, ESBytes WO CSB: 157646164.000000, STDBytes WO CSB: 193901964.000000, IP Bytes WO CSB: 85306196.000000, IS_MAX: 1
Coverage: 30, Tot. Cov: 455.000000, Cluster: 15/54, ESBytes W CSB: 486299556.000000, STDBytes W CSB: 679539056.000000, IP Bytes W CSB: 214544492.000000, IS_MAX: 0, Tot. Cov: 457.000000, ESBytes WO CSB: 403385704.000000, STDBytes WO CSB: 573540404.000000, IP Bytes WO CSB: 214544492.000000, IS_MAX: 1
Coverage: 30, Tot. Cov: 109.000000, Cluster: 16/54, ESBytes W CSB: 91602042.000000, STDBytes W CSB: 113476692.000000, IP Bytes W CSB: 49159680.000000, IS_MAX: 0, Tot. Cov: 119.000000, ESBytes WO CSB: 85141618.000000, STDBytes WO CSB: 103891968.000000, IP Bytes WO CSB: 49159680.000000, IS_MAX: 1
Coverage: 30, Tot. Cov: 75.000000, Cluster: 17/54, ESBytes W CSB: 78934696.000000, STDBytes W CSB: 98718496.000000, IP Bytes W CSB: 37205788.000000, IS_MAX: 0, Tot. Cov: 68.000000, ESBytes WO CSB: 77797772.000000, STDBytes WO CSB: 100428572.000000, IP Bytes WO CSB: 37205788.000000, IS_MAX: 1
Coverage: 30, Tot. Cov: 77.000000, Cluster: 18/54, ESBytes W CSB: 64143444.000000, STDBytes W CSB: 80195644.000000, IP Bytes W CSB: 33555352.000000, IS_MAX: 0, Tot. Cov: 80.000000, ESBytes WO CSB: 61551074.000000, STDBytes WO CSB: 79101724.000000, IP Bytes WO CSB: 33555352.000000, IS_MAX: 1
Coverage: 30, Tot. Cov: 32.000000, Cluster: 19/54, ESBytes W CSB: 35724790.000000, STDBytes W CSB: 46233440.000000, IP Bytes W CSB: 17067752.000000, IS_MAX: 0, Tot. Cov: 36.000000, ESBytes WO CSB: 33600354.000000, STDBytes WO CSB: 43976804.000000, IP Bytes WO CSB: 17067752.000000, IS_MAX: 1
Coverage: 30, Tot. Cov: 308.000000, Cluster: 20/54, ESBytes W CSB: 304117412.000000, STDBytes W CSB: 391468812.000000, IP Bytes W CSB: 157329632.000000, IS_MAX: 0, Tot. Cov: 309.000000, ESBytes WO CSB: 286637792.000000, STDBytes WO CSB: 368353192.000000, IP Bytes WO CSB: 157329632.000000, IS_MAX: 1
Coverage: 30, Tot. Cov: 1727.000000, Cluster: 21/54, ESBytes W CSB: 2025275722.000000, STDBytes W CSB: 3253440872.000000, IP Bytes W CSB: 960597208.000000, IS_MAX: 0, Tot. Cov: 1724.000000, ESBytes WO CSB: 1589498698.000000, STDBytes WO CSB: 2690067648.000000, IP Bytes WO CSB: 960597208.000000, IS_MAX: 1
Coverage: 30, Tot. Cov: 209.000000, Cluster: 22/54, ESBytes W CSB: 356051718.000000, STDBytes W CSB: 461391568.000000, IP Bytes W CSB: 168923060.000000, IS_MAX: 0, Tot. Cov: 212.000000, ESBytes WO CSB: 333803728.000000, STDBytes WO CSB: 428640328.000000, IP Bytes WO CSB: 168923060.000000, IS_MAX: 1
Coverage: 30, Tot. Cov: 130.000000, Cluster: 23/54, ESBytes W CSB: 33220082.000000, STDBytes W CSB: 39554532.000000, IP Bytes W CSB: 18785104.000000, IS_MAX: 0, Tot. Cov: 124.000000, ESBytes WO CSB: 34628234.000000, STDBytes WO CSB: 44534784.000000, IP Bytes WO CSB: 18785104.000000, IS_MAX: 1
Coverage: 30, Tot. Cov: 139.000000, Cluster: 24/54, ESBytes W CSB: 38961966.000000, STDBytes W CSB: 49016016.000000, IP Bytes W CSB: 16663712.000000, IS_MAX: 0, Tot. Cov: 130.000000, ESBytes WO CSB: 38641778.000000, STDBytes WO CSB: 49322928.000000, IP Bytes WO CSB: 16663712.000000, IS_MAX: 1
Coverage: 30, Tot. Cov: 174.000000, Cluster: 25/54, ESBytes W CSB: 104673510.000000, STDBytes W CSB: 140644760.000000, IP Bytes W CSB: 41598472.000000, IS_MAX: 0, Tot. Cov: 167.000000, ESBytes WO CSB: 95545554.000000, STDBytes WO CSB: 129028104.000000, IP Bytes WO CSB: 41598472.000000, IS_MAX: 1
Coverage: 30, Tot. Cov: 418.000000, Cluster: 26/54, ESBytes W CSB: 81985480.000000, STDBytes W CSB: 133547280.000000, IP Bytes W CSB: 42751000.000000, IS_MAX: 0, Tot. Cov: 423.000000, ESBytes WO CSB: 83608850.000000, STDBytes WO CSB: 132774900.000000, IP Bytes WO CSB: 42751000.000000, IS_MAX: 1
Coverage: 30, Tot. Cov: 1578.000000, Cluster: 27/54, ESBytes W CSB: 720694456.000000, STDBytes W CSB: 1081406956.000000, IP Bytes W CSB: 275471240.000000, IS_MAX: 0, Tot. Cov: 1572.000000, ESBytes WO CSB: 552863236.000000, STDBytes WO CSB: 874574236.000000, IP Bytes WO CSB: 275471240.000000, IS_MAX: 1
Coverage: 30, Tot. Cov: 70.000000, Cluster: 28/54, ESBytes W CSB: 42850346.000000, STDBytes W CSB: 53497296.000000, IP Bytes W CSB: 22971284.000000, IS_MAX: 0, Tot. Cov: 68.000000, ESBytes WO CSB: 42922974.000000, STDBytes WO CSB: 60387124.000000, IP Bytes WO CSB: 22971284.000000, IS_MAX: 1
Coverage: 30, Tot. Cov: 75.000000, Cluster: 29/54, ESBytes W CSB: 32719220.000000, STDBytes W CSB: 43264220.000000, IP Bytes W CSB: 17183912.000000, IS_MAX: 0, Tot. Cov: 80.000000, ESBytes WO CSB: 32521054.000000, STDBytes WO CSB: 40880904.000000, IP Bytes WO CSB: 17183912.000000, IS_MAX: 1
Coverage: 30, Tot. Cov: 30.000000, Cluster: 30/54, ESBytes W CSB: 27138396.000000, STDBytes W CSB: 34937996.000000, IP Bytes W CSB: 13587204.000000, IS_MAX: 0, Tot. Cov: 30.000000, ESBytes WO CSB: 26959864.000000, STDBytes WO CSB: 36091464.000000, IP Bytes WO CSB: 13587204.000000, IS_MAX: 1
Coverage: 30, Tot. Cov: 33.000000, Cluster: 31/54, ESBytes W CSB: 27243484.000000, STDBytes W CSB: 35241284.000000, IP Bytes W CSB: 12782944.000000, IS_MAX: 0, Tot. Cov: 31.000000, ESBytes WO CSB: 27233460.000000, STDBytes WO CSB: 36212560.000000, IP Bytes WO CSB: 12782944.000000, IS_MAX: 1
Coverage: 30, Tot. Cov: 31.000000, Cluster: 32/54, ESBytes W CSB: 13771882.000000, STDBytes W CSB: 17752932.000000, IP Bytes W CSB: 7089528.000000, IS_MAX: 0, Tot. Cov: 31.000000, ESBytes WO CSB: 13771882.000000, STDBytes WO CSB: 17752932.000000, IP Bytes WO CSB: 7089528.000000, IS_MAX: 1
Coverage: 30, Tot. Cov: 1163.000000, Cluster: 33/54, ESBytes W CSB: 327129992.000000, STDBytes W CSB: 527147592.000000, IP Bytes W CSB: 165817880.000000, IS_MAX: 0, Tot. Cov: 1144.000000, ESBytes WO CSB: 321524612.000000, STDBytes WO CSB: 511818612.000000, IP Bytes WO CSB: 165817880.000000, IS_MAX: 1
Coverage: 30, Tot. Cov: 35.000000, Cluster: 34/54, ESBytes W CSB: 14495890.000000, STDBytes W CSB: 17688040.000000, IP Bytes W CSB: 8173620.000000, IS_MAX: 0, Tot. Cov: 35.000000, ESBytes WO CSB: 14495890.000000, STDBytes WO CSB: 17688040.000000, IP Bytes WO CSB: 8173620.000000, IS_MAX: 1
Coverage: 30, Tot. Cov: 1341.000000, Cluster: 35/54, ESBytes W CSB: 715643000.000000, STDBytes W CSB: 1034992200.000000, IP Bytes W CSB: 363462628.000000, IS_MAX: 0, Tot. Cov: 1351.000000, ESBytes WO CSB: 672611346.000000, STDBytes WO CSB: 948882496.000000, IP Bytes WO CSB: 363462628.000000, IS_MAX: 1
Coverage: 30, Tot. Cov: 1633.000000, Cluster: 36/54, ESBytes W CSB: 944783796.000000, STDBytes W CSB: 1468379496.000000, IP Bytes W CSB: 508971204.000000, IS_MAX: 0, Tot. Cov: 1626.000000, ESBytes WO CSB: 911042378.000000, STDBytes WO CSB: 1376609228.000000, IP Bytes WO CSB: 508971204.000000, IS_MAX: 1
Coverage: 30, Tot. Cov: 30.000000, Cluster: 37/54, ESBytes W CSB: 46947904.000000, STDBytes W CSB: 60837504.000000, IP Bytes W CSB: 23468756.000000, IS_MAX: 0, Tot. Cov: 32.000000, ESBytes WO CSB: 45551722.000000, STDBytes WO CSB: 59499972.000000, IP Bytes WO CSB: 23468756.000000, IS_MAX: 1
Coverage: 30, Tot. Cov: 114.000000, Cluster: 38/54, ESBytes W CSB: 189559454.000000, STDBytes W CSB: 245825304.000000, IP Bytes W CSB: 91481860.000000, IS_MAX: 0, Tot. Cov: 112.000000, ESBytes WO CSB: 190605914.000000, STDBytes WO CSB: 250644864.000000, IP Bytes WO CSB: 91481860.000000, IS_MAX: 1
Coverage: 30, Tot. Cov: 116.000000, Cluster: 39/54, ESBytes W CSB: 527855082.000000, STDBytes W CSB: 713253132.000000, IP Bytes W CSB: 269562720.000000, IS_MAX: 0, Tot. Cov: 111.000000, ESBytes WO CSB: 532991736.000000, STDBytes WO CSB: 714241536.000000, IP Bytes WO CSB: 269562720.000000, IS_MAX: 1
Coverage: 30, Tot. Cov: 764.000000, Cluster: 40/54, ESBytes W CSB: 1453803338.000000, STDBytes W CSB: 2501191688.000000, IP Bytes W CSB: 734390072.000000, IS_MAX: 0, Tot. Cov: 762.000000, ESBytes WO CSB: 1284478408.000000, STDBytes WO CSB: 2229026008.000000, IP Bytes WO CSB: 734390072.000000, IS_MAX: 1
Coverage: 30, Tot. Cov: 572.000000, Cluster: 41/54, ESBytes W CSB: 1493490396.000000, STDBytes W CSB: 1836215896.000000, IP Bytes W CSB: 823994016.000000, IS_MAX: 0, Tot. Cov: 579.000000, ESBytes WO CSB: 1390031534.000000, STDBytes WO CSB: 1710622584.000000, IP Bytes WO CSB: 823994016.000000, IS_MAX: 1
Coverage: 30, Tot. Cov: 125.000000, Cluster: 42/54, ESBytes W CSB: 440033096.000000, STDBytes W CSB: 532348296.000000, IP Bytes W CSB: 236191896.000000, IS_MAX: 0, Tot. Cov: 129.000000, ESBytes WO CSB: 409671904.000000, STDBytes WO CSB: 506758704.000000, IP Bytes WO CSB: 236191896.000000, IS_MAX: 1
Coverage: 30, Tot. Cov: 66.000000, Cluster: 43/54, ESBytes W CSB: 280610050.000000, STDBytes W CSB: 377578400.000000, IP Bytes W CSB: 138018848.000000, IS_MAX: 0, Tot. Cov: 66.000000, ESBytes WO CSB: 273486538.000000, STDBytes WO CSB: 365767888.000000, IP Bytes WO CSB: 138018848.000000, IS_MAX: 1
Coverage: 30, Tot. Cov: 62.000000, Cluster: 44/54, ESBytes W CSB: 301805010.000000, STDBytes W CSB: 417162760.000000, IP Bytes W CSB: 145790332.000000, IS_MAX: 0, Tot. Cov: 73.000000, ESBytes WO CSB: 273545990.000000, STDBytes WO CSB: 367808240.000000, IP Bytes WO CSB: 145790332.000000, IS_MAX: 1
Coverage: 30, Tot. Cov: 180.000000, Cluster: 45/54, ESBytes W CSB: 516465248.000000, STDBytes W CSB: 609516348.000000, IP Bytes W CSB: 331004556.000000, IS_MAX: 0, Tot. Cov: 183.000000, ESBytes WO CSB: 505645896.000000, STDBytes WO CSB: 613393096.000000, IP Bytes WO CSB: 331004556.000000, IS_MAX: 1
Coverage: 30, Tot. Cov: 32.000000, Cluster: 46/54, ESBytes W CSB: 189801284.000000, STDBytes W CSB: 236673584.000000, IP Bytes W CSB: 103037172.000000, IS_MAX: 0, Tot. Cov: 37.000000, ESBytes WO CSB: 175935876.000000, STDBytes WO CSB: 216654476.000000, IP Bytes WO CSB: 103037172.000000, IS_MAX: 1
Coverage: 30, Tot. Cov: 563.000000, Cluster: 47/54, ESBytes W CSB: 2483477634.000000, STDBytes W CSB: 3237881184.000000, IP Bytes W CSB: 1680317448.000000, IS_MAX: 0, Tot. Cov: 570.000000, ESBytes WO CSB: 2430379164.000000, STDBytes WO CSB: 3054854664.000000, IP Bytes WO CSB: 1680317448.000000, IS_MAX: 1
Coverage: 30, Tot. Cov: 136.000000, Cluster: 48/54, ESBytes W CSB: 524313018.000000, STDBytes W CSB: 652358868.000000, IP Bytes W CSB: 293134016.000000, IS_MAX: 0, Tot. Cov: 131.000000, ESBytes WO CSB: 513470258.000000, STDBytes WO CSB: 643508808.000000, IP Bytes WO CSB: 293134016.000000, IS_MAX: 1
Coverage: 30, Tot. Cov: 295.000000, Cluster: 49/54, ESBytes W CSB: 1050120834.000000, STDBytes W CSB: 1552581484.000000, IP Bytes W CSB: 535325796.000000, IS_MAX: 0, Tot. Cov: 293.000000, ESBytes WO CSB: 1016878188.000000, STDBytes WO CSB: 1488349788.000000, IP Bytes WO CSB: 535325796.000000, IS_MAX: 1
Coverage: 30, Tot. Cov: 264.000000, Cluster: 50/54, ESBytes W CSB: 569442124.000000, STDBytes W CSB: 768092424.000000, IP Bytes W CSB: 287534220.000000, IS_MAX: 0, Tot. Cov: 267.000000, ESBytes WO CSB: 533056332.000000, STDBytes WO CSB: 731665632.000000, IP Bytes WO CSB: 287534220.000000, IS_MAX: 1
Coverage: 30, Tot. Cov: 274.000000, Cluster: 51/54, ESBytes W CSB: 658044712.000000, STDBytes W CSB: 832005912.000000, IP Bytes W CSB: 355621208.000000, IS_MAX: 0, Tot. Cov: 264.000000, ESBytes WO CSB: 617416868.000000, STDBytes WO CSB: 804187968.000000, IP Bytes WO CSB: 355621208.000000, IS_MAX: 1
Coverage: 30, Tot. Cov: 148.000000, Cluster: 52/54, ESBytes W CSB: 636916182.000000, STDBytes W CSB: 822330232.000000, IP Bytes W CSB: 307066040.000000, IS_MAX: 0, Tot. Cov: 148.000000, ESBytes WO CSB: 614950472.000000, STDBytes WO CSB: 784616072.000000, IP Bytes WO CSB: 307066040.000000, IS_MAX: 1
Coverage: 30, Tot. Cov: 1481.000000, Cluster: 53/54, ESBytes W CSB: 7656067112.000000, STDBytes W CSB: 15724823712.000000, IP Bytes W CSB: 4574251128.000000, IS_MAX: 0, Tot. Cov: 1457.000000, ESBytes WO CSB: 7971672744.000000, STDBytes WO CSB: 15351559944.000000, IP Bytes WO CSB: 4574251128.000000, IS_MAX: 1
