Coverage: 20, Tot. Cov: 164.000000, Cluster: 1/54, ESBytes WO CSB: 32397050.000000, STDBytes WO CSB: 48060000.000000, IP Bytes WO CSB: 17003096.000000, IS_MAX: 0, Tot. Cov: 153.000000, ESBytes WO CSB: 29090750.000000, STDBytes WO CSB: 46030000.000000, IP Bytes WO CSB: 15601184.000000, IS_MAX: 1
Coverage: 20, Tot. Cov: 1110.000000, Cluster: 2/54, ESBytes WO CSB: 100222000.000000, STDBytes WO CSB: 161220000.000000, IP Bytes WO CSB: 48807732.000000, IS_MAX: 0, Tot. Cov: 1088.000000, ESBytes WO CSB: 95504050.000000, STDBytes WO CSB: 155640000.000000, IP Bytes WO CSB: 47421240.000000, IS_MAX: 1
Coverage: 20, Tot. Cov: 672.000000, Cluster: 3/54, ESBytes WO CSB: 117646800.000000, STDBytes WO CSB: 223162500.000000, IP Bytes WO CSB: 55947968.000000, IS_MAX: 0, Tot. Cov: 668.000000, ESBytes WO CSB: 109444850.000000, STDBytes WO CSB: 206887500.000000, IP Bytes WO CSB: 55456492.000000, IS_MAX: 1
Coverage: 20, Tot. Cov: 782.000000, Cluster: 4/54, ESBytes WO CSB: 41369550.000000, STDBytes WO CSB: 99000000.000000, IP Bytes WO CSB: 20407836.000000, IS_MAX: 0, Tot. Cov: 772.000000, ESBytes WO CSB: 41495900.000000, STDBytes WO CSB: 99120000.000000, IP Bytes WO CSB: 19822988.000000, IS_MAX: 1
Coverage: 20, Tot. Cov: 2018.000000, Cluster: 5/54, ESBytes WO CSB: 2373325950.000000, STDBytes WO CSB: 3670380000.000000, IP Bytes WO CSB: 1286193288.000000, IS_MAX: 0, Tot. Cov: 2028.000000, ESBytes WO CSB: 2173888700.000000, STDBytes WO CSB: 3537135000.000000, IP Bytes WO CSB: 1296606348.000000, IS_MAX: 1
Coverage: 20, Tot. Cov: 240.000000, Cluster: 6/54, ESBytes WO CSB: 279775400.000000, STDBytes WO CSB: 381360000.000000, IP Bytes WO CSB: 189757332.000000, IS_MAX: 0, Tot. Cov: 245.000000, ESBytes WO CSB: 278160500.000000, STDBytes WO CSB: 375750000.000000, IP Bytes WO CSB: 194400316.000000, IS_MAX: 1
Coverage: 20, Tot. Cov: 1472.000000, Cluster: 7/54, ESBytes WO CSB: 1926967550.000000, STDBytes WO CSB: 2600160000.000000, IP Bytes WO CSB: 1213216356.000000, IS_MAX: 0, Tot. Cov: 1467.000000, ESBytes WO CSB: 1797525900.000000, STDBytes WO CSB: 2396320000.000000, IP Bytes WO CSB: 1209526504.000000, IS_MAX: 1
Coverage: 20, Tot. Cov: 75.000000, Cluster: 8/54, ESBytes WO CSB: 130456450.000000, STDBytes WO CSB: 191880000.000000, IP Bytes WO CSB: 79459596.000000, IS_MAX: 0, Tot. Cov: 66.000000, ESBytes WO CSB: 111602000.000000, STDBytes WO CSB: 180045000.000000, IP Bytes WO CSB: 69593728.000000, IS_MAX: 1
Coverage: 20, Tot. Cov: 123.000000, Cluster: 9/54, ESBytes WO CSB: 197360200.000000, STDBytes WO CSB: 273120000.000000, IP Bytes WO CSB: 134633856.000000, IS_MAX: 0, Tot. Cov: 117.000000, ESBytes WO CSB: 185335150.000000, STDBytes WO CSB: 268867500.000000, IP Bytes WO CSB: 127877892.000000, IS_MAX: 1
Coverage: 20, Tot. Cov: 180.000000, Cluster: 10/54, ESBytes WO CSB: 283177650.000000, STDBytes WO CSB: 446912500.000000, IP Bytes WO CSB: 199657280.000000, IS_MAX: 0, Tot. Cov: 175.000000, ESBytes WO CSB: 273794900.000000, STDBytes WO CSB: 439550000.000000, IP Bytes WO CSB: 193698928.000000, IS_MAX: 1
Coverage: 20, Tot. Cov: 22.000000, Cluster: 11/54, ESBytes WO CSB: 32574350.000000, STDBytes WO CSB: 75912500.000000, IP Bytes WO CSB: 27195788.000000, IS_MAX: 0, Tot. Cov: 23.000000, ESBytes WO CSB: 34611650.000000, STDBytes WO CSB: 80492500.000000, IP Bytes WO CSB: 28427048.000000, IS_MAX: 1
Coverage: 20, Tot. Cov: 700.000000, Cluster: 12/54, ESBytes WO CSB: 379409950.000000, STDBytes WO CSB: 563480000.000000, IP Bytes WO CSB: 211931356.000000, IS_MAX: 0, Tot. Cov: 730.000000, ESBytes WO CSB: 388778150.000000, STDBytes WO CSB: 555240000.000000, IP Bytes WO CSB: 224191876.000000, IS_MAX: 1
Coverage: 20, Tot. Cov: 116.000000, Cluster: 13/54, ESBytes WO CSB: 74826700.000000, STDBytes WO CSB: 113280000.000000, IP Bytes WO CSB: 48801212.000000, IS_MAX: 0, Tot. Cov: 108.000000, ESBytes WO CSB: 70600750.000000, STDBytes WO CSB: 110130000.000000, IP Bytes WO CSB: 45488120.000000, IS_MAX: 1
Coverage: 20, Tot. Cov: 179.000000, Cluster: 14/54, ESBytes WO CSB: 96322900.000000, STDBytes WO CSB: 143250000.000000, IP Bytes WO CSB: 60383344.000000, IS_MAX: 0, Tot. Cov: 205.000000, ESBytes WO CSB: 110519200.000000, STDBytes WO CSB: 146775000.000000, IP Bytes WO CSB: 69597208.000000, IS_MAX: 1
Coverage: 20, Tot. Cov: 429.000000, Cluster: 15/54, ESBytes WO CSB: 326958700.000000, STDBytes WO CSB: 485625000.000000, IP Bytes WO CSB: 171707388.000000, IS_MAX: 0, Tot. Cov: 424.000000, ESBytes WO CSB: 290357500.000000, STDBytes WO CSB: 437225000.000000, IP Bytes WO CSB: 169310504.000000, IS_MAX: 1
Coverage: 20, Tot. Cov: 76.000000, Cluster: 16/54, ESBytes WO CSB: 34424950.000000, STDBytes WO CSB: 70785000.000000, IP Bytes WO CSB: 24703664.000000, IS_MAX: 0, Tot. Cov: 90.000000, ESBytes WO CSB: 40192450.000000, STDBytes WO CSB: 71370000.000000, IP Bytes WO CSB: 29261912.000000, IS_MAX: 1
Coverage: 20, Tot. Cov: 53.000000, Cluster: 17/54, ESBytes WO CSB: 35089100.000000, STDBytes WO CSB: 68655000.000000, IP Bytes WO CSB: 19550216.000000, IS_MAX: 0, Tot. Cov: 60.000000, ESBytes WO CSB: 36647350.000000, STDBytes WO CSB: 64505000.000000, IP Bytes WO CSB: 22218220.000000, IS_MAX: 1
Coverage: 20, Tot. Cov: 69.000000, Cluster: 18/54, ESBytes WO CSB: 35544900.000000, STDBytes WO CSB: 55675000.000000, IP Bytes WO CSB: 22798084.000000, IS_MAX: 0, Tot. Cov: 66.000000, ESBytes WO CSB: 32533250.000000, STDBytes WO CSB: 54635000.000000, IP Bytes WO CSB: 21750952.000000, IS_MAX: 1
Coverage: 20, Tot. Cov: 24.000000, Cluster: 19/54, ESBytes WO CSB: 12529600.000000, STDBytes WO CSB: 26832500.000000, IP Bytes WO CSB: 8112464.000000, IS_MAX: 0, Tot. Cov: 26.000000, ESBytes WO CSB: 13517650.000000, STDBytes WO CSB: 28420000.000000, IP Bytes WO CSB: 8808144.000000, IS_MAX: 1
Coverage: 20, Tot. Cov: 291.000000, Cluster: 20/54, ESBytes WO CSB: 221500750.000000, STDBytes WO CSB: 319935000.000000, IP Bytes WO CSB: 125656124.000000, IS_MAX: 0, Tot. Cov: 294.000000, ESBytes WO CSB: 209026900.000000, STDBytes WO CSB: 305812500.000000, IP Bytes WO CSB: 127387804.000000, IS_MAX: 1
Coverage: 20, Tot. Cov: 1537.000000, Cluster: 21/54, ESBytes WO CSB: 1516760950.000000, STDBytes WO CSB: 2090900000.000000, IP Bytes WO CSB: 798885232.000000, IS_MAX: 0, Tot. Cov: 1544.000000, ESBytes WO CSB: 1282742150.000000, STDBytes WO CSB: 1790162500.000000, IP Bytes WO CSB: 803881964.000000, IS_MAX: 1
Coverage: 20, Tot. Cov: 163.000000, Cluster: 22/54, ESBytes WO CSB: 149739550.000000, STDBytes WO CSB: 279562500.000000, IP Bytes WO CSB: 89531800.000000, IS_MAX: 0, Tot. Cov: 171.000000, ESBytes WO CSB: 152005500.000000, STDBytes WO CSB: 272262500.000000, IP Bytes WO CSB: 95283596.000000, IS_MAX: 1
Coverage: 20, Tot. Cov: 96.000000, Cluster: 23/54, ESBytes WO CSB: 18688050.000000, STDBytes WO CSB: 31102500.000000, IP Bytes WO CSB: 12007548.000000, IS_MAX: 0, Tot. Cov: 124.000000, ESBytes WO CSB: 25073450.000000, STDBytes WO CSB: 34980000.000000, IP Bytes WO CSB: 15600176.000000, IS_MAX: 1
Coverage: 20, Tot. Cov: 120.000000, Cluster: 24/54, ESBytes WO CSB: 28306450.000000, STDBytes WO CSB: 41287500.000000, IP Bytes WO CSB: 12457428.000000, IS_MAX: 0, Tot. Cov: 128.000000, ESBytes WO CSB: 29940950.000000, STDBytes WO CSB: 40342500.000000, IP Bytes WO CSB: 13574660.000000, IS_MAX: 1
Coverage: 20, Tot. Cov: 164.000000, Cluster: 25/54, ESBytes WO CSB: 75577400.000000, STDBytes WO CSB: 114110000.000000, IP Bytes WO CSB: 32235092.000000, IS_MAX: 0, Tot. Cov: 160.000000, ESBytes WO CSB: 66312400.000000, STDBytes WO CSB: 104070000.000000, IP Bytes WO CSB: 31374924.000000, IS_MAX: 1
Coverage: 20, Tot. Cov: 418.000000, Cluster: 26/54, ESBytes WO CSB: 65663200.000000, STDBytes WO CSB: 117225000.000000, IP Bytes WO CSB: 37310240.000000, IS_MAX: 0, Tot. Cov: 406.000000, ESBytes WO CSB: 63410600.000000, STDBytes WO CSB: 113040000.000000, IP Bytes WO CSB: 35208592.000000, IS_MAX: 1
Coverage: 20, Tot. Cov: 1502.000000, Cluster: 27/54, ESBytes WO CSB: 505598850.000000, STDBytes WO CSB: 703680000.000000, IP Bytes WO CSB: 251959888.000000, IS_MAX: 0, Tot. Cov: 1491.000000, ESBytes WO CSB: 460920850.000000, STDBytes WO CSB: 644960000.000000, IP Bytes WO CSB: 249655824.000000, IS_MAX: 1
Coverage: 20, Tot. Cov: 43.000000, Cluster: 28/54, ESBytes WO CSB: 13437100.000000, STDBytes WO CSB: 32240000.000000, IP Bytes WO CSB: 9852868.000000, IS_MAX: 0, Tot. Cov: 47.000000, ESBytes WO CSB: 14718400.000000, STDBytes WO CSB: 40910000.000000, IP Bytes WO CSB: 10771968.000000, IS_MAX: 1
Coverage: 20, Tot. Cov: 75.000000, Cluster: 29/54, ESBytes WO CSB: 19310000.000000, STDBytes WO CSB: 29855000.000000, IP Bytes WO CSB: 12714172.000000, IS_MAX: 0, Tot. Cov: 54.000000, ESBytes WO CSB: 13703800.000000, STDBytes WO CSB: 28685000.000000, IP Bytes WO CSB: 8994724.000000, IS_MAX: 1
Coverage: 20, Tot. Cov: 21.000000, Cluster: 30/54, ESBytes WO CSB: 7351600.000000, STDBytes WO CSB: 17807500.000000, IP Bytes WO CSB: 5682036.000000, IS_MAX: 0, Tot. Cov: 25.000000, ESBytes WO CSB: 9266200.000000, STDBytes WO CSB: 22210000.000000, IP Bytes WO CSB: 6774328.000000, IS_MAX: 1
Coverage: 20, Tot. Cov: 21.000000, Cluster: 31/54, ESBytes WO CSB: 8380400.000000, STDBytes WO CSB: 20587500.000000, IP Bytes WO CSB: 5291704.000000, IS_MAX: 0, Tot. Cov: 23.000000, ESBytes WO CSB: 9086100.000000, STDBytes WO CSB: 21715000.000000, IP Bytes WO CSB: 5793368.000000, IS_MAX: 1
Coverage: 20, Tot. Cov: 20.000000, Cluster: 32/54, ESBytes WO CSB: 3518050.000000, STDBytes WO CSB: 8972500.000000, IP Bytes WO CSB: 2737156.000000, IS_MAX: 0, Tot. Cov: 20.000000, ESBytes WO CSB: 3518050.000000, STDBytes WO CSB: 8972500.000000, IP Bytes WO CSB: 2737156.000000, IS_MAX: 1
Coverage: 20, Tot. Cov: 1115.000000, Cluster: 33/54, ESBytes WO CSB: 285134800.000000, STDBytes WO CSB: 475140000.000000, IP Bytes WO CSB: 146957040.000000, IS_MAX: 0, Tot. Cov: 1124.000000, ESBytes WO CSB: 270470400.000000, STDBytes WO CSB: 456420000.000000, IP Bytes WO CSB: 148838672.000000, IS_MAX: 1
Coverage: 20, Tot. Cov: 35.000000, Cluster: 34/54, ESBytes WO CSB: 7107850.000000, STDBytes WO CSB: 10300000.000000, IP Bytes WO CSB: 5710940.000000, IS_MAX: 0, Tot. Cov: 35.000000, ESBytes WO CSB: 7107850.000000, STDBytes WO CSB: 10300000.000000, IP Bytes WO CSB: 5710940.000000, IS_MAX: 1
Coverage: 20, Tot. Cov: 1275.000000, Cluster: 35/54, ESBytes WO CSB: 568401400.000000, STDBytes WO CSB: 818510000.000000, IP Bytes WO CSB: 317100140.000000, IS_MAX: 0, Tot. Cov: 1259.000000, ESBytes WO CSB: 531345150.000000, STDBytes WO CSB: 756560000.000000, IP Bytes WO CSB: 311035032.000000, IS_MAX: 1
Coverage: 20, Tot. Cov: 1543.000000, Cluster: 36/54, ESBytes WO CSB: 746666300.000000, STDBytes WO CSB: 1167815000.000000, IP Bytes WO CSB: 433766860.000000, IS_MAX: 0, Tot. Cov: 1543.000000, ESBytes WO CSB: 725459650.000000, STDBytes WO CSB: 1088850000.000000, IP Bytes WO CSB: 433616908.000000, IS_MAX: 1
Coverage: 20, Tot. Cov: 23.000000, Cluster: 37/54, ESBytes WO CSB: 13988250.000000, STDBytes WO CSB: 31477500.000000, IP Bytes WO CSB: 10752788.000000, IS_MAX: 0, Tot. Cov: 22.000000, ESBytes WO CSB: 13453600.000000, STDBytes WO CSB: 32625000.000000, IP Bytes WO CSB: 10286404.000000, IS_MAX: 1
Coverage: 20, Tot. Cov: 114.000000, Cluster: 38/54, ESBytes WO CSB: 106934150.000000, STDBytes WO CSB: 163200000.000000, IP Bytes WO CSB: 63940092.000000, IS_MAX: 0, Tot. Cov: 100.000000, ESBytes WO CSB: 93669500.000000, STDBytes WO CSB: 159795000.000000, IP Bytes WO CSB: 54620284.000000, IS_MAX: 1
Coverage: 20, Tot. Cov: 90.000000, Cluster: 39/54, ESBytes WO CSB: 202487500.000000, STDBytes WO CSB: 411150000.000000, IP Bytes WO CSB: 137571856.000000, IS_MAX: 0, Tot. Cov: 91.000000, ESBytes WO CSB: 206494750.000000, STDBytes WO CSB: 415935000.000000, IP Bytes WO CSB: 139492204.000000, IS_MAX: 1
Coverage: 20, Tot. Cov: 701.000000, Cluster: 40/54, ESBytes WO CSB: 990525250.000000, STDBytes WO CSB: 1438800000.000000, IP Bytes WO CSB: 589624764.000000, IS_MAX: 0, Tot. Cov: 690.000000, ESBytes WO CSB: 923451750.000000, STDBytes WO CSB: 1344240000.000000, IP Bytes WO CSB: 578265820.000000, IS_MAX: 1
Coverage: 20, Tot. Cov: 537.000000, Cluster: 41/54, ESBytes WO CSB: 1048653900.000000, STDBytes WO CSB: 1446965000.000000, IP Bytes WO CSB: 659345712.000000, IS_MAX: 0, Tot. Cov: 511.000000, ESBytes WO CSB: 926480450.000000, STDBytes WO CSB: 1333280000.000000, IP Bytes WO CSB: 624904744.000000, IS_MAX: 1
Coverage: 20, Tot. Cov: 100.000000, Cluster: 42/54, ESBytes WO CSB: 234806900.000000, STDBytes WO CSB: 376792500.000000, IP Bytes WO CSB: 151099608.000000, IS_MAX: 0, Tot. Cov: 92.000000, ESBytes WO CSB: 205217350.000000, STDBytes WO CSB: 354592500.000000, IP Bytes WO CSB: 139031700.000000, IS_MAX: 1
Coverage: 20, Tot. Cov: 43.000000, Cluster: 43/54, ESBytes WO CSB: 74474650.000000, STDBytes WO CSB: 208510000.000000, IP Bytes WO CSB: 51720516.000000, IS_MAX: 0, Tot. Cov: 47.000000, ESBytes WO CSB: 80766000.000000, STDBytes WO CSB: 206645000.000000, IP Bytes WO CSB: 57590424.000000, IS_MAX: 1
Coverage: 20, Tot. Cov: 43.000000, Cluster: 44/54, ESBytes WO CSB: 66744000.000000, STDBytes WO CSB: 213000000.000000, IP Bytes WO CSB: 46996012.000000, IS_MAX: 0, Tot. Cov: 42.000000, ESBytes WO CSB: 75402950.000000, STDBytes WO CSB: 223770000.000000, IP Bytes WO CSB: 45128924.000000, IS_MAX: 1
Coverage: 20, Tot. Cov: 168.000000, Cluster: 45/54, ESBytes WO CSB: 357897700.000000, STDBytes WO CSB: 465110000.000000, IP Bytes WO CSB: 266245244.000000, IS_MAX: 0, Tot. Cov: 176.000000, ESBytes WO CSB: 378443450.000000, STDBytes WO CSB: 467450000.000000, IP Bytes WO CSB: 279160484.000000, IS_MAX: 1
Coverage: 20, Tot. Cov: 23.000000, Cluster: 46/54, ESBytes WO CSB: 55135800.000000, STDBytes WO CSB: 122712500.000000, IP Bytes WO CSB: 47363544.000000, IS_MAX: 0, Tot. Cov: 37.000000, ESBytes WO CSB: 95583900.000000, STDBytes WO CSB: 136302500.000000, IP Bytes WO CSB: 76253180.000000, IS_MAX: 1
Coverage: 20, Tot. Cov: 546.000000, Cluster: 47/54, ESBytes WO CSB: 1983403450.000000, STDBytes WO CSB: 2740650000.000000, IP Bytes WO CSB: 1486155796.000000, IS_MAX: 0, Tot. Cov: 541.000000, ESBytes WO CSB: 1999186450.000000, STDBytes WO CSB: 2701410000.000000, IP Bytes WO CSB: 1470324908.000000, IS_MAX: 1
Coverage: 20, Tot. Cov: 119.000000, Cluster: 48/54, ESBytes WO CSB: 356392000.000000, STDBytes WO CSB: 517627500.000000, IP Bytes WO CSB: 224111352.000000, IS_MAX: 0, Tot. Cov: 113.000000, ESBytes WO CSB: 324130900.000000, STDBytes WO CSB: 484207500.000000, IP Bytes WO CSB: 212176724.000000, IS_MAX: 1
Coverage: 20, Tot. Cov: 274.000000, Cluster: 49/54, ESBytes WO CSB: 604079000.000000, STDBytes WO CSB: 992722500.000000, IP Bytes WO CSB: 380310792.000000, IS_MAX: 0, Tot. Cov: 275.000000, ESBytes WO CSB: 590508600.000000, STDBytes WO CSB: 979090000.000000, IP Bytes WO CSB: 381700820.000000, IS_MAX: 1
Coverage: 20, Tot. Cov: 237.000000, Cluster: 50/54, ESBytes WO CSB: 336710450.000000, STDBytes WO CSB: 522075000.000000, IP Bytes WO CSB: 207280884.000000, IS_MAX: 0, Tot. Cov: 234.000000, ESBytes WO CSB: 322791700.000000, STDBytes WO CSB: 503280000.000000, IP Bytes WO CSB: 204180304.000000, IS_MAX: 1
Coverage: 20, Tot. Cov: 248.000000, Cluster: 51/54, ESBytes WO CSB: 460245650.000000, STDBytes WO CSB: 626895000.000000, IP Bytes WO CSB: 283477652.000000, IS_MAX: 0, Tot. Cov: 247.000000, ESBytes WO CSB: 424628550.000000, STDBytes WO CSB: 592785000.000000, IP Bytes WO CSB: 282215028.000000, IS_MAX: 1
Coverage: 20, Tot. Cov: 118.000000, Cluster: 52/54, ESBytes WO CSB: 272215650.000000, STDBytes WO CSB: 495390000.000000, IP Bytes WO CSB: 169272104.000000, IS_MAX: 0, Tot. Cov: 113.000000, ESBytes WO CSB: 246249900.000000, STDBytes WO CSB: 467170000.000000, IP Bytes WO CSB: 162210096.000000, IS_MAX: 1
Coverage: 20, Tot. Cov: 1385.000000, Cluster: 53/54, ESBytes WO CSB: 6692934450.000000, STDBytes WO CSB: 14533125000.000000, IP Bytes WO CSB: 4187316376.000000, IS_MAX: 0, Tot. Cov: 1388.000000, ESBytes WO CSB: 6748838900.000000, STDBytes WO CSB: 14219850000.000000, IP Bytes WO CSB: 4188343112.000000, IS_MAX: 1
