Coverage: 30, Tot. Cov: 980.000000, 1/16, STDB: 9886800000.000000, IPB: 3395034320.000000, STDT: 29763223748.000000, IPT: 7527767642.000000, BOH/LOH: 2.912136,3.953792, MAX:1
Coverage: 30, Tot. Cov: 730.000000, 2/16, STDB: 1826662500.000000, IPB: 49516112.000000, STDT: 18973616964.000000, IPT: 3026401554.000000, BOH/LOH: 36.890265,6.269365, MAX:1
Coverage: 30, Tot. Cov: 665.000000, 3/16, STDB: 90265000.000000, IPB: 30490188.000000, STDT: 6849506420.000000, IPT: 2389550852.000000, BOH/LOH: 2.960461,2.866441, MAX:1
Coverage: 30, Tot. Cov: 411.000000, 4/16, STDB: 58230000.000000, IPB: 16632040.000000, STDT: 4563678026.000000, IPT: 1638291436.000000, BOH/LOH: 3.501074,2.785633, MAX:1
Coverage: 30, Tot. Cov: 1171.000000, 5/16, STDB: 410160000.000000, IPB: 96208148.000000, STDT: 21124602130.000000, IPT: 5571114646.000000, BOH/LOH: 4.263256,3.791809, MAX:1
Coverage: 30, Tot. Cov: 1768.000000, 6/16, STDB: 3560220000.000000, IPB: 963165364.000000, STDT: 59299933187.000000, IPT: 12451208792.000000, BOH/LOH: 3.696375,4.762584, MAX:1
Coverage: 30, Tot. Cov: 1319.000000, 7/16, STDB: 495922500.000000, IPB: 152694824.000000, STDT: 23818396477.000000, IPT: 6124222868.000000, BOH/LOH: 3.247802,3.889211, MAX:1
Coverage: 30, Tot. Cov: 1674.000000, 8/16, STDB: 962965000.000000, IPB: 281790416.000000, STDT: 38597289666.000000, IPT: 7171567803.000000, BOH/LOH: 3.417309,5.381988, MAX:1
Coverage: 30, Tot. Cov: 876.000000, 9/16, STDB: 534185000.000000, IPB: 221213188.000000, STDT: 18365480353.000000, IPT: 4182838401.000000, BOH/LOH: 2.414797,4.390674, MAX:1
Coverage: 30, Tot. Cov: 665.000000, 10/16, STDB: 295612500.000000, IPB: 108071732.000000, STDT: 12305240276.000000, IPT: 2964976292.000000, BOH/LOH: 2.735336,4.150199, MAX:1
Coverage: 30, Tot. Cov: 129.000000, 11/16, STDB: 72787500.000000, IPB: 26205624.000000, STDT: 5857626125.000000, IPT: 1065942425.000000, BOH/LOH: 2.777553,5.495256, MAX:1
Coverage: 30, Tot. Cov: 69.000000, 12/16, STDB: 44455000.000000, IPB: 16080044.000000, STDT: 2085126966.000000, IPT: 363013088.000000, BOH/LOH: 2.764607,5.743944, MAX:1
Coverage: 30, Tot. Cov: 180.000000, 13/16, STDB: 102120000.000000, IPB: 33517256.000000, STDT: 3291679700.000000, IPT: 1379147705.000000, BOH/LOH: 3.046789,2.386749, MAX:1
Coverage: 30, Tot. Cov: 7004.000000, 14/16, STDB: 11501017500.000000, IPB: 3048385112.000000, STDT: 466994948337.000000, IPT: 33813129333.000000, BOH/LOH: 3.772823,13.811054, MAX:1
Coverage: 30, Tot. Cov: 6806.000000, 15/16, STDB: 30631487500.000000, IPB: 8532635796.000000, STDT: 189774459932.000000, IPT: 40626107622.000000, BOH/LOH: 3.589921,4.671244, MAX:1
