Coverage: 48, Tot. Cov: 296.000000, 1/100, STDB: 56910000.000000, IPB: 11031664.000000, STDT: 1041037288.000000, IPT: 836610955.000000, BOH/LOH: 5.158787,1.244351, MAX:1
Coverage: 48, Tot. Cov: 299.000000, 1/100, STDB: 31350000.000000, IPB: 11179792.000000, STDT: 6357105528.000000, IPT: 863042276.000000, BOH/LOH: 2.804167,7.365926, MAX:1
Coverage: 48, Tot. Cov: 398.000000, 2/100, STDB: 416380000.000000, IPB: 31864072.000000, STDT: 2767304912.000000, IPT: 1426404205.000000, BOH/LOH: 13.067382,1.940057, MAX:1
Coverage: 48, Tot. Cov: 399.000000, 2/100, STDB: 269240000.000000, IPB: 32286748.000000, STDT: 7427983529.000000, IPT: 1440322668.000000, BOH/LOH: 8.339025,5.157166, MAX:1
Coverage: 48, Tot. Cov: 98.000000, 3/100, STDB: 17380000.000000, IPB: 3427348.000000, STDT: 603472891.000000, IPT: 441931183.000000, BOH/LOH: 5.070976,1.365536, MAX:1
Coverage: 48, Tot. Cov: 100.000000, 3/100, STDB: 18340000.000000, IPB: 3535056.000000, STDT: 545969205.000000, IPT: 459532662.000000, BOH/LOH: 5.188037,1.188097, MAX:1
Coverage: 48, Tot. Cov: 98.000000, 3/100, STDB: 9590000.000000, IPB: 3429120.000000, STDT: 2503751262.000000, IPT: 447066612.000000, BOH/LOH: 2.796636,5.600399, MAX:1
Coverage: 48, Tot. Cov: 299.000000, 4/100, STDB: 117840000.000000, IPB: 8514272.000000, STDT: 1605703846.000000, IPT: 1301139042.000000, BOH/LOH: 13.840291,1.234076, MAX:1
Coverage: 48, Tot. Cov: 299.000000, 4/100, STDB: 66420000.000000, IPB: 8514728.000000, STDT: 8361050471.000000, IPT: 1301505341.000000, BOH/LOH: 7.800601,6.424138, MAX:1
Coverage: 48, Tot. Cov: 395.000000, 5/100, STDB: 821520000.000000, IPB: 167152820.000000, STDT: 5190815919.000000, IPT: 2003108986.000000, BOH/LOH: 4.914784,2.591380, MAX:1
Coverage: 48, Tot. Cov: 396.000000, 5/100, STDB: 712080000.000000, IPB: 167956668.000000, STDT: 2516428232.000000, IPT: 2007163417.000000, BOH/LOH: 4.239665,1.253724, MAX:1
Coverage: 48, Tot. Cov: 397.000000, 5/100, STDB: 458200000.000000, IPB: 167125600.000000, STDT: 12600423315.000000, IPT: 2033475299.000000, BOH/LOH: 2.741651,6.196497, MAX:1
Coverage: 48, Tot. Cov: 199.000000, 6/100, STDB: 480750000.000000, IPB: 112510804.000000, STDT: 1130831922.000000, IPT: 850987302.000000, BOH/LOH: 4.272923,1.328847, MAX:1
Coverage: 48, Tot. Cov: 198.000000, 6/100, STDB: 429140000.000000, IPB: 112237892.000000, STDT: 1616005272.000000, IPT: 841122372.000000, BOH/LOH: 3.823486,1.921249, MAX:1
Coverage: 48, Tot. Cov: 98.000000, 7/100, STDB: 142135000.000000, IPB: 38059288.000000, STDT: 1335269608.000000, IPT: 487302739.000000, BOH/LOH: 3.734568,2.740123, MAX:1
Coverage: 48, Tot. Cov: 97.000000, 7/100, STDB: 97510000.000000, IPB: 37649368.000000, STDT: 660617332.000000, IPT: 479129850.000000, BOH/LOH: 2.589951,1.378786, MAX:1
Coverage: 48, Tot. Cov: 97.000000, 7/100, STDB: 61780000.000000, IPB: 37638924.000000, STDT: 4602255579.000000, IPT: 486299765.000000, BOH/LOH: 1.641386,9.463824, MAX:1
Coverage: 48, Tot. Cov: 198.000000, 8/100, STDB: 300870000.000000, IPB: 92338984.000000, STDT: 1371668295.000000, IPT: 1118650638.000000, BOH/LOH: 3.258320,1.226181, MAX:1
Coverage: 48, Tot. Cov: 350.000000, 9/100, STDB: 2034252500.000000, IPB: 294900700.000000, STDT: 2736750086.000000, IPT: 1865651207.000000, BOH/LOH: 6.898093,1.466914, MAX:1
Coverage: 48, Tot. Cov: 146.000000, 10/100, STDB: 264187500.000000, IPB: 71517336.000000, STDT: 1708081613.000000, IPT: 785016978.000000, BOH/LOH: 3.694034,2.175853, MAX:1
Coverage: 48, Tot. Cov: 145.000000, 10/100, STDB: 195855000.000000, IPB: 71288804.000000, STDT: 1063384291.000000, IPT: 775044905.000000, BOH/LOH: 2.747346,1.372029, MAX:1
Coverage: 48, Tot. Cov: 445.000000, 11/100, STDB: 1406767500.000000, IPB: 234894160.000000, STDT: 3134283108.000000, IPT: 2300415508.000000, BOH/LOH: 5.988942,1.362486, MAX:1
Coverage: 48, Tot. Cov: 450.000000, 11/100, STDB: 1124347500.000000, IPB: 237801964.000000, STDT: 4284382827.000000, IPT: 2345089019.000000, BOH/LOH: 4.728083,1.826960, MAX:1
Coverage: 48, Tot. Cov: 98.000000, 12/100, STDB: 199140000.000000, IPB: 55555796.000000, STDT: 740500780.000000, IPT: 406020229.000000, BOH/LOH: 3.584504,1.823803, MAX:1
Coverage: 48, Tot. Cov: 198.000000, 13/100, STDB: 143820000.000000, IPB: 66085328.000000, STDT: 6241835308.000000, IPT: 822460766.000000, BOH/LOH: 2.176277,7.589220, MAX:1
Coverage: 48, Tot. Cov: 397.000000, 14/100, STDB: 1095160000.000000, IPB: 207539396.000000, STDT: 2736429231.000000, IPT: 2046580054.000000, BOH/LOH: 5.276878,1.337074, MAX:1
Coverage: 48, Tot. Cov: 396.000000, 14/100, STDB: 928200000.000000, IPB: 206023656.000000, STDT: 22884496089.000000, IPT: 2036831735.000000, BOH/LOH: 4.505308,11.235340, MAX:1
Coverage: 48, Tot. Cov: 247.000000, 15/100, STDB: 4099862500.000000, IPB: 485571840.000000, STDT: 1558882831.000000, IPT: 1356030737.000000, BOH/LOH: 8.443370,1.149593, MAX:1
Coverage: 48, Tot. Cov: 246.000000, 15/100, STDB: 3667425000.000000, IPB: 484829400.000000, STDT: 1913455455.000000, IPT: 1346567368.000000, BOH/LOH: 7.564362,1.420988, MAX:1
Coverage: 48, Tot. Cov: 648.000000, 16/100, STDB: 2459892500.000000, IPB: 478100744.000000, STDT: 5195114426.000000, IPT: 3770506545.000000, BOH/LOH: 5.145134,1.377829, MAX:1
Coverage: 48, Tot. Cov: 645.000000, 16/100, STDB: 1836900000.000000, IPB: 474466528.000000, STDT: 6031632790.000000, IPT: 3743785041.000000, BOH/LOH: 3.871506,1.611106, MAX:1
Coverage: 48, Tot. Cov: 646.000000, 16/100, STDB: 1311570000.000000, IPB: 474628436.000000, STDT: 74283776416.000000, IPT: 3760440336.000000, BOH/LOH: 2.763362,19.754010, MAX:1
Coverage: 48, Tot. Cov: 498.000000, 17/100, STDB: 1945775000.000000, IPB: 358406596.000000, STDT: 6259178716.000000, IPT: 2656214216.000000, BOH/LOH: 5.428960,2.356428, MAX:1
Coverage: 48, Tot. Cov: 497.000000, 17/100, STDB: 1264400000.000000, IPB: 356785728.000000, STDT: 5189556251.000000, IPT: 2651177081.000000, BOH/LOH: 3.543864,1.957454, MAX:1
Coverage: 48, Tot. Cov: 498.000000, 17/100, STDB: 1203525000.000000, IPB: 358602672.000000, STDT: 27223176603.000000, IPT: 2656068425.000000, BOH/LOH: 3.356152,10.249426, MAX:1
Coverage: 48, Tot. Cov: 98.000000, 18/100, STDB: 262240000.000000, IPB: 51388380.000000, STDT: 536898986.000000, IPT: 491890416.000000, BOH/LOH: 5.103099,1.091501, MAX:1
Coverage: 48, Tot. Cov: 249.000000, 20/100, STDB: 666500000.000000, IPB: 172206140.000000, STDT: 2283760221.000000, IPT: 1774469085.000000, BOH/LOH: 3.870361,1.287010, MAX:1
Coverage: 48, Tot. Cov: 247.000000, 20/100, STDB: 487350000.000000, IPB: 169551128.000000, STDT: 17291192980.000000, IPT: 1755052521.000000, BOH/LOH: 2.874354,9.852237, MAX:1
Coverage: 48, Tot. Cov: 150.000000, 21/100, STDB: 377175000.000000, IPB: 120603928.000000, STDT: 1423145368.000000, IPT: 790496151.000000, BOH/LOH: 3.127386,1.800319, MAX:1
Coverage: 48, Tot. Cov: 149.000000, 21/100, STDB: 260512500.000000, IPB: 119274180.000000, STDT: 7507417957.000000, IPT: 785959171.000000, BOH/LOH: 2.184148,9.551919, MAX:1
Coverage: 48, Tot. Cov: 97.000000, 22/100, STDB: 225025000.000000, IPB: 75915696.000000, STDT: 628508657.000000, IPT: 592072759.000000, BOH/LOH: 2.964143,1.061540, MAX:1
Coverage: 48, Tot. Cov: 97.000000, 22/100, STDB: 182980000.000000, IPB: 75915696.000000, STDT: 614483628.000000, IPT: 592072759.000000, BOH/LOH: 2.410305,1.037852, MAX:1
Coverage: 48, Tot. Cov: 393.000000, 23/100, STDB: 1208880000.000000, IPB: 311954748.000000, STDT: 2888144878.000000, IPT: 2144724036.000000, BOH/LOH: 3.875177,1.346628, MAX:1
Coverage: 48, Tot. Cov: 697.000000, 24/100, STDB: 1056405000.000000, IPB: 229430316.000000, STDT: 6631687558.000000, IPT: 3139665178.000000, BOH/LOH: 4.604470,2.112228, MAX:1
Coverage: 48, Tot. Cov: 698.000000, 24/100, STDB: 1049650000.000000, IPB: 230236192.000000, STDT: 5263939785.000000, IPT: 3144246570.000000, BOH/LOH: 4.559014,1.674150, MAX:1
Coverage: 48, Tot. Cov: 100.000000, 25/100, STDB: 155005000.000000, IPB: 40394024.000000, STDT: 965779871.000000, IPT: 527820348.000000, BOH/LOH: 3.837325,1.829751, MAX:1
Coverage: 48, Tot. Cov: 97.000000, 25/100, STDB: 114075000.000000, IPB: 39271048.000000, STDT: 528466440.000000, IPT: 503133572.000000, BOH/LOH: 2.904812,1.050350, MAX:1
Coverage: 48, Tot. Cov: 98.000000, 25/100, STDB: 89350000.000000, IPB: 39318256.000000, STDT: 3503152024.000000, IPT: 515158533.000000, BOH/LOH: 2.272481,6.800144, MAX:1
Coverage: 48, Tot. Cov: 100.000000, 26/100, STDB: 108550000.000000, IPB: 27171784.000000, STDT: 764120523.000000, IPT: 454960455.000000, BOH/LOH: 3.994953,1.679532, MAX:1
Coverage: 48, Tot. Cov: 96.000000, 26/100, STDB: 88685000.000000, IPB: 26082664.000000, STDT: 529836314.000000, IPT: 423285733.000000, BOH/LOH: 3.400151,1.251723, MAX:1
Coverage: 48, Tot. Cov: 98.000000, 26/100, STDB: 56845000.000000, IPB: 26548704.000000, STDT: 5460250700.000000, IPT: 444257456.000000, BOH/LOH: 2.141159,12.290735, MAX:1
Coverage: 48, Tot. Cov: 99.000000, 27/100, STDB: 59325000.000000, IPB: 21362032.000000, STDT: 593327375.000000, IPT: 522626441.000000, BOH/LOH: 2.777123,1.135280, MAX:1
Coverage: 48, Tot. Cov: 98.000000, 27/100, STDB: 40180000.000000, IPB: 21123824.000000, STDT: 3125763065.000000, IPT: 516217099.000000, BOH/LOH: 1.902118,6.055133, MAX:1
Coverage: 48, Tot. Cov: 196.000000, 28/100, STDB: 261960000.000000, IPB: 55108264.000000, STDT: 961695339.000000, IPT: 867625602.000000, BOH/LOH: 4.753552,1.108422, MAX:1
Coverage: 48, Tot. Cov: 148.000000, 29/100, STDB: 284332500.000000, IPB: 49462100.000000, STDT: 1048482156.000000, IPT: 879524984.000000, BOH/LOH: 5.748492,1.192100, MAX:1
Coverage: 48, Tot. Cov: 150.000000, 29/100, STDB: 225345000.000000, IPB: 50300932.000000, STDT: 1342331174.000000, IPT: 899365413.000000, BOH/LOH: 4.479937,1.492531, MAX:1
Coverage: 48, Tot. Cov: 148.000000, 29/100, STDB: 135960000.000000, IPB: 49204616.000000, STDT: 5677922393.000000, IPT: 880222292.000000, BOH/LOH: 2.763155,6.450555, MAX:1
Coverage: 48, Tot. Cov: 349.000000, 30/100, STDB: 2300165000.000000, IPB: 181397060.000000, STDT: 2621956521.000000, IPT: 1805494393.000000, BOH/LOH: 12.680277,1.452210, MAX:1
Coverage: 48, Tot. Cov: 350.000000, 30/100, STDB: 2032730000.000000, IPB: 183376168.000000, STDT: 2701525477.000000, IPT: 1815463144.000000, BOH/LOH: 11.085028,1.488064, MAX:1
Coverage: 48, Tot. Cov: 348.000000, 30/100, STDB: 1118950000.000000, IPB: 178957776.000000, STDT: 21388411083.000000, IPT: 1796569610.000000, BOH/LOH: 6.252592,11.905139, MAX:1
Coverage: 48, Tot. Cov: 199.000000, 31/100, STDB: 1460970000.000000, IPB: 334132932.000000, STDT: 2043594613.000000, IPT: 1437548731.000000, BOH/LOH: 4.372421,1.421583, MAX:1
Coverage: 48, Tot. Cov: 148.000000, 32/100, STDB: 771262500.000000, IPB: 225549672.000000, STDT: 1323632084.000000, IPT: 1012337044.000000, BOH/LOH: 3.419480,1.307501, MAX:1
Coverage: 48, Tot. Cov: 349.000000, 33/100, STDB: 2499035000.000000, IPB: 363702800.000000, STDT: 10458857181.000000, IPT: 2184572984.000000, BOH/LOH: 6.871091,4.787598, MAX:1
Coverage: 48, Tot. Cov: 348.000000, 33/100, STDB: 1808030000.000000, IPB: 360455452.000000, STDT: 2956686549.000000, IPT: 2174997645.000000, BOH/LOH: 5.015960,1.359398, MAX:1
Coverage: 48, Tot. Cov: 348.000000, 33/100, STDB: 1531792500.000000, IPB: 361180100.000000, STDT: 42130904765.000000, IPT: 2175862963.000000, BOH/LOH: 4.241077,19.362848, MAX:1
Coverage: 48, Tot. Cov: 195.000000, 34/100, STDB: 540900000.000000, IPB: 211283068.000000, STDT: 1660345920.000000, IPT: 995662133.000000, BOH/LOH: 2.560073,1.667580, MAX:1
Coverage: 48, Tot. Cov: 146.000000, 35/100, STDB: 227707500.000000, IPB: 110223528.000000, STDT: 15234540690.000000, IPT: 942254816.000000, BOH/LOH: 2.065870,16.168175, MAX:1
Coverage: 48, Tot. Cov: 400.000000, 36/100, STDB: 3699580000.000000, IPB: 599600756.000000, STDT: 3306119015.000000, IPT: 2405728464.000000, BOH/LOH: 6.170072,1.374269, MAX:1
Coverage: 48, Tot. Cov: 392.000000, 37/100, STDB: 1254980000.000000, IPB: 399248156.000000, STDT: 2434757698.000000, IPT: 2075941698.000000, BOH/LOH: 3.143358,1.172845, MAX:1
Coverage: 48, Tot. Cov: 399.000000, 37/100, STDB: 1210820000.000000, IPB: 404949592.000000, STDT: 4234672802.000000, IPT: 2140634948.000000, BOH/LOH: 2.990051,1.978232, MAX:1
Coverage: 48, Tot. Cov: 148.000000, 38/100, STDB: 341032500.000000, IPB: 51511304.000000, STDT: 762298856.000000, IPT: 582294602.000000, BOH/LOH: 6.620537,1.309129, MAX:1
Coverage: 48, Tot. Cov: 147.000000, 38/100, STDB: 303082500.000000, IPB: 51437716.000000, STDT: 666908982.000000, IPT: 573216082.000000, BOH/LOH: 5.892223,1.163451, MAX:1
Coverage: 48, Tot. Cov: 99.000000, 39/100, STDB: 37185000.000000, IPB: 6699344.000000, STDT: 743868694.000000, IPT: 592356506.000000, BOH/LOH: 5.550543,1.255779, MAX:1
Coverage: 48, Tot. Cov: 99.000000, 39/100, STDB: 31275000.000000, IPB: 6699344.000000, STDT: 614832887.000000, IPT: 592356506.000000, BOH/LOH: 4.668368,1.037944, MAX:1
Coverage: 48, Tot. Cov: 98.000000, 39/100, STDB: 16665000.000000, IPB: 6600296.000000, STDT: 2762112203.000000, IPT: 585471899.000000, BOH/LOH: 2.524887,4.717754, MAX:1
Coverage: 48, Tot. Cov: 394.000000, 41/100, STDB: 135520000.000000, IPB: 23259700.000000, STDT: 2197944315.000000, IPT: 1344468278.000000, BOH/LOH: 5.826386,1.634806, MAX:1
Coverage: 48, Tot. Cov: 398.000000, 41/100, STDB: 88640000.000000, IPB: 23502940.000000, STDT: 2652084212.000000, IPT: 1378267962.000000, BOH/LOH: 3.771443,1.924215, MAX:1
Coverage: 48, Tot. Cov: 397.000000, 41/100, STDB: 65580000.000000, IPB: 23352444.000000, STDT: 9262186634.000000, IPT: 1380911674.000000, BOH/LOH: 2.808271,6.707298, MAX:1
Coverage: 48, Tot. Cov: 97.000000, 42/100, STDB: 553980000.000000, IPB: 136372580.000000, STDT: 1590762507.000000, IPT: 730556054.000000, BOH/LOH: 4.062254,2.177468, MAX:1
Coverage: 48, Tot. Cov: 99.000000, 42/100, STDB: 303920000.000000, IPB: 139438464.000000, STDT: 935471346.000000, IPT: 749251599.000000, BOH/LOH: 2.179599,1.248541, MAX:1
Coverage: 48, Tot. Cov: 96.000000, 42/100, STDB: 258230000.000000, IPB: 134489680.000000, STDT: 9930013182.000000, IPT: 722578858.000000, BOH/LOH: 1.920073,13.742463, MAX:1
Coverage: 48, Tot. Cov: 99.000000, 43/100, STDB: 505880000.000000, IPB: 119598876.000000, STDT: 837846704.000000, IPT: 599075485.000000, BOH/LOH: 4.229806,1.398566, MAX:1
Coverage: 48, Tot. Cov: 98.000000, 43/100, STDB: 335460000.000000, IPB: 119295608.000000, STDT: 767154699.000000, IPT: 588337308.000000, BOH/LOH: 2.812006,1.303937, MAX:1
Coverage: 48, Tot. Cov: 148.000000, 44/100, STDB: 461025000.000000, IPB: 171774584.000000, STDT: 1368798187.000000, IPT: 851289725.000000, BOH/LOH: 2.683895,1.607911, MAX:1
Coverage: 48, Tot. Cov: 149.000000, 44/100, STDB: 368302500.000000, IPB: 173130004.000000, STDT: 10342334258.000000, IPT: 862451884.000000, BOH/LOH: 2.127318,11.991781, MAX:1
Coverage: 48, Tot. Cov: 496.000000, 45/100, STDB: 5449850000.000000, IPB: 1033851792.000000, STDT: 4153571621.000000, IPT: 3452505794.000000, BOH/LOH: 5.271404,1.203060, MAX:1
Coverage: 48, Tot. Cov: 497.000000, 45/100, STDB: 3542375000.000000, IPB: 1037166716.000000, STDT: 4469745692.000000, IPT: 3462497980.000000, BOH/LOH: 3.415435,1.290902, MAX:1
Coverage: 48, Tot. Cov: 346.000000, 46/100, STDB: 2515065000.000000, IPB: 517128188.000000, STDT: 2449678592.000000, IPT: 2151071131.000000, BOH/LOH: 4.863523,1.138818, MAX:1
Coverage: 48, Tot. Cov: 348.000000, 46/100, STDB: 1571552500.000000, IPB: 519504572.000000, STDT: 2962290615.000000, IPT: 2171181587.000000, BOH/LOH: 3.025098,1.364368, MAX:1
Coverage: 48, Tot. Cov: 346.000000, 46/100, STDB: 1412775000.000000, IPB: 512332392.000000, STDT: 35850831109.000000, IPT: 2161793185.000000, BOH/LOH: 2.757536,16.583839, MAX:1
Coverage: 48, Tot. Cov: 450.000000, 47/100, STDB: 3513960000.000000, IPB: 680420384.000000, STDT: 3730950920.000000, IPT: 3125604108.000000, BOH/LOH: 5.164396,1.193674, MAX:1
Coverage: 48, Tot. Cov: 450.000000, 47/100, STDB: 2573662500.000000, IPB: 680420384.000000, STDT: 6443561640.000000, IPT: 3125604108.000000, BOH/LOH: 3.782459,2.061541, MAX:1
Coverage: 48, Tot. Cov: 97.000000, 48/100, STDB: 506395000.000000, IPB: 210354912.000000, STDT: 730939061.000000, IPT: 502331293.000000, BOH/LOH: 2.407336,1.455094, MAX:1
Coverage: 48, Tot. Cov: 295.000000, 49/100, STDB: 203205000.000000, IPB: 44616004.000000, STDT: 1717667878.000000, IPT: 1445815739.000000, BOH/LOH: 4.554532,1.188027, MAX:1
Coverage: 48, Tot. Cov: 299.000000, 49/100, STDB: 111795000.000000, IPB: 45091276.000000, STDT: 8741082619.000000, IPT: 1479185743.000000, BOH/LOH: 2.479304,5.909388, MAX:1
Coverage: 48, Tot. Cov: 247.000000, 50/100, STDB: 93162500.000000, IPB: 33272100.000000, STDT: 9082746583.000000, IPT: 1194899796.000000, BOH/LOH: 2.800019,7.601262, MAX:1
Coverage: 48, Tot. Cov: 150.000000, 51/100, STDB: 142867500.000000, IPB: 22760308.000000, STDT: 1198683689.000000, IPT: 798072767.000000, BOH/LOH: 6.277046,1.501973, MAX:1
Coverage: 48, Tot. Cov: 150.000000, 51/100, STDB: 105765000.000000, IPB: 22760308.000000, STDT: 1106285675.000000, IPT: 798072767.000000, BOH/LOH: 4.646905,1.386196, MAX:1
Coverage: 48, Tot. Cov: 149.000000, 51/100, STDB: 81502500.000000, IPB: 22393544.000000, STDT: 4088800352.000000, IPT: 792318254.000000, BOH/LOH: 3.639553,5.160553, MAX:1
Coverage: 48, Tot. Cov: 197.000000, 52/100, STDB: 44780000.000000, IPB: 19909896.000000, STDT: 11396454840.000000, IPT: 1006004308.000000, BOH/LOH: 2.249133,11.328435, MAX:1
Coverage: 48, Tot. Cov: 248.000000, 53/100, STDB: 316050000.000000, IPB: 35979840.000000, STDT: 1180967760.000000, IPT: 950368163.000000, BOH/LOH: 8.784086,1.242642, MAX:1
Coverage: 48, Tot. Cov: 245.000000, 53/100, STDB: 265725000.000000, IPB: 35842924.000000, STDT: 1255436908.000000, IPT: 921651694.000000, BOH/LOH: 7.413597,1.362160, MAX:1
Coverage: 48, Tot. Cov: 250.000000, 53/100, STDB: 186600000.000000, IPB: 36984968.000000, STDT: 6444121896.000000, IPT: 967523997.000000, BOH/LOH: 5.045293,6.660426, MAX:1
Coverage: 48, Tot. Cov: 295.000000, 54/100, STDB: 49695000.000000, IPB: 16669328.000000, STDT: 5369743291.000000, IPT: 1279845563.000000, BOH/LOH: 2.981224,4.195618, MAX:1
Coverage: 48, Tot. Cov: 349.000000, 55/100, STDB: 820452500.000000, IPB: 54659796.000000, STDT: 2250923051.000000, IPT: 1874523679.000000, BOH/LOH: 15.010164,1.200797, MAX:1
Coverage: 48, Tot. Cov: 349.000000, 55/100, STDB: 680312500.000000, IPB: 54659796.000000, STDT: 2011110156.000000, IPT: 1874523679.000000, BOH/LOH: 12.446305,1.072865, MAX:1
Coverage: 48, Tot. Cov: 145.000000, 56/100, STDB: 52395000.000000, IPB: 27770600.000000, STDT: 7965021179.000000, IPT: 567448573.000000, BOH/LOH: 1.886708,14.036552, MAX:1
Coverage: 48, Tot. Cov: 99.000000, 57/100, STDB: 228980000.000000, IPB: 52216120.000000, STDT: 752598445.000000, IPT: 620083789.000000, BOH/LOH: 4.385236,1.213704, MAX:1
Coverage: 48, Tot. Cov: 748.000000, 58/100, STDB: 794737500.000000, IPB: 113923564.000000, STDT: 42388254920.000000, IPT: 3550248981.000000, BOH/LOH: 6.976059,11.939516, MAX:1
Coverage: 48, Tot. Cov: 97.000000, 59/100, STDB: 87110000.000000, IPB: 18852980.000000, STDT: 423206925.000000, IPT: 389658553.000000, BOH/LOH: 4.620490,1.086097, MAX:1
Coverage: 48, Tot. Cov: 150.000000, 60/100, STDB: 1332217500.000000, IPB: 178267096.000000, STDT: 1412855144.000000, IPT: 1114485722.000000, BOH/LOH: 7.473154,1.267719, MAX:1
Coverage: 48, Tot. Cov: 148.000000, 60/100, STDB: 828892500.000000, IPB: 173433136.000000, STDT: 1346493523.000000, IPT: 1095074758.000000, BOH/LOH: 4.779320,1.229591, MAX:1
Coverage: 48, Tot. Cov: 97.000000, 61/100, STDB: 154710000.000000, IPB: 55903628.000000, STDT: 789603427.000000, IPT: 468371872.000000, BOH/LOH: 2.767441,1.685847, MAX:1
Coverage: 48, Tot. Cov: 250.000000, 62/100, STDB: 451512500.000000, IPB: 49548708.000000, STDT: 2320933996.000000, IPT: 1492509315.000000, BOH/LOH: 9.112498,1.555055, MAX:1
Coverage: 48, Tot. Cov: 250.000000, 62/100, STDB: 425537500.000000, IPB: 49548708.000000, STDT: 1556349978.000000, IPT: 1492509315.000000, BOH/LOH: 8.588266,1.042774, MAX:1
Coverage: 48, Tot. Cov: 250.000000, 62/100, STDB: 261812500.000000, IPB: 49548708.000000, STDT: 8124343267.000000, IPT: 1492509315.000000, BOH/LOH: 5.283942,5.443412, MAX:1
Coverage: 48, Tot. Cov: 299.000000, 63/100, STDB: 1144005000.000000, IPB: 67277300.000000, STDT: 1623280439.000000, IPT: 1404671041.000000, BOH/LOH: 17.004324,1.155630, MAX:1
Coverage: 48, Tot. Cov: 298.000000, 63/100, STDB: 667350000.000000, IPB: 66293196.000000, STDT: 19873664667.000000, IPT: 1395816993.000000, BOH/LOH: 10.066644,14.238016, MAX:1
Coverage: 48, Tot. Cov: 147.000000, 64/100, STDB: 94132500.000000, IPB: 22285564.000000, STDT: 1249985565.000000, IPT: 599889234.000000, BOH/LOH: 4.223923,2.083694, MAX:1
Coverage: 48, Tot. Cov: 149.000000, 64/100, STDB: 44175000.000000, IPB: 22596284.000000, STDT: 4596718067.000000, IPT: 614707426.000000, BOH/LOH: 1.954967,7.477896, MAX:1
Coverage: 48, Tot. Cov: 147.000000, 65/100, STDB: 115777500.000000, IPB: 27902256.000000, STDT: 690413755.000000, IPT: 628938241.000000, BOH/LOH: 4.149396,1.097745, MAX:1
Coverage: 48, Tot. Cov: 147.000000, 65/100, STDB: 93022500.000000, IPB: 27902256.000000, STDT: 843172641.000000, IPT: 628938241.000000, BOH/LOH: 3.333870,1.340629, MAX:1
Coverage: 48, Tot. Cov: 149.000000, 65/100, STDB: 74422500.000000, IPB: 28187828.000000, STDT: 2545251004.000000, IPT: 646101091.000000, BOH/LOH: 2.640235,3.939401, MAX:1
Coverage: 48, Tot. Cov: 299.000000, 66/100, STDB: 4054170000.000000, IPB: 680976736.000000, STDT: 3394723778.000000, IPT: 1675710590.000000, BOH/LOH: 5.953463,2.025841, MAX:1
Coverage: 48, Tot. Cov: 299.000000, 66/100, STDB: 2757915000.000000, IPB: 680283420.000000, STDT: 1762232579.000000, IPT: 1675790107.000000, BOH/LOH: 4.054068,1.051583, MAX:1
Coverage: 48, Tot. Cov: 197.000000, 67/100, STDB: 2549890000.000000, IPB: 665431676.000000, STDT: 2494457947.000000, IPT: 1465089148.000000, BOH/LOH: 3.831934,1.702598, MAX:1
Coverage: 48, Tot. Cov: 195.000000, 67/100, STDB: 1847590000.000000, IPB: 659675976.000000, STDT: 1556214425.000000, IPT: 1445619427.000000, BOH/LOH: 2.800754,1.076504, MAX:1
Coverage: 48, Tot. Cov: 446.000000, 68/100, STDB: 1563930000.000000, IPB: 180088488.000000, STDT: 3663339248.000000, IPT: 1882004924.000000, BOH/LOH: 8.684231,1.946509, MAX:1
Coverage: 48, Tot. Cov: 448.000000, 68/100, STDB: 1584022500.000000, IPB: 183545900.000000, STDT: 2418093338.000000, IPT: 1890213490.000000, BOH/LOH: 8.630116,1.279270, MAX:1
Coverage: 48, Tot. Cov: 248.000000, 69/100, STDB: 549475000.000000, IPB: 95757008.000000, STDT: 2170194210.000000, IPT: 1390746809.000000, BOH/LOH: 5.738222,1.560452, MAX:1
Coverage: 48, Tot. Cov: 249.000000, 69/100, STDB: 533825000.000000, IPB: 96673524.000000, STDT: 2023276111.000000, IPT: 1400553006.000000, BOH/LOH: 5.521936,1.444627, MAX:1
Coverage: 48, Tot. Cov: 249.000000, 69/100, STDB: 331087500.000000, IPB: 96664344.000000, STDT: 11385174949.000000, IPT: 1404461425.000000, BOH/LOH: 3.425125,8.106435, MAX:1
Coverage: 48, Tot. Cov: 294.000000, 70/100, STDB: 419190000.000000, IPB: 80030144.000000, STDT: 1217560377.000000, IPT: 1192595024.000000, BOH/LOH: 5.237901,1.020934, MAX:1
Coverage: 48, Tot. Cov: 295.000000, 70/100, STDB: 350970000.000000, IPB: 80473296.000000, STDT: 1249985278.000000, IPT: 1200448766.000000, BOH/LOH: 4.361323,1.041265, MAX:1
Coverage: 48, Tot. Cov: 298.000000, 70/100, STDB: 235620000.000000, IPB: 80664616.000000, STDT: 8343983607.000000, IPT: 1236008894.000000, BOH/LOH: 2.920983,6.750747, MAX:1
Coverage: 48, Tot. Cov: 148.000000, 71/100, STDB: 108382500.000000, IPB: 42069748.000000, STDT: 6346421603.000000, IPT: 830104270.000000, BOH/LOH: 2.576257,7.645331, MAX:1
Coverage: 48, Tot. Cov: 195.000000, 72/100, STDB: 153640000.000000, IPB: 35179056.000000, STDT: 814155114.000000, IPT: 752825230.000000, BOH/LOH: 4.367371,1.081466, MAX:1
Coverage: 48, Tot. Cov: 199.000000, 72/100, STDB: 108100000.000000, IPB: 35804692.000000, STDT: 14773188154.000000, IPT: 789867649.000000, BOH/LOH: 3.019157,18.703372, MAX:1
Coverage: 48, Tot. Cov: 349.000000, 73/100, STDB: 421382500.000000, IPB: 74831736.000000, STDT: 2811472938.000000, IPT: 1711854402.000000, BOH/LOH: 5.631067,1.642355, MAX:1
Coverage: 48, Tot. Cov: 350.000000, 73/100, STDB: 399315000.000000, IPB: 74987852.000000, STDT: 1980582904.000000, IPT: 1721437439.000000, BOH/LOH: 5.325063,1.150540, MAX:1
Coverage: 48, Tot. Cov: 350.000000, 73/100, STDB: 207812500.000000, IPB: 74987852.000000, STDT: 13746109593.000000, IPT: 1721437439.000000, BOH/LOH: 2.771282,7.985251, MAX:1
Coverage: 48, Tot. Cov: 249.000000, 74/100, STDB: 390787500.000000, IPB: 71520272.000000, STDT: 3111165520.000000, IPT: 1174325467.000000, BOH/LOH: 5.464010,2.649321, MAX:1
Coverage: 48, Tot. Cov: 250.000000, 74/100, STDB: 332725000.000000, IPB: 72146192.000000, STDT: 2914653817.000000, IPT: 1183145308.000000, BOH/LOH: 4.611817,2.463479, MAX:1
Coverage: 48, Tot. Cov: 248.000000, 74/100, STDB: 220750000.000000, IPB: 70888200.000000, STDT: 8168403015.000000, IPT: 1172216186.000000, BOH/LOH: 3.114058,6.968342, MAX:1
Coverage: 48, Tot. Cov: 148.000000, 75/100, STDB: 105772500.000000, IPB: 31024516.000000, STDT: 1176306303.000000, IPT: 807674972.000000, BOH/LOH: 3.409320,1.456410, MAX:1
Coverage: 48, Tot. Cov: 150.000000, 76/100, STDB: 1305937500.000000, IPB: 415886624.000000, STDT: 1691129341.000000, IPT: 1026981131.000000, BOH/LOH: 3.140129,1.646700, MAX:1
Coverage: 48, Tot. Cov: 147.000000, 76/100, STDB: 929235000.000000, IPB: 408798704.000000, STDT: 1104255314.000000, IPT: 1001176242.000000, BOH/LOH: 2.273087,1.102958, MAX:1
Coverage: 48, Tot. Cov: 348.000000, 77/100, STDB: 3915100000.000000, IPB: 575388732.000000, STDT: 3626941437.000000, IPT: 2628394289.000000, BOH/LOH: 6.804270,1.379908, MAX:1
Coverage: 48, Tot. Cov: 346.000000, 77/100, STDB: 2522485000.000000, IPB: 573014424.000000, STDT: 2956037571.000000, IPT: 2605554877.000000, BOH/LOH: 4.402132,1.134514, MAX:1
Coverage: 48, Tot. Cov: 349.000000, 77/100, STDB: 1817200000.000000, IPB: 578379580.000000, STDT: 20790447125.000000, IPT: 2638313262.000000, BOH/LOH: 3.141881,7.880204, MAX:1
Coverage: 48, Tot. Cov: 246.000000, 78/100, STDB: 1096000000.000000, IPB: 637099736.000000, STDT: 32797519245.000000, IPT: 1623718665.000000, BOH/LOH: 1.720296,20.199016, MAX:1
Coverage: 48, Tot. Cov: 150.000000, 79/100, STDB: 3080962500.000000, IPB: 571328916.000000, STDT: 1230499054.000000, IPT: 1141908340.000000, BOH/LOH: 5.392625,1.077581, MAX:1
Coverage: 48, Tot. Cov: 148.000000, 79/100, STDB: 2539635000.000000, IPB: 567251288.000000, STDT: 1258593138.000000, IPT: 1124122045.000000, BOH/LOH: 4.477090,1.119623, MAX:1
Coverage: 48, Tot. Cov: 149.000000, 79/100, STDB: 1627687500.000000, IPB: 563306936.000000, STDT: 8520461748.000000, IPT: 1131964011.000000, BOH/LOH: 2.889521,7.527149, MAX:1
Coverage: 48, Tot. Cov: 347.000000, 80/100, STDB: 1470385000.000000, IPB: 292458496.000000, STDT: 2326893610.000000, IPT: 1946195489.000000, BOH/LOH: 5.027671,1.195611, MAX:1
Coverage: 48, Tot. Cov: 199.000000, 81/100, STDB: 523850000.000000, IPB: 118174828.000000, STDT: 3173700828.000000, IPT: 1140711878.000000, BOH/LOH: 4.432839,2.782211, MAX:1
Coverage: 48, Tot. Cov: 145.000000, 82/100, STDB: 326895000.000000, IPB: 103053812.000000, STDT: 1175168495.000000, IPT: 811875020.000000, BOH/LOH: 3.172081,1.447475, MAX:1
Coverage: 48, Tot. Cov: 147.000000, 82/100, STDB: 245092500.000000, IPB: 103293056.000000, STDT: 11862112161.000000, IPT: 835529510.000000, BOH/LOH: 2.372788,14.197119, MAX:1
Coverage: 48, Tot. Cov: 298.000000, 83/100, STDB: 945000000.000000, IPB: 194483356.000000, STDT: 2377550844.000000, IPT: 1878033813.000000, BOH/LOH: 4.859028,1.265979, MAX:1
Coverage: 48, Tot. Cov: 300.000000, 83/100, STDB: 714675000.000000, IPB: 196816960.000000, STDT: 2872151486.000000, IPT: 1897836816.000000, BOH/LOH: 3.631166,1.513382, MAX:1
Coverage: 48, Tot. Cov: 97.000000, 84/100, STDB: 229235000.000000, IPB: 55609584.000000, STDT: 933476639.000000, IPT: 447193875.000000, BOH/LOH: 4.122221,2.087409, MAX:1
Coverage: 48, Tot. Cov: 97.000000, 84/100, STDB: 148530000.000000, IPB: 55609584.000000, STDT: 572211622.000000, IPT: 447193875.000000, BOH/LOH: 2.670942,1.279561, MAX:1
Coverage: 48, Tot. Cov: 96.000000, 84/100, STDB: 103495000.000000, IPB: 54891628.000000, STDT: 3813651259.000000, IPT: 442332851.000000, BOH/LOH: 1.885442,8.621678, MAX:1
Coverage: 48, Tot. Cov: 246.000000, 85/100, STDB: 1088150000.000000, IPB: 239412444.000000, STDT: 1202770055.000000, IPT: 1128263710.000000, BOH/LOH: 4.545085,1.066036, MAX:1
Coverage: 48, Tot. Cov: 245.000000, 85/100, STDB: 909600000.000000, IPB: 238031664.000000, STDT: 1243078765.000000, IPT: 1121884268.000000, BOH/LOH: 3.821340,1.108028, MAX:1
Coverage: 48, Tot. Cov: 246.000000, 85/100, STDB: 519137500.000000, IPB: 237656040.000000, STDT: 13076913726.000000, IPT: 1146396675.000000, BOH/LOH: 2.184407,11.406971, MAX:1
Coverage: 48, Tot. Cov: 599.000000, 86/100, STDB: 3894360000.000000, IPB: 590806144.000000, STDT: 8273897616.000000, IPT: 3507975444.000000, BOH/LOH: 6.591604,2.358596, MAX:1
Coverage: 48, Tot. Cov: 599.000000, 86/100, STDB: 3857910000.000000, IPB: 593760540.000000, STDT: 4642975221.000000, IPT: 3505919675.000000, BOH/LOH: 6.497417,1.324324, MAX:1
Coverage: 48, Tot. Cov: 399.000000, 87/100, STDB: 2007040000.000000, IPB: 314628816.000000, STDT: 4202481037.000000, IPT: 2485864547.000000, BOH/LOH: 6.379072,1.690551, MAX:1
Coverage: 48, Tot. Cov: 399.000000, 87/100, STDB: 1753440000.000000, IPB: 313995428.000000, STDT: 3330858885.000000, IPT: 2486061086.000000, BOH/LOH: 5.584285,1.339814, MAX:1
Coverage: 48, Tot. Cov: 397.000000, 87/100, STDB: 1047960000.000000, IPB: 310828708.000000, STDT: 21983536608.000000, IPT: 2470478071.000000, BOH/LOH: 3.371503,8.898495, MAX:1
Coverage: 48, Tot. Cov: 98.000000, 88/100, STDB: 214810000.000000, IPB: 55090328.000000, STDT: 829311715.000000, IPT: 530128827.000000, BOH/LOH: 3.899233,1.564359, MAX:1
Coverage: 48, Tot. Cov: 97.000000, 88/100, STDB: 199755000.000000, IPB: 54347248.000000, STDT: 554453196.000000, IPT: 520194797.000000, BOH/LOH: 3.675531,1.065857, MAX:1
Coverage: 48, Tot. Cov: 98.000000, 88/100, STDB: 106200000.000000, IPB: 54412192.000000, STDT: 5592504778.000000, IPT: 536610676.000000, BOH/LOH: 1.951768,10.421904, MAX:1
Coverage: 48, Tot. Cov: 147.000000, 89/100, STDB: 331477500.000000, IPB: 93940340.000000, STDT: 954327796.000000, IPT: 607291122.000000, BOH/LOH: 3.528596,1.571450, MAX:1
Coverage: 48, Tot. Cov: 145.000000, 89/100, STDB: 296677500.000000, IPB: 92462884.000000, STDT: 887789154.000000, IPT: 595551103.000000, BOH/LOH: 3.208612,1.490702, MAX:1
Coverage: 48, Tot. Cov: 144.000000, 89/100, STDB: 171442500.000000, IPB: 91731068.000000, STDT: 9636426162.000000, IPT: 597766715.000000, BOH/LOH: 1.868969,16.120714, MAX:1
Coverage: 48, Tot. Cov: 299.000000, 90/100, STDB: 391020000.000000, IPB: 54481172.000000, STDT: 2167413243.000000, IPT: 1893836525.000000, BOH/LOH: 7.177158,1.144456, MAX:1
Coverage: 48, Tot. Cov: 299.000000, 90/100, STDB: 366735000.000000, IPB: 54481172.000000, STDT: 2109656999.000000, IPT: 1893836525.000000, BOH/LOH: 6.731408,1.113959, MAX:1
Coverage: 48, Tot. Cov: 298.000000, 90/100, STDB: 218190000.000000, IPB: 54036856.000000, STDT: 11586327398.000000, IPT: 1888387461.000000, BOH/LOH: 4.037800,6.135567, MAX:1
Coverage: 48, Tot. Cov: 148.000000, 91/100, STDB: 36600000.000000, IPB: 20113488.000000, STDT: 5355821918.000000, IPT: 798841555.000000, BOH/LOH: 1.819674,6.704486, MAX:1
Coverage: 48, Tot. Cov: 196.000000, 92/100, STDB: 128770000.000000, IPB: 28716164.000000, STDT: 1376706195.000000, IPT: 823107884.000000, BOH/LOH: 4.484234,1.672571, MAX:1
Coverage: 48, Tot. Cov: 197.000000, 92/100, STDB: 115280000.000000, IPB: 28849332.000000, STDT: 1018746413.000000, IPT: 830363873.000000, BOH/LOH: 3.995933,1.226867, MAX:1
Coverage: 48, Tot. Cov: 198.000000, 92/100, STDB: 73170000.000000, IPB: 28876172.000000, STDT: 5197977547.000000, IPT: 847239323.000000, BOH/LOH: 2.533923,6.135194, MAX:1
Coverage: 48, Tot. Cov: 149.000000, 93/100, STDB: 287850000.000000, IPB: 76886876.000000, STDT: 1080149179.000000, IPT: 753048497.000000, BOH/LOH: 3.743812,1.434369, MAX:1
Coverage: 48, Tot. Cov: 441.000000, 94/100, STDB: 539617500.000000, IPB: 173038652.000000, STDT: 2725672241.000000, IPT: 2237892059.000000, BOH/LOH: 3.118480,1.217964, MAX:1
Coverage: 48, Tot. Cov: 446.000000, 94/100, STDB: 411570000.000000, IPB: 174355544.000000, STDT: 55623535695.000000, IPT: 2291187577.000000, BOH/LOH: 2.360521,24.277164, MAX:1
Coverage: 48, Tot. Cov: 447.000000, 95/100, STDB: 780817500.000000, IPB: 146540320.000000, STDT: 5748731637.000000, IPT: 2405650295.000000, BOH/LOH: 5.328346,2.389679, MAX:1
Coverage: 48, Tot. Cov: 447.000000, 95/100, STDB: 823455000.000000, IPB: 146896084.000000, STDT: 3495304711.000000, IPT: 2407292159.000000, BOH/LOH: 5.605697,1.451965, MAX:1
Coverage: 48, Tot. Cov: 446.000000, 95/100, STDB: 452722500.000000, IPB: 145933516.000000, STDT: 21285629653.000000, IPT: 2406016135.000000, BOH/LOH: 3.102252,8.846836, MAX:1
Coverage: 48, Tot. Cov: 348.000000, 96/100, STDB: 710430000.000000, IPB: 154934816.000000, STDT: 16180902359.000000, IPT: 2118154551.000000, BOH/LOH: 4.585348,7.639151, MAX:1
Coverage: 48, Tot. Cov: 99.000000, 98/100, STDB: 240220000.000000, IPB: 73769740.000000, STDT: 834908942.000000, IPT: 666263797.000000, BOH/LOH: 3.256349,1.253121, MAX:1
Coverage: 48, Tot. Cov: 98.000000, 98/100, STDB: 162050000.000000, IPB: 72445856.000000, STDT: 7177712298.000000, IPT: 658266096.000000, BOH/LOH: 2.236843,10.903968, MAX:1
Coverage: 48, Tot. Cov: 97.000000, 99/100, STDB: 159115000.000000, IPB: 33190948.000000, STDT: 873578200.000000, IPT: 458408420.000000, BOH/LOH: 4.793928,1.905677, MAX:1
