Coverage: 25, Tot. Cov: 162.000000, Cluster: 1/54, ESBytes WO CSB: 31981800.000000, STDBytes WO CSB: 48120000.000000, IP Bytes WO CSB: 16626740.000000, IS_MAX: 0, Tot. Cov: 149.000000, ESBytes WO CSB: 30263400.000000, STDBytes WO CSB: 47620000.000000, IP Bytes WO CSB: 15181328.000000, IS_MAX: 1
Coverage: 25, Tot. Cov: 1137.000000, Cluster: 2/54, ESBytes WO CSB: 108880700.000000, STDBytes WO CSB: 175440000.000000, IP Bytes WO CSB: 50584108.000000, IS_MAX: 0, Tot. Cov: 1115.000000, ESBytes WO CSB: 102888900.000000, STDBytes WO CSB: 171000000.000000, IP Bytes WO CSB: 49260560.000000, IS_MAX: 1
Coverage: 25, Tot. Cov: 716.000000, Cluster: 3/54, ESBytes WO CSB: 139574200.000000, STDBytes WO CSB: 283350000.000000, IP Bytes WO CSB: 62582920.000000, IS_MAX: 0, Tot. Cov: 700.000000, ESBytes WO CSB: 125221300.000000, STDBytes WO CSB: 238575000.000000, IP Bytes WO CSB: 60190556.000000, IS_MAX: 1
Coverage: 25, Tot. Cov: 779.000000, Cluster: 4/54, ESBytes WO CSB: 42589400.000000, STDBytes WO CSB: 102400000.000000, IP Bytes WO CSB: 20230556.000000, IS_MAX: 0, Tot. Cov: 757.000000, ESBytes WO CSB: 51691900.000000, STDBytes WO CSB: 124800000.000000, IP Bytes WO CSB: 19271168.000000, IS_MAX: 1
Coverage: 25, Tot. Cov: 2031.000000, Cluster: 5/54, ESBytes WO CSB: 2336961500.000000, STDBytes WO CSB: 3591840000.000000, IP Bytes WO CSB: 1298861784.000000, IS_MAX: 0, Tot. Cov: 2024.000000, ESBytes WO CSB: 2491178400.000000, STDBytes WO CSB: 3980550000.000000, IP Bytes WO CSB: 1294174636.000000, IS_MAX: 1
Coverage: 25, Tot. Cov: 243.000000, Cluster: 6/54, ESBytes WO CSB: 284233800.000000, STDBytes WO CSB: 386820000.000000, IP Bytes WO CSB: 193045072.000000, IS_MAX: 0, Tot. Cov: 261.000000, ESBytes WO CSB: 372571000.000000, STDBytes WO CSB: 479640000.000000, IP Bytes WO CSB: 210121644.000000, IS_MAX: 1
Coverage: 25, Tot. Cov: 1505.000000, Cluster: 7/54, ESBytes WO CSB: 1957517300.000000, STDBytes WO CSB: 2612640000.000000, IP Bytes WO CSB: 1247701356.000000, IS_MAX: 0, Tot. Cov: 1433.000000, ESBytes WO CSB: 2068791400.000000, STDBytes WO CSB: 2739200000.000000, IP Bytes WO CSB: 1193977120.000000, IS_MAX: 1
Coverage: 25, Tot. Cov: 79.000000, Cluster: 8/54, ESBytes WO CSB: 139299700.000000, STDBytes WO CSB: 192590000.000000, IP Bytes WO CSB: 84326832.000000, IS_MAX: 0, Tot. Cov: 59.000000, ESBytes WO CSB: 110257400.000000, STDBytes WO CSB: 197140000.000000, IP Bytes WO CSB: 63515676.000000, IS_MAX: 1
Coverage: 25, Tot. Cov: 127.000000, Cluster: 9/54, ESBytes WO CSB: 204283200.000000, STDBytes WO CSB: 278475000.000000, IP Bytes WO CSB: 139527204.000000, IS_MAX: 0, Tot. Cov: 100.000000, ESBytes WO CSB: 190137600.000000, STDBytes WO CSB: 322575000.000000, IP Bytes WO CSB: 110752216.000000, IS_MAX: 1
Coverage: 25, Tot. Cov: 193.000000, Cluster: 10/54, ESBytes WO CSB: 308875200.000000, STDBytes WO CSB: 459350000.000000, IP Bytes WO CSB: 216742344.000000, IS_MAX: 0, Tot. Cov: 157.000000, ESBytes WO CSB: 303865500.000000, STDBytes WO CSB: 515925000.000000, IP Bytes WO CSB: 175981704.000000, IS_MAX: 1
Coverage: 25, Tot. Cov: 29.000000, Cluster: 11/54, ESBytes WO CSB: 43266100.000000, STDBytes WO CSB: 77070000.000000, IP Bytes WO CSB: 35945020.000000, IS_MAX: 0, Tot. Cov: 25.000000, ESBytes WO CSB: 46559200.000000, STDBytes WO CSB: 96525000.000000, IP Bytes WO CSB: 30942052.000000, IS_MAX: 1
Coverage: 25, Tot. Cov: 752.000000, Cluster: 12/54, ESBytes WO CSB: 420139200.000000, STDBytes WO CSB: 590720000.000000, IP Bytes WO CSB: 233714564.000000, IS_MAX: 0, Tot. Cov: 706.000000, ESBytes WO CSB: 430628300.000000, STDBytes WO CSB: 691840000.000000, IP Bytes WO CSB: 215348940.000000, IS_MAX: 1
Coverage: 25, Tot. Cov: 128.000000, Cluster: 13/54, ESBytes WO CSB: 83676600.000000, STDBytes WO CSB: 117600000.000000, IP Bytes WO CSB: 54485324.000000, IS_MAX: 0, Tot. Cov: 113.000000, ESBytes WO CSB: 90122100.000000, STDBytes WO CSB: 133965000.000000, IP Bytes WO CSB: 48571036.000000, IS_MAX: 1
Coverage: 25, Tot. Cov: 199.000000, Cluster: 14/54, ESBytes WO CSB: 107965800.000000, STDBytes WO CSB: 147725000.000000, IP Bytes WO CSB: 67539308.000000, IS_MAX: 0, Tot. Cov: 193.000000, ESBytes WO CSB: 128158800.000000, STDBytes WO CSB: 186625000.000000, IP Bytes WO CSB: 65290136.000000, IS_MAX: 1
Coverage: 25, Tot. Cov: 449.000000, Cluster: 15/54, ESBytes WO CSB: 374277800.000000, STDBytes WO CSB: 563000000.000000, IP Bytes WO CSB: 182524020.000000, IS_MAX: 0, Tot. Cov: 439.000000, ESBytes WO CSB: 328387700.000000, STDBytes WO CSB: 480650000.000000, IP Bytes WO CSB: 177679332.000000, IS_MAX: 1
Coverage: 25, Tot. Cov: 102.000000, Cluster: 16/54, ESBytes WO CSB: 46150500.000000, STDBytes WO CSB: 71370000.000000, IP Bytes WO CSB: 33261476.000000, IS_MAX: 0, Tot. Cov: 104.000000, ESBytes WO CSB: 59269800.000000, STDBytes WO CSB: 88785000.000000, IP Bytes WO CSB: 34197464.000000, IS_MAX: 1
Coverage: 25, Tot. Cov: 74.000000, Cluster: 17/54, ESBytes WO CSB: 48927400.000000, STDBytes WO CSB: 69210000.000000, IP Bytes WO CSB: 27359688.000000, IS_MAX: 0, Tot. Cov: 61.000000, ESBytes WO CSB: 42933900.000000, STDBytes WO CSB: 74400000.000000, IP Bytes WO CSB: 22634400.000000, IS_MAX: 1
Coverage: 25, Tot. Cov: 76.000000, Cluster: 18/54, ESBytes WO CSB: 40161000.000000, STDBytes WO CSB: 57670000.000000, IP Bytes WO CSB: 25213684.000000, IS_MAX: 0, Tot. Cov: 75.000000, ESBytes WO CSB: 45549300.000000, STDBytes WO CSB: 71450000.000000, IP Bytes WO CSB: 24871032.000000, IS_MAX: 1
Coverage: 25, Tot. Cov: 33.000000, Cluster: 19/54, ESBytes WO CSB: 17673300.000000, STDBytes WO CSB: 27675000.000000, IP Bytes WO CSB: 11237384.000000, IS_MAX: 0, Tot. Cov: 25.000000, ESBytes WO CSB: 16210300.000000, STDBytes WO CSB: 33900000.000000, IP Bytes WO CSB: 8488864.000000, IS_MAX: 1
Coverage: 25, Tot. Cov: 315.000000, Cluster: 20/54, ESBytes WO CSB: 243787300.000000, STDBytes WO CSB: 331485000.000000, IP Bytes WO CSB: 137713124.000000, IS_MAX: 0, Tot. Cov: 284.000000, ESBytes WO CSB: 229001900.000000, STDBytes WO CSB: 321125000.000000, IP Bytes WO CSB: 125170552.000000, IS_MAX: 1
Coverage: 25, Tot. Cov: 1622.000000, Cluster: 21/54, ESBytes WO CSB: 1621184200.000000, STDBytes WO CSB: 2465575000.000000, IP Bytes WO CSB: 855472200.000000, IS_MAX: 0, Tot. Cov: 1644.000000, ESBytes WO CSB: 1568590200.000000, STDBytes WO CSB: 2644425000.000000, IP Bytes WO CSB: 873666080.000000, IS_MAX: 1
Coverage: 25, Tot. Cov: 178.000000, Cluster: 22/54, ESBytes WO CSB: 166019700.000000, STDBytes WO CSB: 283750000.000000, IP Bytes WO CSB: 100087324.000000, IS_MAX: 0, Tot. Cov: 202.000000, ESBytes WO CSB: 226337300.000000, STDBytes WO CSB: 356750000.000000, IP Bytes WO CSB: 117490160.000000, IS_MAX: 1
Coverage: 25, Tot. Cov: 104.000000, Cluster: 23/54, ESBytes WO CSB: 20470200.000000, STDBytes WO CSB: 31095000.000000, IP Bytes WO CSB: 12864856.000000, IS_MAX: 0, Tot. Cov: 113.000000, ESBytes WO CSB: 29768100.000000, STDBytes WO CSB: 44775000.000000, IP Bytes WO CSB: 14224380.000000, IS_MAX: 1
Coverage: 25, Tot. Cov: 127.000000, Cluster: 24/54, ESBytes WO CSB: 29396500.000000, STDBytes WO CSB: 42615000.000000, IP Bytes WO CSB: 13433996.000000, IS_MAX: 0, Tot. Cov: 135.000000, ESBytes WO CSB: 33610800.000000, STDBytes WO CSB: 42465000.000000, IP Bytes WO CSB: 14616588.000000, IS_MAX: 1
Coverage: 25, Tot. Cov: 169.000000, Cluster: 25/54, ESBytes WO CSB: 79456100.000000, STDBytes WO CSB: 116980000.000000, IP Bytes WO CSB: 33576552.000000, IS_MAX: 0, Tot. Cov: 156.000000, ESBytes WO CSB: 69869500.000000, STDBytes WO CSB: 106460000.000000, IP Bytes WO CSB: 30600232.000000, IS_MAX: 1
Coverage: 25, Tot. Cov: 416.000000, Cluster: 26/54, ESBytes WO CSB: 65223500.000000, STDBytes WO CSB: 114300000.000000, IP Bytes WO CSB: 36780592.000000, IS_MAX: 0, Tot. Cov: 421.000000, ESBytes WO CSB: 92053500.000000, STDBytes WO CSB: 130950000.000000, IP Bytes WO CSB: 38433564.000000, IS_MAX: 1
Coverage: 25, Tot. Cov: 1533.000000, Cluster: 27/54, ESBytes WO CSB: 548168600.000000, STDBytes WO CSB: 754720000.000000, IP Bytes WO CSB: 259082468.000000, IS_MAX: 0, Tot. Cov: 1560.000000, ESBytes WO CSB: 527080100.000000, STDBytes WO CSB: 754880000.000000, IP Bytes WO CSB: 265125356.000000, IS_MAX: 1
Coverage: 25, Tot. Cov: 55.000000, Cluster: 28/54, ESBytes WO CSB: 17518900.000000, STDBytes WO CSB: 32890000.000000, IP Bytes WO CSB: 12636056.000000, IS_MAX: 0, Tot. Cov: 59.000000, ESBytes WO CSB: 23355600.000000, STDBytes WO CSB: 42860000.000000, IP Bytes WO CSB: 13577748.000000, IS_MAX: 1
Coverage: 25, Tot. Cov: 60.000000, Cluster: 29/54, ESBytes WO CSB: 15547000.000000, STDBytes WO CSB: 29060000.000000, IP Bytes WO CSB: 10229280.000000, IS_MAX: 0, Tot. Cov: 60.000000, ESBytes WO CSB: 20465900.000000, STDBytes WO CSB: 40930000.000000, IP Bytes WO CSB: 10033004.000000, IS_MAX: 1
Coverage: 25, Tot. Cov: 26.000000, Cluster: 30/54, ESBytes WO CSB: 9360900.000000, STDBytes WO CSB: 18500000.000000, IP Bytes WO CSB: 7057440.000000, IS_MAX: 0, Tot. Cov: 25.000000, ESBytes WO CSB: 13746800.000000, STDBytes WO CSB: 29375000.000000, IP Bytes WO CSB: 6773364.000000, IS_MAX: 1
Coverage: 25, Tot. Cov: 25.000000, Cluster: 31/54, ESBytes WO CSB: 10187400.000000, STDBytes WO CSB: 21085000.000000, IP Bytes WO CSB: 6305372.000000, IS_MAX: 0, Tot. Cov: 28.000000, ESBytes WO CSB: 12242100.000000, STDBytes WO CSB: 24255000.000000, IP Bytes WO CSB: 7063976.000000, IS_MAX: 1
Coverage: 25, Tot. Cov: 29.000000, Cluster: 32/54, ESBytes WO CSB: 5224600.000000, STDBytes WO CSB: 9315000.000000, IP Bytes WO CSB: 4056772.000000, IS_MAX: 0, Tot. Cov: 28.000000, ESBytes WO CSB: 5522900.000000, STDBytes WO CSB: 11955000.000000, IP Bytes WO CSB: 3915704.000000, IS_MAX: 1
Coverage: 25, Tot. Cov: 1171.000000, Cluster: 33/54, ESBytes WO CSB: 315198400.000000, STDBytes WO CSB: 519480000.000000, IP Bytes WO CSB: 158957428.000000, IS_MAX: 0, Tot. Cov: 1169.000000, ESBytes WO CSB: 322691300.000000, STDBytes WO CSB: 514440000.000000, IP Bytes WO CSB: 158840568.000000, IS_MAX: 1
Coverage: 25, Tot. Cov: 36.000000, Cluster: 34/54, ESBytes WO CSB: 7414000.000000, STDBytes WO CSB: 10595000.000000, IP Bytes WO CSB: 5880788.000000, IS_MAX: 0, Tot. Cov: 27.000000, ESBytes WO CSB: 6518300.000000, STDBytes WO CSB: 13535000.000000, IP Bytes WO CSB: 4404928.000000, IS_MAX: 1
Coverage: 25, Tot. Cov: 1312.000000, Cluster: 35/54, ESBytes WO CSB: 587628200.000000, STDBytes WO CSB: 853300000.000000, IP Bytes WO CSB: 328808732.000000, IS_MAX: 0, Tot. Cov: 1325.000000, ESBytes WO CSB: 637734500.000000, STDBytes WO CSB: 922880000.000000, IP Bytes WO CSB: 333399832.000000, IS_MAX: 1
Coverage: 25, Tot. Cov: 1556.000000, Cluster: 36/54, ESBytes WO CSB: 775237400.000000, STDBytes WO CSB: 1216350000.000000, IP Bytes WO CSB: 438826028.000000, IS_MAX: 0, Tot. Cov: 1539.000000, ESBytes WO CSB: 881982400.000000, STDBytes WO CSB: 1298970000.000000, IP Bytes WO CSB: 433672172.000000, IS_MAX: 1
Coverage: 25, Tot. Cov: 26.000000, Cluster: 37/54, ESBytes WO CSB: 16138400.000000, STDBytes WO CSB: 32420000.000000, IP Bytes WO CSB: 12142328.000000, IS_MAX: 0, Tot. Cov: 29.000000, ESBytes WO CSB: 23245500.000000, STDBytes WO CSB: 43205000.000000, IP Bytes WO CSB: 13566520.000000, IS_MAX: 1
Coverage: 25, Tot. Cov: 105.000000, Cluster: 38/54, ESBytes WO CSB: 97805200.000000, STDBytes WO CSB: 163920000.000000, IP Bytes WO CSB: 57764156.000000, IS_MAX: 0, Tot. Cov: 97.000000, ESBytes WO CSB: 110765000.000000, STDBytes WO CSB: 190995000.000000, IP Bytes WO CSB: 53191844.000000, IS_MAX: 1
Coverage: 25, Tot. Cov: 100.000000, Cluster: 39/54, ESBytes WO CSB: 231191700.000000, STDBytes WO CSB: 434490000.000000, IP Bytes WO CSB: 156230592.000000, IS_MAX: 0, Tot. Cov: 114.000000, ESBytes WO CSB: 341717000.000000, STDBytes WO CSB: 591285000.000000, IP Bytes WO CSB: 188860012.000000, IS_MAX: 1
Coverage: 25, Tot. Cov: 730.000000, Cluster: 40/54, ESBytes WO CSB: 1044535000.000000, STDBytes WO CSB: 1516000000.000000, IP Bytes WO CSB: 617005184.000000, IS_MAX: 0, Tot. Cov: 697.000000, ESBytes WO CSB: 1000170600.000000, STDBytes WO CSB: 1419840000.000000, IP Bytes WO CSB: 586251944.000000, IS_MAX: 1
Coverage: 25, Tot. Cov: 560.000000, Cluster: 41/54, ESBytes WO CSB: 1112001400.000000, STDBytes WO CSB: 1469195000.000000, IP Bytes WO CSB: 692551132.000000, IS_MAX: 0, Tot. Cov: 564.000000, ESBytes WO CSB: 1251501100.000000, STDBytes WO CSB: 1750710000.000000, IP Bytes WO CSB: 704774304.000000, IS_MAX: 1
Coverage: 25, Tot. Cov: 96.000000, Cluster: 42/54, ESBytes WO CSB: 224575600.000000, STDBytes WO CSB: 375450000.000000, IP Bytes WO CSB: 145379968.000000, IS_MAX: 0, Tot. Cov: 87.000000, ESBytes WO CSB: 227248800.000000, STDBytes WO CSB: 425535000.000000, IP Bytes WO CSB: 131966720.000000, IS_MAX: 1
Coverage: 25, Tot. Cov: 59.000000, Cluster: 43/54, ESBytes WO CSB: 107764200.000000, STDBytes WO CSB: 215720000.000000, IP Bytes WO CSB: 75673324.000000, IS_MAX: 0, Tot. Cov: 63.000000, ESBytes WO CSB: 143162500.000000, STDBytes WO CSB: 273460000.000000, IP Bytes WO CSB: 81953264.000000, IS_MAX: 1
Coverage: 25, Tot. Cov: 67.000000, Cluster: 44/54, ESBytes WO CSB: 116721300.000000, STDBytes WO CSB: 222680000.000000, IP Bytes WO CSB: 88695288.000000, IS_MAX: 0, Tot. Cov: 57.000000, ESBytes WO CSB: 137842900.000000, STDBytes WO CSB: 297620000.000000, IP Bytes WO CSB: 71297420.000000, IS_MAX: 1
Coverage: 25, Tot. Cov: 176.000000, Cluster: 45/54, ESBytes WO CSB: 372988200.000000, STDBytes WO CSB: 478600000.000000, IP Bytes WO CSB: 278670404.000000, IS_MAX: 0, Tot. Cov: 179.000000, ESBytes WO CSB: 481447600.000000, STDBytes WO CSB: 639060000.000000, IP Bytes WO CSB: 284512556.000000, IS_MAX: 1
Coverage: 25, Tot. Cov: 25.000000, Cluster: 46/54, ESBytes WO CSB: 60474400.000000, STDBytes WO CSB: 123300000.000000, IP Bytes WO CSB: 51306056.000000, IS_MAX: 0, Tot. Cov: 27.000000, ESBytes WO CSB: 82178500.000000, STDBytes WO CSB: 154875000.000000, IP Bytes WO CSB: 55503904.000000, IS_MAX: 1
Coverage: 25, Tot. Cov: 561.000000, Cluster: 47/54, ESBytes WO CSB: 2047180000.000000, STDBytes WO CSB: 2752440000.000000, IP Bytes WO CSB: 1539468948.000000, IS_MAX: 0, Tot. Cov: 557.000000, ESBytes WO CSB: 2620914900.000000, STDBytes WO CSB: 3299820000.000000, IP Bytes WO CSB: 1537761644.000000, IS_MAX: 1
Coverage: 25, Tot. Cov: 128.000000, Cluster: 48/54, ESBytes WO CSB: 391982300.000000, STDBytes WO CSB: 541380000.000000, IP Bytes WO CSB: 243759920.000000, IS_MAX: 0, Tot. Cov: 119.000000, ESBytes WO CSB: 385615900.000000, STDBytes WO CSB: 555030000.000000, IP Bytes WO CSB: 225337968.000000, IS_MAX: 1
Coverage: 25, Tot. Cov: 280.000000, Cluster: 49/54, ESBytes WO CSB: 632605900.000000, STDBytes WO CSB: 1057875000.000000, IP Bytes WO CSB: 389507416.000000, IS_MAX: 0, Tot. Cov: 284.000000, ESBytes WO CSB: 674054200.000000, STDBytes WO CSB: 1177295000.000000, IP Bytes WO CSB: 396436476.000000, IS_MAX: 1
Coverage: 25, Tot. Cov: 245.000000, Cluster: 50/54, ESBytes WO CSB: 366775100.000000, STDBytes WO CSB: 551940000.000000, IP Bytes WO CSB: 216364828.000000, IS_MAX: 0, Tot. Cov: 265.000000, ESBytes WO CSB: 406034500.000000, STDBytes WO CSB: 612600000.000000, IP Bytes WO CSB: 239752716.000000, IS_MAX: 1
Coverage: 25, Tot. Cov: 266.000000, Cluster: 51/54, ESBytes WO CSB: 520422400.000000, STDBytes WO CSB: 718890000.000000, IP Bytes WO CSB: 306443376.000000, IS_MAX: 0, Tot. Cov: 255.000000, ESBytes WO CSB: 490122000.000000, STDBytes WO CSB: 759750000.000000, IP Bytes WO CSB: 292908252.000000, IS_MAX: 1
Coverage: 25, Tot. Cov: 135.000000, Cluster: 52/54, ESBytes WO CSB: 315295300.000000, STDBytes WO CSB: 502600000.000000, IP Bytes WO CSB: 195526796.000000, IS_MAX: 0, Tot. Cov: 148.000000, ESBytes WO CSB: 370311100.000000, STDBytes WO CSB: 557020000.000000, IP Bytes WO CSB: 220619776.000000, IS_MAX: 1
Coverage: 25, Tot. Cov: 1473.000000, Cluster: 53/54, ESBytes WO CSB: 7064417400.000000, STDBytes WO CSB: 15025200000.000000, IP Bytes WO CSB: 4381871160.000000, IS_MAX: 0, Tot. Cov: 1474.000000, ESBytes WO CSB: 8867176900.000000, STDBytes WO CSB: 17437350000.000000, IP Bytes WO CSB: 4394824004.000000, IS_MAX: 1
