Coverage: 20, Tot. Cov: 164.000000, Cluster: 1/54, ESBytes W CSB: 44787086.000000, STDBytes W CSB: 60450036.000000, IP Bytes W CSB: 21133108.000000, IS_MAX: 0, Tot. Cov: 159.000000, ESBytes WO CSB: 46260314.000000, STDBytes WO CSB: 63359664.000000, IP Bytes WO CSB: 21133108.000000, IS_MAX: 1
Coverage: 20, Tot. Cov: 1110.000000, Cluster: 2/54, ESBytes W CSB: 121140316.000000, STDBytes W CSB: 182138316.000000, IP Bytes W CSB: 55780504.000000, IS_MAX: 0, Tot. Cov: 1088.000000, ESBytes WO CSB: 125279288.000000, STDBytes WO CSB: 191390388.000000, IP Bytes WO CSB: 55780504.000000, IS_MAX: 1
Coverage: 20, Tot. Cov: 672.000000, Cluster: 3/54, ESBytes W CSB: 158290080.000000, STDBytes W CSB: 263805780.000000, IP Bytes W CSB: 69495728.000000, IS_MAX: 0, Tot. Cov: 673.000000, ESBytes WO CSB: 153692980.000000, STDBytes WO CSB: 257048580.000000, IP Bytes WO CSB: 69495728.000000, IS_MAX: 1
Coverage: 20, Tot. Cov: 782.000000, Cluster: 4/54, ESBytes W CSB: 44828646.000000, STDBytes W CSB: 102459096.000000, IP Bytes W CSB: 21560868.000000, IS_MAX: 0, Tot. Cov: 773.000000, ESBytes WO CSB: 54140680.000000, STDBytes WO CSB: 119153280.000000, IP Bytes WO CSB: 21560868.000000, IS_MAX: 1
Coverage: 20, Tot. Cov: 2018.000000, Cluster: 5/54, ESBytes W CSB: 2607138762.000000, STDBytes W CSB: 3904192812.000000, IP Bytes W CSB: 1364130892.000000, IS_MAX: 0, Tot. Cov: 2018.000000, ESBytes WO CSB: 2674480812.000000, STDBytes WO CSB: 4230266112.000000, IP Bytes WO CSB: 1364130892.000000, IS_MAX: 1
Coverage: 20, Tot. Cov: 240.000000, Cluster: 6/54, ESBytes W CSB: 447729548.000000, STDBytes W CSB: 549314148.000000, IP Bytes W CSB: 245742048.000000, IS_MAX: 0, Tot. Cov: 261.000000, ESBytes WO CSB: 480455584.000000, STDBytes WO CSB: 593060784.000000, IP Bytes WO CSB: 245742048.000000, IS_MAX: 1
Coverage: 20, Tot. Cov: 1472.000000, Cluster: 7/54, ESBytes W CSB: 2380305182.000000, STDBytes W CSB: 3053497632.000000, IP Bytes W CSB: 1364328900.000000, IS_MAX: 0, Tot. Cov: 1392.000000, ESBytes WO CSB: 2569853680.000000, STDBytes WO CSB: 3264751080.000000, IP Bytes WO CSB: 1364328900.000000, IS_MAX: 1
Coverage: 20, Tot. Cov: 75.000000, Cluster: 8/54, ESBytes W CSB: 225559450.000000, STDBytes W CSB: 286983000.000000, IP Bytes W CSB: 111160596.000000, IS_MAX: 0, Tot. Cov: 52.000000, ESBytes WO CSB: 261200996.000000, STDBytes WO CSB: 356409096.000000, IP Bytes WO CSB: 111160596.000000, IS_MAX: 1
Coverage: 20, Tot. Cov: 123.000000, Cluster: 9/54, ESBytes W CSB: 302573956.000000, STDBytes W CSB: 378333756.000000, IP Bytes W CSB: 169705108.000000, IS_MAX: 0, Tot. Cov: 94.000000, ESBytes WO CSB: 376658152.000000, STDBytes WO CSB: 514170852.000000, IP Bytes WO CSB: 169705108.000000, IS_MAX: 1
Coverage: 20, Tot. Cov: 180.000000, Cluster: 10/54, ESBytes W CSB: 573538062.000000, STDBytes W CSB: 737272912.000000, IP Bytes W CSB: 296444084.000000, IS_MAX: 0, Tot. Cov: 149.000000, ESBytes WO CSB: 670653436.000000, STDBytes WO CSB: 895516536.000000, IP Bytes WO CSB: 296444084.000000, IS_MAX: 1
Coverage: 20, Tot. Cov: 22.000000, Cluster: 11/54, ESBytes W CSB: 137228702.000000, STDBytes W CSB: 180566852.000000, IP Bytes W CSB: 62080572.000000, IS_MAX: 0, Tot. Cov: 20.000000, ESBytes WO CSB: 148110734.000000, STDBytes WO CSB: 205210584.000000, IP Bytes WO CSB: 62080572.000000, IS_MAX: 1
Coverage: 20, Tot. Cov: 700.000000, Cluster: 12/54, ESBytes W CSB: 499761982.000000, STDBytes W CSB: 683832032.000000, IP Bytes W CSB: 252048700.000000, IS_MAX: 0, Tot. Cov: 706.000000, ESBytes WO CSB: 542016834.000000, STDBytes WO CSB: 784989084.000000, IP Bytes WO CSB: 252048700.000000, IS_MAX: 1
Coverage: 20, Tot. Cov: 116.000000, Cluster: 13/54, ESBytes W CSB: 139796308.000000, STDBytes W CSB: 178249608.000000, IP Bytes W CSB: 70457748.000000, IS_MAX: 0, Tot. Cov: 78.000000, ESBytes WO CSB: 171156284.000000, STDBytes WO CSB: 233557584.000000, IP Bytes WO CSB: 70457748.000000, IS_MAX: 1
Coverage: 20, Tot. Cov: 179.000000, Cluster: 14/54, ESBytes W CSB: 171091456.000000, STDBytes W CSB: 218018556.000000, IP Bytes W CSB: 85306196.000000, IS_MAX: 0, Tot. Cov: 160.000000, ESBytes WO CSB: 205489212.000000, STDBytes WO CSB: 284217612.000000, IP Bytes WO CSB: 85306196.000000, IS_MAX: 1
Coverage: 20, Tot. Cov: 429.000000, Cluster: 15/54, ESBytes W CSB: 455470012.000000, STDBytes W CSB: 614136312.000000, IP Bytes W CSB: 214544492.000000, IS_MAX: 0, Tot. Cov: 386.000000, ESBytes WO CSB: 475284550.000000, STDBytes WO CSB: 632416800.000000, IP Bytes WO CSB: 214544492.000000, IS_MAX: 1
Coverage: 20, Tot. Cov: 76.000000, Cluster: 16/54, ESBytes W CSB: 107792998.000000, STDBytes W CSB: 144153048.000000, IP Bytes W CSB: 49159680.000000, IS_MAX: 0, Tot. Cov: 87.000000, ESBytes WO CSB: 109998102.000000, STDBytes WO CSB: 150886452.000000, IP Bytes WO CSB: 49159680.000000, IS_MAX: 1
Coverage: 20, Tot. Cov: 53.000000, Cluster: 17/54, ESBytes W CSB: 88055816.000000, STDBytes W CSB: 121621716.000000, IP Bytes W CSB: 37205788.000000, IS_MAX: 0, Tot. Cov: 56.000000, ESBytes WO CSB: 89199846.000000, STDBytes WO CSB: 123663096.000000, IP Bytes WO CSB: 37205788.000000, IS_MAX: 1
Coverage: 20, Tot. Cov: 69.000000, Cluster: 18/54, ESBytes W CSB: 67816704.000000, STDBytes W CSB: 87946804.000000, IP Bytes W CSB: 33555352.000000, IS_MAX: 0, Tot. Cov: 70.000000, ESBytes WO CSB: 71403528.000000, STDBytes WO CSB: 98708328.000000, IP Bytes WO CSB: 33555352.000000, IS_MAX: 1
Coverage: 20, Tot. Cov: 24.000000, Cluster: 19/54, ESBytes W CSB: 39395464.000000, STDBytes W CSB: 53698364.000000, IP Bytes W CSB: 17067752.000000, IS_MAX: 0, Tot. Cov: 23.000000, ESBytes WO CSB: 42245926.000000, STDBytes WO CSB: 60552676.000000, IP Bytes WO CSB: 17067752.000000, IS_MAX: 1
Coverage: 20, Tot. Cov: 291.000000, Cluster: 20/54, ESBytes W CSB: 316521274.000000, STDBytes W CSB: 414955524.000000, IP Bytes W CSB: 157329632.000000, IS_MAX: 0, Tot. Cov: 281.000000, ESBytes WO CSB: 323647608.000000, STDBytes WO CSB: 416051308.000000, IP Bytes WO CSB: 157329632.000000, IS_MAX: 1
Coverage: 20, Tot. Cov: 1537.000000, Cluster: 21/54, ESBytes W CSB: 2001896878.000000, STDBytes W CSB: 2576035928.000000, IP Bytes W CSB: 960597208.000000, IS_MAX: 0, Tot. Cov: 1620.000000, ESBytes WO CSB: 1799537578.000000, STDBytes WO CSB: 2376011328.000000, IP Bytes WO CSB: 960597208.000000, IS_MAX: 1
Coverage: 20, Tot. Cov: 163.000000, Cluster: 22/54, ESBytes W CSB: 387913330.000000, STDBytes W CSB: 517736280.000000, IP Bytes W CSB: 168923060.000000, IS_MAX: 0, Tot. Cov: 175.000000, ESBytes WO CSB: 398643586.000000, STDBytes WO CSB: 541358136.000000, IP Bytes WO CSB: 168923060.000000, IS_MAX: 1
Coverage: 20, Tot. Cov: 96.000000, Cluster: 23/54, ESBytes W CSB: 39020718.000000, STDBytes W CSB: 51435168.000000, IP Bytes W CSB: 18785104.000000, IS_MAX: 0, Tot. Cov: 87.000000, ESBytes WO CSB: 44972550.000000, STDBytes WO CSB: 64354800.000000, IP Bytes WO CSB: 18785104.000000, IS_MAX: 1
Coverage: 20, Tot. Cov: 120.000000, Cluster: 24/54, ESBytes W CSB: 40925302.000000, STDBytes W CSB: 53906352.000000, IP Bytes W CSB: 16663712.000000, IS_MAX: 0, Tot. Cov: 119.000000, ESBytes WO CSB: 41265444.000000, STDBytes WO CSB: 53704944.000000, IP Bytes WO CSB: 16663712.000000, IS_MAX: 1
Coverage: 20, Tot. Cov: 164.000000, Cluster: 25/54, ESBytes W CSB: 103667540.000000, STDBytes W CSB: 142200140.000000, IP Bytes W CSB: 41598472.000000, IS_MAX: 0, Tot. Cov: 152.000000, ESBytes WO CSB: 103821580.000000, STDBytes WO CSB: 142300980.000000, IP Bytes WO CSB: 41598472.000000, IS_MAX: 1
Coverage: 20, Tot. Cov: 418.000000, Cluster: 26/54, ESBytes W CSB: 81985480.000000, STDBytes W CSB: 133547280.000000, IP Bytes W CSB: 42751000.000000, IS_MAX: 0, Tot. Cov: 405.000000, ESBytes WO CSB: 112219768.000000, STDBytes WO CSB: 155191068.000000, IP Bytes WO CSB: 42751000.000000, IS_MAX: 1
Coverage: 20, Tot. Cov: 1502.000000, Cluster: 27/54, ESBytes W CSB: 576132906.000000, STDBytes W CSB: 774214056.000000, IP Bytes W CSB: 275471240.000000, IS_MAX: 0, Tot. Cov: 1547.000000, ESBytes WO CSB: 562385160.000000, STDBytes WO CSB: 767160760.000000, IP Bytes WO CSB: 275471240.000000, IS_MAX: 1
Coverage: 20, Tot. Cov: 43.000000, Cluster: 28/54, ESBytes W CSB: 52792348.000000, STDBytes W CSB: 71595248.000000, IP Bytes W CSB: 22971284.000000, IS_MAX: 0, Tot. Cov: 49.000000, ESBytes WO CSB: 55084034.000000, STDBytes WO CSB: 80153984.000000, IP Bytes WO CSB: 22971284.000000, IS_MAX: 1
Coverage: 20, Tot. Cov: 75.000000, Cluster: 29/54, ESBytes W CSB: 32719220.000000, STDBytes W CSB: 43264220.000000, IP Bytes W CSB: 17183912.000000, IS_MAX: 0, Tot. Cov: 62.000000, ESBytes WO CSB: 40091540.000000, STDBytes WO CSB: 57704640.000000, IP Bytes WO CSB: 17183912.000000, IS_MAX: 1
Coverage: 20, Tot. Cov: 21.000000, Cluster: 30/54, ESBytes W CSB: 31067104.000000, STDBytes W CSB: 41523004.000000, IP Bytes W CSB: 13587204.000000, IS_MAX: 0, Tot. Cov: 21.000000, ESBytes WO CSB: 33880454.000000, STDBytes WO CSB: 50044604.000000, IP Bytes WO CSB: 13587204.000000, IS_MAX: 1
Coverage: 20, Tot. Cov: 21.000000, Cluster: 31/54, ESBytes W CSB: 30854120.000000, STDBytes W CSB: 43061220.000000, IP Bytes W CSB: 12782944.000000, IS_MAX: 0, Tot. Cov: 26.000000, ESBytes WO CSB: 29802512.000000, STDBytes WO CSB: 42197712.000000, IP Bytes WO CSB: 12782944.000000, IS_MAX: 1
Coverage: 20, Tot. Cov: 20.000000, Cluster: 32/54, ESBytes W CSB: 16575166.000000, STDBytes W CSB: 22029616.000000, IP Bytes W CSB: 7089528.000000, IS_MAX: 0, Tot. Cov: 22.000000, ESBytes WO CSB: 16030168.000000, STDBytes WO CSB: 21141668.000000, IP Bytes WO CSB: 7089528.000000, IS_MAX: 1
Coverage: 20, Tot. Cov: 1115.000000, Cluster: 33/54, ESBytes W CSB: 341717320.000000, STDBytes W CSB: 531722520.000000, IP Bytes W CSB: 165817880.000000, IS_MAX: 0, Tot. Cov: 1165.000000, ESBytes WO CSB: 337823548.000000, STDBytes WO CSB: 526593648.000000, IP Bytes WO CSB: 165817880.000000, IS_MAX: 1
Coverage: 20, Tot. Cov: 35.000000, Cluster: 34/54, ESBytes W CSB: 14495890.000000, STDBytes W CSB: 17688040.000000, IP Bytes W CSB: 8173620.000000, IS_MAX: 0, Tot. Cov: 25.000000, ESBytes WO CSB: 18726878.000000, STDBytes WO CSB: 25750828.000000, IP Bytes WO CSB: 8173620.000000, IS_MAX: 1
Coverage: 20, Tot. Cov: 1275.000000, Cluster: 35/54, ESBytes W CSB: 707488864.000000, STDBytes W CSB: 957597464.000000, IP Bytes W CSB: 363462628.000000, IS_MAX: 0, Tot. Cov: 1317.000000, ESBytes WO CSB: 732863376.000000, STDBytes WO CSB: 1000679976.000000, IP Bytes WO CSB: 363462628.000000, IS_MAX: 1
Coverage: 20, Tot. Cov: 1543.000000, Cluster: 36/54, ESBytes W CSB: 972279332.000000, STDBytes W CSB: 1393428032.000000, IP Bytes W CSB: 508971204.000000, IS_MAX: 0, Tot. Cov: 1508.000000, ESBytes WO CSB: 1118313296.000000, STDBytes WO CSB: 1529825796.000000, IP Bytes WO CSB: 508971204.000000, IS_MAX: 1
Coverage: 20, Tot. Cov: 23.000000, Cluster: 37/54, ESBytes W CSB: 52136154.000000, STDBytes W CSB: 69625404.000000, IP Bytes W CSB: 23468756.000000, IS_MAX: 0, Tot. Cov: 21.000000, ESBytes WO CSB: 58114116.000000, STDBytes WO CSB: 83812816.000000, IP Bytes WO CSB: 23468756.000000, IS_MAX: 1
Coverage: 20, Tot. Cov: 114.000000, Cluster: 38/54, ESBytes W CSB: 189559454.000000, STDBytes W CSB: 245825304.000000, IP Bytes W CSB: 91481860.000000, IS_MAX: 0, Tot. Cov: 78.000000, ESBytes WO CSB: 239224594.000000, STDBytes WO CSB: 336032244.000000, IP Bytes WO CSB: 91481860.000000, IS_MAX: 1
Coverage: 20, Tot. Cov: 90.000000, Cluster: 39/54, ESBytes W CSB: 598460092.000000, STDBytes W CSB: 807122592.000000, IP Bytes W CSB: 269562720.000000, IS_MAX: 0, Tot. Cov: 109.000000, ESBytes WO CSB: 592671480.000000, STDBytes WO CSB: 854722980.000000, IP Bytes WO CSB: 269562720.000000, IS_MAX: 1
Coverage: 20, Tot. Cov: 701.000000, Cluster: 40/54, ESBytes W CSB: 1424821174.000000, STDBytes W CSB: 1873095924.000000, IP Bytes W CSB: 734390072.000000, IS_MAX: 0, Tot. Cov: 666.000000, ESBytes WO CSB: 1475139154.000000, STDBytes WO CSB: 1952749304.000000, IP Bytes WO CSB: 734390072.000000, IS_MAX: 1
Coverage: 20, Tot. Cov: 537.000000, Cluster: 41/54, ESBytes W CSB: 1542598812.000000, STDBytes W CSB: 1940909912.000000, IP Bytes W CSB: 823994016.000000, IS_MAX: 0, Tot. Cov: 545.000000, ESBytes WO CSB: 1609766228.000000, STDBytes WO CSB: 2099005628.000000, IP Bytes WO CSB: 823994016.000000, IS_MAX: 1
Coverage: 20, Tot. Cov: 100.000000, Cluster: 42/54, ESBytes W CSB: 490083764.000000, STDBytes W CSB: 632069364.000000, IP Bytes W CSB: 236191896.000000, IS_MAX: 0, Tot. Cov: 75.000000, ESBytes WO CSB: 564856660.000000, STDBytes WO CSB: 793126560.000000, IP Bytes WO CSB: 236191896.000000, IS_MAX: 1
Coverage: 20, Tot. Cov: 43.000000, Cluster: 43/54, ESBytes W CSB: 333369646.000000, STDBytes W CSB: 467404996.000000, IP Bytes W CSB: 138018848.000000, IS_MAX: 0, Tot. Cov: 42.000000, ESBytes WO CSB: 352588544.000000, STDBytes WO CSB: 521745144.000000, IP Bytes WO CSB: 138018848.000000, IS_MAX: 1
Coverage: 20, Tot. Cov: 43.000000, Cluster: 44/54, ESBytes W CSB: 363126960.000000, STDBytes W CSB: 509382960.000000, IP Bytes W CSB: 145790332.000000, IS_MAX: 0, Tot. Cov: 50.000000, ESBytes WO CSB: 393656202.000000, STDBytes WO CSB: 563700052.000000, IP Bytes WO CSB: 145790332.000000, IS_MAX: 1
Coverage: 20, Tot. Cov: 168.000000, Cluster: 45/54, ESBytes W CSB: 552175636.000000, STDBytes W CSB: 659387936.000000, IP Bytes W CSB: 331004556.000000, IS_MAX: 0, Tot. Cov: 179.000000, ESBytes WO CSB: 601789546.000000, STDBytes WO CSB: 739833196.000000, IP Bytes WO CSB: 331004556.000000, IS_MAX: 1
Coverage: 20, Tot. Cov: 23.000000, Cluster: 46/54, ESBytes W CSB: 222156684.000000, STDBytes W CSB: 289733384.000000, IP Bytes W CSB: 103037172.000000, IS_MAX: 0, Tot. Cov: 28.000000, ESBytes WO CSB: 220735874.000000, STDBytes WO CSB: 295167524.000000, IP Bytes WO CSB: 103037172.000000, IS_MAX: 1
Coverage: 20, Tot. Cov: 546.000000, Cluster: 47/54, ESBytes W CSB: 2565888406.000000, STDBytes W CSB: 3323134956.000000, IP Bytes W CSB: 1680317448.000000, IS_MAX: 0, Tot. Cov: 562.000000, ESBytes WO CSB: 2961580966.000000, STDBytes WO CSB: 3640988616.000000, IP Bytes WO CSB: 1680317448.000000, IS_MAX: 1
Coverage: 20, Tot. Cov: 119.000000, Cluster: 48/54, ESBytes W CSB: 563459992.000000, STDBytes W CSB: 724695492.000000, IP Bytes W CSB: 293134016.000000, IS_MAX: 0, Tot. Cov: 110.000000, ESBytes WO CSB: 607080240.000000, STDBytes WO CSB: 802774440.000000, IP Bytes WO CSB: 293134016.000000, IS_MAX: 1
Coverage: 20, Tot. Cov: 274.000000, Cluster: 49/54, ESBytes W CSB: 1069124012.000000, STDBytes W CSB: 1457767512.000000, IP Bytes W CSB: 535325796.000000, IS_MAX: 0, Tot. Cov: 275.000000, ESBytes WO CSB: 1118002020.000000, STDBytes WO CSB: 1590807720.000000, IP Bytes WO CSB: 535325796.000000, IS_MAX: 1
Coverage: 20, Tot. Cov: 237.000000, Cluster: 50/54, ESBytes W CSB: 577470458.000000, STDBytes W CSB: 762835008.000000, IP Bytes W CSB: 287534220.000000, IS_MAX: 0, Tot. Cov: 258.000000, ESBytes WO CSB: 568574756.000000, STDBytes WO CSB: 759712656.000000, IP Bytes WO CSB: 287534220.000000, IS_MAX: 1
Coverage: 20, Tot. Cov: 248.000000, Cluster: 51/54, ESBytes W CSB: 676676318.000000, STDBytes W CSB: 843325668.000000, IP Bytes W CSB: 355621208.000000, IS_MAX: 0, Tot. Cov: 248.000000, ESBytes WO CSB: 676220256.000000, STDBytes WO CSB: 957629556.000000, IP Bytes WO CSB: 355621208.000000, IS_MAX: 1
Coverage: 20, Tot. Cov: 118.000000, Cluster: 52/54, ESBytes W CSB: 685597458.000000, STDBytes W CSB: 908771808.000000, IP Bytes W CSB: 307066040.000000, IS_MAX: 0, Tot. Cov: 142.000000, ESBytes WO CSB: 638100518.000000, STDBytes WO CSB: 834425068.000000, IP Bytes WO CSB: 307066040.000000, IS_MAX: 1
Coverage: 20, Tot. Cov: 1385.000000, Cluster: 53/54, ESBytes W CSB: 7853738706.000000, STDBytes W CSB: 15693929256.000000, IP Bytes W CSB: 4574251128.000000, IS_MAX: 0, Tot. Cov: 1410.000000, ESBytes WO CSB: 9551927570.000000, STDBytes WO CSB: 18175228020.000000, IP Bytes WO CSB: 4574251128.000000, IS_MAX: 1
