Coverage: 25, Tot. Cov: 164.000000, Cluster: 1/54, ESBytes WO CSB: 32397050.000000, STDBytes WO CSB: 48060000.000000, IP Bytes WO CSB: 17003096.000000, IS_MAX: 0, Tot. Cov: 163.000000, ESBytes WO CSB: 33603300.000000, STDBytes WO CSB: 48500000.000000, IP Bytes WO CSB: 16940036.000000, IS_MAX: 1
Coverage: 25, Tot. Cov: 1110.000000, Cluster: 2/54, ESBytes WO CSB: 100222000.000000, STDBytes WO CSB: 161220000.000000, IP Bytes WO CSB: 48807732.000000, IS_MAX: 0, Tot. Cov: 1133.000000, ESBytes WO CSB: 106092400.000000, STDBytes WO CSB: 172980000.000000, IP Bytes WO CSB: 50206316.000000, IS_MAX: 1
Coverage: 25, Tot. Cov: 712.000000, Cluster: 3/54, ESBytes WO CSB: 138461600.000000, STDBytes WO CSB: 275962500.000000, IP Bytes WO CSB: 61832500.000000, IS_MAX: 0, Tot. Cov: 713.000000, ESBytes WO CSB: 127720950.000000, STDBytes WO CSB: 244500000.000000, IP Bytes WO CSB: 62130316.000000, IS_MAX: 1
Coverage: 25, Tot. Cov: 782.000000, Cluster: 4/54, ESBytes WO CSB: 41369550.000000, STDBytes WO CSB: 99000000.000000, IP Bytes WO CSB: 20407836.000000, IS_MAX: 0, Tot. Cov: 773.000000, ESBytes WO CSB: 49227400.000000, STDBytes WO CSB: 114240000.000000, IP Bytes WO CSB: 19923108.000000, IS_MAX: 1
Coverage: 25, Tot. Cov: 2049.000000, Cluster: 5/54, ESBytes WO CSB: 2485034200.000000, STDBytes WO CSB: 3925845000.000000, IP Bytes WO CSB: 1315022536.000000, IS_MAX: 0, Tot. Cov: 2034.000000, ESBytes WO CSB: 2478965050.000000, STDBytes WO CSB: 3963015000.000000, IP Bytes WO CSB: 1303132972.000000, IS_MAX: 1
Coverage: 25, Tot. Cov: 254.000000, Cluster: 6/54, ESBytes WO CSB: 301022800.000000, STDBytes WO CSB: 391620000.000000, IP Bytes WO CSB: 202309740.000000, IS_MAX: 0, Tot. Cov: 270.000000, ESBytes WO CSB: 399600000.000000, STDBytes WO CSB: 505620000.000000, IP Bytes WO CSB: 216880344.000000, IS_MAX: 1
Coverage: 25, Tot. Cov: 1506.000000, Cluster: 7/54, ESBytes WO CSB: 1993211350.000000, STDBytes WO CSB: 2694640000.000000, IP Bytes WO CSB: 1248603008.000000, IS_MAX: 0, Tot. Cov: 1467.000000, ESBytes WO CSB: 2068843400.000000, STDBytes WO CSB: 2670160000.000000, IP Bytes WO CSB: 1222343604.000000, IS_MAX: 1
Coverage: 25, Tot. Cov: 75.000000, Cluster: 8/54, ESBytes WO CSB: 130456450.000000, STDBytes WO CSB: 191880000.000000, IP Bytes WO CSB: 79459596.000000, IS_MAX: 0, Tot. Cov: 53.000000, ESBytes WO CSB: 96571600.000000, STDBytes WO CSB: 189570000.000000, IP Bytes WO CSB: 56993452.000000, IS_MAX: 1
Coverage: 25, Tot. Cov: 123.000000, Cluster: 9/54, ESBytes WO CSB: 197360200.000000, STDBytes WO CSB: 273120000.000000, IP Bytes WO CSB: 134633856.000000, IS_MAX: 0, Tot. Cov: 105.000000, ESBytes WO CSB: 195927200.000000, STDBytes WO CSB: 315382500.000000, IP Bytes WO CSB: 116451976.000000, IS_MAX: 1
Coverage: 25, Tot. Cov: 192.000000, Cluster: 10/54, ESBytes WO CSB: 306141850.000000, STDBytes WO CSB: 462375000.000000, IP Bytes WO CSB: 215307424.000000, IS_MAX: 0, Tot. Cov: 157.000000, ESBytes WO CSB: 292212200.000000, STDBytes WO CSB: 510537500.000000, IP Bytes WO CSB: 175867596.000000, IS_MAX: 1
Coverage: 25, Tot. Cov: 29.000000, Cluster: 11/54, ESBytes WO CSB: 43539400.000000, STDBytes WO CSB: 77402500.000000, IP Bytes WO CSB: 35936424.000000, IS_MAX: 0, Tot. Cov: 31.000000, ESBytes WO CSB: 57817400.000000, STDBytes WO CSB: 98820000.000000, IP Bytes WO CSB: 38446416.000000, IS_MAX: 1
Coverage: 25, Tot. Cov: 763.000000, Cluster: 12/54, ESBytes WO CSB: 429745900.000000, STDBytes WO CSB: 595040000.000000, IP Bytes WO CSB: 237965556.000000, IS_MAX: 0, Tot. Cov: 704.000000, ESBytes WO CSB: 423807400.000000, STDBytes WO CSB: 678480000.000000, IP Bytes WO CSB: 213925416.000000, IS_MAX: 1
Coverage: 25, Tot. Cov: 124.000000, Cluster: 13/54, ESBytes WO CSB: 80220700.000000, STDBytes WO CSB: 115815000.000000, IP Bytes WO CSB: 52672552.000000, IS_MAX: 0, Tot. Cov: 114.000000, ESBytes WO CSB: 90935650.000000, STDBytes WO CSB: 136477500.000000, IP Bytes WO CSB: 48664380.000000, IS_MAX: 1
Coverage: 25, Tot. Cov: 196.000000, Cluster: 14/54, ESBytes WO CSB: 105782500.000000, STDBytes WO CSB: 144712500.000000, IP Bytes WO CSB: 66388320.000000, IS_MAX: 0, Tot. Cov: 222.000000, ESBytes WO CSB: 145134350.000000, STDBytes WO CSB: 184325000.000000, IP Bytes WO CSB: 75778680.000000, IS_MAX: 1
Coverage: 25, Tot. Cov: 449.000000, Cluster: 15/54, ESBytes WO CSB: 374979950.000000, STDBytes WO CSB: 559925000.000000, IP Bytes WO CSB: 182375956.000000, IS_MAX: 0, Tot. Cov: 440.000000, ESBytes WO CSB: 330366550.000000, STDBytes WO CSB: 479675000.000000, IP Bytes WO CSB: 177942004.000000, IS_MAX: 1
Coverage: 25, Tot. Cov: 109.000000, Cluster: 16/54, ESBytes WO CSB: 49727850.000000, STDBytes WO CSB: 71602500.000000, IP Bytes WO CSB: 35201616.000000, IS_MAX: 0, Tot. Cov: 108.000000, ESBytes WO CSB: 60983100.000000, STDBytes WO CSB: 88612500.000000, IP Bytes WO CSB: 35505812.000000, IS_MAX: 1
Coverage: 25, Tot. Cov: 61.000000, Cluster: 17/54, ESBytes WO CSB: 40133750.000000, STDBytes WO CSB: 68150000.000000, IP Bytes WO CSB: 22564356.000000, IS_MAX: 0, Tot. Cov: 58.000000, ESBytes WO CSB: 39643400.000000, STDBytes WO CSB: 72050000.000000, IP Bytes WO CSB: 21483844.000000, IS_MAX: 1
Coverage: 25, Tot. Cov: 75.000000, Cluster: 18/54, ESBytes WO CSB: 39234250.000000, STDBytes WO CSB: 56620000.000000, IP Bytes WO CSB: 24883796.000000, IS_MAX: 0, Tot. Cov: 71.000000, ESBytes WO CSB: 41197850.000000, STDBytes WO CSB: 66775000.000000, IP Bytes WO CSB: 23552988.000000, IS_MAX: 1
Coverage: 25, Tot. Cov: 26.000000, Cluster: 19/54, ESBytes WO CSB: 13668800.000000, STDBytes WO CSB: 27090000.000000, IP Bytes WO CSB: 8797252.000000, IS_MAX: 0, Tot. Cov: 25.000000, ESBytes WO CSB: 15262600.000000, STDBytes WO CSB: 31877500.000000, IP Bytes WO CSB: 8466364.000000, IS_MAX: 1
Coverage: 25, Tot. Cov: 308.000000, Cluster: 20/54, ESBytes WO CSB: 235576100.000000, STDBytes WO CSB: 322927500.000000, IP Bytes WO CSB: 134482528.000000, IS_MAX: 0, Tot. Cov: 280.000000, ESBytes WO CSB: 226569500.000000, STDBytes WO CSB: 322385000.000000, IP Bytes WO CSB: 122696444.000000, IS_MAX: 1
Coverage: 25, Tot. Cov: 1610.000000, Cluster: 21/54, ESBytes WO CSB: 1647033900.000000, STDBytes WO CSB: 2466187500.000000, IP Bytes WO CSB: 846967680.000000, IS_MAX: 0, Tot. Cov: 1672.000000, ESBytes WO CSB: 1579183400.000000, STDBytes WO CSB: 2508100000.000000, IP Bytes WO CSB: 893675452.000000, IS_MAX: 1
Coverage: 25, Tot. Cov: 186.000000, Cluster: 22/54, ESBytes WO CSB: 179971950.000000, STDBytes WO CSB: 298012500.000000, IP Bytes WO CSB: 105139068.000000, IS_MAX: 0, Tot. Cov: 188.000000, ESBytes WO CSB: 196678000.000000, STDBytes WO CSB: 319600000.000000, IP Bytes WO CSB: 107394888.000000, IS_MAX: 1
Coverage: 25, Tot. Cov: 96.000000, Cluster: 23/54, ESBytes WO CSB: 18688050.000000, STDBytes WO CSB: 31102500.000000, IP Bytes WO CSB: 12007548.000000, IS_MAX: 0, Tot. Cov: 113.000000, ESBytes WO CSB: 28048200.000000, STDBytes WO CSB: 41190000.000000, IP Bytes WO CSB: 14295280.000000, IS_MAX: 1
Coverage: 25, Tot. Cov: 126.000000, Cluster: 24/54, ESBytes WO CSB: 30199250.000000, STDBytes WO CSB: 42517500.000000, IP Bytes WO CSB: 13285940.000000, IS_MAX: 0, Tot. Cov: 137.000000, ESBytes WO CSB: 34836950.000000, STDBytes WO CSB: 45157500.000000, IP Bytes WO CSB: 14846084.000000, IS_MAX: 1
Coverage: 25, Tot. Cov: 170.000000, Cluster: 25/54, ESBytes WO CSB: 80754450.000000, STDBytes WO CSB: 117700000.000000, IP Bytes WO CSB: 33868340.000000, IS_MAX: 0, Tot. Cov: 162.000000, ESBytes WO CSB: 71364000.000000, STDBytes WO CSB: 106150000.000000, IP Bytes WO CSB: 32098692.000000, IS_MAX: 1
Coverage: 25, Tot. Cov: 418.000000, Cluster: 26/54, ESBytes WO CSB: 65663200.000000, STDBytes WO CSB: 117225000.000000, IP Bytes WO CSB: 37310240.000000, IS_MAX: 0, Tot. Cov: 405.000000, ESBytes WO CSB: 92366200.000000, STDBytes WO CSB: 135337500.000000, IP Bytes WO CSB: 36133144.000000, IS_MAX: 1
Coverage: 25, Tot. Cov: 1524.000000, Cluster: 27/54, ESBytes WO CSB: 530571100.000000, STDBytes WO CSB: 733280000.000000, IP Bytes WO CSB: 257009596.000000, IS_MAX: 0, Tot. Cov: 1541.000000, ESBytes WO CSB: 514231350.000000, STDBytes WO CSB: 726960000.000000, IP Bytes WO CSB: 260816868.000000, IS_MAX: 1
Coverage: 25, Tot. Cov: 52.000000, Cluster: 28/54, ESBytes WO CSB: 16393450.000000, STDBytes WO CSB: 32595000.000000, IP Bytes WO CSB: 11892912.000000, IS_MAX: 0, Tot. Cov: 54.000000, ESBytes WO CSB: 21980200.000000, STDBytes WO CSB: 44620000.000000, IP Bytes WO CSB: 12330860.000000, IS_MAX: 1
Coverage: 25, Tot. Cov: 75.000000, Cluster: 29/54, ESBytes WO CSB: 19310000.000000, STDBytes WO CSB: 29855000.000000, IP Bytes WO CSB: 12714172.000000, IS_MAX: 0, Tot. Cov: 62.000000, ESBytes WO CSB: 19691900.000000, STDBytes WO CSB: 37305000.000000, IP Bytes WO CSB: 10384032.000000, IS_MAX: 1
Coverage: 25, Tot. Cov: 27.000000, Cluster: 30/54, ESBytes WO CSB: 9588450.000000, STDBytes WO CSB: 18112500.000000, IP Bytes WO CSB: 7324044.000000, IS_MAX: 0, Tot. Cov: 26.000000, ESBytes WO CSB: 14186550.000000, STDBytes WO CSB: 29642500.000000, IP Bytes WO CSB: 7042040.000000, IS_MAX: 1
Coverage: 25, Tot. Cov: 27.000000, Cluster: 31/54, ESBytes WO CSB: 11251950.000000, STDBytes WO CSB: 21700000.000000, IP Bytes WO CSB: 6828416.000000, IS_MAX: 0, Tot. Cov: 26.000000, ESBytes WO CSB: 11184800.000000, STDBytes WO CSB: 23580000.000000, IP Bytes WO CSB: 6577040.000000, IS_MAX: 1
Coverage: 25, Tot. Cov: 29.000000, Cluster: 32/54, ESBytes WO CSB: 5203450.000000, STDBytes WO CSB: 9240000.000000, IP Bytes WO CSB: 4059332.000000, IS_MAX: 0, Tot. Cov: 25.000000, ESBytes WO CSB: 4513450.000000, STDBytes WO CSB: 9215000.000000, IP Bytes WO CSB: 3490420.000000, IS_MAX: 1
Coverage: 25, Tot. Cov: 1163.000000, Cluster: 33/54, ESBytes WO CSB: 301402400.000000, STDBytes WO CSB: 501420000.000000, IP Bytes WO CSB: 157242016.000000, IS_MAX: 0, Tot. Cov: 1165.000000, ESBytes WO CSB: 314209900.000000, STDBytes WO CSB: 502980000.000000, IP Bytes WO CSB: 157946664.000000, IS_MAX: 1
Coverage: 25, Tot. Cov: 35.000000, Cluster: 34/54, ESBytes WO CSB: 7107850.000000, STDBytes WO CSB: 10300000.000000, IP Bytes WO CSB: 5710940.000000, IS_MAX: 0, Tot. Cov: 25.000000, ESBytes WO CSB: 6433550.000000, STDBytes WO CSB: 13457500.000000, IP Bytes WO CSB: 4075844.000000, IS_MAX: 1
Coverage: 25, Tot. Cov: 1307.000000, Cluster: 35/54, ESBytes WO CSB: 587894900.000000, STDBytes WO CSB: 849940000.000000, IP Bytes WO CSB: 327117624.000000, IS_MAX: 0, Tot. Cov: 1317.000000, ESBytes WO CSB: 635393400.000000, STDBytes WO CSB: 903210000.000000, IP Bytes WO CSB: 330972636.000000, IS_MAX: 1
Coverage: 25, Tot. Cov: 1568.000000, Cluster: 36/54, ESBytes WO CSB: 769862300.000000, STDBytes WO CSB: 1190170000.000000, IP Bytes WO CSB: 442765840.000000, IS_MAX: 0, Tot. Cov: 1542.000000, ESBytes WO CSB: 875871200.000000, STDBytes WO CSB: 1314610000.000000, IP Bytes WO CSB: 434059536.000000, IS_MAX: 1
Coverage: 25, Tot. Cov: 26.000000, Cluster: 37/54, ESBytes WO CSB: 15910800.000000, STDBytes WO CSB: 31740000.000000, IP Bytes WO CSB: 12140388.000000, IS_MAX: 0, Tot. Cov: 28.000000, ESBytes WO CSB: 21390300.000000, STDBytes WO CSB: 41225000.000000, IP Bytes WO CSB: 13062856.000000, IS_MAX: 1
Coverage: 25, Tot. Cov: 114.000000, Cluster: 38/54, ESBytes WO CSB: 106934150.000000, STDBytes WO CSB: 163200000.000000, IP Bytes WO CSB: 63940092.000000, IS_MAX: 0, Tot. Cov: 100.000000, ESBytes WO CSB: 111411750.000000, STDBytes WO CSB: 187515000.000000, IP Bytes WO CSB: 55139260.000000, IS_MAX: 1
Coverage: 25, Tot. Cov: 104.000000, Cluster: 39/54, ESBytes WO CSB: 244417450.000000, STDBytes WO CSB: 444577500.000000, IP Bytes WO CSB: 164245772.000000, IS_MAX: 0, Tot. Cov: 116.000000, ESBytes WO CSB: 337805400.000000, STDBytes WO CSB: 563985000.000000, IP Bytes WO CSB: 192656024.000000, IS_MAX: 1
Coverage: 25, Tot. Cov: 736.000000, Cluster: 40/54, ESBytes WO CSB: 1058220650.000000, STDBytes WO CSB: 1560880000.000000, IP Bytes WO CSB: 622644280.000000, IS_MAX: 0, Tot. Cov: 711.000000, ESBytes WO CSB: 1001987850.000000, STDBytes WO CSB: 1428080000.000000, IP Bytes WO CSB: 598296404.000000, IS_MAX: 1
Coverage: 25, Tot. Cov: 561.000000, Cluster: 41/54, ESBytes WO CSB: 1111357500.000000, STDBytes WO CSB: 1465230000.000000, IP Bytes WO CSB: 693376012.000000, IS_MAX: 0, Tot. Cov: 579.000000, ESBytes WO CSB: 1250338100.000000, STDBytes WO CSB: 1700465000.000000, IP Bytes WO CSB: 724268176.000000, IS_MAX: 1
Coverage: 25, Tot. Cov: 100.000000, Cluster: 42/54, ESBytes WO CSB: 234806900.000000, STDBytes WO CSB: 376792500.000000, IP Bytes WO CSB: 151099608.000000, IS_MAX: 0, Tot. Cov: 105.000000, ESBytes WO CSB: 282812750.000000, STDBytes WO CSB: 436012500.000000, IP Bytes WO CSB: 160677232.000000, IS_MAX: 1
Coverage: 25, Tot. Cov: 58.000000, Cluster: 43/54, ESBytes WO CSB: 106250900.000000, STDBytes WO CSB: 215190000.000000, IP Bytes WO CSB: 74024296.000000, IS_MAX: 0, Tot. Cov: 54.000000, ESBytes WO CSB: 118710050.000000, STDBytes WO CSB: 274425000.000000, IP Bytes WO CSB: 68381384.000000, IS_MAX: 1
Coverage: 25, Tot. Cov: 52.000000, Cluster: 44/54, ESBytes WO CSB: 82416800.000000, STDBytes WO CSB: 217860000.000000, IP Bytes WO CSB: 62471944.000000, IS_MAX: 0, Tot. Cov: 57.000000, ESBytes WO CSB: 139766700.000000, STDBytes WO CSB: 293695000.000000, IP Bytes WO CSB: 71286416.000000, IS_MAX: 1
Coverage: 25, Tot. Cov: 180.000000, Cluster: 45/54, ESBytes WO CSB: 379388900.000000, STDBytes WO CSB: 472440000.000000, IP Bytes WO CSB: 285312440.000000, IS_MAX: 0, Tot. Cov: 179.000000, ESBytes WO CSB: 462296350.000000, STDBytes WO CSB: 600340000.000000, IP Bytes WO CSB: 284506824.000000, IS_MAX: 1
Coverage: 25, Tot. Cov: 25.000000, Cluster: 46/54, ESBytes WO CSB: 60069300.000000, STDBytes WO CSB: 123485000.000000, IP Bytes WO CSB: 51408496.000000, IS_MAX: 0, Tot. Cov: 28.000000, ESBytes WO CSB: 84273350.000000, STDBytes WO CSB: 158705000.000000, IP Bytes WO CSB: 57549664.000000, IS_MAX: 1
Coverage: 25, Tot. Cov: 551.000000, Cluster: 47/54, ESBytes WO CSB: 2010923600.000000, STDBytes WO CSB: 2766450000.000000, IP Bytes WO CSB: 1503719472.000000, IS_MAX: 0, Tot. Cov: 562.000000, ESBytes WO CSB: 2584772350.000000, STDBytes WO CSB: 3264180000.000000, IP Bytes WO CSB: 1554714576.000000, IS_MAX: 1
Coverage: 25, Tot. Cov: 124.000000, Cluster: 48/54, ESBytes WO CSB: 375200450.000000, STDBytes WO CSB: 526815000.000000, IP Bytes WO CSB: 234932396.000000, IS_MAX: 0, Tot. Cov: 120.000000, ESBytes WO CSB: 381272550.000000, STDBytes WO CSB: 550912500.000000, IP Bytes WO CSB: 227538096.000000, IS_MAX: 1
Coverage: 25, Tot. Cov: 278.000000, Cluster: 49/54, ESBytes WO CSB: 620027450.000000, STDBytes WO CSB: 1024660000.000000, IP Bytes WO CSB: 386358372.000000, IS_MAX: 0, Tot. Cov: 282.000000, ESBytes WO CSB: 662402050.000000, STDBytes WO CSB: 1174932500.000000, IP Bytes WO CSB: 393287432.000000, IS_MAX: 1
Coverage: 25, Tot. Cov: 246.000000, Cluster: 50/54, ESBytes WO CSB: 373528300.000000, STDBytes WO CSB: 561810000.000000, IP Bytes WO CSB: 217232024.000000, IS_MAX: 0, Tot. Cov: 261.000000, ESBytes WO CSB: 402708450.000000, STDBytes WO CSB: 601725000.000000, IP Bytes WO CSB: 235072724.000000, IS_MAX: 1
Coverage: 25, Tot. Cov: 258.000000, Cluster: 51/54, ESBytes WO CSB: 499032000.000000, STDBytes WO CSB: 698190000.000000, IP Bytes WO CSB: 296110504.000000, IS_MAX: 0, Tot. Cov: 254.000000, ESBytes WO CSB: 470955500.000000, STDBytes WO CSB: 723645000.000000, IP Bytes WO CSB: 291718228.000000, IS_MAX: 1
Coverage: 25, Tot. Cov: 137.000000, Cluster: 52/54, ESBytes WO CSB: 321663750.000000, STDBytes WO CSB: 504760000.000000, IP Bytes WO CSB: 198694228.000000, IS_MAX: 0, Tot. Cov: 146.000000, ESBytes WO CSB: 356983750.000000, STDBytes WO CSB: 540640000.000000, IP Bytes WO CSB: 217580256.000000, IS_MAX: 1
Coverage: 25, Tot. Cov: 1476.000000, Cluster: 53/54, ESBytes WO CSB: 7119223800.000000, STDBytes WO CSB: 14952075000.000000, IP Bytes WO CSB: 4398096680.000000, IS_MAX: 0, Tot. Cov: 1424.000000, ESBytes WO CSB: 8656884900.000000, STDBytes WO CSB: 17453850000.000000, IP Bytes WO CSB: 4304341584.000000, IS_MAX: 1
