Coverage: 30, Tot. Cov: 170.000000, Cluster: 1/54, ESBytes WO CSB: 34075550.000000, STDBytes WO CSB: 48580000.000000, IP Bytes WO CSB: 17537788.000000, IS_MAX: 0, Tot. Cov: 175.000000, ESBytes WO CSB: 35677200.000000, STDBytes WO CSB: 48470000.000000, IP Bytes WO CSB: 18221248.000000, IS_MAX: 1
Coverage: 30, Tot. Cov: 1143.000000, Cluster: 2/54, ESBytes WO CSB: 110121950.000000, STDBytes WO CSB: 172680000.000000, IP Bytes WO CSB: 50784244.000000, IS_MAX: 0, Tot. Cov: 1138.000000, ESBytes WO CSB: 107290300.000000, STDBytes WO CSB: 181620000.000000, IP Bytes WO CSB: 50472956.000000, IS_MAX: 1
Coverage: 30, Tot. Cov: 718.000000, Cluster: 3/54, ESBytes WO CSB: 142989650.000000, STDBytes WO CSB: 290287500.000000, IP Bytes WO CSB: 62952240.000000, IS_MAX: 0, Tot. Cov: 715.000000, ESBytes WO CSB: 129785250.000000, STDBytes WO CSB: 247500000.000000, IP Bytes WO CSB: 62649004.000000, IS_MAX: 1
Coverage: 30, Tot. Cov: 782.000000, Cluster: 4/54, ESBytes WO CSB: 41369550.000000, STDBytes WO CSB: 99000000.000000, IP Bytes WO CSB: 20407836.000000, IS_MAX: 0, Tot. Cov: 782.000000, ESBytes WO CSB: 50377850.000000, STDBytes WO CSB: 125480000.000000, IP Bytes WO CSB: 20472284.000000, IS_MAX: 1
Coverage: 30, Tot. Cov: 2050.000000, Cluster: 5/54, ESBytes WO CSB: 2520147250.000000, STDBytes WO CSB: 3968370000.000000, IP Bytes WO CSB: 1316523980.000000, IS_MAX: 0, Tot. Cov: 2044.000000, ESBytes WO CSB: 2496416650.000000, STDBytes WO CSB: 4028430000.000000, IP Bytes WO CSB: 1312081868.000000, IS_MAX: 1
Coverage: 30, Tot. Cov: 267.000000, Cluster: 6/54, ESBytes WO CSB: 322769650.000000, STDBytes WO CSB: 405570000.000000, IP Bytes WO CSB: 213785436.000000, IS_MAX: 0, Tot. Cov: 274.000000, ESBytes WO CSB: 389077050.000000, STDBytes WO CSB: 487200000.000000, IP Bytes WO CSB: 221055504.000000, IS_MAX: 1
Coverage: 30, Tot. Cov: 1537.000000, Cluster: 7/54, ESBytes WO CSB: 2081080650.000000, STDBytes WO CSB: 2813760000.000000, IP Bytes WO CSB: 1280251192.000000, IS_MAX: 0, Tot. Cov: 1491.000000, ESBytes WO CSB: 2105771150.000000, STDBytes WO CSB: 2723200000.000000, IP Bytes WO CSB: 1244053328.000000, IS_MAX: 1
Coverage: 30, Tot. Cov: 80.000000, Cluster: 8/54, ESBytes WO CSB: 140457750.000000, STDBytes WO CSB: 195115000.000000, IP Bytes WO CSB: 85525692.000000, IS_MAX: 0, Tot. Cov: 62.000000, ESBytes WO CSB: 116257550.000000, STDBytes WO CSB: 197575000.000000, IP Bytes WO CSB: 67539268.000000, IS_MAX: 1
Coverage: 30, Tot. Cov: 130.000000, Cluster: 9/54, ESBytes WO CSB: 212066700.000000, STDBytes WO CSB: 285045000.000000, IP Bytes WO CSB: 143254240.000000, IS_MAX: 0, Tot. Cov: 112.000000, ESBytes WO CSB: 207764800.000000, STDBytes WO CSB: 313777500.000000, IP Bytes WO CSB: 124566248.000000, IS_MAX: 1
Coverage: 30, Tot. Cov: 205.000000, Cluster: 10/54, ESBytes WO CSB: 331763450.000000, STDBytes WO CSB: 478050000.000000, IP Bytes WO CSB: 232632960.000000, IS_MAX: 0, Tot. Cov: 171.000000, ESBytes WO CSB: 327366050.000000, STDBytes WO CSB: 516475000.000000, IP Bytes WO CSB: 193882100.000000, IS_MAX: 1
Coverage: 30, Tot. Cov: 31.000000, Cluster: 11/54, ESBytes WO CSB: 46776400.000000, STDBytes WO CSB: 77572500.000000, IP Bytes WO CSB: 38453200.000000, IS_MAX: 0, Tot. Cov: 31.000000, ESBytes WO CSB: 57817400.000000, STDBytes WO CSB: 98820000.000000, IP Bytes WO CSB: 38446416.000000, IS_MAX: 1
Coverage: 30, Tot. Cov: 763.000000, Cluster: 12/54, ESBytes WO CSB: 429745900.000000, STDBytes WO CSB: 595040000.000000, IP Bytes WO CSB: 237965556.000000, IS_MAX: 0, Tot. Cov: 736.000000, ESBytes WO CSB: 450493900.000000, STDBytes WO CSB: 678000000.000000, IP Bytes WO CSB: 227333124.000000, IS_MAX: 1
Coverage: 30, Tot. Cov: 129.000000, Cluster: 13/54, ESBytes WO CSB: 81312600.000000, STDBytes WO CSB: 116797500.000000, IP Bytes WO CSB: 54893736.000000, IS_MAX: 0, Tot. Cov: 112.000000, ESBytes WO CSB: 93053950.000000, STDBytes WO CSB: 138922500.000000, IP Bytes WO CSB: 48636684.000000, IS_MAX: 1
Coverage: 30, Tot. Cov: 196.000000, Cluster: 14/54, ESBytes WO CSB: 105782500.000000, STDBytes WO CSB: 144712500.000000, IP Bytes WO CSB: 66388320.000000, IS_MAX: 0, Tot. Cov: 222.000000, ESBytes WO CSB: 145134350.000000, STDBytes WO CSB: 184325000.000000, IP Bytes WO CSB: 75778680.000000, IS_MAX: 1
Coverage: 30, Tot. Cov: 455.000000, Cluster: 15/54, ESBytes WO CSB: 400285500.000000, STDBytes WO CSB: 593525000.000000, IP Bytes WO CSB: 185873140.000000, IS_MAX: 0, Tot. Cov: 445.000000, ESBytes WO CSB: 329321200.000000, STDBytes WO CSB: 472900000.000000, IP Bytes WO CSB: 180509372.000000, IS_MAX: 1
Coverage: 30, Tot. Cov: 109.000000, Cluster: 16/54, ESBytes WO CSB: 49727850.000000, STDBytes WO CSB: 71602500.000000, IP Bytes WO CSB: 35201616.000000, IS_MAX: 0, Tot. Cov: 104.000000, ESBytes WO CSB: 56554950.000000, STDBytes WO CSB: 89055000.000000, IP Bytes WO CSB: 34072124.000000, IS_MAX: 1
Coverage: 30, Tot. Cov: 75.000000, Cluster: 17/54, ESBytes WO CSB: 50711200.000000, STDBytes WO CSB: 70495000.000000, IP Bytes WO CSB: 27797956.000000, IS_MAX: 0, Tot. Cov: 68.000000, ESBytes WO CSB: 45976200.000000, STDBytes WO CSB: 71755000.000000, IP Bytes WO CSB: 25260408.000000, IS_MAX: 1
Coverage: 30, Tot. Cov: 77.000000, Cluster: 18/54, ESBytes WO CSB: 40147800.000000, STDBytes WO CSB: 56200000.000000, IP Bytes WO CSB: 25556804.000000, IS_MAX: 0, Tot. Cov: 83.000000, ESBytes WO CSB: 48702600.000000, STDBytes WO CSB: 70130000.000000, IP Bytes WO CSB: 27622508.000000, IS_MAX: 1
Coverage: 30, Tot. Cov: 32.000000, Cluster: 19/54, ESBytes WO CSB: 17163850.000000, STDBytes WO CSB: 27672500.000000, IP Bytes WO CSB: 10880772.000000, IS_MAX: 0, Tot. Cov: 35.000000, ESBytes WO CSB: 23373450.000000, STDBytes WO CSB: 35650000.000000, IP Bytes WO CSB: 11917580.000000, IS_MAX: 1
Coverage: 30, Tot. Cov: 308.000000, Cluster: 20/54, ESBytes WO CSB: 235576100.000000, STDBytes WO CSB: 322927500.000000, IP Bytes WO CSB: 134482528.000000, IS_MAX: 0, Tot. Cov: 294.000000, ESBytes WO CSB: 237764050.000000, STDBytes WO CSB: 323610000.000000, IP Bytes WO CSB: 128777468.000000, IS_MAX: 1
Coverage: 30, Tot. Cov: 1727.000000, Cluster: 21/54, ESBytes WO CSB: 1953159850.000000, STDBytes WO CSB: 3181325000.000000, IP Bytes WO CSB: 936558584.000000, IS_MAX: 0, Tot. Cov: 1711.000000, ESBytes WO CSB: 1624927700.000000, STDBytes WO CSB: 2565937500.000000, IP Bytes WO CSB: 923612388.000000, IS_MAX: 1
Coverage: 30, Tot. Cov: 209.000000, Cluster: 22/54, ESBytes WO CSB: 210697650.000000, STDBytes WO CSB: 316037500.000000, IP Bytes WO CSB: 120471704.000000, IS_MAX: 0, Tot. Cov: 209.000000, ESBytes WO CSB: 224855800.000000, STDBytes WO CSB: 335587500.000000, IP Bytes WO CSB: 121310928.000000, IS_MAX: 1
Coverage: 30, Tot. Cov: 130.000000, Cluster: 23/54, ESBytes WO CSB: 25705550.000000, STDBytes WO CSB: 32040000.000000, IP Bytes WO CSB: 16280260.000000, IS_MAX: 0, Tot. Cov: 125.000000, ESBytes WO CSB: 32726400.000000, STDBytes WO CSB: 44835000.000000, IP Bytes WO CSB: 15694732.000000, IS_MAX: 1
Coverage: 30, Tot. Cov: 139.000000, Cluster: 24/54, ESBytes WO CSB: 34323450.000000, STDBytes WO CSB: 44377500.000000, IP Bytes WO CSB: 15117540.000000, IS_MAX: 0, Tot. Cov: 137.000000, ESBytes WO CSB: 34836950.000000, STDBytes WO CSB: 45157500.000000, IP Bytes WO CSB: 14846084.000000, IS_MAX: 1
Coverage: 30, Tot. Cov: 174.000000, Cluster: 25/54, ESBytes WO CSB: 84888750.000000, STDBytes WO CSB: 120860000.000000, IP Bytes WO CSB: 35003552.000000, IS_MAX: 0, Tot. Cov: 162.000000, ESBytes WO CSB: 71364000.000000, STDBytes WO CSB: 106150000.000000, IP Bytes WO CSB: 32098692.000000, IS_MAX: 1
Coverage: 30, Tot. Cov: 418.000000, Cluster: 26/54, ESBytes WO CSB: 65663200.000000, STDBytes WO CSB: 117225000.000000, IP Bytes WO CSB: 37310240.000000, IS_MAX: 0, Tot. Cov: 411.000000, ESBytes WO CSB: 93074600.000000, STDBytes WO CSB: 140422500.000000, IP Bytes WO CSB: 37306652.000000, IS_MAX: 1
Coverage: 30, Tot. Cov: 1578.000000, Cluster: 27/54, ESBytes WO CSB: 701447500.000000, STDBytes WO CSB: 1062160000.000000, IP Bytes WO CSB: 269055588.000000, IS_MAX: 0, Tot. Cov: 1572.000000, ESBytes WO CSB: 539139150.000000, STDBytes WO CSB: 846320000.000000, IP Bytes WO CSB: 267856108.000000, IS_MAX: 1
Coverage: 30, Tot. Cov: 70.000000, Cluster: 28/54, ESBytes WO CSB: 22263050.000000, STDBytes WO CSB: 32910000.000000, IP Bytes WO CSB: 16108852.000000, IS_MAX: 0, Tot. Cov: 70.000000, ESBytes WO CSB: 28595800.000000, STDBytes WO CSB: 47685000.000000, IP Bytes WO CSB: 16150968.000000, IS_MAX: 1
Coverage: 30, Tot. Cov: 75.000000, Cluster: 29/54, ESBytes WO CSB: 19310000.000000, STDBytes WO CSB: 29855000.000000, IP Bytes WO CSB: 12714172.000000, IS_MAX: 0, Tot. Cov: 78.000000, ESBytes WO CSB: 27749350.000000, STDBytes WO CSB: 41345000.000000, IP Bytes WO CSB: 12863296.000000, IS_MAX: 1
Coverage: 30, Tot. Cov: 30.000000, Cluster: 30/54, ESBytes WO CSB: 10797900.000000, STDBytes WO CSB: 18597500.000000, IP Bytes WO CSB: 8140372.000000, IS_MAX: 0, Tot. Cov: 33.000000, ESBytes WO CSB: 16157550.000000, STDBytes WO CSB: 27892500.000000, IP Bytes WO CSB: 8960892.000000, IS_MAX: 1
Coverage: 30, Tot. Cov: 33.000000, Cluster: 31/54, ESBytes WO CSB: 13952200.000000, STDBytes WO CSB: 21950000.000000, IP Bytes WO CSB: 8352516.000000, IS_MAX: 0, Tot. Cov: 32.000000, ESBytes WO CSB: 14011550.000000, STDBytes WO CSB: 24075000.000000, IP Bytes WO CSB: 8114528.000000, IS_MAX: 1
Coverage: 30, Tot. Cov: 31.000000, Cluster: 32/54, ESBytes WO CSB: 5566450.000000, STDBytes WO CSB: 9547500.000000, IP Bytes WO CSB: 4354384.000000, IS_MAX: 0, Tot. Cov: 34.000000, ESBytes WO CSB: 7531600.000000, STDBytes WO CSB: 12605000.000000, IP Bytes WO CSB: 4792472.000000, IS_MAX: 1
Coverage: 30, Tot. Cov: 1163.000000, Cluster: 33/54, ESBytes WO CSB: 301402400.000000, STDBytes WO CSB: 501420000.000000, IP Bytes WO CSB: 157242016.000000, IS_MAX: 0, Tot. Cov: 1170.000000, ESBytes WO CSB: 317824950.000000, STDBytes WO CSB: 507420000.000000, IP Bytes WO CSB: 158956048.000000, IS_MAX: 1
Coverage: 30, Tot. Cov: 35.000000, Cluster: 34/54, ESBytes WO CSB: 7107850.000000, STDBytes WO CSB: 10300000.000000, IP Bytes WO CSB: 5710940.000000, IS_MAX: 0, Tot. Cov: 32.000000, ESBytes WO CSB: 9157500.000000, STDBytes WO CSB: 16200000.000000, IP Bytes WO CSB: 5220856.000000, IS_MAX: 1
Coverage: 30, Tot. Cov: 1341.000000, Cluster: 35/54, ESBytes WO CSB: 638670800.000000, STDBytes WO CSB: 958020000.000000, IP Bytes WO CSB: 337805228.000000, IS_MAX: 0, Tot. Cov: 1339.000000, ESBytes WO CSB: 642111600.000000, STDBytes WO CSB: 923090000.000000, IP Bytes WO CSB: 336353872.000000, IS_MAX: 1
Coverage: 30, Tot. Cov: 1633.000000, Cluster: 36/54, ESBytes WO CSB: 829179300.000000, STDBytes WO CSB: 1352775000.000000, IP Bytes WO CSB: 470436372.000000, IS_MAX: 0, Tot. Cov: 1587.000000, ESBytes WO CSB: 923256000.000000, STDBytes WO CSB: 1328465000.000000, IP Bytes WO CSB: 452147172.000000, IS_MAX: 1
Coverage: 30, Tot. Cov: 30.000000, Cluster: 37/54, ESBytes WO CSB: 18652900.000000, STDBytes WO CSB: 32542500.000000, IP Bytes WO CSB: 14037088.000000, IS_MAX: 0, Tot. Cov: 33.000000, ESBytes WO CSB: 26674400.000000, STDBytes WO CSB: 45142500.000000, IP Bytes WO CSB: 15455368.000000, IS_MAX: 1
Coverage: 30, Tot. Cov: 114.000000, Cluster: 38/54, ESBytes WO CSB: 106934150.000000, STDBytes WO CSB: 163200000.000000, IP Bytes WO CSB: 63940092.000000, IS_MAX: 0, Tot. Cov: 115.000000, ESBytes WO CSB: 126218450.000000, STDBytes WO CSB: 184927500.000000, IP Bytes WO CSB: 64839828.000000, IS_MAX: 1
Coverage: 30, Tot. Cov: 116.000000, Cluster: 39/54, ESBytes WO CSB: 283096950.000000, STDBytes WO CSB: 468495000.000000, IP Bytes WO CSB: 187976676.000000, IS_MAX: 0, Tot. Cov: 120.000000, ESBytes WO CSB: 343629350.000000, STDBytes WO CSB: 545317500.000000, IP Bytes WO CSB: 200353256.000000, IS_MAX: 1
Coverage: 30, Tot. Cov: 764.000000, Cluster: 40/54, ESBytes WO CSB: 1202571650.000000, STDBytes WO CSB: 2249960000.000000, IP Bytes WO CSB: 650646176.000000, IS_MAX: 0, Tot. Cov: 755.000000, ESBytes WO CSB: 1126162700.000000, STDBytes WO CSB: 1929920000.000000, IP Bytes WO CSB: 639709664.000000, IS_MAX: 1
Coverage: 30, Tot. Cov: 572.000000, Cluster: 41/54, ESBytes WO CSB: 1146229500.000000, STDBytes WO CSB: 1488955000.000000, IP Bytes WO CSB: 708240384.000000, IS_MAX: 0, Tot. Cov: 590.000000, ESBytes WO CSB: 1262546200.000000, STDBytes WO CSB: 1687270000.000000, IP Bytes WO CSB: 738698584.000000, IS_MAX: 1
Coverage: 30, Tot. Cov: 125.000000, Cluster: 42/54, ESBytes WO CSB: 299912300.000000, STDBytes WO CSB: 392227500.000000, IP Bytes WO CSB: 189484964.000000, IS_MAX: 0, Tot. Cov: 99.000000, ESBytes WO CSB: 257698200.000000, STDBytes WO CSB: 409530000.000000, IP Bytes WO CSB: 151294960.000000, IS_MAX: 1
Coverage: 30, Tot. Cov: 66.000000, Cluster: 43/54, ESBytes WO CSB: 125066650.000000, STDBytes WO CSB: 222035000.000000, IP Bytes WO CSB: 86171048.000000, IS_MAX: 0, Tot. Cov: 80.000000, ESBytes WO CSB: 187224950.000000, STDBytes WO CSB: 273815000.000000, IP Bytes WO CSB: 107991828.000000, IS_MAX: 1
Coverage: 30, Tot. Cov: 62.000000, Cluster: 44/54, ESBytes WO CSB: 104042250.000000, STDBytes WO CSB: 219400000.000000, IP Bytes WO CSB: 79869412.000000, IS_MAX: 0, Tot. Cov: 71.000000, ESBytes WO CSB: 178932250.000000, STDBytes WO CSB: 301350000.000000, IP Bytes WO CSB: 95783952.000000, IS_MAX: 1
Coverage: 30, Tot. Cov: 180.000000, Cluster: 45/54, ESBytes WO CSB: 379388900.000000, STDBytes WO CSB: 472440000.000000, IP Bytes WO CSB: 285312440.000000, IS_MAX: 0, Tot. Cov: 180.000000, ESBytes WO CSB: 454381450.000000, STDBytes WO CSB: 579500000.000000, IP Bytes WO CSB: 286070760.000000, IS_MAX: 1
Coverage: 30, Tot. Cov: 32.000000, Cluster: 46/54, ESBytes WO CSB: 77490200.000000, STDBytes WO CSB: 124362500.000000, IP Bytes WO CSB: 65600144.000000, IS_MAX: 0, Tot. Cov: 36.000000, ESBytes WO CSB: 113321900.000000, STDBytes WO CSB: 163475000.000000, IP Bytes WO CSB: 74004932.000000, IS_MAX: 1
Coverage: 30, Tot. Cov: 563.000000, Cluster: 47/54, ESBytes WO CSB: 2081286450.000000, STDBytes WO CSB: 2835690000.000000, IP Bytes WO CSB: 1546253720.000000, IS_MAX: 0, Tot. Cov: 581.000000, ESBytes WO CSB: 2664785900.000000, STDBytes WO CSB: 3336540000.000000, IP Bytes WO CSB: 1611089352.000000, IS_MAX: 1
Coverage: 30, Tot. Cov: 136.000000, Cluster: 48/54, ESBytes WO CSB: 429279150.000000, STDBytes WO CSB: 557325000.000000, IP Bytes WO CSB: 261456060.000000, IS_MAX: 0, Tot. Cov: 128.000000, ESBytes WO CSB: 412675600.000000, STDBytes WO CSB: 557835000.000000, IP Bytes WO CSB: 244925416.000000, IS_MAX: 1
Coverage: 30, Tot. Cov: 295.000000, Cluster: 49/54, ESBytes WO CSB: 688834350.000000, STDBytes WO CSB: 1191295000.000000, IP Bytes WO CSB: 414896968.000000, IS_MAX: 0, Tot. Cov: 287.000000, ESBytes WO CSB: 679485400.000000, STDBytes WO CSB: 1227222500.000000, IP Bytes WO CSB: 402147372.000000, IS_MAX: 1
Coverage: 30, Tot. Cov: 264.000000, Cluster: 50/54, ESBytes WO CSB: 420264700.000000, STDBytes WO CSB: 618915000.000000, IP Bytes WO CSB: 237808412.000000, IS_MAX: 0, Tot. Cov: 268.000000, ESBytes WO CSB: 415946150.000000, STDBytes WO CSB: 643500000.000000, IP Bytes WO CSB: 243313508.000000, IS_MAX: 1
Coverage: 30, Tot. Cov: 274.000000, Cluster: 51/54, ESBytes WO CSB: 544253800.000000, STDBytes WO CSB: 718215000.000000, IP Bytes WO CSB: 317690904.000000, IS_MAX: 0, Tot. Cov: 269.000000, ESBytes WO CSB: 509451800.000000, STDBytes WO CSB: 732495000.000000, IP Bytes WO CSB: 311424296.000000, IS_MAX: 1
Coverage: 30, Tot. Cov: 148.000000, Cluster: 52/54, ESBytes WO CSB: 363475950.000000, STDBytes WO CSB: 548890000.000000, IP Bytes WO CSB: 215919296.000000, IS_MAX: 0, Tot. Cov: 169.000000, ESBytes WO CSB: 420590000.000000, STDBytes WO CSB: 557950000.000000, IP Bytes WO CSB: 252519072.000000, IS_MAX: 1
Coverage: 30, Tot. Cov: 1481.000000, Cluster: 53/54, ESBytes WO CSB: 7220818400.000000, STDBytes WO CSB: 15289575000.000000, IP Bytes WO CSB: 4429168224.000000, IS_MAX: 0, Tot. Cov: 1468.000000, ESBytes WO CSB: 9104658750.000000, STDBytes WO CSB: 17800575000.000000, IP Bytes WO CSB: 4434609324.000000, IS_MAX: 1
