rm: cannot remove ‘results’: Is a directory
rm: cannot remove ‘temp*’: No such file or directory
rm: cannot remove ‘results’: Is a directory
rm: cannot remove ‘temp*’: No such file or directory
mkdir: cannot create directory ‘./resutls/data-phase-2-1/16’: No such file or directory
mv: cannot move ‘results_wocsb_20.data’ to ‘./results/data-phase-2-1/16/.’: No such file or directory
mv: cannot move ‘results-20-33-16-1’ to ‘./results/data-phase-2-1/16/.’: No such file or directory
mkdir: cannot create directory ‘./resutls/data-phase-2-1/29’: No such file or directory
mv: cannot move ‘results_wocsb_20.data’ to ‘./results/data-phase-2-1/29/.’: No such file or directory
mv: target ‘./results/data-phase-2-1/29/.’ is not a directory
mkdir: cannot create directory ‘./resutls/data-phase-2-1/54’: No such file or directory
mv: cannot move ‘results_wocsb_20.data’ to ‘./results/data-phase-2-1/54/.’: No such file or directory
mv: target ‘./results/data-phase-2-1/54/.’ is not a directory
mkdir: cannot create directory ‘./resutls/data-phase-2-1/81’: No such file or directory
mv: cannot move ‘results_wocsb_20.data’ to ‘./results/data-phase-2-1/81/.’: No such file or directory
mv: target ‘./results/data-phase-2-1/81/.’ is not a directory
rm: cannot remove ‘results’: Is a directory
rm: cannot remove ‘temp*’: No such file or directory
mkdir: cannot create directory ‘./resutls/data-phase-2-1/16’: No such file or directory
mv: cannot move ‘results_wocsb_20.data’ to ‘./results/data-phase-2-1/16/.’: No such file or directory
mv: cannot move ‘results-20-33-16-1’ to ‘./results/data-phase-2-1/16/.’: No such file or directory
mkdir: cannot create directory ‘./resutls/data-phase-2-1/29’: No such file or directory
mv: cannot move ‘results_wocsb_20.data’ to ‘./results/data-phase-2-1/29/.’: No such file or directory
mv: target ‘./results/data-phase-2-1/29/.’ is not a directory
mkdir: cannot create directory ‘./resutls/data-phase-2-1/54’: No such file or directory
mv: cannot move ‘results_wocsb_20.data’ to ‘./results/data-phase-2-1/54/.’: No such file or directory
mv: target ‘./results/data-phase-2-1/54/.’ is not a directory
mkdir: cannot create directory ‘./resutls/data-phase-2-1/81’: No such file or directory
mv: cannot move ‘results_wocsb_20.data’ to ‘./results/data-phase-2-1/81/.’: No such file or directory
mv: target ‘./results/data-phase-2-1/81/.’ is not a directory
mkdir: cannot create directory ‘./resutls/data-phase-2-1/104’: No such file or directory
mv: cannot move ‘results_wocsb_20.data’ to ‘./results/data-phase-2-1/104/.’: No such file or directory
mv: target ‘./results/data-phase-2-1/104/.’ is not a directory
mkdir: cannot create directory ‘./resutls/data-phase-2-1/131’: No such file or directory
mv: cannot move ‘results_wocsb_20.data’ to ‘./results/data-phase-2-1/131/.’: No such file or directory
mv: target ‘./results/data-phase-2-1/131/.’ is not a directory
mkdir: cannot create directory ‘./resutls/data-phase-2-1/153’: No such file or directory
mv: cannot move ‘results_wocsb_20.data’ to ‘./results/data-phase-2-1/153/.’: No such file or directory
mv: target ‘./results/data-phase-2-1/153/.’ is not a directory
mkdir: cannot create directory ‘./resutls/data-phase-2-1/172’: No such file or directory
mv: cannot move ‘results_wocsb_20.data’ to ‘./results/data-phase-2-1/172/.’: No such file or directory
mv: target ‘./results/data-phase-2-1/172/.’ is not a directory
mkdir: cannot create directory ‘./resutls/data-phase-2-1/200’: No such file or directory
mv: cannot move ‘results_wocsb_20.data’ to ‘./results/data-phase-2-1/200/.’: No such file or directory
mv: target ‘./results/data-phase-2-1/200/.’ is not a directory
mkdir: cannot create directory ‘./resutls/data-phase-2-1/225’: No such file or directory
mv: cannot move ‘results_wocsb_20.data’ to ‘./results/data-phase-2-1/225/.’: No such file or directory
mv: target ‘./results/data-phase-2-1/225/.’ is not a directory
mkdir: cannot create directory ‘./resutls/data-phase-2-1/250’: No such file or directory
mv: cannot move ‘results_wocsb_20.data’ to ‘./results/data-phase-2-1/250/.’: No such file or directory
mv: target ‘./results/data-phase-2-1/250/.’ is not a directory
mkdir: cannot create directory ‘./resutls/data-phase-2-1/16’: No such file or directory
mv: cannot move ‘results_wocsb_20.data’ to ‘./results/data-phase-2-1/16/.’: No such file or directory
mv: target ‘./results/data-phase-2-1/16/.’ is not a directory
mkdir: cannot create directory ‘./resutls/data-phase-2-1/29’: No such file or directory
mv: cannot move ‘results_wocsb_20.data’ to ‘./results/data-phase-2-1/29/.’: No such file or directory
mv: target ‘./results/data-phase-2-1/29/.’ is not a directory
mkdir: cannot create directory ‘./resutls/data-phase-2-1/54’: No such file or directory
mv: cannot move ‘results_wocsb_20.data’ to ‘./results/data-phase-2-1/54/.’: No such file or directory
mv: target ‘./results/data-phase-2-1/54/.’ is not a directory
mkdir: cannot create directory ‘./resutls/data-phase-2-1/81’: No such file or directory
mv: cannot move ‘results_wocsb_20.data’ to ‘./results/data-phase-2-1/81/.’: No such file or directory
mv: target ‘./results/data-phase-2-1/81/.’ is not a directory
mkdir: cannot create directory ‘./resutls/data-phase-2-1/104’: No such file or directory
mv: cannot move ‘results_wocsb_20.data’ to ‘./results/data-phase-2-1/104/.’: No such file or directory
mv: target ‘./results/data-phase-2-1/104/.’ is not a directory
mkdir: cannot create directory ‘./resutls/data-phase-2-1/131’: No such file or directory
mv: cannot move ‘results_wocsb_20.data’ to ‘./results/data-phase-2-1/131/.’: No such file or directory
mv: target ‘./results/data-phase-2-1/131/.’ is not a directory
mkdir: cannot create directory ‘./resutls/data-phase-2-1/153’: No such file or directory
mv: cannot move ‘results_wocsb_20.data’ to ‘./results/data-phase-2-1/153/.’: No such file or directory
mv: target ‘./results/data-phase-2-1/153/.’ is not a directory
mkdir: cannot create directory ‘./resutls/data-phase-2-1/172’: No such file or directory
mv: cannot move ‘results_wocsb_20.data’ to ‘./results/data-phase-2-1/172/.’: No such file or directory
mv: target ‘./results/data-phase-2-1/172/.’ is not a directory
mkdir: cannot create directory ‘./resutls/data-phase-2-1/200’: No such file or directory
mv: cannot move ‘results_wocsb_20.data’ to ‘./results/data-phase-2-1/200/.’: No such file or directory
mv: target ‘./results/data-phase-2-1/200/.’ is not a directory
mkdir: cannot create directory ‘./resutls/data-phase-2-1/225’: No such file or directory
mv: cannot move ‘results_wocsb_20.data’ to ‘./results/data-phase-2-1/225/.’: No such file or directory
mv: target ‘./results/data-phase-2-1/225/.’ is not a directory
mkdir: cannot create directory ‘./resutls/data-phase-2-1/250’: No such file or directory
mv: cannot move ‘results_wocsb_20.data’ to ‘./results/data-phase-2-1/250/.’: No such file or directory
mv: target ‘./results/data-phase-2-1/250/.’ is not a directory
mkdir: cannot create directory ‘./resutls/data-phase-2-1/16’: No such file or directory
mv: cannot move ‘results_wocsb_20.data’ to ‘./results/data-phase-2-1/16/.’: No such file or directory
mv: target ‘./results/data-phase-2-1/16/.’ is not a directory
mkdir: cannot create directory ‘./resutls/data-phase-2-1/29’: No such file or directory
mv: cannot move ‘results_wocsb_20.data’ to ‘./results/data-phase-2-1/29/.’: No such file or directory
mv: target ‘./results/data-phase-2-1/29/.’ is not a directory
mkdir: cannot create directory ‘./resutls/data-phase-2-1/54’: No such file or directory
mv: cannot move ‘results_wocsb_20.data’ to ‘./results/data-phase-2-1/54/.’: No such file or directory
mv: target ‘./results/data-phase-2-1/54/.’ is not a directory
mkdir: cannot create directory ‘./resutls/data-phase-2-1/81’: No such file or directory
mv: cannot move ‘results_wocsb_20.data’ to ‘./results/data-phase-2-1/81/.’: No such file or directory
mv: target ‘./results/data-phase-2-1/81/.’ is not a directory
mkdir: cannot create directory ‘./resutls/data-phase-2-1/104’: No such file or directory
mv: cannot move ‘results_wocsb_20.data’ to ‘./results/data-phase-2-1/104/.’: No such file or directory
mv: target ‘./results/data-phase-2-1/104/.’ is not a directory
mkdir: cannot create directory ‘./resutls/data-phase-2-1/131’: No such file or directory
mv: cannot move ‘results_wocsb_20.data’ to ‘./results/data-phase-2-1/131/.’: No such file or directory
mv: target ‘./results/data-phase-2-1/131/.’ is not a directory
mkdir: cannot create directory ‘./resutls/data-phase-2-1/153’: No such file or directory
mv: cannot move ‘results_wocsb_20.data’ to ‘./results/data-phase-2-1/153/.’: No such file or directory
mv: target ‘./results/data-phase-2-1/153/.’ is not a directory
mkdir: cannot create directory ‘./resutls/data-phase-2-1/172’: No such file or directory
mv: cannot move ‘results_wocsb_20.data’ to ‘./results/data-phase-2-1/172/.’: No such file or directory
mv: target ‘./results/data-phase-2-1/172/.’ is not a directory
mkdir: cannot create directory ‘./resutls/data-phase-2-1/200’: No such file or directory
mv: cannot move ‘results_wocsb_20.data’ to ‘./results/data-phase-2-1/200/.’: No such file or directory
mv: target ‘./results/data-phase-2-1/200/.’ is not a directory
mkdir: cannot create directory ‘./resutls/data-phase-2-1/225’: No such file or directory
mv: cannot move ‘results_wocsb_20.data’ to ‘./results/data-phase-2-1/225/.’: No such file or directory
mv: target ‘./results/data-phase-2-1/225/.’ is not a directory
mkdir: cannot create directory ‘./resutls/data-phase-2-1/250’: No such file or directory
mv: cannot move ‘results_wocsb_20.data’ to ‘./results/data-phase-2-1/250/.’: No such file or directory
mv: target ‘./results/data-phase-2-1/250/.’ is not a directory
mkdir: cannot create directory ‘./resutls/data-phase-2-1/16’: No such file or directory
mv: cannot move ‘results_wocsb_20.data’ to ‘./results/data-phase-2-1/16/.’: No such file or directory
mv: target ‘./results/data-phase-2-1/16/.’ is not a directory
mkdir: cannot create directory ‘./resutls/data-phase-2-1/29’: No such file or directory
mv: cannot move ‘results_wocsb_20.data’ to ‘./results/data-phase-2-1/29/.’: No such file or directory
mv: target ‘./results/data-phase-2-1/29/.’ is not a directory
mkdir: cannot create directory ‘./resutls/data-phase-2-1/54’: No such file or directory
mv: cannot move ‘results_wocsb_20.data’ to ‘./results/data-phase-2-1/54/.’: No such file or directory
mv: target ‘./results/data-phase-2-1/54/.’ is not a directory
mkdir: cannot create directory ‘./resutls/data-phase-2-1/81’: No such file or directory
mv: cannot move ‘results_wocsb_20.data’ to ‘./results/data-phase-2-1/81/.’: No such file or directory
mv: target ‘./results/data-phase-2-1/81/.’ is not a directory
mkdir: cannot create directory ‘./resutls/data-phase-2-1/104’: No such file or directory
mv: cannot move ‘results_wocsb_20.data’ to ‘./results/data-phase-2-1/104/.’: No such file or directory
mv: target ‘./results/data-phase-2-1/104/.’ is not a directory
mkdir: cannot create directory ‘./resutls/data-phase-2-1/131’: No such file or directory
mv: cannot move ‘results_wocsb_20.data’ to ‘./results/data-phase-2-1/131/.’: No such file or directory
mv: target ‘./results/data-phase-2-1/131/.’ is not a directory
mkdir: cannot create directory ‘./resutls/data-phase-2-1/153’: No such file or directory
mv: cannot move ‘results_wocsb_20.data’ to ‘./results/data-phase-2-1/153/.’: No such file or directory
mv: target ‘./results/data-phase-2-1/153/.’ is not a directory
mkdir: cannot create directory ‘./resutls/data-phase-2-1/172’: No such file or directory
mv: cannot move ‘results_wocsb_20.data’ to ‘./results/data-phase-2-1/172/.’: No such file or directory
mv: target ‘./results/data-phase-2-1/172/.’ is not a directory
mkdir: cannot create directory ‘./resutls/data-phase-2-1/200’: No such file or directory
mv: cannot move ‘results_wocsb_20.data’ to ‘./results/data-phase-2-1/200/.’: No such file or directory
mv: target ‘./results/data-phase-2-1/200/.’ is not a directory
mkdir: cannot create directory ‘./resutls/data-phase-2-1/225’: No such file or directory
mv: cannot move ‘results_wocsb_20.data’ to ‘./results/data-phase-2-1/225/.’: No such file or directory
mv: target ‘./results/data-phase-2-1/225/.’ is not a directory
mkdir: cannot create directory ‘./resutls/data-phase-2-1/250’: No such file or directory
mv: cannot move ‘results_wocsb_20.data’ to ‘./results/data-phase-2-1/250/.’: No such file or directory
mv: target ‘./results/data-phase-2-1/250/.’ is not a directory
mkdir: cannot create directory ‘./resutls/data-phase-2-1/16’: No such file or directory
mv: target ‘./results/data-phase-2-1/16/.’ is not a directory
mv: target ‘./results/data-phase-2-1/16/.’ is not a directory
mkdir: cannot create directory ‘./resutls/data-phase-2-1/29’: No such file or directory
mv: target ‘./results/data-phase-2-1/29/.’ is not a directory
mv: target ‘./results/data-phase-2-1/29/.’ is not a directory
mkdir: cannot create directory ‘./resutls/data-phase-2-1/54’: No such file or directory
mv: target ‘./results/data-phase-2-1/54/.’ is not a directory
mv: target ‘./results/data-phase-2-1/54/.’ is not a directory
mkdir: cannot create directory ‘./resutls/data-phase-2-1/81’: No such file or directory
mv: target ‘./results/data-phase-2-1/81/.’ is not a directory
mv: target ‘./results/data-phase-2-1/81/.’ is not a directory
rm: cannot remove ‘results’: Is a directory
rm: cannot remove ‘temp*’: No such file or directory
mkdir: cannot create directory ‘./results/data-phase-2-1/16’: File exists
mkdir: cannot create directory ‘./results/data-phase-2-1/29’: File exists
mkdir: cannot create directory ‘./results/data-phase-2-1/54’: File exists
mkdir: cannot create directory ‘./results/data-phase-2-1/81’: File exists
mkdir: cannot create directory ‘./results/data-phase-2-1/104’: File exists
mkdir: cannot create directory ‘./results/data-phase-2-1/131’: File exists
mkdir: cannot create directory ‘./results/data-phase-2-1/153’: File exists
mkdir: cannot create directory ‘./results/data-phase-2-1/172’: File exists
mkdir: cannot create directory ‘./results/data-phase-2-1/200’: File exists
mkdir: cannot create directory ‘./results/data-phase-2-1/225’: File exists
mkdir: cannot create directory ‘./results/data-phase-2-1/250’: File exists
mkdir: cannot create directory ‘./results/data-phase-2-1/16’: File exists
mkdir: cannot create directory ‘./results/data-phase-2-1/29’: File exists
mkdir: cannot create directory ‘./results/data-phase-2-1/54’: File exists
mkdir: cannot create directory ‘./results/data-phase-2-1/81’: File exists
mkdir: cannot create directory ‘./results/data-phase-2-1/104’: File exists
mkdir: cannot create directory ‘./results/data-phase-2-1/131’: File exists
mkdir: cannot create directory ‘./results/data-phase-2-1/153’: File exists
mkdir: cannot create directory ‘./results/data-phase-2-1/172’: File exists
mkdir: cannot create directory ‘./results/data-phase-2-1/200’: File exists
mkdir: cannot create directory ‘./results/data-phase-2-1/225’: File exists
mkdir: cannot create directory ‘./results/data-phase-2-1/250’: File exists
mkdir: cannot create directory ‘./results/data-phase-2-1/16’: File exists
mkdir: cannot create directory ‘./results/data-phase-2-1/29’: File exists
mkdir: cannot create directory ‘./results/data-phase-2-1/54’: File exists
mkdir: cannot create directory ‘./results/data-phase-2-1/81’: File exists
mkdir: cannot create directory ‘./results/data-phase-2-1/104’: File exists
mkdir: cannot create directory ‘./results/data-phase-2-1/131’: File exists
mkdir: cannot create directory ‘./results/data-phase-2-1/153’: File exists
mkdir: cannot create directory ‘./results/data-phase-2-1/172’: File exists
mkdir: cannot create directory ‘./results/data-phase-2-1/200’: File exists
mkdir: cannot create directory ‘./results/data-phase-2-1/225’: File exists
mkdir: cannot create directory ‘./results/data-phase-2-1/250’: File exists
mkdir: cannot create directory ‘./results/data-phase-2-1/16’: File exists
mkdir: cannot create directory ‘./results/data-phase-2-1/29’: File exists
mkdir: cannot create directory ‘./results/data-phase-2-1/54’: File exists
mkdir: cannot create directory ‘./results/data-phase-2-1/81’: File exists
mkdir: cannot create directory ‘./results/data-phase-2-1/104’: File exists
mkdir: cannot create directory ‘./results/data-phase-2-1/131’: File exists
mkdir: cannot create directory ‘./results/data-phase-2-1/153’: File exists
mkdir: cannot create directory ‘./results/data-phase-2-1/172’: File exists
mkdir: cannot create directory ‘./results/data-phase-2-1/200’: File exists
mkdir: cannot create directory ‘./results/data-phase-2-1/225’: File exists
mkdir: cannot create directory ‘./results/data-phase-2-1/250’: File exists
mkdir: cannot create directory ‘./results/data-phase-2-1/16’: File exists
mkdir: cannot create directory ‘./results/data-phase-2-1/29’: File exists
mkdir: cannot create directory ‘./results/data-phase-2-1/54’: File exists
mkdir: cannot create directory ‘./results/data-phase-2-1/81’: File exists
mkdir: cannot create directory ‘./results/data-phase-2-1/104’: File exists
mkdir: cannot create directory ‘./results/data-phase-2-1/131’: File exists
mkdir: cannot create directory ‘./results/data-phase-2-1/153’: File exists
mkdir: cannot create directory ‘./results/data-phase-2-1/172’: File exists
mkdir: cannot create directory ‘./results/data-phase-2-1/200’: File exists
mkdir: cannot create directory ‘./results/data-phase-2-1/225’: File exists
mkdir: cannot create directory ‘./results/data-phase-2-1/250’: File exists
mkdir: cannot create directory ‘./results/data-phase-2-1/16’: File exists
mkdir: cannot create directory ‘./results/data-phase-2-1/29’: File exists
mkdir: cannot create directory ‘./results/data-phase-2-1/54’: File exists
mkdir: cannot create directory ‘./results/data-phase-2-1/81’: File exists
mkdir: cannot create directory ‘./results/data-phase-2-1/104’: File exists
mkdir: cannot create directory ‘./results/data-phase-2-1/131’: File exists
mkdir: cannot create directory ‘./results/data-phase-2-1/153’: File exists
mkdir: cannot create directory ‘./results/data-phase-2-1/172’: File exists
mkdir: cannot create directory ‘./results/data-phase-2-1/200’: File exists
mkdir: cannot create directory ‘./results/data-phase-2-1/225’: File exists
mkdir: cannot create directory ‘./results/data-phase-2-1/250’: File exists
mkdir: cannot create directory ‘./results/data-phase-2-1/16’: File exists
mkdir: cannot create directory ‘./results/data-phase-2-1/29’: File exists
mkdir: cannot create directory ‘./results/data-phase-2-1/54’: File exists
mkdir: cannot create directory ‘./results/data-phase-2-1/81’: File exists
mkdir: cannot create directory ‘./results/data-phase-2-1/104’: File exists
mkdir: cannot create directory ‘./results/data-phase-2-1/131’: File exists
mkdir: cannot create directory ‘./results/data-phase-2-1/153’: File exists
mkdir: cannot create directory ‘./results/data-phase-2-1/172’: File exists
mkdir: cannot create directory ‘./results/data-phase-2-1/200’: File exists
mkdir: cannot create directory ‘./results/data-phase-2-1/225’: File exists
mkdir: cannot create directory ‘./results/data-phase-2-1/250’: File exists
mkdir: cannot create directory ‘./results/data-phase-2-1/16’: File exists
mkdir: cannot create directory ‘./results/data-phase-2-1/29’: File exists
mkdir: cannot create directory ‘./results/data-phase-2-1/54’: File exists
mkdir: cannot create directory ‘./results/data-phase-2-1/81’: File exists
mkdir: cannot create directory ‘./results/data-phase-2-1/104’: File exists
mkdir: cannot create directory ‘./results/data-phase-2-1/131’: File exists
mkdir: cannot create directory ‘./results/data-phase-2-1/153’: File exists
mkdir: cannot create directory ‘./results/data-phase-2-1/172’: File exists
mkdir: cannot create directory ‘./results/data-phase-2-1/200’: File exists
mkdir: cannot create directory ‘./results/data-phase-2-1/225’: File exists
mkdir: cannot create directory ‘./results/data-phase-2-1/250’: File exists
mkdir: cannot create directory ‘./results/data-phase-2-1/16’: File exists
mkdir: cannot create directory ‘./results/data-phase-2-1/29’: File exists
mkdir: cannot create directory ‘./results/data-phase-2-1/54’: File exists
mkdir: cannot create directory ‘./results/data-phase-2-1/81’: File exists
mkdir: cannot create directory ‘./results/data-phase-2-1/104’: File exists
mkdir: cannot create directory ‘./results/data-phase-2-1/131’: File exists
mkdir: cannot create directory ‘./results/data-phase-2-1/153’: File exists
mkdir: cannot create directory ‘./results/data-phase-2-1/172’: File exists
mkdir: cannot create directory ‘./results/data-phase-2-1/200’: File exists
mkdir: cannot create directory ‘./results/data-phase-2-1/225’: File exists
mkdir: cannot create directory ‘./results/data-phase-2-1/250’: File exists
mkdir: cannot create directory ‘./results/data-phase-2-1/16’: File exists
mkdir: cannot create directory ‘./results/data-phase-2-1/29’: File exists
mkdir: cannot create directory ‘./results/data-phase-2-1/54’: File exists
mkdir: cannot create directory ‘./results/data-phase-2-1/81’: File exists
mkdir: cannot create directory ‘./results/data-phase-2-1/104’: File exists
mkdir: cannot create directory ‘./results/data-phase-2-1/131’: File exists
mkdir: cannot create directory ‘./results/data-phase-2-1/153’: File exists
mkdir: cannot create directory ‘./results/data-phase-2-1/172’: File exists
mkdir: cannot create directory ‘./results/data-phase-2-1/200’: File exists
mkdir: cannot create directory ‘./results/data-phase-2-1/225’: File exists
mkdir: cannot create directory ‘./results/data-phase-2-1/250’: File exists
mkdir: cannot create directory ‘./results/data-phase-2-1/16’: File exists
mkdir: cannot create directory ‘./results/data-phase-2-1/29’: File exists
mkdir: cannot create directory ‘./results/data-phase-2-1/54’: File exists
mkdir: cannot create directory ‘./results/data-phase-2-1/81’: File exists
mkdir: cannot create directory ‘./results/data-phase-2-1/104’: File exists
mkdir: cannot create directory ‘./results/data-phase-2-1/131’: File exists
mkdir: cannot create directory ‘./results/data-phase-2-1/153’: File exists
mkdir: cannot create directory ‘./results/data-phase-2-1/172’: File exists
mkdir: cannot create directory ‘./results/data-phase-2-1/200’: File exists
mkdir: cannot create directory ‘./results/data-phase-2-1/225’: File exists
mkdir: cannot create directory ‘./results/data-phase-2-1/250’: File exists
rm: cannot remove ‘results’: Is a directory
rm: cannot remove ‘temp*’: No such file or directory
mkdir: cannot create directory ‘./results/data-phase-2-1/16’: File exists
mkdir: cannot create directory ‘./results/data-phase-2-1/29’: File exists
mkdir: cannot create directory ‘./results/data-phase-2-1/54’: File exists
mkdir: cannot create directory ‘./results/data-phase-2-1/81’: File exists
mkdir: cannot create directory ‘./results/data-phase-2-1/104’: File exists
mkdir: cannot create directory ‘./results/data-phase-2-1/131’: File exists
mkdir: cannot create directory ‘./results/data-phase-2-1/153’: File exists
mkdir: cannot create directory ‘./results/data-phase-2-1/172’: File exists
mkdir: cannot create directory ‘./results/data-phase-2-1/200’: File exists
mkdir: cannot create directory ‘./results/data-phase-2-1/225’: File exists
mkdir: cannot create directory ‘./results/data-phase-2-1/250’: File exists
mkdir: cannot create directory ‘./results/data-phase-2-1/16’: File exists
mkdir: cannot create directory ‘./results/data-phase-2-1/29’: File exists
mkdir: cannot create directory ‘./results/data-phase-2-1/54’: File exists
mkdir: cannot create directory ‘./results/data-phase-2-1/81’: File exists
mkdir: cannot create directory ‘./results/data-phase-2-1/104’: File exists
mkdir: cannot create directory ‘./results/data-phase-2-1/131’: File exists
mkdir: cannot create directory ‘./results/data-phase-2-1/153’: File exists
mkdir: cannot create directory ‘./results/data-phase-2-1/172’: File exists
mkdir: cannot create directory ‘./results/data-phase-2-1/200’: File exists
mkdir: cannot create directory ‘./results/data-phase-2-1/225’: File exists
mkdir: cannot create directory ‘./results/data-phase-2-1/250’: File exists
mkdir: cannot create directory ‘./results/data-phase-2-1/16’: File exists
mkdir: cannot create directory ‘./results/data-phase-2-1/29’: File exists
mkdir: cannot create directory ‘./results/data-phase-2-1/54’: File exists
mkdir: cannot create directory ‘./results/data-phase-2-1/81’: File exists
mkdir: cannot create directory ‘./results/data-phase-2-1/104’: File exists
mkdir: cannot create directory ‘./results/data-phase-2-1/131’: File exists
mkdir: cannot create directory ‘./results/data-phase-2-1/153’: File exists
mkdir: cannot create directory ‘./results/data-phase-2-1/172’: File exists
mkdir: cannot create directory ‘./results/data-phase-2-1/200’: File exists
mkdir: cannot create directory ‘./results/data-phase-2-1/225’: File exists
mkdir: cannot create directory ‘./results/data-phase-2-1/250’: File exists
mkdir: cannot create directory ‘./results/data-phase-2-1/16’: File exists
mkdir: cannot create directory ‘./results/data-phase-2-1/29’: File exists
mkdir: cannot create directory ‘./results/data-phase-2-1/54’: File exists
mkdir: cannot create directory ‘./results/data-phase-2-1/81’: File exists
mkdir: cannot create directory ‘./results/data-phase-2-1/104’: File exists
mkdir: cannot create directory ‘./results/data-phase-2-1/131’: File exists
mkdir: cannot create directory ‘./results/data-phase-2-1/153’: File exists
mkdir: cannot create directory ‘./results/data-phase-2-1/172’: File exists
mkdir: cannot create directory ‘./results/data-phase-2-1/200’: File exists
mkdir: cannot create directory ‘./results/data-phase-2-1/225’: File exists
mkdir: cannot create directory ‘./results/data-phase-2-1/250’: File exists
mkdir: cannot create directory ‘./results/data-phase-2-1/16’: File exists
mkdir: cannot create directory ‘./results/data-phase-2-1/29’: File exists
mkdir: cannot create directory ‘./results/data-phase-2-1/54’: File exists
mkdir: cannot create directory ‘./results/data-phase-2-1/81’: File exists
mkdir: cannot create directory ‘./results/data-phase-2-1/104’: File exists
mkdir: cannot create directory ‘./results/data-phase-2-1/131’: File exists
mkdir: cannot create directory ‘./results/data-phase-2-1/153’: File exists
mkdir: cannot create directory ‘./results/data-phase-2-1/172’: File exists
mkdir: cannot create directory ‘./results/data-phase-2-1/200’: File exists
mkdir: cannot create directory ‘./results/data-phase-2-1/225’: File exists
mkdir: cannot create directory ‘./results/data-phase-2-1/250’: File exists
mkdir: cannot create directory ‘./results/data-phase-2-1/16’: File exists
mkdir: cannot create directory ‘./results/data-phase-2-1/29’: File exists
mkdir: cannot create directory ‘./results/data-phase-2-1/54’: File exists
mkdir: cannot create directory ‘./results/data-phase-2-1/81’: File exists
mkdir: cannot create directory ‘./results/data-phase-2-1/104’: File exists
mkdir: cannot create directory ‘./results/data-phase-2-1/131’: File exists
mkdir: cannot create directory ‘./results/data-phase-2-1/153’: File exists
mkdir: cannot create directory ‘./results/data-phase-2-1/172’: File exists
mkdir: cannot create directory ‘./results/data-phase-2-1/200’: File exists
mkdir: cannot create directory ‘./results/data-phase-2-1/225’: File exists
mkdir: cannot create directory ‘./results/data-phase-2-1/250’: File exists
mkdir: cannot create directory ‘./results/data-phase-2-1/16’: File exists
mkdir: cannot create directory ‘./results/data-phase-2-1/29’: File exists
mkdir: cannot create directory ‘./results/data-phase-2-1/54’: File exists
mkdir: cannot create directory ‘./results/data-phase-2-1/81’: File exists
mkdir: cannot create directory ‘./results/data-phase-2-1/104’: File exists
mkdir: cannot create directory ‘./results/data-phase-2-1/131’: File exists
mkdir: cannot create directory ‘./results/data-phase-2-1/153’: File exists
mkdir: cannot create directory ‘./results/data-phase-2-1/172’: File exists
mkdir: cannot create directory ‘./results/data-phase-2-1/200’: File exists
mkdir: cannot create directory ‘./results/data-phase-2-1/225’: File exists
mkdir: cannot create directory ‘./results/data-phase-2-1/250’: File exists
mkdir: cannot create directory ‘./results/data-phase-2-1/16’: File exists
mkdir: cannot create directory ‘./results/data-phase-2-1/29’: File exists
mkdir: cannot create directory ‘./results/data-phase-2-1/54’: File exists
mkdir: cannot create directory ‘./results/data-phase-2-1/81’: File exists
mkdir: cannot create directory ‘./results/data-phase-2-1/104’: File exists
mkdir: cannot create directory ‘./results/data-phase-2-1/131’: File exists
mkdir: cannot create directory ‘./results/data-phase-2-1/153’: File exists
mkdir: cannot create directory ‘./results/data-phase-2-1/172’: File exists
mkdir: cannot create directory ‘./results/data-phase-2-1/200’: File exists
mkdir: cannot create directory ‘./results/data-phase-2-1/225’: File exists
mkdir: cannot create directory ‘./results/data-phase-2-1/250’: File exists
mkdir: cannot create directory ‘./results/data-phase-2-1/16’: File exists
mkdir: cannot create directory ‘./results/data-phase-2-1/29’: File exists
mkdir: cannot create directory ‘./results/data-phase-2-1/54’: File exists
mkdir: cannot create directory ‘./results/data-phase-2-1/81’: File exists
mkdir: cannot create directory ‘./results/data-phase-2-1/104’: File exists
mkdir: cannot create directory ‘./results/data-phase-2-1/131’: File exists
mkdir: cannot create directory ‘./results/data-phase-2-1/153’: File exists
mkdir: cannot create directory ‘./results/data-phase-2-1/172’: File exists
mkdir: cannot create directory ‘./results/data-phase-2-1/200’: File exists
mkdir: cannot create directory ‘./results/data-phase-2-1/225’: File exists
mkdir: cannot create directory ‘./results/data-phase-2-1/250’: File exists
mkdir: cannot create directory ‘./results/data-phase-2-1/16’: File exists
mkdir: cannot create directory ‘./results/data-phase-2-1/29’: File exists
mkdir: cannot create directory ‘./results/data-phase-2-1/54’: File exists
mkdir: cannot create directory ‘./results/data-phase-2-1/81’: File exists
mkdir: cannot create directory ‘./results/data-phase-2-1/104’: File exists
mkdir: cannot create directory ‘./results/data-phase-2-1/131’: File exists
mkdir: cannot create directory ‘./results/data-phase-2-1/153’: File exists
mkdir: cannot create directory ‘./results/data-phase-2-1/172’: File exists
mkdir: cannot create directory ‘./results/data-phase-2-1/200’: File exists
mkdir: cannot create directory ‘./results/data-phase-2-1/225’: File exists
mkdir: cannot create directory ‘./results/data-phase-2-1/250’: File exists
mkdir: cannot create directory ‘./results/data-phase-2-1/16’: File exists
mkdir: cannot create directory ‘./results/data-phase-2-1/29’: File exists
mkdir: cannot create directory ‘./results/data-phase-2-1/54’: File exists
mkdir: cannot create directory ‘./results/data-phase-2-1/81’: File exists
mkdir: cannot create directory ‘./results/data-phase-2-1/104’: File exists
mkdir: cannot create directory ‘./results/data-phase-2-1/131’: File exists
mkdir: cannot create directory ‘./results/data-phase-2-1/153’: File exists
mkdir: cannot create directory ‘./results/data-phase-2-1/172’: File exists
mkdir: cannot create directory ‘./results/data-phase-2-1/200’: File exists
mkdir: cannot create directory ‘./results/data-phase-2-1/225’: File exists
mkdir: cannot create directory ‘./results/data-phase-2-1/250’: File exists
mkdir: cannot create directory ‘./results/data-phase-2-1/16’: File exists
mkdir: cannot create directory ‘./results/data-phase-2-1/29’: File exists
mkdir: cannot create directory ‘./results/data-phase-2-1/54’: File exists
mkdir: cannot create directory ‘./results/data-phase-2-1/81’: File exists
mkdir: cannot create directory ‘./results/data-phase-2-1/104’: File exists
mkdir: cannot create directory ‘./results/data-phase-2-1/131’: File exists
mkdir: cannot create directory ‘./results/data-phase-2-1/153’: File exists
mkdir: cannot create directory ‘./results/data-phase-2-1/172’: File exists
mkdir: cannot create directory ‘./results/data-phase-2-1/200’: File exists
mkdir: cannot create directory ‘./results/data-phase-2-1/225’: File exists
mkdir: cannot create directory ‘./results/data-phase-2-1/250’: File exists
mkdir: cannot create directory ‘./results/data-phase-2-1/16’: File exists
mkdir: cannot create directory ‘./results/data-phase-2-1/29’: File exists
mkdir: cannot create directory ‘./results/data-phase-2-1/54’: File exists
mkdir: cannot create directory ‘./results/data-phase-2-1/81’: File exists
mkdir: cannot create directory ‘./results/data-phase-2-1/104’: File exists
mkdir: cannot create directory ‘./results/data-phase-2-1/131’: File exists
mkdir: cannot create directory ‘./results/data-phase-2-1/153’: File exists
mkdir: cannot create directory ‘./results/data-phase-2-1/172’: File exists
mkdir: cannot create directory ‘./results/data-phase-2-1/200’: File exists
mkdir: cannot create directory ‘./results/data-phase-2-1/225’: File exists
mkdir: cannot create directory ‘./results/data-phase-2-1/250’: File exists
mkdir: cannot create directory ‘./results/data-phase-2-1/16’: File exists
mkdir: cannot create directory ‘./results/data-phase-2-1/29’: File exists
mkdir: cannot create directory ‘./results/data-phase-2-1/54’: File exists
mkdir: cannot create directory ‘./results/data-phase-2-1/81’: File exists
mkdir: cannot create directory ‘./results/data-phase-2-1/104’: File exists
mkdir: cannot create directory ‘./results/data-phase-2-1/131’: File exists
mkdir: cannot create directory ‘./results/data-phase-2-1/153’: File exists
mkdir: cannot create directory ‘./results/data-phase-2-1/172’: File exists
mkdir: cannot create directory ‘./results/data-phase-2-1/200’: File exists
mkdir: cannot create directory ‘./results/data-phase-2-1/225’: File exists
mkdir: cannot create directory ‘./results/data-phase-2-1/250’: File exists
mkdir: cannot create directory ‘./results/data-phase-2-1/16’: File exists
mkdir: cannot create directory ‘./results/data-phase-2-1/29’: File exists
mkdir: cannot create directory ‘./results/data-phase-2-1/54’: File exists
mkdir: cannot create directory ‘./results/data-phase-2-1/81’: File exists
mkdir: cannot create directory ‘./results/data-phase-2-1/104’: File exists
mkdir: cannot create directory ‘./results/data-phase-2-1/131’: File exists
mkdir: cannot create directory ‘./results/data-phase-2-1/153’: File exists
mkdir: cannot create directory ‘./results/data-phase-2-1/172’: File exists
mkdir: cannot create directory ‘./results/data-phase-2-1/200’: File exists
mkdir: cannot create directory ‘./results/data-phase-2-1/225’: File exists
mkdir: cannot create directory ‘./results/data-phase-2-1/250’: File exists
mkdir: cannot create directory ‘./results/data-phase-2-1/16’: File exists
mkdir: cannot create directory ‘./results/data-phase-2-1/29’: File exists
mkdir: cannot create directory ‘./results/data-phase-2-1/54’: File exists
mkdir: cannot create directory ‘./results/data-phase-2-1/81’: File exists
mkdir: cannot create directory ‘./results/data-phase-2-1/104’: File exists
mkdir: cannot create directory ‘./results/data-phase-2-1/131’: File exists
mkdir: cannot create directory ‘./results/data-phase-2-1/153’: File exists
mkdir: cannot create directory ‘./results/data-phase-2-1/172’: File exists
mkdir: cannot create directory ‘./results/data-phase-2-1/200’: File exists
mkdir: cannot create directory ‘./results/data-phase-2-1/225’: File exists
mkdir: cannot create directory ‘./results/data-phase-2-1/250’: File exists
mkdir: cannot create directory ‘./results/data-phase-2-1/16’: File exists
mkdir: cannot create directory ‘./results/data-phase-2-1/29’: File exists
mkdir: cannot create directory ‘./results/data-phase-2-1/54’: File exists
mkdir: cannot create directory ‘./results/data-phase-2-1/81’: File exists
mkdir: cannot create directory ‘./results/data-phase-2-1/104’: File exists
mkdir: cannot create directory ‘./results/data-phase-2-1/131’: File exists
mkdir: cannot create directory ‘./results/data-phase-2-1/153’: File exists
mkdir: cannot create directory ‘./results/data-phase-2-1/172’: File exists
mkdir: cannot create directory ‘./results/data-phase-2-1/200’: File exists
mkdir: cannot create directory ‘./results/data-phase-2-1/225’: File exists
mkdir: cannot create directory ‘./results/data-phase-2-1/250’: File exists
mkdir: cannot create directory ‘./results/data-phase-2-1/16’: File exists
mkdir: cannot create directory ‘./results/data-phase-2-1/29’: File exists
mkdir: cannot create directory ‘./results/data-phase-2-1/54’: File exists
mkdir: cannot create directory ‘./results/data-phase-2-1/81’: File exists
mkdir: cannot create directory ‘./results/data-phase-2-1/104’: File exists
mkdir: cannot create directory ‘./results/data-phase-2-1/131’: File exists
mkdir: cannot create directory ‘./results/data-phase-2-1/153’: File exists
mkdir: cannot create directory ‘./results/data-phase-2-1/172’: File exists
mkdir: cannot create directory ‘./results/data-phase-2-1/200’: File exists
mkdir: cannot create directory ‘./results/data-phase-2-1/225’: File exists
mkdir: cannot create directory ‘./results/data-phase-2-1/250’: File exists
mkdir: cannot create directory ‘./results/data-phase-2-1/16’: File exists
mkdir: cannot create directory ‘./results/data-phase-2-1/29’: File exists
mkdir: cannot create directory ‘./results/data-phase-2-1/54’: File exists
mkdir: cannot create directory ‘./results/data-phase-2-1/81’: File exists
mkdir: cannot create directory ‘./results/data-phase-2-1/104’: File exists
mkdir: cannot create directory ‘./results/data-phase-2-1/131’: File exists
mkdir: cannot create directory ‘./results/data-phase-2-1/153’: File exists
mkdir: cannot create directory ‘./results/data-phase-2-1/172’: File exists
mkdir: cannot create directory ‘./results/data-phase-2-1/200’: File exists
mkdir: cannot create directory ‘./results/data-phase-2-1/225’: File exists
mkdir: cannot create directory ‘./results/data-phase-2-1/250’: File exists
mkdir: cannot create directory ‘./results/data-phase-2-1/16’: File exists
mkdir: cannot create directory ‘./results/data-phase-2-1/29’: File exists
mkdir: cannot create directory ‘./results/data-phase-2-1/54’: File exists
mkdir: cannot create directory ‘./results/data-phase-2-1/81’: File exists
mkdir: cannot create directory ‘./results/data-phase-2-1/104’: File exists
mkdir: cannot create directory ‘./results/data-phase-2-1/131’: File exists
mkdir: cannot create directory ‘./results/data-phase-2-1/153’: File exists
mkdir: cannot create directory ‘./results/data-phase-2-1/172’: File exists
mkdir: cannot create directory ‘./results/data-phase-2-1/200’: File exists
mkdir: cannot create directory ‘./results/data-phase-2-1/225’: File exists
mkdir: cannot create directory ‘./results/data-phase-2-1/250’: File exists
mkdir: cannot create directory ‘./results/data-phase-2-1/16’: File exists
mkdir: cannot create directory ‘./results/data-phase-2-1/29’: File exists
mkdir: cannot create directory ‘./results/data-phase-2-1/54’: File exists
mkdir: cannot create directory ‘./results/data-phase-2-1/81’: File exists
mkdir: cannot create directory ‘./results/data-phase-2-1/104’: File exists
mkdir: cannot create directory ‘./results/data-phase-2-1/131’: File exists
mkdir: cannot create directory ‘./results/data-phase-2-1/153’: File exists
mkdir: cannot create directory ‘./results/data-phase-2-1/172’: File exists
mkdir: cannot create directory ‘./results/data-phase-2-1/200’: File exists
mkdir: cannot create directory ‘./results/data-phase-2-1/225’: File exists
mkdir: cannot create directory ‘./results/data-phase-2-1/250’: File exists
mkdir: cannot create directory ‘./results/data-phase-2-1/16’: File exists
mkdir: cannot create directory ‘./results/data-phase-2-1/29’: File exists
mkdir: cannot create directory ‘./results/data-phase-2-1/54’: File exists
mkdir: cannot create directory ‘./results/data-phase-2-1/81’: File exists
mkdir: cannot create directory ‘./results/data-phase-2-1/104’: File exists
mkdir: cannot create directory ‘./results/data-phase-2-1/131’: File exists
mkdir: cannot create directory ‘./results/data-phase-2-1/153’: File exists
mkdir: cannot create directory ‘./results/data-phase-2-1/172’: File exists
mkdir: cannot create directory ‘./results/data-phase-2-1/200’: File exists
mkdir: cannot create directory ‘./results/data-phase-2-1/225’: File exists
mkdir: cannot create directory ‘./results/data-phase-2-1/250’: File exists
mkdir: cannot create directory ‘./results/data-phase-2-1/16’: File exists
mkdir: cannot create directory ‘./results/data-phase-2-1/29’: File exists
mkdir: cannot create directory ‘./results/data-phase-2-1/54’: File exists
mkdir: cannot create directory ‘./results/data-phase-2-1/81’: File exists
mkdir: cannot create directory ‘./results/data-phase-2-1/104’: File exists
mkdir: cannot create directory ‘./results/data-phase-2-1/131’: File exists
mkdir: cannot create directory ‘./results/data-phase-2-1/153’: File exists
mkdir: cannot create directory ‘./results/data-phase-2-1/172’: File exists
mkdir: cannot create directory ‘./results/data-phase-2-1/200’: File exists
mkdir: cannot create directory ‘./results/data-phase-2-1/225’: File exists
mkdir: cannot create directory ‘./results/data-phase-2-1/250’: File exists
mkdir: cannot create directory ‘./results/data-phase-2-1/16’: File exists
mkdir: cannot create directory ‘./results/data-phase-2-1/29’: File exists
mkdir: cannot create directory ‘./results/data-phase-2-1/54’: File exists
mkdir: cannot create directory ‘./results/data-phase-2-1/81’: File exists
mkdir: cannot create directory ‘./results/data-phase-2-1/104’: File exists
mkdir: cannot create directory ‘./results/data-phase-2-1/131’: File exists
mkdir: cannot create directory ‘./results/data-phase-2-1/153’: File exists
mkdir: cannot create directory ‘./results/data-phase-2-1/172’: File exists
mkdir: cannot create directory ‘./results/data-phase-2-1/200’: File exists
mkdir: cannot create directory ‘./results/data-phase-2-1/225’: File exists
mkdir: cannot create directory ‘./results/data-phase-2-1/250’: File exists
mkdir: cannot create directory ‘./results/data-phase-2-1/16’: File exists
mkdir: cannot create directory ‘./results/data-phase-2-1/29’: File exists
mkdir: cannot create directory ‘./results/data-phase-2-1/54’: File exists
mkdir: cannot create directory ‘./results/data-phase-2-1/81’: File exists
mkdir: cannot create directory ‘./results/data-phase-2-1/104’: File exists
mkdir: cannot create directory ‘./results/data-phase-2-1/131’: File exists
mkdir: cannot create directory ‘./results/data-phase-2-1/153’: File exists
mkdir: cannot create directory ‘./results/data-phase-2-1/172’: File exists
mkdir: cannot create directory ‘./results/data-phase-2-1/200’: File exists
mkdir: cannot create directory ‘./results/data-phase-2-1/225’: File exists
mkdir: cannot create directory ‘./results/data-phase-2-1/250’: File exists
mkdir: cannot create directory ‘./results/data-phase-2-1/16’: File exists
mkdir: cannot create directory ‘./results/data-phase-2-1/29’: File exists
mkdir: cannot create directory ‘./results/data-phase-2-1/54’: File exists
mkdir: cannot create directory ‘./results/data-phase-2-1/81’: File exists
mkdir: cannot create directory ‘./results/data-phase-2-1/104’: File exists
mkdir: cannot create directory ‘./results/data-phase-2-1/131’: File exists
mkdir: cannot create directory ‘./results/data-phase-2-1/153’: File exists
mkdir: cannot create directory ‘./results/data-phase-2-1/172’: File exists
mkdir: cannot create directory ‘./results/data-phase-2-1/200’: File exists
mkdir: cannot create directory ‘./results/data-phase-2-1/225’: File exists
mkdir: cannot create directory ‘./results/data-phase-2-1/250’: File exists
mkdir: cannot create directory ‘./results/data-phase-2-1/16’: File exists
mkdir: cannot create directory ‘./results/data-phase-2-1/29’: File exists
mkdir: cannot create directory ‘./results/data-phase-2-1/54’: File exists
mkdir: cannot create directory ‘./results/data-phase-2-1/81’: File exists
mkdir: cannot create directory ‘./results/data-phase-2-1/104’: File exists
mkdir: cannot create directory ‘./results/data-phase-2-1/131’: File exists
mkdir: cannot create directory ‘./results/data-phase-2-1/153’: File exists
mkdir: cannot create directory ‘./results/data-phase-2-1/172’: File exists
mkdir: cannot create directory ‘./results/data-phase-2-1/200’: File exists
mkdir: cannot create directory ‘./results/data-phase-2-1/225’: File exists
mkdir: cannot create directory ‘./results/data-phase-2-1/250’: File exists
mkdir: cannot create directory ‘./results/data-phase-2-1/16’: File exists
mkdir: cannot create directory ‘./results/data-phase-2-1/29’: File exists
mkdir: cannot create directory ‘./results/data-phase-2-1/54’: File exists
mkdir: cannot create directory ‘./results/data-phase-2-1/81’: File exists
mkdir: cannot create directory ‘./results/data-phase-2-1/104’: File exists
mkdir: cannot create directory ‘./results/data-phase-2-1/131’: File exists
mkdir: cannot create directory ‘./results/data-phase-2-1/153’: File exists
mkdir: cannot create directory ‘./results/data-phase-2-1/172’: File exists
mkdir: cannot create directory ‘./results/data-phase-2-1/200’: File exists
mkdir: cannot create directory ‘./results/data-phase-2-1/225’: File exists
mkdir: cannot create directory ‘./results/data-phase-2-1/250’: File exists
