2013-11-27 14:09:03.122 [NotebookApp] Using existing profile dir: u'/home/rishabn/.config/ipython/profile_nbserver'
2013-11-27 14:09:03.130 [NotebookApp] Using MathJax from CDN: https://c328740.ssl.cf1.rackcdn.com/mathjax/latest/MathJax.js
2013-11-27 14:09:03.147 [NotebookApp] Serving notebooks from local directory: /home/data_nfs/iPython
2013-11-27 14:09:03.148 [NotebookApp] The IPython Notebook is running at: https://130.245.177.240:8888/
2013-11-27 14:09:03.148 [NotebookApp] Use Control-C to stop this server and shut down all kernels (twice to skip confirmation).
2013-11-28 12:26:16.727 [tornado.general] WARNING | Invalid cookie signature 'ODkzYWM2M2UtYjA1OS00YjkyLWIxYTYtYTQ2OGEwNWQ1OTY3|1385490332|b7b33952c038ac5d270f9ab51279363da6a9415b'
WARNING:tornado.general:Invalid cookie signature 'ODkzYWM2M2UtYjA1OS00YjkyLWIxYTYtYTQ2OGEwNWQ1OTY3|1385490332|b7b33952c038ac5d270f9ab51279363da6a9415b'
2013-11-28 12:26:30.721 [NotebookApp] Connecting to: tcp://127.0.0.1:33605
2013-11-28 12:26:30.722 [NotebookApp] Kernel started: 2aa005fd-e06f-4731-b6db-3b921dcb3665
2013-11-28 12:26:30.870 [NotebookApp] Connecting to: tcp://127.0.0.1:42310
2013-11-28 12:26:30.874 [NotebookApp] Connecting to: tcp://127.0.0.1:39415
2013-11-28 12:26:30.886 [NotebookApp] Connecting to: tcp://127.0.0.1:33262
[IPKernelApp] WARNING | Eventloop or matplotlib integration failed. Is matplotlib installed?
2013-11-28 13:05:27.998 [NotebookApp] Kernel interrupted: 2aa005fd-e06f-4731-b6db-3b921dcb3665
2013-11-28 13:05:42.720 [NotebookApp] Using existing kernel: 2aa005fd-e06f-4731-b6db-3b921dcb3665
2013-11-28 13:05:42.958 [NotebookApp] Connecting to: tcp://127.0.0.1:42310
2013-11-28 13:05:42.968 [NotebookApp] Connecting to: tcp://127.0.0.1:39415
2013-11-28 13:05:42.980 [NotebookApp] Connecting to: tcp://127.0.0.1:33262
2013-11-28 13:07:20.396 [NotebookApp] Kernel shutdown: 2aa005fd-e06f-4731-b6db-3b921dcb3665
2013-11-28 13:07:37.601 [NotebookApp] Connecting to: tcp://127.0.0.1:60374
2013-11-28 13:07:37.601 [NotebookApp] Kernel started: 1522bd61-1595-4dc4-89e9-28509d7e11cb
2013-11-28 13:07:37.871 [NotebookApp] Connecting to: tcp://127.0.0.1:34737
2013-11-28 13:07:37.875 [NotebookApp] Connecting to: tcp://127.0.0.1:53913
2013-11-28 13:07:37.934 [NotebookApp] Connecting to: tcp://127.0.0.1:59909
[IPKernelApp] WARNING | Eventloop or matplotlib integration failed. Is matplotlib installed?
2013-11-28 13:51:51.137 [NotebookApp] Using existing kernel: 1522bd61-1595-4dc4-89e9-28509d7e11cb
2013-11-28 13:51:51.410 [NotebookApp] Connecting to: tcp://127.0.0.1:34737
2013-11-28 13:51:51.418 [NotebookApp] Connecting to: tcp://127.0.0.1:53913
2013-11-28 13:51:51.430 [NotebookApp] Connecting to: tcp://127.0.0.1:59909
2013-11-28 13:52:21.342 [NotebookApp] Using existing kernel: 1522bd61-1595-4dc4-89e9-28509d7e11cb
2013-11-28 13:52:21.684 [NotebookApp] Connecting to: tcp://127.0.0.1:34737
2013-11-28 13:52:21.688 [NotebookApp] Connecting to: tcp://127.0.0.1:53913
2013-11-28 13:52:21.702 [NotebookApp] Connecting to: tcp://127.0.0.1:59909
2013-11-28 13:55:01.612 [NotebookApp] Kernel interrupted: 1522bd61-1595-4dc4-89e9-28509d7e11cb
2013-11-28 13:55:03.145 [NotebookApp] Kernel interrupted: 1522bd61-1595-4dc4-89e9-28509d7e11cb
2013-11-28 13:55:38.039 [NotebookApp] Using existing kernel: 1522bd61-1595-4dc4-89e9-28509d7e11cb
2013-11-28 13:55:38.277 [NotebookApp] Connecting to: tcp://127.0.0.1:34737
2013-11-28 13:55:38.293 [NotebookApp] Connecting to: tcp://127.0.0.1:53913
2013-11-28 13:55:38.302 [NotebookApp] Connecting to: tcp://127.0.0.1:59909
2013-11-28 13:55:44.602 [NotebookApp] Kernel interrupted: 1522bd61-1595-4dc4-89e9-28509d7e11cb
2013-11-28 13:56:22.603 [NotebookApp] KernelRestarter: restarting kernel (1/5)
2013-11-28 13:56:34.326 [NotebookApp] CRITICAL | received signal 15, stopping
2013-11-28 13:56:34.327 [NotebookApp] Shutting down kernels
Exception in thread Thread-1 (most likely raised during interpreter shutdown):2013-11-28 13:56:34.729 [NotebookApp] Kernel shutdown: 1522bd61-1595-4dc4-89e9-28509d7e11cb
2013-11-28 13:57:16.594 [NotebookApp] Using existing profile dir: u'/home/rishabn/.config/ipython/profile_nbserver'
2013-11-28 13:57:16.602 [NotebookApp] Using MathJax from CDN: https://c328740.ssl.cf1.rackcdn.com/mathjax/latest/MathJax.js
2013-11-28 13:57:16.619 [NotebookApp] Serving notebooks from local directory: /home/data_nfs/iPython
2013-11-28 13:57:16.619 [NotebookApp] The IPython Notebook is running at: https://130.245.177.240:8888/
2013-11-28 13:57:16.619 [NotebookApp] Use Control-C to stop this server and shut down all kernels (twice to skip confirmation).
2013-11-28 13:57:32.956 [NotebookApp] Connecting to: tcp://127.0.0.1:42099
2013-11-28 13:57:32.956 [NotebookApp] Kernel started: fcaf49f2-fb54-41af-8515-4bdc3dc31871
2013-11-28 13:57:33.204 [NotebookApp] Connecting to: tcp://127.0.0.1:48882
2013-11-28 13:57:33.260 [NotebookApp] Connecting to: tcp://127.0.0.1:54407
2013-11-28 13:57:33.294 [NotebookApp] Connecting to: tcp://127.0.0.1:34124
2013-11-28 14:01:20.614 [NotebookApp] Kernel interrupted: fcaf49f2-fb54-41af-8515-4bdc3dc31871
2013-11-28 14:24:36.260 [NotebookApp] Kernel interrupted: fcaf49f2-fb54-41af-8515-4bdc3dc31871
2013-11-28 14:26:10.729 [NotebookApp] Kernel interrupted: fcaf49f2-fb54-41af-8515-4bdc3dc31871
2013-11-28 16:52:23.330 [NotebookApp] Kernel interrupted: fcaf49f2-fb54-41af-8515-4bdc3dc31871
2013-11-28 16:58:37.775 [NotebookApp] Kernel interrupted: fcaf49f2-fb54-41af-8515-4bdc3dc31871
2013-11-28 17:00:06.518 [NotebookApp] Kernel interrupted: fcaf49f2-fb54-41af-8515-4bdc3dc31871
2013-11-29 02:39:15.550 [NotebookApp] Connecting to: tcp://127.0.0.1:48882
2013-11-29 02:39:15.563 [NotebookApp] Connecting to: tcp://127.0.0.1:54407
2013-11-29 02:39:15.575 [NotebookApp] Connecting to: tcp://127.0.0.1:34124
2013-11-30 15:38:43.190 [NotebookApp] Kernel interrupted: fcaf49f2-fb54-41af-8515-4bdc3dc31871
2013-11-30 15:44:12.848 [NotebookApp] Kernel interrupted: fcaf49f2-fb54-41af-8515-4bdc3dc31871
2013-11-30 16:12:44.764 [NotebookApp] Using existing kernel: fcaf49f2-fb54-41af-8515-4bdc3dc31871
2013-11-30 16:12:45.180 [NotebookApp] Connecting to: tcp://127.0.0.1:48882
2013-11-30 16:12:45.185 [NotebookApp] Connecting to: tcp://127.0.0.1:54407
2013-11-30 16:12:45.208 [NotebookApp] Connecting to: tcp://127.0.0.1:34124
2013-11-30 16:16:56.845 [NotebookApp] Using existing kernel: fcaf49f2-fb54-41af-8515-4bdc3dc31871
2013-11-30 16:16:57.185 [NotebookApp] Connecting to: tcp://127.0.0.1:48882
2013-11-30 16:16:57.189 [NotebookApp] Connecting to: tcp://127.0.0.1:54407
2013-11-30 16:16:57.203 [NotebookApp] Connecting to: tcp://127.0.0.1:34124
2013-11-30 16:17:31.474 [NotebookApp] Using existing kernel: fcaf49f2-fb54-41af-8515-4bdc3dc31871
2013-11-30 16:17:31.740 [NotebookApp] Connecting to: tcp://127.0.0.1:48882
2013-11-30 16:17:31.767 [NotebookApp] Connecting to: tcp://127.0.0.1:54407
2013-11-30 16:17:31.851 [NotebookApp] Connecting to: tcp://127.0.0.1:34124
2013-11-30 16:18:41.813 [NotebookApp] CRITICAL | received signal 15, stopping
2013-11-30 16:18:41.813 [NotebookApp] Shutting down kernels
2013-11-30 16:18:41.914 [NotebookApp] Kernel shutdown: fcaf49f2-fb54-41af-8515-4bdc3dc31871
2013-11-30 16:19:30.999 [NotebookApp] Using existing profile dir: u'/home/rishabn/.config/ipython/profile_nbserver'
2013-11-30 16:19:31.007 [NotebookApp] Using MathJax from CDN: https://c328740.ssl.cf1.rackcdn.com/mathjax/latest/MathJax.js
2013-11-30 16:19:31.025 [NotebookApp] Serving notebooks from local directory: /home/data_nfs/iPython
2013-11-30 16:19:31.025 [NotebookApp] The IPython Notebook is running at: https://130.245.177.240:8888/
2013-11-30 16:19:31.025 [NotebookApp] Use Control-C to stop this server and shut down all kernels (twice to skip confirmation).
2013-11-30 16:19:33.227 [tornado.general] WARNING | Invalid cookie signature 'OWRiYjVmYjYtZWIxZS00ZjNlLTg1YTItOTIxYzhlYjBkNWI1|1385846246|fe106606966622001e981d32b7912959612926be'
WARNING:tornado.general:Invalid cookie signature 'OWRiYjVmYjYtZWIxZS00ZjNlLTg1YTItOTIxYzhlYjBkNWI1|1385846246|fe106606966622001e981d32b7912959612926be'
2013-11-30 16:19:44.720 [NotebookApp] Connecting to: tcp://127.0.0.1:53944
2013-11-30 16:19:44.720 [NotebookApp] Kernel started: 27d9c5b9-df92-4a8e-bf30-1d187d2786cf
2013-11-30 16:19:44.976 [NotebookApp] Connecting to: tcp://127.0.0.1:38151
2013-11-30 16:19:45.019 [NotebookApp] Connecting to: tcp://127.0.0.1:36685
2013-11-30 16:19:45.030 [NotebookApp] Connecting to: tcp://127.0.0.1:42002
2013-11-30 18:49:37.062 [NotebookApp] Kernel interrupted: 27d9c5b9-df92-4a8e-bf30-1d187d2786cf
2013-11-30 18:51:32.488 [NotebookApp] Kernel interrupted: 27d9c5b9-df92-4a8e-bf30-1d187d2786cf
2013-11-30 18:53:12.515 [NotebookApp] Kernel interrupted: 27d9c5b9-df92-4a8e-bf30-1d187d2786cf
2013-11-30 18:54:13.334 [NotebookApp] Using existing profile dir: u'/home/rishabn/.config/ipython/profile_nbserver'
2013-11-30 18:54:13.339 [NotebookApp] Using MathJax from CDN: https://c328740.ssl.cf1.rackcdn.com/mathjax/latest/MathJax.js
2013-11-30 18:54:13.348 [NotebookApp] The port 8888 is already in use, trying another random port.
2013-11-30 18:54:13.348 [NotebookApp] Serving notebooks from local directory: /home/data_nfs/iPython
2013-11-30 18:54:13.348 [NotebookApp] The IPython Notebook is running at: https://130.245.177.240:8889/
2013-11-30 18:54:13.349 [NotebookApp] Use Control-C to stop this server and shut down all kernels (twice to skip confirmation).
2013-11-30 18:54:36.188 [NotebookApp] CRITICAL | received signal 15, stopping
2013-11-30 18:54:36.188 [NotebookApp] Shutting down kernels
2013-11-30 18:54:51.177 [NotebookApp] CRITICAL | received signal 15, stopping
2013-11-30 18:54:51.177 [NotebookApp] Shutting down kernels
2013-11-30 18:54:51.279 [NotebookApp] Kernel shutdown: 27d9c5b9-df92-4a8e-bf30-1d187d2786cf
2013-11-30 18:54:59.872 [NotebookApp] Using existing profile dir: u'/home/rishabn/.config/ipython/profile_nbserver'
2013-11-30 18:54:59.876 [NotebookApp] Using MathJax from CDN: https://c328740.ssl.cf1.rackcdn.com/mathjax/latest/MathJax.js
2013-11-30 18:54:59.885 [NotebookApp] Serving notebooks from local directory: /home/data_nfs/iPython
2013-11-30 18:54:59.886 [NotebookApp] The IPython Notebook is running at: https://130.245.177.240:8888/
2013-11-30 18:54:59.886 [NotebookApp] Use Control-C to stop this server and shut down all kernels (twice to skip confirmation).
2013-11-30 18:55:12.158 [tornado.general] WARNING | Invalid cookie signature 'MDcyYjNhYTYtZDI5NS00YmRjLWEyODQtY2MyYmU5ZGMyZDE2|1385846380|ab6134fbed512d87f2a8f515742c754c5d1d9ec2'
WARNING:tornado.general:Invalid cookie signature 'MDcyYjNhYTYtZDI5NS00YmRjLWEyODQtY2MyYmU5ZGMyZDE2|1385846380|ab6134fbed512d87f2a8f515742c754c5d1d9ec2'
2013-11-30 18:55:24.821 [NotebookApp] Connecting to: tcp://127.0.0.1:34979
2013-11-30 18:55:24.821 [NotebookApp] Kernel started: 68b09c26-59e6-4147-9cf5-5d5c7ef9231c
2013-11-30 18:55:25.165 [NotebookApp] Connecting to: tcp://127.0.0.1:52159
2013-11-30 18:55:25.181 [NotebookApp] Connecting to: tcp://127.0.0.1:51396
2013-11-30 18:55:25.191 [NotebookApp] Connecting to: tcp://127.0.0.1:47722
2013-11-30 18:59:25.898 [NotebookApp] Kernel interrupted: 68b09c26-59e6-4147-9cf5-5d5c7ef9231c
2013-11-30 18:59:55.172 [NotebookApp] Kernel interrupted: 68b09c26-59e6-4147-9cf5-5d5c7ef9231c
2013-11-30 19:13:23.556 [NotebookApp] Kernel interrupted: 68b09c26-59e6-4147-9cf5-5d5c7ef9231c
2013-11-30 20:52:35.072 [NotebookApp] Using existing kernel: 68b09c26-59e6-4147-9cf5-5d5c7ef9231c
2013-11-30 20:52:35.452 [NotebookApp] Connecting to: tcp://127.0.0.1:52159
2013-11-30 20:52:36.423 [NotebookApp] Connecting to: tcp://127.0.0.1:51396
2013-11-30 20:52:36.437 [NotebookApp] Connecting to: tcp://127.0.0.1:47722
2013-12-01 22:00:22.016 [NotebookApp] Kernel shutdown: 68b09c26-59e6-4147-9cf5-5d5c7ef9231c
2014-01-16 15:59:34.847 [NotebookApp] Connecting to: tcp://127.0.0.1:39650
2014-01-16 15:59:34.877 [NotebookApp] Kernel started: 82058bc3-269f-4219-9efe-1a5695a5c411
2014-01-16 15:59:35.374 [NotebookApp] Connecting to: tcp://127.0.0.1:45429
2014-01-16 15:59:35.415 [NotebookApp] Connecting to: tcp://127.0.0.1:39313
2014-01-16 15:59:35.430 [NotebookApp] Connecting to: tcp://127.0.0.1:53561
2014-01-16 15:59:44.383 [NotebookApp] Connecting to: tcp://127.0.0.1:44840
2014-01-16 15:59:44.384 [NotebookApp] Kernel started: e97e0656-92f5-4c03-810e-74111f712512
2014-01-16 15:59:44.547 [NotebookApp] Connecting to: tcp://127.0.0.1:45456
2014-01-16 15:59:44.571 [NotebookApp] Connecting to: tcp://127.0.0.1:39765
2014-01-16 15:59:44.586 [NotebookApp] Connecting to: tcp://127.0.0.1:42803
2014-01-16 16:28:56.047 [NotebookApp] Connecting to: tcp://127.0.0.1:32844
2014-01-16 16:28:56.047 [NotebookApp] Kernel started: 6bcd7757-99c2-452e-9941-5c90ee76a4fe
2014-01-16 16:28:56.442 [NotebookApp] Connecting to: tcp://127.0.0.1:44047
2014-01-16 16:28:56.472 [NotebookApp] Connecting to: tcp://127.0.0.1:48810
2014-01-16 16:28:56.479 [NotebookApp] Connecting to: tcp://127.0.0.1:36746
2014-01-16 16:31:50.414 [NotebookApp] Using existing kernel: e97e0656-92f5-4c03-810e-74111f712512
2014-01-16 16:31:50.657 [NotebookApp] Connecting to: tcp://127.0.0.1:45456
2014-01-16 16:31:50.678 [NotebookApp] Connecting to: tcp://127.0.0.1:39765
2014-01-16 16:31:50.684 [NotebookApp] Connecting to: tcp://127.0.0.1:42803
2014-01-16 16:32:35.959 [NotebookApp] Connecting to: tcp://127.0.0.1:33940
2014-01-16 16:32:35.959 [NotebookApp] Kernel started: 1c258cf3-5780-4e8d-8da3-fb0ab3344b4e
2014-01-16 16:32:36.255 [NotebookApp] Connecting to: tcp://127.0.0.1:52496
2014-01-16 16:32:36.260 [NotebookApp] Connecting to: tcp://127.0.0.1:38633
2014-01-16 16:32:36.277 [NotebookApp] Connecting to: tcp://127.0.0.1:36589
2014-01-17 10:47:51.852 [NotebookApp] Kernel interrupted: e97e0656-92f5-4c03-810e-74111f712512
2014-01-17 10:54:27.815 [NotebookApp] Kernel interrupted: e97e0656-92f5-4c03-810e-74111f712512
2014-01-17 10:58:42.165 [NotebookApp] Kernel interrupted: e97e0656-92f5-4c03-810e-74111f712512
2014-01-17 11:03:31.318 [NotebookApp] Kernel interrupted: e97e0656-92f5-4c03-810e-74111f712512
2014-01-17 11:06:52.852 [NotebookApp] Kernel interrupted: e97e0656-92f5-4c03-810e-74111f712512
2014-01-17 11:11:08.178 [NotebookApp] Kernel interrupted: e97e0656-92f5-4c03-810e-74111f712512
2014-01-17 11:20:12.883 [NotebookApp] Kernel interrupted: e97e0656-92f5-4c03-810e-74111f712512
2014-01-17 11:22:18.911 [NotebookApp] Kernel interrupted: e97e0656-92f5-4c03-810e-74111f712512
2014-01-17 11:24:54.252 [NotebookApp] Kernel interrupted: e97e0656-92f5-4c03-810e-74111f712512
2014-01-17 11:25:41.019 [NotebookApp] Kernel interrupted: e97e0656-92f5-4c03-810e-74111f712512
2014-01-17 11:26:31.945 [NotebookApp] Kernel interrupted: e97e0656-92f5-4c03-810e-74111f712512
2014-01-17 12:49:05.630 [NotebookApp] Kernel interrupted: e97e0656-92f5-4c03-810e-74111f712512
2014-01-17 12:59:45.552 [NotebookApp] Kernel interrupted: e97e0656-92f5-4c03-810e-74111f712512
2014-01-17 14:50:10.220 [NotebookApp] Connecting to: tcp://127.0.0.1:51422
2014-01-17 14:50:10.220 [NotebookApp] Kernel started: ac4ed244-d7c5-4f85-b603-99ecedd8b163
2014-01-17 14:50:11.314 [NotebookApp] Connecting to: tcp://127.0.0.1:42618
2014-01-17 14:50:11.409 [NotebookApp] Connecting to: tcp://127.0.0.1:37767
2014-01-17 14:50:11.437 [NotebookApp] Connecting to: tcp://127.0.0.1:53567
2014-01-18 11:25:37.968 [NotebookApp] Kernel shutdown: e97e0656-92f5-4c03-810e-74111f712512
2014-01-18 11:25:39.018 [NotebookApp] Kernel shutdown: ac4ed244-d7c5-4f85-b603-99ecedd8b163
2014-01-18 11:25:43.340 [NotebookApp] Connecting to: tcp://127.0.0.1:38706
2014-01-18 11:25:43.340 [NotebookApp] Kernel started: 8f9ac659-1703-4e7e-a1c0-e85967260e08
2014-01-18 11:25:43.879 [NotebookApp] Connecting to: tcp://127.0.0.1:55593
2014-01-18 11:25:43.888 [NotebookApp] Connecting to: tcp://127.0.0.1:37217
2014-01-18 11:25:43.909 [NotebookApp] Connecting to: tcp://127.0.0.1:36136
2014-01-18 11:27:46.639 [NotebookApp] Using existing kernel: 8f9ac659-1703-4e7e-a1c0-e85967260e08
2014-01-18 11:27:47.212 [NotebookApp] Connecting to: tcp://127.0.0.1:55593
2014-01-18 11:27:47.222 [NotebookApp] Connecting to: tcp://127.0.0.1:37217
2014-01-18 11:27:47.245 [NotebookApp] Connecting to: tcp://127.0.0.1:36136
2014-01-18 11:27:50.585 [NotebookApp] Connecting to: tcp://127.0.0.1:50099
2014-01-18 11:27:50.586 [NotebookApp] Kernel started: de812a84-f513-493f-9893-ef45ddaf0906
2014-01-18 11:27:50.885 [NotebookApp] Connecting to: tcp://127.0.0.1:59021
2014-01-18 11:27:50.947 [NotebookApp] Connecting to: tcp://127.0.0.1:58205
2014-01-18 11:27:51.006 [NotebookApp] Connecting to: tcp://127.0.0.1:60498
2014-01-18 11:31:30.296 [tornado.general] WARNING | SSL Error on 7 ('130.245.150.14', 35836): [Errno 1] _ssl.c:509: error:1407609C:SSL routines:SSL23_GET_CLIENT_HELLO:http request
WARNING:tornado.general:SSL Error on 7 ('130.245.150.14', 35836): [Errno 1] _ssl.c:509: error:1407609C:SSL routines:SSL23_GET_CLIENT_HELLO:http request
2014-01-18 11:31:37.927 [tornado.general] WARNING | error on read
Traceback (most recent call last):
  File "/usr/local/lib/python2.7/dist-packages/tornado-3.1.1-py2.7.egg/tornado/iostream.py", line 391, in _handle_read
    if self._read_to_buffer() == 0:
  File "/usr/local/lib/python2.7/dist-packages/tornado-3.1.1-py2.7.egg/tornado/iostream.py", line 447, in _read_to_buffer
    chunk = self.read_from_fd()
  File "/usr/local/lib/python2.7/dist-packages/tornado-3.1.1-py2.7.egg/tornado/iostream.py", line 911, in read_from_fd
    chunk = self.socket.read(self.read_chunk_size)
  File "/usr/lib/python2.7/ssl.py", line 224, in read
    return self._sslobj.read(len)
SSLError: [Errno 1] _ssl.c:1428: error:14094418:SSL routines:SSL3_READ_BYTES:tlsv1 alert unknown ca
WARNING:tornado.general:error on read
Traceback (most recent call last):
  File "/usr/local/lib/python2.7/dist-packages/tornado-3.1.1-py2.7.egg/tornado/iostream.py", line 391, in _handle_read
    if self._read_to_buffer() == 0:
  File "/usr/local/lib/python2.7/dist-packages/tornado-3.1.1-py2.7.egg/tornado/iostream.py", line 447, in _read_to_buffer
    chunk = self.read_from_fd()
  File "/usr/local/lib/python2.7/dist-packages/tornado-3.1.1-py2.7.egg/tornado/iostream.py", line 911, in read_from_fd
    chunk = self.socket.read(self.read_chunk_size)
  File "/usr/lib/python2.7/ssl.py", line 224, in read
    return self._sslobj.read(len)
SSLError: [Errno 1] _ssl.c:1428: error:14094418:SSL routines:SSL3_READ_BYTES:tlsv1 alert unknown ca
2014-01-18 11:31:37.949 [tornado.general] WARNING | error on read
Traceback (most recent call last):
  File "/usr/local/lib/python2.7/dist-packages/tornado-3.1.1-py2.7.egg/tornado/iostream.py", line 391, in _handle_read
    if self._read_to_buffer() == 0:
  File "/usr/local/lib/python2.7/dist-packages/tornado-3.1.1-py2.7.egg/tornado/iostream.py", line 447, in _read_to_buffer
    chunk = self.read_from_fd()
  File "/usr/local/lib/python2.7/dist-packages/tornado-3.1.1-py2.7.egg/tornado/iostream.py", line 911, in read_from_fd
    chunk = self.socket.read(self.read_chunk_size)
  File "/usr/lib/python2.7/ssl.py", line 224, in read
    return self._sslobj.read(len)
SSLError: [Errno 1] _ssl.c:1428: error:14094418:SSL routines:SSL3_READ_BYTES:tlsv1 alert unknown ca
WARNING:tornado.general:error on read
Traceback (most recent call last):
  File "/usr/local/lib/python2.7/dist-packages/tornado-3.1.1-py2.7.egg/tornado/iostream.py", line 391, in _handle_read
    if self._read_to_buffer() == 0:
  File "/usr/local/lib/python2.7/dist-packages/tornado-3.1.1-py2.7.egg/tornado/iostream.py", line 447, in _read_to_buffer
    chunk = self.read_from_fd()
  File "/usr/local/lib/python2.7/dist-packages/tornado-3.1.1-py2.7.egg/tornado/iostream.py", line 911, in read_from_fd
    chunk = self.socket.read(self.read_chunk_size)
  File "/usr/lib/python2.7/ssl.py", line 224, in read
    return self._sslobj.read(len)
SSLError: [Errno 1] _ssl.c:1428: error:14094418:SSL routines:SSL3_READ_BYTES:tlsv1 alert unknown ca
2014-01-18 11:32:15.545 [NotebookApp] Using existing kernel: de812a84-f513-493f-9893-ef45ddaf0906
2014-01-18 11:32:16.375 [NotebookApp] Connecting to: tcp://127.0.0.1:59021
2014-01-18 11:32:16.390 [NotebookApp] Connecting to: tcp://127.0.0.1:58205
2014-01-18 11:32:16.402 [NotebookApp] Connecting to: tcp://127.0.0.1:60498
2014-01-18 11:32:46.581 [NotebookApp] Using existing kernel: de812a84-f513-493f-9893-ef45ddaf0906
2014-01-18 11:32:46.900 [NotebookApp] Connecting to: tcp://127.0.0.1:59021
2014-01-18 11:32:46.918 [NotebookApp] Connecting to: tcp://127.0.0.1:58205
2014-01-18 11:32:46.929 [NotebookApp] Connecting to: tcp://127.0.0.1:60498
2014-01-18 11:33:43.518 [NotebookApp] Using existing kernel: de812a84-f513-493f-9893-ef45ddaf0906
2014-01-18 11:33:43.886 [NotebookApp] Connecting to: tcp://127.0.0.1:59021
2014-01-18 11:33:44.430 [NotebookApp] Connecting to: tcp://127.0.0.1:58205
2014-01-18 11:33:44.880 [NotebookApp] Connecting to: tcp://127.0.0.1:60498
2014-01-18 11:34:01.049 [NotebookApp] Using existing kernel: 8f9ac659-1703-4e7e-a1c0-e85967260e08
2014-01-18 11:34:01.822 [NotebookApp] Connecting to: tcp://127.0.0.1:55593
2014-01-18 11:34:01.836 [NotebookApp] Connecting to: tcp://127.0.0.1:37217
2014-01-18 11:34:01.849 [NotebookApp] Connecting to: tcp://127.0.0.1:36136
2014-01-18 11:51:17.656 [NotebookApp] Connecting to: tcp://127.0.0.1:38415
2014-01-18 11:51:17.657 [NotebookApp] Kernel started: 7d52a862-49bd-42f1-b0f5-23bb60f73dc3
2014-01-18 11:51:20.094 [NotebookApp] Connecting to: tcp://127.0.0.1:38837
2014-01-18 11:51:20.108 [NotebookApp] Connecting to: tcp://127.0.0.1:47812
2014-01-18 11:51:20.119 [NotebookApp] Connecting to: tcp://127.0.0.1:41072
2014-01-18 13:48:23.099 [NotebookApp] Kernel interrupted: 8f9ac659-1703-4e7e-a1c0-e85967260e08
Exception in thread Thread-1 (most likely raised during interpreter shutdown):
Traceback (most recent call last):
  File "/usr/lib/python2.7/threading.py", line 808, in __bootstrap_inner2014-01-18 13:48:55.545 [NotebookApp] Kernel shutdown: 8f9ac659-1703-4e7e-a1c0-e85967260e08
2014-01-18 13:48:56.803 [NotebookApp] Kernel shutdown: 7d52a862-49bd-42f1-b0f5-23bb60f73dc3
2014-01-18 13:48:57.816 [NotebookApp] Kernel shutdown: de812a84-f513-493f-9893-ef45ddaf0906
2014-01-18 13:49:00.723 [NotebookApp] Connecting to: tcp://127.0.0.1:58087
2014-01-18 13:49:00.724 [NotebookApp] Kernel started: f88bf286-a5f5-4f7a-a270-331d2bb925e5
2014-01-18 13:49:02.148 [NotebookApp] Connecting to: tcp://127.0.0.1:34603
2014-01-18 13:49:02.258 [NotebookApp] Connecting to: tcp://127.0.0.1:59680
2014-01-18 13:49:02.273 [NotebookApp] Connecting to: tcp://127.0.0.1:33617
2014-01-18 13:50:46.686 [NotebookApp] Kernel interrupted: f88bf286-a5f5-4f7a-a270-331d2bb925e5
2014-01-18 13:54:54.016 [NotebookApp] Kernel interrupted: f88bf286-a5f5-4f7a-a270-331d2bb925e5
2014-01-18 13:56:39.582 [NotebookApp] Kernel interrupted: f88bf286-a5f5-4f7a-a270-331d2bb925e5
2014-01-18 13:58:35.256 [NotebookApp] Kernel interrupted: f88bf286-a5f5-4f7a-a270-331d2bb925e5
2014-01-18 14:02:24.353 [tornado.general] WARNING | error on read
Traceback (most recent call last):
  File "/usr/local/lib/python2.7/dist-packages/tornado-3.1.1-py2.7.egg/tornado/iostream.py", line 391, in _handle_read
    if self._read_to_buffer() == 0:
  File "/usr/local/lib/python2.7/dist-packages/tornado-3.1.1-py2.7.egg/tornado/iostream.py", line 447, in _read_to_buffer
    chunk = self.read_from_fd()
  File "/usr/local/lib/python2.7/dist-packages/tornado-3.1.1-py2.7.egg/tornado/iostream.py", line 911, in read_from_fd
    chunk = self.socket.read(self.read_chunk_size)
  File "/usr/lib/python2.7/ssl.py", line 224, in read
    return self._sslobj.read(len)
error: [Errno 110] Connection timed out
WARNING:tornado.general:error on read
Traceback (most recent call last):
  File "/usr/local/lib/python2.7/dist-packages/tornado-3.1.1-py2.7.egg/tornado/iostream.py", line 391, in _handle_read
    if self._read_to_buffer() == 0:
  File "/usr/local/lib/python2.7/dist-packages/tornado-3.1.1-py2.7.egg/tornado/iostream.py", line 447, in _read_to_buffer
    chunk = self.read_from_fd()
  File "/usr/local/lib/python2.7/dist-packages/tornado-3.1.1-py2.7.egg/tornado/iostream.py", line 911, in read_from_fd
    chunk = self.socket.read(self.read_chunk_size)
  File "/usr/lib/python2.7/ssl.py", line 224, in read
    return self._sslobj.read(len)
error: [Errno 110] Connection timed out
2014-01-18 14:04:32.354 [tornado.general] WARNING | error on read
Traceback (most recent call last):
  File "/usr/local/lib/python2.7/dist-packages/tornado-3.1.1-py2.7.egg/tornado/iostream.py", line 391, in _handle_read
    if self._read_to_buffer() == 0:
  File "/usr/local/lib/python2.7/dist-packages/tornado-3.1.1-py2.7.egg/tornado/iostream.py", line 447, in _read_to_buffer
    chunk = self.read_from_fd()
  File "/usr/local/lib/python2.7/dist-packages/tornado-3.1.1-py2.7.egg/tornado/iostream.py", line 911, in read_from_fd
    chunk = self.socket.read(self.read_chunk_size)
  File "/usr/lib/python2.7/ssl.py", line 224, in read
    return self._sslobj.read(len)
error: [Errno 110] Connection timed out
WARNING:tornado.general:error on read
Traceback (most recent call last):
  File "/usr/local/lib/python2.7/dist-packages/tornado-3.1.1-py2.7.egg/tornado/iostream.py", line 391, in _handle_read
    if self._read_to_buffer() == 0:
  File "/usr/local/lib/python2.7/dist-packages/tornado-3.1.1-py2.7.egg/tornado/iostream.py", line 447, in _read_to_buffer
    chunk = self.read_from_fd()
  File "/usr/local/lib/python2.7/dist-packages/tornado-3.1.1-py2.7.egg/tornado/iostream.py", line 911, in read_from_fd
    chunk = self.socket.read(self.read_chunk_size)
  File "/usr/lib/python2.7/ssl.py", line 224, in read
    return self._sslobj.read(len)
error: [Errno 110] Connection timed out
2014-01-18 14:04:37.473 [tornado.general] WARNING | error on read
Traceback (most recent call last):
  File "/usr/local/lib/python2.7/dist-packages/tornado-3.1.1-py2.7.egg/tornado/iostream.py", line 391, in _handle_read
    if self._read_to_buffer() == 0:
  File "/usr/local/lib/python2.7/dist-packages/tornado-3.1.1-py2.7.egg/tornado/iostream.py", line 447, in _read_to_buffer
    chunk = self.read_from_fd()
  File "/usr/local/lib/python2.7/dist-packages/tornado-3.1.1-py2.7.egg/tornado/iostream.py", line 911, in read_from_fd
    chunk = self.socket.read(self.read_chunk_size)
  File "/usr/lib/python2.7/ssl.py", line 224, in read
    return self._sslobj.read(len)
error: [Errno 110] Connection timed out
WARNING:tornado.general:error on read
Traceback (most recent call last):
  File "/usr/local/lib/python2.7/dist-packages/tornado-3.1.1-py2.7.egg/tornado/iostream.py", line 391, in _handle_read
    if self._read_to_buffer() == 0:
  File "/usr/local/lib/python2.7/dist-packages/tornado-3.1.1-py2.7.egg/tornado/iostream.py", line 447, in _read_to_buffer
    chunk = self.read_from_fd()
  File "/usr/local/lib/python2.7/dist-packages/tornado-3.1.1-py2.7.egg/tornado/iostream.py", line 911, in read_from_fd
    chunk = self.socket.read(self.read_chunk_size)
  File "/usr/lib/python2.7/ssl.py", line 224, in read
    return self._sslobj.read(len)
error: [Errno 110] Connection timed out
2014-01-18 14:31:41.129 [NotebookApp] Using existing kernel: f88bf286-a5f5-4f7a-a270-331d2bb925e5
2014-01-18 14:31:41.646 [NotebookApp] Connecting to: tcp://127.0.0.1:34603
2014-01-18 14:31:41.767 [NotebookApp] Connecting to: tcp://127.0.0.1:59680
2014-01-18 14:31:41.866 [NotebookApp] Connecting to: tcp://127.0.0.1:33617
2014-01-18 14:31:43.996 [NotebookApp] Kernel interrupted: f88bf286-a5f5-4f7a-a270-331d2bb925e5
2014-01-18 14:34:01.766 [NotebookApp] Connecting to: tcp://127.0.0.1:49013
2014-01-18 14:34:01.767 [NotebookApp] Kernel started: 433a6901-d68f-4588-be25-ed2805886999
2014-01-18 14:34:02.886 [NotebookApp] Connecting to: tcp://127.0.0.1:46661
2014-01-18 14:34:02.943 [NotebookApp] Connecting to: tcp://127.0.0.1:50959
2014-01-18 14:34:03.001 [NotebookApp] Connecting to: tcp://127.0.0.1:44341
2014-01-18 14:49:18.600 [NotebookApp] Kernel interrupted: f88bf286-a5f5-4f7a-a270-331d2bb925e5
2014-01-18 15:02:02.614 [NotebookApp] Kernel interrupted: f88bf286-a5f5-4f7a-a270-331d2bb925e5
2014-01-18 17:12:00.100 [NotebookApp] Kernel interrupted: f88bf286-a5f5-4f7a-a270-331d2bb925e5
2014-01-18 17:12:11.664 [NotebookApp] Connecting to: tcp://127.0.0.1:38377
2014-01-18 17:12:11.664 [NotebookApp] Kernel started: 27f5773f-2f04-4664-b0ec-8b061ce47479
2014-01-18 17:12:11.937 [NotebookApp] Connecting to: tcp://127.0.0.1:43884
2014-01-18 17:12:11.992 [NotebookApp] Connecting to: tcp://127.0.0.1:33416
2014-01-18 17:12:12.045 [NotebookApp] Connecting to: tcp://127.0.0.1:39985
2014-01-18 17:13:48.537 [NotebookApp] Kernel interrupted: f88bf286-a5f5-4f7a-a270-331d2bb925e5
2014-01-18 17:14:42.913 [NotebookApp] Kernel interrupted: f88bf286-a5f5-4f7a-a270-331d2bb925e5
2014-01-18 17:15:18.670 [NotebookApp] Kernel interrupted: f88bf286-a5f5-4f7a-a270-331d2bb925e5
2014-01-18 17:15:45.467 [NotebookApp] Kernel interrupted: f88bf286-a5f5-4f7a-a270-331d2bb925e5
2014-01-18 17:18:09.200 [NotebookApp] Kernel interrupted: f88bf286-a5f5-4f7a-a270-331d2bb925e5
2014-01-18 17:20:04.270 [NotebookApp] Kernel interrupted: f88bf286-a5f5-4f7a-a270-331d2bb925e5
2014-01-18 17:21:02.101 [NotebookApp] Kernel interrupted: f88bf286-a5f5-4f7a-a270-331d2bb925e5
2014-01-18 17:21:38.366 [NotebookApp] Kernel interrupted: f88bf286-a5f5-4f7a-a270-331d2bb925e5
2014-01-18 17:22:18.315 [NotebookApp] Kernel interrupted: f88bf286-a5f5-4f7a-a270-331d2bb925e5
2014-01-18 17:23:51.780 [NotebookApp] Kernel interrupted: f88bf286-a5f5-4f7a-a270-331d2bb925e5
2014-01-20 13:38:26.888 [NotebookApp] CRITICAL | received signal 15, stopping
2014-01-20 13:38:26.888 [NotebookApp] Shutting down kernels
2014-01-20 13:38:27.290 [NotebookApp] Kernel shutdown: 27f5773f-2f04-4664-b0ec-8b061ce47479
2014-01-20 13:38:27.692 [NotebookApp] Kernel shutdown: 433a6901-d68f-4588-be25-ed2805886999
2014-01-20 13:38:28.194 [NotebookApp] Kernel shutdown: 1c258cf3-5780-4e8d-8da3-fb0ab3344b4e
2014-01-20 13:38:28.595 [NotebookApp] Kernel shutdown: 6bcd7757-99c2-452e-9941-5c90ee76a4fe
2014-01-20 13:38:29.097 [NotebookApp] Kernel shutdown: f88bf286-a5f5-4f7a-a270-331d2bb925e5
2014-01-20 13:38:29.498 [NotebookApp] Kernel shutdown: 82058bc3-269f-4219-9efe-1a5695a5c411
/usr/local/lib/python2.7/dist-packages/sklearn/pls.py:7: DeprecationWarning: This module has been moved to cross_decomposition and will be removed in 0.16
  "removed in 0.16", DeprecationWarning)
