Coverage: 30, Tot. Cov: 159.000000, Cluster: 1/54, ESBytes W CSB: 45647672.000000, STDBytes W CSB: 61721500.000000, IP Bytes W CSB: 21133108.000000, IS_MAX: 0, Tot. Cov: 172.000000, ESBytes WO CSB: 44877892.000000, STDBytes WO CSB: 59092104.000000, IP Bytes WO CSB: 21133108.000000, IS_MAX: 1
Coverage: 30, Tot. Cov: 1134.000000, Cluster: 2/54, ESBytes W CSB: 121830468.000000, STDBytes W CSB: 182416080.000000, IP Bytes W CSB: 55780504.000000, IS_MAX: 0, Tot. Cov: 1128.000000, ESBytes WO CSB: 121955708.000000, STDBytes WO CSB: 194933580.000000, IP Bytes WO CSB: 55780504.000000, IS_MAX: 1
Coverage: 30, Tot. Cov: 723.000000, Cluster: 3/54, ESBytes W CSB: 162252476.000000, STDBytes W CSB: 309839196.000000, IP Bytes W CSB: 69495728.000000, IS_MAX: 0, Tot. Cov: 719.000000, ESBytes WO CSB: 150237112.000000, STDBytes WO CSB: 267753096.000000, IP Bytes WO CSB: 69495728.000000, IS_MAX: 1
Coverage: 30, Tot. Cov: 780.000000, Cluster: 4/54, ESBytes W CSB: 44611348.000000, STDBytes W CSB: 102507632.000000, IP Bytes W CSB: 21560868.000000, IS_MAX: 0, Tot. Cov: 780.000000, ESBytes WO CSB: 52697384.000000, STDBytes WO CSB: 131170536.000000, IP Bytes WO CSB: 21560868.000000, IS_MAX: 1
Coverage: 30, Tot. Cov: 2054.000000, Cluster: 5/54, ESBytes W CSB: 2644803472.000000, STDBytes W CSB: 4110244164.000000, IP Bytes W CSB: 1364130892.000000, IS_MAX: 0, Tot. Cov: 2041.000000, ESBytes WO CSB: 2622957276.000000, STDBytes WO CSB: 4215973200.000000, IP Bytes WO CSB: 1364130892.000000, IS_MAX: 1
Coverage: 30, Tot. Cov: 268.000000, Cluster: 6/54, ESBytes W CSB: 420426044.000000, STDBytes W CSB: 500827848.000000, IP Bytes W CSB: 245742048.000000, IS_MAX: 0, Tot. Cov: 265.000000, ESBytes WO CSB: 461572588.000000, STDBytes WO CSB: 553130484.000000, IP Bytes WO CSB: 245742048.000000, IS_MAX: 1
Coverage: 30, Tot. Cov: 1530.000000, Cluster: 7/54, ESBytes W CSB: 2403479168.000000, STDBytes W CSB: 3142483592.000000, IP Bytes W CSB: 1364328900.000000, IS_MAX: 0, Tot. Cov: 1479.000000, ESBytes WO CSB: 2440714752.000000, STDBytes WO CSB: 3039401672.000000, IP Bytes WO CSB: 1364328900.000000, IS_MAX: 1
Coverage: 30, Tot. Cov: 83.000000, Cluster: 8/54, ESBytes W CSB: 212783468.000000, STDBytes W CSB: 266175228.000000, IP Bytes W CSB: 111160596.000000, IS_MAX: 0, Tot. Cov: 71.000000, ESBytes WO CSB: 233718540.000000, STDBytes WO CSB: 295647168.000000, IP Bytes WO CSB: 111160596.000000, IS_MAX: 1
Coverage: 30, Tot. Cov: 129.000000, Cluster: 9/54, ESBytes W CSB: 295251452.000000, STDBytes W CSB: 364996860.000000, IP Bytes W CSB: 169705108.000000, IS_MAX: 0, Tot. Cov: 115.000000, ESBytes WO CSB: 335626216.000000, STDBytes WO CSB: 434609064.000000, IP Bytes WO CSB: 169705108.000000, IS_MAX: 1
Coverage: 30, Tot. Cov: 203.000000, Cluster: 10/54, ESBytes W CSB: 526337052.000000, STDBytes W CSB: 669814224.000000, IP Bytes W CSB: 296444084.000000, IS_MAX: 0, Tot. Cov: 182.000000, ESBytes WO CSB: 611062068.000000, STDBytes WO CSB: 782305584.000000, IP Bytes WO CSB: 296444084.000000, IS_MAX: 1
, Tot. Cov: 31.000000, ESBytes WO CSB: 125514364.000000, STDBytes WO CSB: 164810144.000000, IP Bytes WO CSB: 62080572.000000, IS_MAX: 1
Coverage: 30, Tot. Cov: 755.000000, Cluster: 12/54, ESBytes W CSB: 472624792.000000, STDBytes W CSB: 638687956.000000, IP Bytes W CSB: 252048700.000000, IS_MAX: 0, Tot. Cov: 758.000000, ESBytes WO CSB: 505766292.000000, STDBytes WO CSB: 725964440.000000, IP Bytes WO CSB: 252048700.000000, IS_MAX: 1
Coverage: 30, Tot. Cov: 130.000000, Cluster: 13/54, ESBytes W CSB: 127359588.000000, STDBytes W CSB: 163484184.000000, IP Bytes W CSB: 70457748.000000, IS_MAX: 0, Tot. Cov: 114.000000, ESBytes WO CSB: 155440660.000000, STDBytes WO CSB: 198979560.000000, IP Bytes WO CSB: 70457748.000000, IS_MAX: 1
Coverage: 30, Tot. Cov: 200.000000, Cluster: 14/54, ESBytes W CSB: 160995208.000000, STDBytes W CSB: 197614064.000000, IP Bytes W CSB: 85306196.000000, IS_MAX: 0, Tot. Cov: 207.000000, ESBytes WO CSB: 175676800.000000, STDBytes WO CSB: 219076328.000000, IP Bytes WO CSB: 85306196.000000, IS_MAX: 1
Coverage: 30, Tot. Cov: 459.000000, Cluster: 15/54, ESBytes W CSB: 494191516.000000, STDBytes W CSB: 680007584.000000, IP Bytes W CSB: 214544492.000000, IS_MAX: 0, Tot. Cov: 461.000000, ESBytes WO CSB: 416297420.000000, STDBytes WO CSB: 555916304.000000, IP Bytes WO CSB: 214544492.000000, IS_MAX: 1
Coverage: 30, Tot. Cov: 112.000000, Cluster: 16/54, ESBytes W CSB: 89620580.000000, STDBytes W CSB: 109976892.000000, IP Bytes W CSB: 49159680.000000, IS_MAX: 0, Tot. Cov: 107.000000, ESBytes WO CSB: 101237156.000000, STDBytes WO CSB: 134786832.000000, IP Bytes WO CSB: 49159680.000000, IS_MAX: 1
Coverage: 30, Tot. Cov: 80.000000, Cluster: 17/54, ESBytes W CSB: 77438880.000000, STDBytes W CSB: 93494980.000000, IP Bytes W CSB: 37205788.000000, IS_MAX: 0, Tot. Cov: 84.000000, ESBytes WO CSB: 77434840.000000, STDBytes WO CSB: 97516096.000000, IP Bytes WO CSB: 37205788.000000, IS_MAX: 1
Coverage: 30, Tot. Cov: 77.000000, Cluster: 18/54, ESBytes W CSB: 64073196.000000, STDBytes W CSB: 80046432.000000, IP Bytes W CSB: 33555352.000000, IS_MAX: 0, Tot. Cov: 69.000000, ESBytes WO CSB: 72369400.000000, STDBytes WO CSB: 98625336.000000, IP Bytes WO CSB: 33555352.000000, IS_MAX: 1
Coverage: 30, Tot. Cov: 30.000000, Cluster: 19/54, ESBytes W CSB: 36659644.000000, STDBytes W CSB: 48081468.000000, IP Bytes W CSB: 17067752.000000, IS_MAX: 0, Tot. Cov: 31.000000, ESBytes WO CSB: 38579712.000000, STDBytes WO CSB: 52231856.000000, IP Bytes WO CSB: 17067752.000000, IS_MAX: 1
Coverage: 30, Tot. Cov: 314.000000, Cluster: 20/54, ESBytes W CSB: 300884892.000000, STDBytes W CSB: 384068180.000000, IP Bytes W CSB: 157329632.000000, IS_MAX: 0, Tot. Cov: 297.000000, ESBytes WO CSB: 318671788.000000, STDBytes WO CSB: 395142308.000000, IP Bytes WO CSB: 157329632.000000, IS_MAX: 1
Coverage: 30, Tot. Cov: 1723.000000, Cluster: 21/54, ESBytes W CSB: 2036113316.000000, STDBytes W CSB: 3203792556.000000, IP Bytes W CSB: 960597208.000000, IS_MAX: 0, Tot. Cov: 1702.000000, ESBytes WO CSB: 1732924544.000000, STDBytes WO CSB: 2616102796.000000, IP Bytes WO CSB: 960597208.000000, IS_MAX: 1
Coverage: 30, Tot. Cov: 210.000000, Cluster: 22/54, ESBytes W CSB: 363212940.000000, STDBytes W CSB: 469776492.000000, IP Bytes W CSB: 168923060.000000, IS_MAX: 0, Tot. Cov: 211.000000, ESBytes WO CSB: 363239156.000000, STDBytes WO CSB: 476502904.000000, IP Bytes WO CSB: 168923060.000000, IS_MAX: 1
Coverage: 30, Tot. Cov: 110.000000, Cluster: 23/54, ESBytes W CSB: 36225820.000000, STDBytes W CSB: 46200972.000000, IP Bytes W CSB: 18785104.000000, IS_MAX: 0, Tot. Cov: 117.000000, ESBytes WO CSB: 41349676.000000, STDBytes WO CSB: 54305844.000000, IP Bytes WO CSB: 18785104.000000, IS_MAX: 1
Coverage: 30, Tot. Cov: 138.000000, Cluster: 24/54, ESBytes W CSB: 38104844.000000, STDBytes W CSB: 48998532.000000, IP Bytes W CSB: 16663712.000000, IS_MAX: 0, Tot. Cov: 132.000000, ESBytes WO CSB: 39112260.000000, STDBytes WO CSB: 49689516.000000, IP Bytes WO CSB: 16663712.000000, IS_MAX: 1
Coverage: 30, Tot. Cov: 176.000000, Cluster: 25/54, ESBytes W CSB: 104223544.000000, STDBytes W CSB: 138480124.000000, IP Bytes W CSB: 41598472.000000, IS_MAX: 0, Tot. Cov: 166.000000, ESBytes WO CSB: 98872708.000000, STDBytes WO CSB: 131987020.000000, IP Bytes WO CSB: 41598472.000000, IS_MAX: 1
Coverage: 30, Tot. Cov: 418.000000, Cluster: 26/54, ESBytes W CSB: 81037204.000000, STDBytes W CSB: 130611528.000000, IP Bytes W CSB: 42751000.000000, IS_MAX: 0, Tot. Cov: 435.000000, ESBytes WO CSB: 106857104.000000, STDBytes WO CSB: 155293512.000000, IP Bytes WO CSB: 42751000.000000, IS_MAX: 1
Coverage: 30, Tot. Cov: 1574.000000, Cluster: 27/54, ESBytes W CSB: 737081680.000000, STDBytes W CSB: 1077818928.000000, IP Bytes W CSB: 275471240.000000, IS_MAX: 0, Tot. Cov: 1574.000000, ESBytes WO CSB: 550335244.000000, STDBytes WO CSB: 888301636.000000, IP Bytes WO CSB: 275471240.000000, IS_MAX: 1
Coverage: 30, Tot. Cov: 66.000000, Cluster: 28/54, ESBytes W CSB: 44091660.000000, STDBytes W CSB: 55739736.000000, IP Bytes W CSB: 22971284.000000, IS_MAX: 0, Tot. Cov: 71.000000, ESBytes WO CSB: 48991928.000000, STDBytes WO CSB: 67444228.000000, IP Bytes WO CSB: 22971284.000000, IS_MAX: 1
Coverage: 30, Tot. Cov: 72.000000, Cluster: 29/54, ESBytes W CSB: 33677092.000000, STDBytes W CSB: 44726700.000000, IP Bytes W CSB: 17183912.000000, IS_MAX: 0, Tot. Cov: 71.000000, ESBytes WO CSB: 39791008.000000, STDBytes WO CSB: 53711932.000000, IP Bytes WO CSB: 17183912.000000, IS_MAX: 1
Coverage: 30, Tot. Cov: 33.000000, Cluster: 30/54, ESBytes W CSB: 25722460.000000, STDBytes W CSB: 32244096.000000, IP Bytes W CSB: 13587204.000000, IS_MAX: 0, Tot. Cov: 31.000000, ESBytes WO CSB: 30380188.000000, STDBytes WO CSB: 42576404.000000, IP Bytes WO CSB: 13587204.000000, IS_MAX: 1
Coverage: 30, Tot. Cov: 30.000000, Cluster: 31/54, ESBytes W CSB: 28051964.000000, STDBytes W CSB: 37076628.000000, IP Bytes W CSB: 12782944.000000, IS_MAX: 0, Tot. Cov: 30.000000, ESBytes WO CSB: 28560824.000000, STDBytes WO CSB: 39486456.000000, IP Bytes WO CSB: 12782944.000000, IS_MAX: 1
Coverage: 30, Tot. Cov: 31.000000, Cluster: 32/54, ESBytes W CSB: 13748828.000000, STDBytes W CSB: 17685632.000000, IP Bytes W CSB: 7089528.000000, IS_MAX: 0, Tot. Cov: 31.000000, ESBytes WO CSB: 14941824.000000, STDBytes WO CSB: 20574348.000000, IP Bytes WO CSB: 7089528.000000, IS_MAX: 1
Coverage: 30, Tot. Cov: 1153.000000, Cluster: 33/54, ESBytes W CSB: 334162916.000000, STDBytes W CSB: 532239996.000000, IP Bytes W CSB: 165817880.000000, IS_MAX: 0, Tot. Cov: 1175.000000, ESBytes WO CSB: 336491388.000000, STDBytes WO CSB: 525815184.000000, IP Bytes WO CSB: 165817880.000000, IS_MAX: 1
Coverage: 30, Tot. Cov: 37.000000, Cluster: 34/54, ESBytes W CSB: 13753272.000000, STDBytes W CSB: 16547312.000000, IP Bytes W CSB: 8173620.000000, IS_MAX: 0, Tot. Cov: 32.000000, ESBytes WO CSB: 17801156.000000, STDBytes WO CSB: 26515660.000000, IP Bytes WO CSB: 8173620.000000, IS_MAX: 1
Coverage: 30, Tot. Cov: 1353.000000, Cluster: 35/54, ESBytes W CSB: 741860644.000000, STDBytes W CSB: 1045610356.000000, IP Bytes W CSB: 363462628.000000, IS_MAX: 0, Tot. Cov: 1344.000000, ESBytes WO CSB: 724935044.000000, STDBytes WO CSB: 994877832.000000, IP Bytes WO CSB: 363462628.000000, IS_MAX: 1
Coverage: 30, Tot. Cov: 1633.000000, Cluster: 36/54, ESBytes W CSB: 943112144.000000, STDBytes W CSB: 1447426820.000000, IP Bytes W CSB: 508971204.000000, IS_MAX: 0, Tot. Cov: 1577.000000, ESBytes WO CSB: 1109313520.000000, STDBytes WO CSB: 1527176820.000000, IP Bytes WO CSB: 508971204.000000, IS_MAX: 1
Coverage: 30, Tot. Cov: 32.000000, Cluster: 37/54, ESBytes W CSB: 45172588.000000, STDBytes W CSB: 57333004.000000, IP Bytes W CSB: 23468756.000000, IS_MAX: 0, Tot. Cov: 31.000000, ESBytes WO CSB: 49842620.000000, STDBytes WO CSB: 68630380.000000, IP Bytes WO CSB: 23468756.000000, IS_MAX: 1
Coverage: 30, Tot. Cov: 112.000000, Cluster: 38/54, ESBytes W CSB: 191546232.000000, STDBytes W CSB: 248899728.000000, IP Bytes W CSB: 91481860.000000, IS_MAX: 0, Tot. Cov: 115.000000, ESBytes WO CSB: 206272460.000000, STDBytes WO CSB: 264486456.000000, IP Bytes WO CSB: 91481860.000000, IS_MAX: 1
Coverage: 30, Tot. Cov: 113.000000, Cluster: 39/54, ESBytes W CSB: 534816272.000000, STDBytes W CSB: 716829060.000000, IP Bytes W CSB: 269562720.000000, IS_MAX: 0, Tot. Cov: 119.000000, ESBytes WO CSB: 547684052.000000, STDBytes WO CSB: 740771892.000000, IP Bytes WO CSB: 269562720.000000, IS_MAX: 1
Coverage: 30, Tot. Cov: 760.000000, Cluster: 40/54, ESBytes W CSB: 1441550392.000000, STDBytes W CSB: 2449543620.000000, IP Bytes W CSB: 734390072.000000, IS_MAX: 0, Tot. Cov: 758.000000, ESBytes WO CSB: 1398005144.000000, STDBytes WO CSB: 2181476808.000000, IP Bytes WO CSB: 734390072.000000, IS_MAX: 1
Coverage: 30, Tot. Cov: 582.000000, Cluster: 41/54, ESBytes W CSB: 1496964200.000000, STDBytes W CSB: 1829179184.000000, IP Bytes W CSB: 823994016.000000, IS_MAX: 0, Tot. Cov: 579.000000, ESBytes WO CSB: 1515380184.000000, STDBytes WO CSB: 1919184852.000000, IP Bytes WO CSB: 823994016.000000, IS_MAX: 1
Coverage: 30, Tot. Cov: 126.000000, Cluster: 42/54, ESBytes W CSB: 438158388.000000, STDBytes W CSB: 537647784.000000, IP Bytes W CSB: 236191896.000000, IS_MAX: 0, Tot. Cov: 120.000000, ESBytes WO CSB: 467977256.000000, STDBytes WO CSB: 583919544.000000, IP Bytes WO CSB: 236191896.000000, IS_MAX: 1
Coverage: 30, Tot. Cov: 63.000000, Cluster: 43/54, ESBytes W CSB: 287981796.000000, STDBytes W CSB: 392125468.000000, IP Bytes W CSB: 138018848.000000, IS_MAX: 0, Tot. Cov: 65.000000, ESBytes WO CSB: 302464744.000000, STDBytes WO CSB: 432889592.000000, IP Bytes WO CSB: 138018848.000000, IS_MAX: 1
Coverage: 30, Tot. Cov: 62.000000, Cluster: 44/54, ESBytes W CSB: 300810196.000000, STDBytes W CSB: 418339740.000000, IP Bytes W CSB: 145790332.000000, IS_MAX: 0, Tot. Cov: 64.000000, ESBytes WO CSB: 341436076.000000, STDBytes WO CSB: 465909140.000000, IP Bytes WO CSB: 145790332.000000, IS_MAX: 1
Coverage: 30, Tot. Cov: 182.000000, Cluster: 45/54, ESBytes W CSB: 508180472.000000, STDBytes W CSB: 597804628.000000, IP Bytes W CSB: 331004556.000000, IS_MAX: 0, Tot. Cov: 182.000000, ESBytes WO CSB: 587932500.000000, STDBytes WO CSB: 723387956.000000, IP Bytes WO CSB: 331004556.000000, IS_MAX: 1
Coverage: 30, Tot. Cov: 30.000000, Cluster: 46/54, ESBytes W CSB: 195863368.000000, STDBytes W CSB: 246836000.000000, IP Bytes W CSB: 103037172.000000, IS_MAX: 0, Tot. Cov: 32.000000, ESBytes WO CSB: 212032504.000000, STDBytes WO CSB: 279356268.000000, IP Bytes WO CSB: 103037172.000000, IS_MAX: 1
, Tot. Cov: 582.000000, ESBytes WO CSB: 2869737888.000000, STDBytes WO CSB: 3515176728.000000, IP Bytes WO CSB: 1680317448.000000, IS_MAX: 1
Coverage: 30, Tot. Cov: 130.000000, Cluster: 48/54, ESBytes W CSB: 544842432.000000, STDBytes W CSB: 688491444.000000, IP Bytes W CSB: 293134016.000000, IS_MAX: 0, Tot. Cov: 131.000000, ESBytes WO CSB: 542390480.000000, STDBytes WO CSB: 687044796.000000, IP Bytes WO CSB: 293134016.000000, IS_MAX: 1
Coverage: 30, Tot. Cov: 294.000000, Cluster: 49/54, ESBytes W CSB: 1045717020.000000, STDBytes W CSB: 1521709380.000000, IP Bytes W CSB: 535325796.000000, IS_MAX: 0, Tot. Cov: 286.000000, ESBytes WO CSB: 1096381376.000000, STDBytes WO CSB: 1686073552.000000, IP Bytes WO CSB: 535325796.000000, IS_MAX: 1
Coverage: 30, Tot. Cov: 267.000000, Cluster: 50/54, ESBytes W CSB: 572985000.000000, STDBytes W CSB: 774558888.000000, IP Bytes W CSB: 287534220.000000, IS_MAX: 0, Tot. Cov: 268.000000, ESBytes WO CSB: 540977968.000000, STDBytes WO CSB: 750422064.000000, IP Bytes WO CSB: 287534220.000000, IS_MAX: 1
Coverage: 30, Tot. Cov: 274.000000, Cluster: 51/54, ESBytes W CSB: 659379764.000000, STDBytes W CSB: 821486112.000000, IP Bytes W CSB: 355621208.000000, IS_MAX: 0, Tot. Cov: 261.000000, ESBytes WO CSB: 650317356.000000, STDBytes WO CSB: 904074324.000000, IP Bytes WO CSB: 355621208.000000, IS_MAX: 1
Coverage: 30, Tot. Cov: 146.000000, Cluster: 52/54, ESBytes W CSB: 643840212.000000, STDBytes W CSB: 841380544.000000, IP Bytes W CSB: 307066040.000000, IS_MAX: 0, Tot. Cov: 166.000000, ESBytes WO CSB: 586725816.000000, STDBytes WO CSB: 728036252.000000, IP Bytes WO CSB: 307066040.000000, IS_MAX: 1
Coverage: 30, Tot. Cov: 1474.000000, Cluster: 53/54, ESBytes W CSB: 8197269416.000000, STDBytes W CSB: 16409781456.000000, IP Bytes W CSB: 4574251128.000000, IS_MAX: 0, Tot. Cov: 1469.000000, ESBytes WO CSB: 9327125740.000000, STDBytes WO CSB: 17766443124.000000, IP Bytes WO CSB: 4574251128.000000, IS_MAX: 1
