Coverage: 25, Tot. Cov: 159.000000, Cluster: 1/54, ESBytes W CSB: 45647672.000000, STDBytes W CSB: 61721500.000000, IP Bytes W CSB: 21133108.000000, IS_MAX: 0, Tot. Cov: 161.000000, ESBytes WO CSB: 44737080.000000, STDBytes WO CSB: 60709176.000000, IP Bytes WO CSB: 21133108.000000, IS_MAX: 1
Coverage: 25, Tot. Cov: 1134.000000, Cluster: 2/54, ESBytes W CSB: 121830468.000000, STDBytes W CSB: 182416080.000000, IP Bytes W CSB: 55780504.000000, IS_MAX: 0, Tot. Cov: 1118.000000, ESBytes WO CSB: 119803564.000000, STDBytes WO CSB: 178937832.000000, IP Bytes WO CSB: 55780504.000000, IS_MAX: 1
Coverage: 25, Tot. Cov: 715.000000, Cluster: 3/54, ESBytes W CSB: 162003708.000000, STDBytes W CSB: 303547464.000000, IP Bytes W CSB: 69495728.000000, IS_MAX: 0, Tot. Cov: 715.000000, ESBytes WO CSB: 148048268.000000, STDBytes WO CSB: 275218464.000000, IP Bytes WO CSB: 69495728.000000, IS_MAX: 1
Coverage: 25, Tot. Cov: 780.000000, Cluster: 4/54, ESBytes W CSB: 44611348.000000, STDBytes W CSB: 102507632.000000, IP Bytes W CSB: 21560868.000000, IS_MAX: 0, Tot. Cov: 773.000000, ESBytes WO CSB: 46059660.000000, STDBytes WO CSB: 101744692.000000, IP Bytes WO CSB: 21560868.000000, IS_MAX: 1
Coverage: 25, Tot. Cov: 2040.000000, Cluster: 5/54, ESBytes W CSB: 2645109688.000000, STDBytes W CSB: 4031982228.000000, IP Bytes W CSB: 1364130892.000000, IS_MAX: 0, Tot. Cov: 2018.000000, ESBytes WO CSB: 2380535716.000000, STDBytes WO CSB: 3694741812.000000, IP Bytes WO CSB: 1364130892.000000, IS_MAX: 1
Coverage: 25, Tot. Cov: 229.000000, Cluster: 6/54, ESBytes W CSB: 467572776.000000, STDBytes W CSB: 583454268.000000, IP Bytes W CSB: 245742048.000000, IS_MAX: 0, Tot. Cov: 231.000000, ESBytes WO CSB: 450798976.000000, STDBytes WO CSB: 558909612.000000, IP Bytes WO CSB: 245742048.000000, IS_MAX: 1
Coverage: 25, Tot. Cov: 1521.000000, Cluster: 7/54, ESBytes W CSB: 2378311824.000000, STDBytes W CSB: 3083059828.000000, IP Bytes W CSB: 1364328900.000000, IS_MAX: 0, Tot. Cov: 1496.000000, ESBytes WO CSB: 2223163600.000000, STDBytes WO CSB: 2776960940.000000, IP Bytes WO CSB: 1364328900.000000, IS_MAX: 1
Coverage: 25, Tot. Cov: 79.000000, Cluster: 8/54, ESBytes W CSB: 218852880.000000, STDBytes W CSB: 276767200.000000, IP Bytes W CSB: 111160596.000000, IS_MAX: 0, Tot. Cov: 75.000000, ESBytes WO CSB: 219709580.000000, STDBytes WO CSB: 275777668.000000, IP Bytes WO CSB: 111160596.000000, IS_MAX: 1
Coverage: 25, Tot. Cov: 126.000000, Cluster: 9/54, ESBytes W CSB: 298986808.000000, STDBytes W CSB: 370776228.000000, IP Bytes W CSB: 169705108.000000, IS_MAX: 0, Tot. Cov: 120.000000, ESBytes WO CSB: 305023728.000000, STDBytes WO CSB: 382310196.000000, IP Bytes WO CSB: 169705108.000000, IS_MAX: 1
Coverage: 25, Tot. Cov: 191.000000, Cluster: 10/54, ESBytes W CSB: 550859788.000000, STDBytes W CSB: 705202076.000000, IP Bytes W CSB: 296444084.000000, IS_MAX: 0, Tot. Cov: 173.000000, ESBytes WO CSB: 580983348.000000, STDBytes WO CSB: 749838300.000000, IP Bytes WO CSB: 296444084.000000, IS_MAX: 1
Coverage: 25, Tot. Cov: 25.000000, Cluster: 11/54, ESBytes W CSB: 130781552.000000, STDBytes W CSB: 170133028.000000, IP Bytes W CSB: 62080572.000000, IS_MAX: 0, Tot. Cov: 27.000000, ESBytes WO CSB: 126266028.000000, STDBytes WO CSB: 165496008.000000, IP Bytes WO CSB: 62080572.000000, IS_MAX: 1
Coverage: 25, Tot. Cov: 755.000000, Cluster: 12/54, ESBytes W CSB: 472624792.000000, STDBytes W CSB: 638687956.000000, IP Bytes W CSB: 252048700.000000, IS_MAX: 0, Tot. Cov: 726.000000, ESBytes WO CSB: 473911692.000000, STDBytes WO CSB: 644363140.000000, IP Bytes WO CSB: 252048700.000000, IS_MAX: 1
Coverage: 25, Tot. Cov: 123.000000, Cluster: 13/54, ESBytes W CSB: 134703180.000000, STDBytes W CSB: 168367908.000000, IP Bytes W CSB: 70457748.000000, IS_MAX: 0, Tot. Cov: 121.000000, ESBytes WO CSB: 134749980.000000, STDBytes WO CSB: 169454736.000000, IP Bytes WO CSB: 70457748.000000, IS_MAX: 1
Coverage: 25, Tot. Cov: 200.000000, Cluster: 14/54, ESBytes W CSB: 160995208.000000, STDBytes W CSB: 197614064.000000, IP Bytes W CSB: 85306196.000000, IS_MAX: 0, Tot. Cov: 194.000000, ESBytes WO CSB: 161468376.000000, STDBytes WO CSB: 203988168.000000, IP Bytes WO CSB: 85306196.000000, IS_MAX: 1
Coverage: 25, Tot. Cov: 449.000000, Cluster: 15/54, ESBytes W CSB: 494775816.000000, STDBytes W CSB: 678412792.000000, IP Bytes W CSB: 214544492.000000, IS_MAX: 0, Tot. Cov: 446.000000, ESBytes WO CSB: 413994692.000000, STDBytes WO CSB: 570181996.000000, IP Bytes WO CSB: 214544492.000000, IS_MAX: 1
Coverage: 25, Tot. Cov: 112.000000, Cluster: 16/54, ESBytes W CSB: 89620580.000000, STDBytes W CSB: 109976892.000000, IP Bytes W CSB: 49159680.000000, IS_MAX: 0, Tot. Cov: 93.000000, ESBytes WO CSB: 98883300.000000, STDBytes WO CSB: 128896884.000000, IP Bytes WO CSB: 49159680.000000, IS_MAX: 1
Coverage: 25, Tot. Cov: 60.000000, Cluster: 17/54, ESBytes W CSB: 84713264.000000, STDBytes W CSB: 113309464.000000, IP Bytes W CSB: 37205788.000000, IS_MAX: 0, Tot. Cov: 73.000000, ESBytes WO CSB: 75388068.000000, STDBytes WO CSB: 95826460.000000, IP Bytes WO CSB: 37205788.000000, IS_MAX: 1
Coverage: 25, Tot. Cov: 73.000000, Cluster: 18/54, ESBytes W CSB: 66075928.000000, STDBytes W CSB: 83989648.000000, IP Bytes W CSB: 33555352.000000, IS_MAX: 0, Tot. Cov: 71.000000, ESBytes WO CSB: 65372776.000000, STDBytes WO CSB: 84518032.000000, IP Bytes WO CSB: 33555352.000000, IS_MAX: 1
Coverage: 25, Tot. Cov: 26.000000, Cluster: 19/54, ESBytes W CSB: 38355184.000000, STDBytes W CSB: 51580296.000000, IP Bytes W CSB: 17067752.000000, IS_MAX: 0, Tot. Cov: 28.000000, ESBytes WO CSB: 37112144.000000, STDBytes WO CSB: 49895380.000000, IP Bytes WO CSB: 17067752.000000, IS_MAX: 1
Coverage: 25, Tot. Cov: 302.000000, Cluster: 20/54, ESBytes W CSB: 307988296.000000, STDBytes W CSB: 397202032.000000, IP Bytes W CSB: 157329632.000000, IS_MAX: 0, Tot. Cov: 288.000000, ESBytes WO CSB: 299872776.000000, STDBytes WO CSB: 396404548.000000, IP Bytes WO CSB: 157329632.000000, IS_MAX: 1
Coverage: 25, Tot. Cov: 1604.000000, Cluster: 21/54, ESBytes W CSB: 1991025920.000000, STDBytes W CSB: 2762146492.000000, IP Bytes W CSB: 960597208.000000, IS_MAX: 0, Tot. Cov: 1615.000000, ESBytes WO CSB: 1722529220.000000, STDBytes WO CSB: 2463541100.000000, IP Bytes WO CSB: 960597208.000000, IS_MAX: 1
Coverage: 25, Tot. Cov: 187.000000, Cluster: 22/54, ESBytes W CSB: 379014884.000000, STDBytes W CSB: 500557836.000000, IP Bytes W CSB: 168923060.000000, IS_MAX: 0, Tot. Cov: 180.000000, ESBytes WO CSB: 360928408.000000, STDBytes WO CSB: 473571508.000000, IP Bytes WO CSB: 168923060.000000, IS_MAX: 1
Coverage: 25, Tot. Cov: 81.000000, Cluster: 23/54, ESBytes W CSB: 41453048.000000, STDBytes W CSB: 56221236.000000, IP Bytes W CSB: 18785104.000000, IS_MAX: 0, Tot. Cov: 117.000000, ESBytes WO CSB: 35455460.000000, STDBytes WO CSB: 46265760.000000, IP Bytes WO CSB: 18785104.000000, IS_MAX: 1
Coverage: 25, Tot. Cov: 126.000000, Cluster: 24/54, ESBytes W CSB: 39229136.000000, STDBytes W CSB: 52762164.000000, IP Bytes W CSB: 16663712.000000, IS_MAX: 0, Tot. Cov: 129.000000, ESBytes WO CSB: 36991684.000000, STDBytes WO CSB: 48709692.000000, IP Bytes WO CSB: 16663712.000000, IS_MAX: 1
Coverage: 25, Tot. Cov: 165.000000, Cluster: 25/54, ESBytes W CSB: 103942992.000000, STDBytes W CSB: 141717576.000000, IP Bytes W CSB: 41598472.000000, IS_MAX: 0, Tot. Cov: 162.000000, ESBytes WO CSB: 95939596.000000, STDBytes WO CSB: 130182524.000000, IP Bytes WO CSB: 41598472.000000, IS_MAX: 1
Coverage: 25, Tot. Cov: 407.000000, Cluster: 26/54, ESBytes W CSB: 83517216.000000, STDBytes W CSB: 135452256.000000, IP Bytes W CSB: 42751000.000000, IS_MAX: 0, Tot. Cov: 414.000000, ESBytes WO CSB: 85608256.000000, STDBytes WO CSB: 134239740.000000, IP Bytes WO CSB: 42751000.000000, IS_MAX: 1
Coverage: 25, Tot. Cov: 1506.000000, Cluster: 27/54, ESBytes W CSB: 590375464.000000, STDBytes W CSB: 791783280.000000, IP Bytes W CSB: 275471240.000000, IS_MAX: 0, Tot. Cov: 1514.000000, ESBytes WO CSB: 552285312.000000, STDBytes WO CSB: 739439328.000000, IP Bytes WO CSB: 275471240.000000, IS_MAX: 1
Coverage: 25, Tot. Cov: 60.000000, Cluster: 28/54, ESBytes W CSB: 46013512.000000, STDBytes W CSB: 58994008.000000, IP Bytes W CSB: 22971284.000000, IS_MAX: 0, Tot. Cov: 51.000000, ESBytes WO CSB: 49347940.000000, STDBytes WO CSB: 70841300.000000, IP Bytes WO CSB: 22971284.000000, IS_MAX: 1
Coverage: 25, Tot. Cov: 51.000000, Cluster: 29/54, ESBytes W CSB: 38539244.000000, STDBytes W CSB: 53597448.000000, IP Bytes W CSB: 17183912.000000, IS_MAX: 0, Tot. Cov: 78.000000, ESBytes WO CSB: 32778772.000000, STDBytes WO CSB: 40582476.000000, IP Bytes WO CSB: 17183912.000000, IS_MAX: 1
Coverage: 25, Tot. Cov: 27.000000, Cluster: 30/54, ESBytes W CSB: 28315728.000000, STDBytes W CSB: 36882752.000000, IP Bytes W CSB: 13587204.000000, IS_MAX: 0, Tot. Cov: 25.000000, ESBytes WO CSB: 29207916.000000, STDBytes WO CSB: 38907540.000000, IP Bytes WO CSB: 13587204.000000, IS_MAX: 1
Coverage: 25, Tot. Cov: 30.000000, Cluster: 31/54, ESBytes W CSB: 28051964.000000, STDBytes W CSB: 37076628.000000, IP Bytes W CSB: 12782944.000000, IS_MAX: 0, Tot. Cov: 27.000000, ESBytes WO CSB: 28410612.000000, STDBytes WO CSB: 38603020.000000, IP Bytes WO CSB: 12782944.000000, IS_MAX: 1
Coverage: 25, Tot. Cov: 27.000000, Cluster: 32/54, ESBytes W CSB: 14767192.000000, STDBytes W CSB: 19287172.000000, IP Bytes W CSB: 7089528.000000, IS_MAX: 0, Tot. Cov: 27.000000, ESBytes WO CSB: 14767192.000000, STDBytes WO CSB: 19287172.000000, IP Bytes WO CSB: 7089528.000000, IS_MAX: 1
Coverage: 25, Tot. Cov: 1153.000000, Cluster: 33/54, ESBytes W CSB: 334162916.000000, STDBytes W CSB: 532239996.000000, IP Bytes W CSB: 165817880.000000, IS_MAX: 0, Tot. Cov: 1145.000000, ESBytes WO CSB: 323367068.000000, STDBytes WO CSB: 507855480.000000, IP Bytes WO CSB: 165817880.000000, IS_MAX: 1
Coverage: 25, Tot. Cov: 37.000000, Cluster: 34/54, ESBytes W CSB: 13753272.000000, STDBytes W CSB: 16547312.000000, IP Bytes W CSB: 8173620.000000, IS_MAX: 0, Tot. Cov: 37.000000, ESBytes WO CSB: 13753272.000000, STDBytes WO CSB: 16547312.000000, IP Bytes WO CSB: 8173620.000000, IS_MAX: 1
Coverage: 25, Tot. Cov: 1287.000000, Cluster: 35/54, ESBytes W CSB: 729745860.000000, STDBytes W CSB: 981140364.000000, IP Bytes W CSB: 363462628.000000, IS_MAX: 0, Tot. Cov: 1297.000000, ESBytes WO CSB: 683362664.000000, STDBytes WO CSB: 909476768.000000, IP Bytes WO CSB: 363462628.000000, IS_MAX: 1
Coverage: 25, Tot. Cov: 1608.000000, Cluster: 36/54, ESBytes W CSB: 947054200.000000, STDBytes W CSB: 1360070356.000000, IP Bytes W CSB: 508971204.000000, IS_MAX: 0, Tot. Cov: 1524.000000, ESBytes WO CSB: 961337324.000000, STDBytes WO CSB: 1321994184.000000, IP Bytes WO CSB: 508971204.000000, IS_MAX: 1
Coverage: 25, Tot. Cov: 25.000000, Cluster: 37/54, ESBytes W CSB: 50485644.000000, STDBytes W CSB: 66554560.000000, IP Bytes W CSB: 23468756.000000, IS_MAX: 0, Tot. Cov: 31.000000, ESBytes WO CSB: 45878348.000000, STDBytes WO CSB: 60710860.000000, IP Bytes WO CSB: 23468756.000000, IS_MAX: 1
Coverage: 25, Tot. Cov: 112.000000, Cluster: 38/54, ESBytes W CSB: 191546232.000000, STDBytes W CSB: 248899728.000000, IP Bytes W CSB: 91481860.000000, IS_MAX: 0, Tot. Cov: 112.000000, ESBytes WO CSB: 191682200.000000, STDBytes WO CSB: 244848540.000000, IP Bytes WO CSB: 91481860.000000, IS_MAX: 1
Coverage: 25, Tot. Cov: 105.000000, Cluster: 39/54, ESBytes W CSB: 558023404.000000, STDBytes W CSB: 750714540.000000, IP Bytes W CSB: 269562720.000000, IS_MAX: 0, Tot. Cov: 101.000000, ESBytes WO CSB: 561801844.000000, STDBytes WO CSB: 757081008.000000, IP Bytes WO CSB: 269562720.000000, IS_MAX: 1
Coverage: 25, Tot. Cov: 742.000000, Cluster: 40/54, ESBytes W CSB: 1405154480.000000, STDBytes W CSB: 1892671660.000000, IP Bytes W CSB: 734390072.000000, IS_MAX: 0, Tot. Cov: 740.000000, ESBytes WO CSB: 1302662796.000000, STDBytes WO CSB: 1719755244.000000, IP Bytes WO CSB: 734390072.000000, IS_MAX: 1
Coverage: 25, Tot. Cov: 566.000000, Cluster: 41/54, ESBytes W CSB: 1497791740.000000, STDBytes W CSB: 1847269748.000000, IP Bytes W CSB: 823994016.000000, IS_MAX: 0, Tot. Cov: 546.000000, ESBytes WO CSB: 1456155784.000000, STDBytes WO CSB: 1818582344.000000, IP Bytes WO CSB: 823994016.000000, IS_MAX: 1
Coverage: 25, Tot. Cov: 107.000000, Cluster: 42/54, ESBytes W CSB: 476105396.000000, STDBytes W CSB: 604297896.000000, IP Bytes W CSB: 236191896.000000, IS_MAX: 0, Tot. Cov: 103.000000, ESBytes WO CSB: 468790492.000000, STDBytes WO CSB: 594115848.000000, IP Bytes WO CSB: 236191896.000000, IS_MAX: 1
Coverage: 25, Tot. Cov: 53.000000, Cluster: 43/54, ESBytes W CSB: 310156204.000000, STDBytes W CSB: 428073732.000000, IP Bytes W CSB: 138018848.000000, IS_MAX: 0, Tot. Cov: 54.000000, ESBytes WO CSB: 301711876.000000, STDBytes WO CSB: 413614968.000000, IP Bytes WO CSB: 138018848.000000, IS_MAX: 1
Coverage: 25, Tot. Cov: 52.000000, Cluster: 44/54, ESBytes W CSB: 331175420.000000, STDBytes W CSB: 465632448.000000, IP Bytes W CSB: 145790332.000000, IS_MAX: 0, Tot. Cov: 61.000000, ESBytes WO CSB: 307901364.000000, STDBytes WO CSB: 425241700.000000, IP Bytes WO CSB: 145790332.000000, IS_MAX: 1
Coverage: 25, Tot. Cov: 176.000000, Cluster: 45/54, ESBytes W CSB: 526212884.000000, STDBytes W CSB: 613782508.000000, IP Bytes W CSB: 331004556.000000, IS_MAX: 0, Tot. Cov: 184.000000, ESBytes WO CSB: 509972636.000000, STDBytes WO CSB: 610386820.000000, IP Bytes WO CSB: 331004556.000000, IS_MAX: 1
Coverage: 25, Tot. Cov: 26.000000, Cluster: 46/54, ESBytes W CSB: 209999844.000000, STDBytes W CSB: 269207016.000000, IP Bytes W CSB: 103037172.000000, IS_MAX: 0, Tot. Cov: 29.000000, ESBytes WO CSB: 203189216.000000, STDBytes WO CSB: 264148384.000000, IP Bytes WO CSB: 103037172.000000, IS_MAX: 1
Coverage: 25, Tot. Cov: 553.000000, Cluster: 47/54, ESBytes W CSB: 2543631276.000000, STDBytes W CSB: 3273371340.000000, IP Bytes W CSB: 1680317448.000000, IS_MAX: 0, Tot. Cov: 554.000000, ESBytes WO CSB: 2533593940.000000, STDBytes WO CSB: 3194960328.000000, IP Bytes WO CSB: 1680317448.000000, IS_MAX: 1
Coverage: 25, Tot. Cov: 125.000000, Cluster: 48/54, ESBytes W CSB: 555978992.000000, STDBytes W CSB: 712654212.000000, IP Bytes W CSB: 293134016.000000, IS_MAX: 0, Tot. Cov: 123.000000, ESBytes WO CSB: 536903272.000000, STDBytes WO CSB: 675374088.000000, IP Bytes WO CSB: 293134016.000000, IS_MAX: 1
Coverage: 25, Tot. Cov: 282.000000, Cluster: 49/54, ESBytes W CSB: 1060542504.000000, STDBytes W CSB: 1456633960.000000, IP Bytes W CSB: 535325796.000000, IS_MAX: 0, Tot. Cov: 280.000000, ESBytes WO CSB: 1034720072.000000, STDBytes WO CSB: 1415073260.000000, IP Bytes WO CSB: 535325796.000000, IS_MAX: 1
Coverage: 25, Tot. Cov: 242.000000, Cluster: 50/54, ESBytes W CSB: 588743084.000000, STDBytes W CSB: 769451424.000000, IP Bytes W CSB: 287534220.000000, IS_MAX: 0, Tot. Cov: 242.000000, ESBytes WO CSB: 564611352.000000, STDBytes WO CSB: 737429796.000000, IP Bytes WO CSB: 287534220.000000, IS_MAX: 1
Coverage: 25, Tot. Cov: 258.000000, Cluster: 51/54, ESBytes W CSB: 683619272.000000, STDBytes W CSB: 875414112.000000, IP Bytes W CSB: 355621208.000000, IS_MAX: 0, Tot. Cov: 252.000000, ESBytes WO CSB: 641179064.000000, STDBytes WO CSB: 832377840.000000, IP Bytes WO CSB: 355621208.000000, IS_MAX: 1
Coverage: 25, Tot. Cov: 138.000000, Cluster: 52/54, ESBytes W CSB: 655218120.000000, STDBytes W CSB: 867699932.000000, IP Bytes W CSB: 307066040.000000, IS_MAX: 0, Tot. Cov: 132.000000, ESBytes WO CSB: 639624920.000000, STDBytes WO CSB: 821791608.000000, IP Bytes WO CSB: 307066040.000000, IS_MAX: 1
Coverage: 25, Tot. Cov: 1413.000000, Cluster: 53/54, ESBytes W CSB: 7912294496.000000, STDBytes W CSB: 15657702552.000000, IP Bytes W CSB: 4574251128.000000, IS_MAX: 0, Tot. Cov: 1440.000000, ESBytes WO CSB: 7917429564.000000, STDBytes WO CSB: 15171773700.000000, IP Bytes WO CSB: 4574251128.000000, IS_MAX: 1
