Coverage: 35, Tot. Cov: 985.000000, 1/16, STDB: 10127050000.000000, IPB: 3431648644.000000, STDT: 34600639979.000000, IPT: 7573265727.000000, BOH/LOH: 2.951074,4.568787, MAX:1
Coverage: 35, Tot. Cov: 735.000000, 2/16, STDB: 1815975000.000000, IPB: 57035236.000000, STDT: 21085776681.000000, IPT: 3074009169.000000, BOH/LOH: 31.839528,6.859373, MAX:1
Coverage: 35, Tot. Cov: 672.000000, 3/16, STDB: 91455000.000000, IPB: 30951116.000000, STDT: 6931710737.000000, IPT: 2415114910.000000, BOH/LOH: 2.954821,2.870137, MAX:1
Coverage: 35, Tot. Cov: 427.000000, 4/16, STDB: 60457500.000000, IPB: 17639200.000000, STDT: 6067648920.000000, IPT: 1725805868.000000, BOH/LOH: 3.427451,3.515835, MAX:1
Coverage: 35, Tot. Cov: 1179.000000, 5/16, STDB: 423960000.000000, IPB: 97664240.000000, STDT: 21650143978.000000, IPT: 5608870790.000000, BOH/LOH: 4.340995,3.859983, MAX:1
Coverage: 35, Tot. Cov: 1779.000000, 6/16, STDB: 3975030000.000000, IPB: 977237364.000000, STDT: 64228416719.000000, IPT: 12541701453.000000, BOH/LOH: 4.067620,5.121188, MAX:1
Coverage: 35, Tot. Cov: 1319.000000, 7/16, STDB: 495922500.000000, IPB: 152694824.000000, STDT: 23818396477.000000, IPT: 6124222868.000000, BOH/LOH: 3.247802,3.889211, MAX:1
Coverage: 35, Tot. Cov: 1682.000000, 8/16, STDB: 998240000.000000, IPB: 284295028.000000, STDT: 40947829187.000000, IPT: 7209523366.000000, BOH/LOH: 3.511282,5.679686, MAX:1
Coverage: 35, Tot. Cov: 915.000000, 9/16, STDB: 573657500.000000, IPB: 234350984.000000, STDT: 20765089684.000000, IPT: 4394844149.000000, BOH/LOH: 2.447856,4.724875, MAX:1
Coverage: 35, Tot. Cov: 716.000000, 10/16, STDB: 302325000.000000, IPB: 119190828.000000, STDT: 19528301807.000000, IPT: 3173144984.000000, BOH/LOH: 2.536479,6.154242, MAX:1
Coverage: 35, Tot. Cov: 140.000000, 11/16, STDB: 74662500.000000, IPB: 29431636.000000, STDT: 7196745888.000000, IPT: 1171826774.000000, BOH/LOH: 2.536811,6.141476, MAX:1
Coverage: 35, Tot. Cov: 74.000000, 12/16, STDB: 47190000.000000, IPB: 17353176.000000, STDT: 2522369540.000000, IPT: 391328553.000000, BOH/LOH: 2.719387,6.445657, MAX:1
Coverage: 35, Tot. Cov: 187.000000, 13/16, STDB: 105170000.000000, IPB: 35518776.000000, STDT: 3550130425.000000, IPT: 1409761746.000000, BOH/LOH: 2.960969,2.518249, MAX:1
Coverage: 35, Tot. Cov: 7012.000000, 14/16, STDB: 11551425000.000000, IPB: 3056591524.000000, STDT: 484645708619.000000, IPT: 33851566326.000000, BOH/LOH: 3.779185,14.316788, MAX:1
Coverage: 35, Tot. Cov: 6824.000000, 15/16, STDB: 32091565000.000000, IPB: 8586581148.000000, STDT: 195920491663.000000, IPT: 40761485032.000000, BOH/LOH: 3.737409,4.806510, MAX:1
