Coverage: 40, Tot. Cov: 990.000000, 1/16, STDB: 10344500000.000000, IPB: 3468753668.000000, STDT: 36641832902.000000, IPT: 7620515882.000000, BOH/LOH: 2.982195,4.808314, MAX:1
Coverage: 40, Tot. Cov: 740.000000, 2/16, STDB: 1866825000.000000, IPB: 64893608.000000, STDT: 22801062237.000000, IPT: 3123421323.000000, BOH/LOH: 28.767471,7.300028, MAX:1
Coverage: 40, Tot. Cov: 672.000000, 3/16, STDB: 91455000.000000, IPB: 30951116.000000, STDT: 6931710737.000000, IPT: 2415114910.000000, BOH/LOH: 2.954821,2.870137, MAX:1
Coverage: 40, Tot. Cov: 439.000000, 4/16, STDB: 100485000.000000, IPB: 18684092.000000, STDT: 19170580762.000000, IPT: 1797663449.000000, BOH/LOH: 5.378105,10.664166, MAX:1
Coverage: 40, Tot. Cov: 1181.000000, 5/16, STDB: 429060000.000000, IPB: 98061688.000000, STDT: 23772628848.000000, IPT: 5616840037.000000, BOH/LOH: 4.375409,4.232385, MAX:1
Coverage: 40, Tot. Cov: 1790.000000, 6/16, STDB: 4311090000.000000, IPB: 992659448.000000, STDT: 74381245457.000000, IPT: 12637832507.000000, BOH/LOH: 4.342970,5.885601, MAX:1
Coverage: 40, Tot. Cov: 1329.000000, 7/16, STDB: 556672500.000000, IPB: 154619872.000000, STDT: 34804843140.000000, IPT: 6208537257.000000, BOH/LOH: 3.600265,5.605965, MAX:1
Coverage: 40, Tot. Cov: 1693.000000, 8/16, STDB: 1019745000.000000, IPB: 287757828.000000, STDT: 43133665410.000000, IPT: 7262224739.000000, BOH/LOH: 3.543761,5.939456, MAX:1
Coverage: 40, Tot. Cov: 923.000000, 9/16, STDB: 547960000.000000, IPB: 237133448.000000, STDT: 23066973137.000000, IPT: 4441792337.000000, BOH/LOH: 2.310766,5.193168, MAX:1
Coverage: 40, Tot. Cov: 734.000000, 10/16, STDB: 308175000.000000, IPB: 123278060.000000, STDT: 27018831792.000000, IPT: 3259424145.000000, BOH/LOH: 2.499837,8.289449, MAX:1
Coverage: 40, Tot. Cov: 140.000000, 11/16, STDB: 74662500.000000, IPB: 29431636.000000, STDT: 7196745888.000000, IPT: 1171826774.000000, BOH/LOH: 2.536811,6.141476, MAX:1
Coverage: 40, Tot. Cov: 90.000000, 12/16, STDB: 50900000.000000, IPB: 21668728.000000, STDT: 5283863817.000000, IPT: 474137608.000000, BOH/LOH: 2.349007,11.144157, MAX:1
Coverage: 40, Tot. Cov: 197.000000, 13/16, STDB: 108030000.000000, IPB: 38371624.000000, STDT: 4296196504.000000, IPT: 1452554710.000000, BOH/LOH: 2.815362,2.957683, MAX:1
Coverage: 40, Tot. Cov: 7023.000000, 14/16, STDB: 11656117500.000000, IPB: 3068210968.000000, STDT: 469598649434.000000, IPT: 33900109689.000000, BOH/LOH: 3.798995,13.852423, MAX:1
Coverage: 40, Tot. Cov: 6835.000000, 15/16, STDB: 33837287500.000000, IPB: 8626771352.000000, STDT: 208759884831.000000, IPT: 40833773763.000000, BOH/LOH: 3.922358,5.112432, MAX:1
