Coverage: 30, Tot. Cov: 170.000000, Cluster: 1/54, ESBytes WO CSB: 34075550.000000, STDBytes WO CSB: 48580000.000000, IP Bytes WO CSB: 17537788.000000, IS_MAX: 0, Tot. Cov: 164.000000, ESBytes WO CSB: 31376250.000000, STDBytes WO CSB: 46880000.000000, IP Bytes WO CSB: 16876824.000000, IS_MAX: 1
Coverage: 30, Tot. Cov: 1143.000000, Cluster: 2/54, ESBytes WO CSB: 110121950.000000, STDBytes WO CSB: 172680000.000000, IP Bytes WO CSB: 50784244.000000, IS_MAX: 0, Tot. Cov: 1124.000000, ESBytes WO CSB: 97541000.000000, STDBytes WO CSB: 160020000.000000, IP Bytes WO CSB: 49665876.000000, IS_MAX: 1
Coverage: 30, Tot. Cov: 718.000000, Cluster: 3/54, ESBytes WO CSB: 142989650.000000, STDBytes WO CSB: 290287500.000000, IP Bytes WO CSB: 62952240.000000, IS_MAX: 0, Tot. Cov: 718.000000, ESBytes WO CSB: 126268350.000000, STDBytes WO CSB: 251587500.000000, IP Bytes WO CSB: 62955428.000000, IS_MAX: 1
Coverage: 30, Tot. Cov: 782.000000, Cluster: 4/54, ESBytes WO CSB: 41369550.000000, STDBytes WO CSB: 99000000.000000, IP Bytes WO CSB: 20407836.000000, IS_MAX: 0, Tot. Cov: 779.000000, ESBytes WO CSB: 42974300.000000, STDBytes WO CSB: 106880000.000000, IP Bytes WO CSB: 20203984.000000, IS_MAX: 1
Coverage: 30, Tot. Cov: 2050.000000, Cluster: 5/54, ESBytes WO CSB: 2520147250.000000, STDBytes WO CSB: 3968370000.000000, IP Bytes WO CSB: 1316523980.000000, IS_MAX: 0, Tot. Cov: 2046.000000, ESBytes WO CSB: 2242653450.000000, STDBytes WO CSB: 3598770000.000000, IP Bytes WO CSB: 1313363012.000000, IS_MAX: 1
Coverage: 30, Tot. Cov: 267.000000, Cluster: 6/54, ESBytes WO CSB: 322769650.000000, STDBytes WO CSB: 405570000.000000, IP Bytes WO CSB: 213785436.000000, IS_MAX: 0, Tot. Cov: 283.000000, ESBytes WO CSB: 340119900.000000, STDBytes WO CSB: 426480000.000000, IP Bytes WO CSB: 228847504.000000, IS_MAX: 1
Coverage: 30, Tot. Cov: 1537.000000, Cluster: 7/54, ESBytes WO CSB: 2081080650.000000, STDBytes WO CSB: 2813760000.000000, IP Bytes WO CSB: 1280251192.000000, IS_MAX: 0, Tot. Cov: 1514.000000, ESBytes WO CSB: 1931957300.000000, STDBytes WO CSB: 2474000000.000000, IP Bytes WO CSB: 1258576244.000000, IS_MAX: 1
Coverage: 30, Tot. Cov: 80.000000, Cluster: 8/54, ESBytes WO CSB: 140457750.000000, STDBytes WO CSB: 195115000.000000, IP Bytes WO CSB: 85525692.000000, IS_MAX: 0, Tot. Cov: 77.000000, ESBytes WO CSB: 131598650.000000, STDBytes WO CSB: 182270000.000000, IP Bytes WO CSB: 82530608.000000, IS_MAX: 1
Coverage: 30, Tot. Cov: 130.000000, Cluster: 9/54, ESBytes WO CSB: 212066700.000000, STDBytes WO CSB: 285045000.000000, IP Bytes WO CSB: 143254240.000000, IS_MAX: 0, Tot. Cov: 124.000000, ESBytes WO CSB: 203081950.000000, STDBytes WO CSB: 276990000.000000, IP Bytes WO CSB: 136662076.000000, IS_MAX: 1
Coverage: 30, Tot. Cov: 205.000000, Cluster: 10/54, ESBytes WO CSB: 331763450.000000, STDBytes WO CSB: 478050000.000000, IP Bytes WO CSB: 232632960.000000, IS_MAX: 0, Tot. Cov: 183.000000, ESBytes WO CSB: 298322450.000000, STDBytes WO CSB: 450950000.000000, IP Bytes WO CSB: 206777916.000000, IS_MAX: 1
Coverage: 30, Tot. Cov: 31.000000, Cluster: 11/54, ESBytes WO CSB: 46776400.000000, STDBytes WO CSB: 77572500.000000, IP Bytes WO CSB: 38453200.000000, IS_MAX: 0, Tot. Cov: 36.000000, ESBytes WO CSB: 58068800.000000, STDBytes WO CSB: 88162500.000000, IP Bytes WO CSB: 44706396.000000, IS_MAX: 1
Coverage: 30, Tot. Cov: 763.000000, Cluster: 12/54, ESBytes WO CSB: 429745900.000000, STDBytes WO CSB: 595040000.000000, IP Bytes WO CSB: 237965556.000000, IS_MAX: 0, Tot. Cov: 737.000000, ESBytes WO CSB: 396876100.000000, STDBytes WO CSB: 575160000.000000, IP Bytes WO CSB: 226262640.000000, IS_MAX: 1
Coverage: 30, Tot. Cov: 129.000000, Cluster: 13/54, ESBytes WO CSB: 81312600.000000, STDBytes WO CSB: 116797500.000000, IP Bytes WO CSB: 54893736.000000, IS_MAX: 0, Tot. Cov: 126.000000, ESBytes WO CSB: 84295750.000000, STDBytes WO CSB: 120067500.000000, IP Bytes WO CSB: 53857636.000000, IS_MAX: 1
Coverage: 30, Tot. Cov: 196.000000, Cluster: 14/54, ESBytes WO CSB: 105782500.000000, STDBytes WO CSB: 144712500.000000, IP Bytes WO CSB: 66388320.000000, IS_MAX: 0, Tot. Cov: 213.000000, ESBytes WO CSB: 116718700.000000, STDBytes WO CSB: 153175000.000000, IP Bytes WO CSB: 72514136.000000, IS_MAX: 1
Coverage: 30, Tot. Cov: 455.000000, Cluster: 15/54, ESBytes WO CSB: 400285500.000000, STDBytes WO CSB: 593525000.000000, IP Bytes WO CSB: 185873140.000000, IS_MAX: 0, Tot. Cov: 454.000000, ESBytes WO CSB: 313922100.000000, STDBytes WO CSB: 474600000.000000, IP Bytes WO CSB: 185779364.000000, IS_MAX: 1
Coverage: 30, Tot. Cov: 109.000000, Cluster: 16/54, ESBytes WO CSB: 49727850.000000, STDBytes WO CSB: 71602500.000000, IP Bytes WO CSB: 35201616.000000, IS_MAX: 0, Tot. Cov: 113.000000, ESBytes WO CSB: 53684250.000000, STDBytes WO CSB: 77385000.000000, IP Bytes WO CSB: 36553524.000000, IS_MAX: 1
Coverage: 30, Tot. Cov: 75.000000, Cluster: 17/54, ESBytes WO CSB: 50711200.000000, STDBytes WO CSB: 70495000.000000, IP Bytes WO CSB: 27797956.000000, IS_MAX: 0, Tot. Cov: 67.000000, ESBytes WO CSB: 40994700.000000, STDBytes WO CSB: 64395000.000000, IP Bytes WO CSB: 24880744.000000, IS_MAX: 1
Coverage: 30, Tot. Cov: 77.000000, Cluster: 18/54, ESBytes WO CSB: 40147800.000000, STDBytes WO CSB: 56200000.000000, IP Bytes WO CSB: 25556804.000000, IS_MAX: 0, Tot. Cov: 80.000000, ESBytes WO CSB: 41315100.000000, STDBytes WO CSB: 58255000.000000, IP Bytes WO CSB: 26610400.000000, IS_MAX: 1
Coverage: 30, Tot. Cov: 32.000000, Cluster: 19/54, ESBytes WO CSB: 17163850.000000, STDBytes WO CSB: 27672500.000000, IP Bytes WO CSB: 10880772.000000, IS_MAX: 0, Tot. Cov: 32.000000, ESBytes WO CSB: 16942750.000000, STDBytes WO CSB: 27937500.000000, IP Bytes WO CSB: 10880468.000000, IS_MAX: 1
Coverage: 30, Tot. Cov: 308.000000, Cluster: 20/54, ESBytes WO CSB: 235576100.000000, STDBytes WO CSB: 322927500.000000, IP Bytes WO CSB: 134482528.000000, IS_MAX: 0, Tot. Cov: 293.000000, ESBytes WO CSB: 209409900.000000, STDBytes WO CSB: 298497500.000000, IP Bytes WO CSB: 127552432.000000, IS_MAX: 1
Coverage: 30, Tot. Cov: 1727.000000, Cluster: 21/54, ESBytes WO CSB: 1953159850.000000, STDBytes WO CSB: 3181325000.000000, IP Bytes WO CSB: 936558584.000000, IS_MAX: 0, Tot. Cov: 1724.000000, ESBytes WO CSB: 1476372650.000000, STDBytes WO CSB: 2514400000.000000, IP Bytes WO CSB: 934257324.000000, IS_MAX: 1
Coverage: 30, Tot. Cov: 209.000000, Cluster: 22/54, ESBytes WO CSB: 210697650.000000, STDBytes WO CSB: 316037500.000000, IP Bytes WO CSB: 120471704.000000, IS_MAX: 0, Tot. Cov: 204.000000, ESBytes WO CSB: 186478600.000000, STDBytes WO CSB: 282962500.000000, IP Bytes WO CSB: 117420556.000000, IS_MAX: 1
Coverage: 30, Tot. Cov: 130.000000, Cluster: 23/54, ESBytes WO CSB: 25705550.000000, STDBytes WO CSB: 32040000.000000, IP Bytes WO CSB: 16280260.000000, IS_MAX: 0, Tot. Cov: 120.000000, ESBytes WO CSB: 24946850.000000, STDBytes WO CSB: 34500000.000000, IP Bytes WO CSB: 15025776.000000, IS_MAX: 1
Coverage: 30, Tot. Cov: 139.000000, Cluster: 24/54, ESBytes WO CSB: 34323450.000000, STDBytes WO CSB: 44377500.000000, IP Bytes WO CSB: 15117540.000000, IS_MAX: 0, Tot. Cov: 136.000000, ESBytes WO CSB: 31709550.000000, STDBytes WO CSB: 41797500.000000, IP Bytes WO CSB: 14693824.000000, IS_MAX: 1
Coverage: 30, Tot. Cov: 174.000000, Cluster: 25/54, ESBytes WO CSB: 84888750.000000, STDBytes WO CSB: 120860000.000000, IP Bytes WO CSB: 35003552.000000, IS_MAX: 0, Tot. Cov: 163.000000, ESBytes WO CSB: 69648000.000000, STDBytes WO CSB: 102910000.000000, IP Bytes WO CSB: 32363484.000000, IS_MAX: 1
Coverage: 30, Tot. Cov: 418.000000, Cluster: 26/54, ESBytes WO CSB: 65663200.000000, STDBytes WO CSB: 117225000.000000, IP Bytes WO CSB: 37310240.000000, IS_MAX: 0, Tot. Cov: 421.000000, ESBytes WO CSB: 71706350.000000, STDBytes WO CSB: 117787500.000000, IP Bytes WO CSB: 37839824.000000, IS_MAX: 1
Coverage: 30, Tot. Cov: 1578.000000, Cluster: 27/54, ESBytes WO CSB: 701447500.000000, STDBytes WO CSB: 1062160000.000000, IP Bytes WO CSB: 269055588.000000, IS_MAX: 0, Tot. Cov: 1572.000000, ESBytes WO CSB: 512219700.000000, STDBytes WO CSB: 823040000.000000, IP Bytes WO CSB: 267759828.000000, IS_MAX: 1
Coverage: 30, Tot. Cov: 70.000000, Cluster: 28/54, ESBytes WO CSB: 22263050.000000, STDBytes WO CSB: 32910000.000000, IP Bytes WO CSB: 16108852.000000, IS_MAX: 0, Tot. Cov: 76.000000, ESBytes WO CSB: 24602800.000000, STDBytes WO CSB: 40000000.000000, IP Bytes WO CSB: 17448024.000000, IS_MAX: 1
Coverage: 30, Tot. Cov: 75.000000, Cluster: 29/54, ESBytes WO CSB: 19310000.000000, STDBytes WO CSB: 29855000.000000, IP Bytes WO CSB: 12714172.000000, IS_MAX: 0, Tot. Cov: 61.000000, ESBytes WO CSB: 16396500.000000, STDBytes WO CSB: 29490000.000000, IP Bytes WO CSB: 10432316.000000, IS_MAX: 1
Coverage: 30, Tot. Cov: 30.000000, Cluster: 30/54, ESBytes WO CSB: 10797900.000000, STDBytes WO CSB: 18597500.000000, IP Bytes WO CSB: 8140372.000000, IS_MAX: 0, Tot. Cov: 32.000000, ESBytes WO CSB: 11852950.000000, STDBytes WO CSB: 22070000.000000, IP Bytes WO CSB: 8673256.000000, IS_MAX: 1
Coverage: 30, Tot. Cov: 33.000000, Cluster: 31/54, ESBytes WO CSB: 13952200.000000, STDBytes WO CSB: 21950000.000000, IP Bytes WO CSB: 8352516.000000, IS_MAX: 0, Tot. Cov: 30.000000, ESBytes WO CSB: 11999400.000000, STDBytes WO CSB: 21920000.000000, IP Bytes WO CSB: 7598372.000000, IS_MAX: 1
Coverage: 30, Tot. Cov: 31.000000, Cluster: 32/54, ESBytes WO CSB: 5566450.000000, STDBytes WO CSB: 9547500.000000, IP Bytes WO CSB: 4354384.000000, IS_MAX: 0, Tot. Cov: 30.000000, ESBytes WO CSB: 5402900.000000, STDBytes WO CSB: 9340000.000000, IP Bytes WO CSB: 4210572.000000, IS_MAX: 1
Coverage: 30, Tot. Cov: 1163.000000, Cluster: 33/54, ESBytes WO CSB: 301402400.000000, STDBytes WO CSB: 501420000.000000, IP Bytes WO CSB: 157242016.000000, IS_MAX: 0, Tot. Cov: 1157.000000, ESBytes WO CSB: 294279800.000000, STDBytes WO CSB: 473400000.000000, IP Bytes WO CSB: 156019980.000000, IS_MAX: 1
Coverage: 30, Tot. Cov: 35.000000, Cluster: 34/54, ESBytes WO CSB: 7107850.000000, STDBytes WO CSB: 10300000.000000, IP Bytes WO CSB: 5710940.000000, IS_MAX: 0, Tot. Cov: 35.000000, ESBytes WO CSB: 7848150.000000, STDBytes WO CSB: 11882500.000000, IP Bytes WO CSB: 5712604.000000, IS_MAX: 1
Coverage: 30, Tot. Cov: 1341.000000, Cluster: 35/54, ESBytes WO CSB: 638670800.000000, STDBytes WO CSB: 958020000.000000, IP Bytes WO CSB: 337805228.000000, IS_MAX: 0, Tot. Cov: 1345.000000, ESBytes WO CSB: 594301450.000000, STDBytes WO CSB: 837760000.000000, IP Bytes WO CSB: 337281688.000000, IS_MAX: 1
Coverage: 30, Tot. Cov: 1633.000000, Cluster: 36/54, ESBytes WO CSB: 829179300.000000, STDBytes WO CSB: 1352775000.000000, IP Bytes WO CSB: 470436372.000000, IS_MAX: 0, Tot. Cov: 1628.000000, ESBytes WO CSB: 796672150.000000, STDBytes WO CSB: 1221195000.000000, IP Bytes WO CSB: 468225216.000000, IS_MAX: 1
Coverage: 30, Tot. Cov: 30.000000, Cluster: 37/54, ESBytes WO CSB: 18652900.000000, STDBytes WO CSB: 32542500.000000, IP Bytes WO CSB: 14037088.000000, IS_MAX: 0, Tot. Cov: 30.000000, ESBytes WO CSB: 19535750.000000, STDBytes WO CSB: 35592500.000000, IP Bytes WO CSB: 14035888.000000, IS_MAX: 1
Coverage: 30, Tot. Cov: 114.000000, Cluster: 38/54, ESBytes WO CSB: 106934150.000000, STDBytes WO CSB: 163200000.000000, IP Bytes WO CSB: 63940092.000000, IS_MAX: 0, Tot. Cov: 121.000000, ESBytes WO CSB: 114877750.000000, STDBytes WO CSB: 161767500.000000, IP Bytes WO CSB: 68720660.000000, IS_MAX: 1
Coverage: 30, Tot. Cov: 116.000000, Cluster: 39/54, ESBytes WO CSB: 283096950.000000, STDBytes WO CSB: 468495000.000000, IP Bytes WO CSB: 187976676.000000, IS_MAX: 0, Tot. Cov: 115.000000, ESBytes WO CSB: 279098400.000000, STDBytes WO CSB: 457267500.000000, IP Bytes WO CSB: 186379576.000000, IS_MAX: 1
Coverage: 30, Tot. Cov: 764.000000, Cluster: 40/54, ESBytes WO CSB: 1202571650.000000, STDBytes WO CSB: 2249960000.000000, IP Bytes WO CSB: 650646176.000000, IS_MAX: 0, Tot. Cov: 763.000000, ESBytes WO CSB: 1022326650.000000, STDBytes WO CSB: 1956480000.000000, IP Bytes WO CSB: 649191812.000000, IS_MAX: 1
Coverage: 30, Tot. Cov: 572.000000, Cluster: 41/54, ESBytes WO CSB: 1146229500.000000, STDBytes WO CSB: 1488955000.000000, IP Bytes WO CSB: 708240384.000000, IS_MAX: 0, Tot. Cov: 563.000000, ESBytes WO CSB: 1054925800.000000, STDBytes WO CSB: 1407217500.000000, IP Bytes WO CSB: 697830248.000000, IS_MAX: 1
Coverage: 30, Tot. Cov: 125.000000, Cluster: 42/54, ESBytes WO CSB: 299912300.000000, STDBytes WO CSB: 392227500.000000, IP Bytes WO CSB: 189484964.000000, IS_MAX: 0, Tot. Cov: 114.000000, ESBytes WO CSB: 262638200.000000, STDBytes WO CSB: 369922500.000000, IP Bytes WO CSB: 173904864.000000, IS_MAX: 1
Coverage: 30, Tot. Cov: 66.000000, Cluster: 43/54, ESBytes WO CSB: 125066650.000000, STDBytes WO CSB: 222035000.000000, IP Bytes WO CSB: 86171048.000000, IS_MAX: 0, Tot. Cov: 66.000000, ESBytes WO CSB: 122119100.000000, STDBytes WO CSB: 220110000.000000, IP Bytes WO CSB: 86419708.000000, IS_MAX: 1
Coverage: 30, Tot. Cov: 62.000000, Cluster: 44/54, ESBytes WO CSB: 104042250.000000, STDBytes WO CSB: 219400000.000000, IP Bytes WO CSB: 79869412.000000, IS_MAX: 0, Tot. Cov: 63.000000, ESBytes WO CSB: 116011550.000000, STDBytes WO CSB: 234515000.000000, IP Bytes WO CSB: 81447572.000000, IS_MAX: 1
Coverage: 30, Tot. Cov: 180.000000, Cluster: 45/54, ESBytes WO CSB: 379388900.000000, STDBytes WO CSB: 472440000.000000, IP Bytes WO CSB: 285312440.000000, IS_MAX: 0, Tot. Cov: 183.000000, ESBytes WO CSB: 400289400.000000, STDBytes WO CSB: 520550000.000000, IP Bytes WO CSB: 290733524.000000, IS_MAX: 1
Coverage: 30, Tot. Cov: 32.000000, Cluster: 46/54, ESBytes WO CSB: 77490200.000000, STDBytes WO CSB: 124362500.000000, IP Bytes WO CSB: 65600144.000000, IS_MAX: 0, Tot. Cov: 34.000000, ESBytes WO CSB: 89605600.000000, STDBytes WO CSB: 139847500.000000, IP Bytes WO CSB: 69999296.000000, IS_MAX: 1
Coverage: 30, Tot. Cov: 563.000000, Cluster: 47/54, ESBytes WO CSB: 2081286450.000000, STDBytes WO CSB: 2835690000.000000, IP Bytes WO CSB: 1546253720.000000, IS_MAX: 0, Tot. Cov: 563.000000, ESBytes WO CSB: 2202170950.000000, STDBytes WO CSB: 2859330000.000000, IP Bytes WO CSB: 1546510628.000000, IS_MAX: 1
Coverage: 30, Tot. Cov: 136.000000, Cluster: 48/54, ESBytes WO CSB: 429279150.000000, STDBytes WO CSB: 557325000.000000, IP Bytes WO CSB: 261456060.000000, IS_MAX: 0, Tot. Cov: 133.000000, ESBytes WO CSB: 388439250.000000, STDBytes WO CSB: 512385000.000000, IP Bytes WO CSB: 255067604.000000, IS_MAX: 1
Coverage: 30, Tot. Cov: 295.000000, Cluster: 49/54, ESBytes WO CSB: 688834350.000000, STDBytes WO CSB: 1191295000.000000, IP Bytes WO CSB: 414896968.000000, IS_MAX: 0, Tot. Cov: 292.000000, ESBytes WO CSB: 642574750.000000, STDBytes WO CSB: 1123412500.000000, IP Bytes WO CSB: 409945836.000000, IS_MAX: 1
Coverage: 30, Tot. Cov: 264.000000, Cluster: 50/54, ESBytes WO CSB: 420264700.000000, STDBytes WO CSB: 618915000.000000, IP Bytes WO CSB: 237808412.000000, IS_MAX: 0, Tot. Cov: 268.000000, ESBytes WO CSB: 399327200.000000, STDBytes WO CSB: 597105000.000000, IP Bytes WO CSB: 243324156.000000, IS_MAX: 1
Coverage: 30, Tot. Cov: 274.000000, Cluster: 51/54, ESBytes WO CSB: 544253800.000000, STDBytes WO CSB: 718215000.000000, IP Bytes WO CSB: 317690904.000000, IS_MAX: 0, Tot. Cov: 262.000000, ESBytes WO CSB: 459622600.000000, STDBytes WO CSB: 648885000.000000, IP Bytes WO CSB: 301916080.000000, IS_MAX: 1
Coverage: 30, Tot. Cov: 148.000000, Cluster: 52/54, ESBytes WO CSB: 363475950.000000, STDBytes WO CSB: 548890000.000000, IP Bytes WO CSB: 215919296.000000, IS_MAX: 0, Tot. Cov: 148.000000, ESBytes WO CSB: 336323350.000000, STDBytes WO CSB: 490520000.000000, IP Bytes WO CSB: 216221464.000000, IS_MAX: 1
Coverage: 30, Tot. Cov: 1481.000000, Cluster: 53/54, ESBytes WO CSB: 7220818400.000000, STDBytes WO CSB: 15289575000.000000, IP Bytes WO CSB: 4429168224.000000, IS_MAX: 0, Tot. Cov: 1452.000000, ESBytes WO CSB: 7553199800.000000, STDBytes WO CSB: 14916375000.000000, IP Bytes WO CSB: 4366631640.000000, IS_MAX: 1
