Coverage: 20, Tot. Cov: 164.000000, Cluster: 1/54, ESBytes W CSB: 44787086.000000, STDBytes W CSB: 60450036.000000, IP Bytes W CSB: 21133108.000000, IS_MAX: 0, Tot. Cov: 146.000000, ESBytes WO CSB: 46546000.000000, STDBytes WO CSB: 64530800.000000, IP Bytes WO CSB: 21133108.000000, IS_MAX: 1
Coverage: 20, Tot. Cov: 1110.000000, Cluster: 2/54, ESBytes W CSB: 121140316.000000, STDBytes W CSB: 182138316.000000, IP Bytes W CSB: 55780504.000000, IS_MAX: 0, Tot. Cov: 1083.000000, ESBytes WO CSB: 119717564.000000, STDBytes WO CSB: 178899864.000000, IP Bytes WO CSB: 55780504.000000, IS_MAX: 1
Coverage: 20, Tot. Cov: 672.000000, Cluster: 3/54, ESBytes W CSB: 158290080.000000, STDBytes W CSB: 263805780.000000, IP Bytes W CSB: 69495728.000000, IS_MAX: 0, Tot. Cov: 663.000000, ESBytes WO CSB: 150147068.000000, STDBytes WO CSB: 248000568.000000, IP Bytes WO CSB: 69495728.000000, IS_MAX: 1
Coverage: 20, Tot. Cov: 782.000000, Cluster: 4/54, ESBytes W CSB: 44828646.000000, STDBytes W CSB: 102459096.000000, IP Bytes W CSB: 21560868.000000, IS_MAX: 0, Tot. Cov: 777.000000, ESBytes WO CSB: 48107120.000000, STDBytes WO CSB: 109064620.000000, IP Bytes WO CSB: 21560868.000000, IS_MAX: 1
Coverage: 20, Tot. Cov: 2018.000000, Cluster: 5/54, ESBytes W CSB: 2607138762.000000, STDBytes W CSB: 3904192812.000000, IP Bytes W CSB: 1364130892.000000, IS_MAX: 0, Tot. Cov: 2002.000000, ESBytes WO CSB: 2427259462.000000, STDBytes WO CSB: 3774278712.000000, IP Bytes WO CSB: 1364130892.000000, IS_MAX: 1
Coverage: 20, Tot. Cov: 240.000000, Cluster: 6/54, ESBytes W CSB: 447729548.000000, STDBytes W CSB: 549314148.000000, IP Bytes W CSB: 245742048.000000, IS_MAX: 0, Tot. Cov: 241.000000, ESBytes WO CSB: 448041660.000000, STDBytes WO CSB: 550690260.000000, IP Bytes WO CSB: 245742048.000000, IS_MAX: 1
Coverage: 20, Tot. Cov: 1472.000000, Cluster: 7/54, ESBytes W CSB: 2380305182.000000, STDBytes W CSB: 3053497632.000000, IP Bytes W CSB: 1364328900.000000, IS_MAX: 0, Tot. Cov: 1466.000000, ESBytes WO CSB: 2297604712.000000, STDBytes WO CSB: 2873398912.000000, IP Bytes WO CSB: 1364328900.000000, IS_MAX: 1
Coverage: 20, Tot. Cov: 75.000000, Cluster: 8/54, ESBytes W CSB: 225559450.000000, STDBytes W CSB: 286983000.000000, IP Bytes W CSB: 111160596.000000, IS_MAX: 0, Tot. Cov: 56.000000, ESBytes WO CSB: 250051460.000000, STDBytes WO CSB: 334900660.000000, IP Bytes WO CSB: 111160596.000000, IS_MAX: 1
Coverage: 20, Tot. Cov: 123.000000, Cluster: 9/54, ESBytes W CSB: 302573956.000000, STDBytes W CSB: 378333756.000000, IP Bytes W CSB: 169705108.000000, IS_MAX: 0, Tot. Cov: 111.000000, ESBytes WO CSB: 327129550.000000, STDBytes WO CSB: 421489800.000000, IP Bytes WO CSB: 169705108.000000, IS_MAX: 1
Coverage: 20, Tot. Cov: 180.000000, Cluster: 10/54, ESBytes W CSB: 573538062.000000, STDBytes W CSB: 737272912.000000, IP Bytes W CSB: 296444084.000000, IS_MAX: 0, Tot. Cov: 160.000000, ESBytes WO CSB: 619357774.000000, STDBytes WO CSB: 811219724.000000, IP Bytes WO CSB: 296444084.000000, IS_MAX: 1
Coverage: 20, Tot. Cov: 22.000000, Cluster: 11/54, ESBytes W CSB: 137228702.000000, STDBytes W CSB: 180566852.000000, IP Bytes W CSB: 62080572.000000, IS_MAX: 0, Tot. Cov: 20.000000, ESBytes WO CSB: 142914676.000000, STDBytes WO CSB: 193251376.000000, IP Bytes WO CSB: 62080572.000000, IS_MAX: 1
Coverage: 20, Tot. Cov: 700.000000, Cluster: 12/54, ESBytes W CSB: 499761982.000000, STDBytes W CSB: 683832032.000000, IP Bytes W CSB: 252048700.000000, IS_MAX: 0, Tot. Cov: 717.000000, ESBytes WO CSB: 478070102.000000, STDBytes WO CSB: 655724652.000000, IP Bytes WO CSB: 252048700.000000, IS_MAX: 1
Coverage: 20, Tot. Cov: 116.000000, Cluster: 13/54, ESBytes W CSB: 139796308.000000, STDBytes W CSB: 178249608.000000, IP Bytes W CSB: 70457748.000000, IS_MAX: 0, Tot. Cov: 110.000000, ESBytes WO CSB: 145327696.000000, STDBytes WO CSB: 184380696.000000, IP Bytes WO CSB: 70457748.000000, IS_MAX: 1
Coverage: 20, Tot. Cov: 179.000000, Cluster: 14/54, ESBytes W CSB: 171091456.000000, STDBytes W CSB: 218018556.000000, IP Bytes W CSB: 85306196.000000, IS_MAX: 0, Tot. Cov: 194.000000, ESBytes WO CSB: 165691712.000000, STDBytes WO CSB: 212230912.000000, IP Bytes WO CSB: 85306196.000000, IS_MAX: 1
Coverage: 20, Tot. Cov: 429.000000, Cluster: 15/54, ESBytes W CSB: 455470012.000000, STDBytes W CSB: 614136312.000000, IP Bytes W CSB: 214544492.000000, IS_MAX: 0, Tot. Cov: 414.000000, ESBytes WO CSB: 429579686.000000, STDBytes WO CSB: 573357236.000000, IP Bytes WO CSB: 214544492.000000, IS_MAX: 1
Coverage: 20, Tot. Cov: 76.000000, Cluster: 16/54, ESBytes W CSB: 107792998.000000, STDBytes W CSB: 144153048.000000, IP Bytes W CSB: 49159680.000000, IS_MAX: 0, Tot. Cov: 71.000000, ESBytes WO CSB: 111195402.000000, STDBytes WO CSB: 155093052.000000, IP Bytes WO CSB: 49159680.000000, IS_MAX: 1
Coverage: 20, Tot. Cov: 53.000000, Cluster: 17/54, ESBytes W CSB: 88055816.000000, STDBytes W CSB: 121621716.000000, IP Bytes W CSB: 37205788.000000, IS_MAX: 0, Tot. Cov: 48.000000, ESBytes WO CSB: 87290256.000000, STDBytes WO CSB: 122098556.000000, IP Bytes WO CSB: 37205788.000000, IS_MAX: 1
Coverage: 20, Tot. Cov: 69.000000, Cluster: 18/54, ESBytes W CSB: 67816704.000000, STDBytes W CSB: 87946804.000000, IP Bytes W CSB: 33555352.000000, IS_MAX: 0, Tot. Cov: 71.000000, ESBytes WO CSB: 66710576.000000, STDBytes WO CSB: 89487176.000000, IP Bytes WO CSB: 33555352.000000, IS_MAX: 1
Coverage: 20, Tot. Cov: 24.000000, Cluster: 19/54, ESBytes W CSB: 39395464.000000, STDBytes W CSB: 53698364.000000, IP Bytes W CSB: 17067752.000000, IS_MAX: 0, Tot. Cov: 29.000000, ESBytes WO CSB: 37278382.000000, STDBytes WO CSB: 51478132.000000, IP Bytes WO CSB: 17067752.000000, IS_MAX: 1
Coverage: 20, Tot. Cov: 291.000000, Cluster: 20/54, ESBytes W CSB: 316521274.000000, STDBytes W CSB: 414955524.000000, IP Bytes W CSB: 157329632.000000, IS_MAX: 0, Tot. Cov: 293.000000, ESBytes WO CSB: 298741500.000000, STDBytes WO CSB: 387829100.000000, IP Bytes WO CSB: 157329632.000000, IS_MAX: 1
Coverage: 20, Tot. Cov: 1537.000000, Cluster: 21/54, ESBytes W CSB: 2001896878.000000, STDBytes W CSB: 2576035928.000000, IP Bytes W CSB: 960597208.000000, IS_MAX: 0, Tot. Cov: 1565.000000, ESBytes WO CSB: 1721494668.000000, STDBytes WO CSB: 2228255568.000000, IP Bytes WO CSB: 960597208.000000, IS_MAX: 1
Coverage: 20, Tot. Cov: 163.000000, Cluster: 22/54, ESBytes W CSB: 387913330.000000, STDBytes W CSB: 517736280.000000, IP Bytes W CSB: 168923060.000000, IS_MAX: 0, Tot. Cov: 162.000000, ESBytes WO CSB: 386023338.000000, STDBytes WO CSB: 510627788.000000, IP Bytes WO CSB: 168923060.000000, IS_MAX: 1
Coverage: 20, Tot. Cov: 96.000000, Cluster: 23/54, ESBytes W CSB: 39020718.000000, STDBytes W CSB: 51435168.000000, IP Bytes W CSB: 18785104.000000, IS_MAX: 0, Tot. Cov: 120.000000, ESBytes WO CSB: 36224834.000000, STDBytes WO CSB: 45777984.000000, IP Bytes WO CSB: 18785104.000000, IS_MAX: 1
Coverage: 20, Tot. Cov: 120.000000, Cluster: 24/54, ESBytes W CSB: 40925302.000000, STDBytes W CSB: 53906352.000000, IP Bytes W CSB: 16663712.000000, IS_MAX: 0, Tot. Cov: 136.000000, ESBytes WO CSB: 37619214.000000, STDBytes WO CSB: 47707164.000000, IP Bytes WO CSB: 16663712.000000, IS_MAX: 1
Coverage: 20, Tot. Cov: 164.000000, Cluster: 25/54, ESBytes W CSB: 103667540.000000, STDBytes W CSB: 142200140.000000, IP Bytes W CSB: 41598472.000000, IS_MAX: 0, Tot. Cov: 152.000000, ESBytes WO CSB: 100013392.000000, STDBytes WO CSB: 136109992.000000, IP Bytes WO CSB: 41598472.000000, IS_MAX: 1
Coverage: 20, Tot. Cov: 418.000000, Cluster: 26/54, ESBytes W CSB: 81985480.000000, STDBytes W CSB: 133547280.000000, IP Bytes W CSB: 42751000.000000, IS_MAX: 0, Tot. Cov: 421.000000, ESBytes WO CSB: 86439878.000000, STDBytes WO CSB: 132521028.000000, IP Bytes WO CSB: 42751000.000000, IS_MAX: 1
Coverage: 20, Tot. Cov: 1502.000000, Cluster: 27/54, ESBytes W CSB: 576132906.000000, STDBytes W CSB: 774214056.000000, IP Bytes W CSB: 275471240.000000, IS_MAX: 0, Tot. Cov: 1526.000000, ESBytes WO CSB: 529171548.000000, STDBytes WO CSB: 715699448.000000, IP Bytes WO CSB: 275471240.000000, IS_MAX: 1
Coverage: 20, Tot. Cov: 43.000000, Cluster: 28/54, ESBytes W CSB: 52792348.000000, STDBytes W CSB: 71595248.000000, IP Bytes W CSB: 22971284.000000, IS_MAX: 0, Tot. Cov: 45.000000, ESBytes WO CSB: 51667980.000000, STDBytes WO CSB: 77417680.000000, IP Bytes WO CSB: 22971284.000000, IS_MAX: 1
Coverage: 20, Tot. Cov: 75.000000, Cluster: 29/54, ESBytes W CSB: 32719220.000000, STDBytes W CSB: 43264220.000000, IP Bytes W CSB: 17183912.000000, IS_MAX: 0, Tot. Cov: 50.000000, ESBytes WO CSB: 39436322.000000, STDBytes WO CSB: 55376872.000000, IP Bytes WO CSB: 17183912.000000, IS_MAX: 1
Coverage: 20, Tot. Cov: 21.000000, Cluster: 30/54, ESBytes W CSB: 31067104.000000, STDBytes W CSB: 41523004.000000, IP Bytes W CSB: 13587204.000000, IS_MAX: 0, Tot. Cov: 20.000000, ESBytes WO CSB: 32036064.000000, STDBytes WO CSB: 45691264.000000, IP Bytes WO CSB: 13587204.000000, IS_MAX: 1
Coverage: 20, Tot. Cov: 21.000000, Cluster: 31/54, ESBytes W CSB: 30854120.000000, STDBytes W CSB: 43061220.000000, IP Bytes W CSB: 12782944.000000, IS_MAX: 0, Tot. Cov: 23.000000, ESBytes WO CSB: 30044710.000000, STDBytes WO CSB: 42810160.000000, IP Bytes WO CSB: 12782944.000000, IS_MAX: 1
Coverage: 20, Tot. Cov: 20.000000, Cluster: 32/54, ESBytes W CSB: 16575166.000000, STDBytes W CSB: 22029616.000000, IP Bytes W CSB: 7089528.000000, IS_MAX: 0, Tot. Cov: 28.000000, ESBytes WO CSB: 14729378.000000, STDBytes WO CSB: 20756828.000000, IP Bytes WO CSB: 7089528.000000, IS_MAX: 1
Coverage: 20, Tot. Cov: 1115.000000, Cluster: 33/54, ESBytes W CSB: 341717320.000000, STDBytes W CSB: 531722520.000000, IP Bytes W CSB: 165817880.000000, IS_MAX: 0, Tot. Cov: 1129.000000, ESBytes WO CSB: 322175636.000000, STDBytes WO CSB: 501994236.000000, IP Bytes WO CSB: 165817880.000000, IS_MAX: 1
Coverage: 20, Tot. Cov: 35.000000, Cluster: 34/54, ESBytes W CSB: 14495890.000000, STDBytes W CSB: 17688040.000000, IP Bytes W CSB: 8173620.000000, IS_MAX: 0, Tot. Cov: 35.000000, ESBytes WO CSB: 15231198.000000, STDBytes WO CSB: 19265548.000000, IP Bytes WO CSB: 8173620.000000, IS_MAX: 1
Coverage: 20, Tot. Cov: 1275.000000, Cluster: 35/54, ESBytes W CSB: 707488864.000000, STDBytes W CSB: 957597464.000000, IP Bytes W CSB: 363462628.000000, IS_MAX: 0, Tot. Cov: 1258.000000, ESBytes WO CSB: 695685868.000000, STDBytes WO CSB: 909570468.000000, IP Bytes WO CSB: 363462628.000000, IS_MAX: 1
Coverage: 20, Tot. Cov: 1543.000000, Cluster: 36/54, ESBytes W CSB: 972279332.000000, STDBytes W CSB: 1393428032.000000, IP Bytes W CSB: 508971204.000000, IS_MAX: 0, Tot. Cov: 1494.000000, ESBytes WO CSB: 1003276502.000000, STDBytes WO CSB: 1354081952.000000, IP Bytes WO CSB: 508971204.000000, IS_MAX: 1
Coverage: 20, Tot. Cov: 23.000000, Cluster: 37/54, ESBytes W CSB: 52136154.000000, STDBytes W CSB: 69625404.000000, IP Bytes W CSB: 23468756.000000, IS_MAX: 0, Tot. Cov: 22.000000, ESBytes WO CSB: 53419018.000000, STDBytes WO CSB: 73368968.000000, IP Bytes WO CSB: 23468756.000000, IS_MAX: 1
Coverage: 20, Tot. Cov: 114.000000, Cluster: 38/54, ESBytes W CSB: 189559454.000000, STDBytes W CSB: 245825304.000000, IP Bytes W CSB: 91481860.000000, IS_MAX: 0, Tot. Cov: 89.000000, ESBytes WO CSB: 217562998.000000, STDBytes WO CSB: 290169348.000000, IP Bytes WO CSB: 91481860.000000, IS_MAX: 1
Coverage: 20, Tot. Cov: 90.000000, Cluster: 39/54, ESBytes W CSB: 598460092.000000, STDBytes W CSB: 807122592.000000, IP Bytes W CSB: 269562720.000000, IS_MAX: 0, Tot. Cov: 96.000000, ESBytes WO CSB: 588886254.000000, STDBytes WO CSB: 806129904.000000, IP Bytes WO CSB: 269562720.000000, IS_MAX: 1
Coverage: 20, Tot. Cov: 701.000000, Cluster: 40/54, ESBytes W CSB: 1424821174.000000, STDBytes W CSB: 1873095924.000000, IP Bytes W CSB: 734390072.000000, IS_MAX: 0, Tot. Cov: 700.000000, ESBytes WO CSB: 1372316946.000000, STDBytes WO CSB: 1786604796.000000, IP Bytes WO CSB: 734390072.000000, IS_MAX: 1
Coverage: 20, Tot. Cov: 537.000000, Cluster: 41/54, ESBytes W CSB: 1542598812.000000, STDBytes W CSB: 1940909912.000000, IP Bytes W CSB: 823994016.000000, IS_MAX: 0, Tot. Cov: 524.000000, ESBytes WO CSB: 1513363336.000000, STDBytes WO CSB: 1969449736.000000, IP Bytes WO CSB: 823994016.000000, IS_MAX: 1
Coverage: 20, Tot. Cov: 100.000000, Cluster: 42/54, ESBytes W CSB: 490083764.000000, STDBytes W CSB: 632069364.000000, IP Bytes W CSB: 236191896.000000, IS_MAX: 0, Tot. Cov: 98.000000, ESBytes WO CSB: 488261154.000000, STDBytes WO CSB: 628122204.000000, IP Bytes WO CSB: 236191896.000000, IS_MAX: 1
Coverage: 20, Tot. Cov: 43.000000, Cluster: 43/54, ESBytes W CSB: 333369646.000000, STDBytes W CSB: 467404996.000000, IP Bytes W CSB: 138018848.000000, IS_MAX: 0, Tot. Cov: 43.000000, ESBytes WO CSB: 332644086.000000, STDBytes WO CSB: 468751036.000000, IP Bytes WO CSB: 138018848.000000, IS_MAX: 1
Coverage: 20, Tot. Cov: 43.000000, Cluster: 44/54, ESBytes W CSB: 363126960.000000, STDBytes W CSB: 509382960.000000, IP Bytes W CSB: 145790332.000000, IS_MAX: 0, Tot. Cov: 42.000000, ESBytes WO CSB: 385983970.000000, STDBytes WO CSB: 549672920.000000, IP Bytes WO CSB: 145790332.000000, IS_MAX: 1
Coverage: 20, Tot. Cov: 168.000000, Cluster: 45/54, ESBytes W CSB: 552175636.000000, STDBytes W CSB: 659387936.000000, IP Bytes W CSB: 331004556.000000, IS_MAX: 0, Tot. Cov: 176.000000, ESBytes WO CSB: 544717002.000000, STDBytes WO CSB: 645590952.000000, IP Bytes WO CSB: 331004556.000000, IS_MAX: 1
Coverage: 20, Tot. Cov: 23.000000, Cluster: 46/54, ESBytes W CSB: 222156684.000000, STDBytes W CSB: 289733384.000000, IP Bytes W CSB: 103037172.000000, IS_MAX: 0, Tot. Cov: 28.000000, ESBytes WO CSB: 208937990.000000, STDBytes WO CSB: 270936440.000000, IP Bytes WO CSB: 103037172.000000, IS_MAX: 1
Coverage: 20, Tot. Cov: 546.000000, Cluster: 47/54, ESBytes W CSB: 2565888406.000000, STDBytes W CSB: 3323134956.000000, IP Bytes W CSB: 1680317448.000000, IS_MAX: 0, Tot. Cov: 553.000000, ESBytes WO CSB: 2677860144.000000, STDBytes WO CSB: 3341385144.000000, IP Bytes WO CSB: 1680317448.000000, IS_MAX: 1
Coverage: 20, Tot. Cov: 119.000000, Cluster: 48/54, ESBytes W CSB: 563459992.000000, STDBytes W CSB: 724695492.000000, IP Bytes W CSB: 293134016.000000, IS_MAX: 0, Tot. Cov: 119.000000, ESBytes WO CSB: 548827032.000000, STDBytes WO CSB: 694388832.000000, IP Bytes WO CSB: 293134016.000000, IS_MAX: 1
Coverage: 20, Tot. Cov: 274.000000, Cluster: 49/54, ESBytes W CSB: 1069124012.000000, STDBytes W CSB: 1457767512.000000, IP Bytes W CSB: 535325796.000000, IS_MAX: 0, Tot. Cov: 278.000000, ESBytes WO CSB: 1045059644.000000, STDBytes WO CSB: 1439812344.000000, IP Bytes WO CSB: 535325796.000000, IS_MAX: 1
Coverage: 20, Tot. Cov: 237.000000, Cluster: 50/54, ESBytes W CSB: 577470458.000000, STDBytes W CSB: 762835008.000000, IP Bytes W CSB: 287534220.000000, IS_MAX: 0, Tot. Cov: 229.000000, ESBytes WO CSB: 585726072.000000, STDBytes WO CSB: 768597972.000000, IP Bytes WO CSB: 287534220.000000, IS_MAX: 1
Coverage: 20, Tot. Cov: 248.000000, Cluster: 51/54, ESBytes W CSB: 676676318.000000, STDBytes W CSB: 843325668.000000, IP Bytes W CSB: 355621208.000000, IS_MAX: 0, Tot. Cov: 247.000000, ESBytes WO CSB: 643403794.000000, STDBytes WO CSB: 832774044.000000, IP Bytes WO CSB: 355621208.000000, IS_MAX: 1
Coverage: 20, Tot. Cov: 118.000000, Cluster: 52/54, ESBytes W CSB: 685597458.000000, STDBytes W CSB: 908771808.000000, IP Bytes W CSB: 307066040.000000, IS_MAX: 0, Tot. Cov: 127.000000, ESBytes WO CSB: 648742972.000000, STDBytes WO CSB: 847515072.000000, IP Bytes WO CSB: 307066040.000000, IS_MAX: 1
Coverage: 20, Tot. Cov: 1385.000000, Cluster: 53/54, ESBytes W CSB: 7853738706.000000, STDBytes W CSB: 15693929256.000000, IP Bytes W CSB: 4574251128.000000, IS_MAX: 0, Tot. Cov: 1394.000000, ESBytes WO CSB: 8206172642.000000, STDBytes WO CSB: 15745880592.000000, IP Bytes WO CSB: 4574251128.000000, IS_MAX: 1
