Coverage: 25, Tot. Cov: 164.000000, Cluster: 1/54, ESBytes WO CSB: 32397050.000000, STDBytes WO CSB: 48060000.000000, IP Bytes WO CSB: 17003096.000000, IS_MAX: 0, Tot. Cov: 164.000000, ESBytes WO CSB: 31376250.000000, STDBytes WO CSB: 46880000.000000, IP Bytes WO CSB: 16876824.000000, IS_MAX: 1
Coverage: 25, Tot. Cov: 1110.000000, Cluster: 2/54, ESBytes WO CSB: 100222000.000000, STDBytes WO CSB: 161220000.000000, IP Bytes WO CSB: 48807732.000000, IS_MAX: 0, Tot. Cov: 1136.000000, ESBytes WO CSB: 101415750.000000, STDBytes WO CSB: 163080000.000000, IP Bytes WO CSB: 50530908.000000, IS_MAX: 1
Coverage: 25, Tot. Cov: 712.000000, Cluster: 3/54, ESBytes WO CSB: 138461600.000000, STDBytes WO CSB: 275962500.000000, IP Bytes WO CSB: 61832500.000000, IS_MAX: 0, Tot. Cov: 713.000000, ESBytes WO CSB: 123062050.000000, STDBytes WO CSB: 246600000.000000, IP Bytes WO CSB: 62075864.000000, IS_MAX: 1
Coverage: 25, Tot. Cov: 782.000000, Cluster: 4/54, ESBytes WO CSB: 41369550.000000, STDBytes WO CSB: 99000000.000000, IP Bytes WO CSB: 20407836.000000, IS_MAX: 0, Tot. Cov: 777.000000, ESBytes WO CSB: 43842500.000000, STDBytes WO CSB: 104800000.000000, IP Bytes WO CSB: 20139328.000000, IS_MAX: 1
Coverage: 25, Tot. Cov: 2049.000000, Cluster: 5/54, ESBytes WO CSB: 2485034200.000000, STDBytes WO CSB: 3925845000.000000, IP Bytes WO CSB: 1315022536.000000, IS_MAX: 0, Tot. Cov: 2017.000000, ESBytes WO CSB: 2181240150.000000, STDBytes WO CSB: 3522435000.000000, IP Bytes WO CSB: 1286475848.000000, IS_MAX: 1
Coverage: 25, Tot. Cov: 254.000000, Cluster: 6/54, ESBytes WO CSB: 301022800.000000, STDBytes WO CSB: 391620000.000000, IP Bytes WO CSB: 202309740.000000, IS_MAX: 0, Tot. Cov: 228.000000, ESBytes WO CSB: 274150050.000000, STDBytes WO CSB: 386295000.000000, IP Bytes WO CSB: 181592084.000000, IS_MAX: 1
Coverage: 25, Tot. Cov: 1506.000000, Cluster: 7/54, ESBytes WO CSB: 1993211350.000000, STDBytes WO CSB: 2694640000.000000, IP Bytes WO CSB: 1248603008.000000, IS_MAX: 0, Tot. Cov: 1504.000000, ESBytes WO CSB: 1904751750.000000, STDBytes WO CSB: 2469920000.000000, IP Bytes WO CSB: 1248370948.000000, IS_MAX: 1
Coverage: 25, Tot. Cov: 75.000000, Cluster: 8/54, ESBytes WO CSB: 130456450.000000, STDBytes WO CSB: 191880000.000000, IP Bytes WO CSB: 79459596.000000, IS_MAX: 0, Tot. Cov: 75.000000, ESBytes WO CSB: 128014900.000000, STDBytes WO CSB: 183800000.000000, IP Bytes WO CSB: 80019532.000000, IS_MAX: 1
Coverage: 25, Tot. Cov: 123.000000, Cluster: 9/54, ESBytes WO CSB: 197360200.000000, STDBytes WO CSB: 273120000.000000, IP Bytes WO CSB: 134633856.000000, IS_MAX: 0, Tot. Cov: 111.000000, ESBytes WO CSB: 183619750.000000, STDBytes WO CSB: 277980000.000000, IP Bytes WO CSB: 121868508.000000, IS_MAX: 1
Coverage: 25, Tot. Cov: 192.000000, Cluster: 10/54, ESBytes WO CSB: 306141850.000000, STDBytes WO CSB: 462375000.000000, IP Bytes WO CSB: 215307424.000000, IS_MAX: 0, Tot. Cov: 174.000000, ESBytes WO CSB: 284962350.000000, STDBytes WO CSB: 450400000.000000, IP Bytes WO CSB: 194424400.000000, IS_MAX: 1
Coverage: 25, Tot. Cov: 29.000000, Cluster: 11/54, ESBytes WO CSB: 43539400.000000, STDBytes WO CSB: 77402500.000000, IP Bytes WO CSB: 35936424.000000, IS_MAX: 0, Tot. Cov: 25.000000, ESBytes WO CSB: 39152700.000000, STDBytes WO CSB: 84217500.000000, IP Bytes WO CSB: 30950880.000000, IS_MAX: 1
Coverage: 25, Tot. Cov: 763.000000, Cluster: 12/54, ESBytes WO CSB: 429745900.000000, STDBytes WO CSB: 595040000.000000, IP Bytes WO CSB: 237965556.000000, IS_MAX: 0, Tot. Cov: 717.000000, ESBytes WO CSB: 377585450.000000, STDBytes WO CSB: 555240000.000000, IP Bytes WO CSB: 218553816.000000, IS_MAX: 1
Coverage: 25, Tot. Cov: 124.000000, Cluster: 13/54, ESBytes WO CSB: 80220700.000000, STDBytes WO CSB: 115815000.000000, IP Bytes WO CSB: 52672552.000000, IS_MAX: 0, Tot. Cov: 111.000000, ESBytes WO CSB: 76361600.000000, STDBytes WO CSB: 119415000.000000, IP Bytes WO CSB: 47217504.000000, IS_MAX: 1
Coverage: 25, Tot. Cov: 196.000000, Cluster: 14/54, ESBytes WO CSB: 105782500.000000, STDBytes WO CSB: 144712500.000000, IP Bytes WO CSB: 66388320.000000, IS_MAX: 0, Tot. Cov: 194.000000, ESBytes WO CSB: 106710800.000000, STDBytes WO CSB: 153250000.000000, IP Bytes WO CSB: 65645892.000000, IS_MAX: 1
Coverage: 25, Tot. Cov: 449.000000, Cluster: 15/54, ESBytes WO CSB: 374979950.000000, STDBytes WO CSB: 559925000.000000, IP Bytes WO CSB: 182375956.000000, IS_MAX: 0, Tot. Cov: 444.000000, ESBytes WO CSB: 309139900.000000, STDBytes WO CSB: 459325000.000000, IP Bytes WO CSB: 179863284.000000, IS_MAX: 1
Coverage: 25, Tot. Cov: 109.000000, Cluster: 16/54, ESBytes WO CSB: 49727850.000000, STDBytes WO CSB: 71602500.000000, IP Bytes WO CSB: 35201616.000000, IS_MAX: 0, Tot. Cov: 98.000000, ESBytes WO CSB: 45272100.000000, STDBytes WO CSB: 72832500.000000, IP Bytes WO CSB: 32031716.000000, IS_MAX: 1
Coverage: 25, Tot. Cov: 61.000000, Cluster: 17/54, ESBytes WO CSB: 40133750.000000, STDBytes WO CSB: 68150000.000000, IP Bytes WO CSB: 22564356.000000, IS_MAX: 0, Tot. Cov: 57.000000, ESBytes WO CSB: 34344100.000000, STDBytes WO CSB: 64215000.000000, IP Bytes WO CSB: 21039848.000000, IS_MAX: 1
Coverage: 25, Tot. Cov: 75.000000, Cluster: 18/54, ESBytes WO CSB: 39234250.000000, STDBytes WO CSB: 56620000.000000, IP Bytes WO CSB: 24883796.000000, IS_MAX: 0, Tot. Cov: 71.000000, ESBytes WO CSB: 36613400.000000, STDBytes WO CSB: 59390000.000000, IP Bytes WO CSB: 23522960.000000, IS_MAX: 1
Coverage: 25, Tot. Cov: 26.000000, Cluster: 19/54, ESBytes WO CSB: 13668800.000000, STDBytes WO CSB: 27090000.000000, IP Bytes WO CSB: 8797252.000000, IS_MAX: 0, Tot. Cov: 29.000000, ESBytes WO CSB: 15607750.000000, STDBytes WO CSB: 29807500.000000, IP Bytes WO CSB: 9844208.000000, IS_MAX: 1
Coverage: 25, Tot. Cov: 308.000000, Cluster: 20/54, ESBytes WO CSB: 235576100.000000, STDBytes WO CSB: 322927500.000000, IP Bytes WO CSB: 134482528.000000, IS_MAX: 0, Tot. Cov: 293.000000, ESBytes WO CSB: 209409900.000000, STDBytes WO CSB: 298497500.000000, IP Bytes WO CSB: 127552432.000000, IS_MAX: 1
Coverage: 25, Tot. Cov: 1610.000000, Cluster: 21/54, ESBytes WO CSB: 1647033900.000000, STDBytes WO CSB: 2466187500.000000, IP Bytes WO CSB: 846967680.000000, IS_MAX: 0, Tot. Cov: 1651.000000, ESBytes WO CSB: 1407207050.000000, STDBytes WO CSB: 2165100000.000000, IP Bytes WO CSB: 876135260.000000, IS_MAX: 1
Coverage: 25, Tot. Cov: 186.000000, Cluster: 22/54, ESBytes WO CSB: 179971950.000000, STDBytes WO CSB: 298012500.000000, IP Bytes WO CSB: 105139068.000000, IS_MAX: 0, Tot. Cov: 193.000000, ESBytes WO CSB: 177009650.000000, STDBytes WO CSB: 281262500.000000, IP Bytes WO CSB: 110158952.000000, IS_MAX: 1
Coverage: 25, Tot. Cov: 96.000000, Cluster: 23/54, ESBytes WO CSB: 18688050.000000, STDBytes WO CSB: 31102500.000000, IP Bytes WO CSB: 12007548.000000, IS_MAX: 0, Tot. Cov: 120.000000, ESBytes WO CSB: 24946850.000000, STDBytes WO CSB: 34500000.000000, IP Bytes WO CSB: 15025776.000000, IS_MAX: 1
Coverage: 25, Tot. Cov: 126.000000, Cluster: 24/54, ESBytes WO CSB: 30199250.000000, STDBytes WO CSB: 42517500.000000, IP Bytes WO CSB: 13285940.000000, IS_MAX: 0, Tot. Cov: 136.000000, ESBytes WO CSB: 31709550.000000, STDBytes WO CSB: 41797500.000000, IP Bytes WO CSB: 14693824.000000, IS_MAX: 1
Coverage: 25, Tot. Cov: 170.000000, Cluster: 25/54, ESBytes WO CSB: 80754450.000000, STDBytes WO CSB: 117700000.000000, IP Bytes WO CSB: 33868340.000000, IS_MAX: 0, Tot. Cov: 163.000000, ESBytes WO CSB: 69648000.000000, STDBytes WO CSB: 102910000.000000, IP Bytes WO CSB: 32363484.000000, IS_MAX: 1
Coverage: 25, Tot. Cov: 418.000000, Cluster: 26/54, ESBytes WO CSB: 65663200.000000, STDBytes WO CSB: 117225000.000000, IP Bytes WO CSB: 37310240.000000, IS_MAX: 0, Tot. Cov: 421.000000, ESBytes WO CSB: 71706350.000000, STDBytes WO CSB: 117787500.000000, IP Bytes WO CSB: 37839824.000000, IS_MAX: 1
Coverage: 25, Tot. Cov: 1524.000000, Cluster: 27/54, ESBytes WO CSB: 530571100.000000, STDBytes WO CSB: 733280000.000000, IP Bytes WO CSB: 257009596.000000, IS_MAX: 0, Tot. Cov: 1545.000000, ESBytes WO CSB: 486029200.000000, STDBytes WO CSB: 670640000.000000, IP Bytes WO CSB: 261867592.000000, IS_MAX: 1
Coverage: 25, Tot. Cov: 52.000000, Cluster: 28/54, ESBytes WO CSB: 16393450.000000, STDBytes WO CSB: 32595000.000000, IP Bytes WO CSB: 11892912.000000, IS_MAX: 0, Tot. Cov: 56.000000, ESBytes WO CSB: 17793100.000000, STDBytes WO CSB: 39470000.000000, IP Bytes WO CSB: 12771172.000000, IS_MAX: 1
Coverage: 25, Tot. Cov: 75.000000, Cluster: 29/54, ESBytes WO CSB: 19310000.000000, STDBytes WO CSB: 29855000.000000, IP Bytes WO CSB: 12714172.000000, IS_MAX: 0, Tot. Cov: 61.000000, ESBytes WO CSB: 16157050.000000, STDBytes WO CSB: 30975000.000000, IP Bytes WO CSB: 10363904.000000, IS_MAX: 1
Coverage: 25, Tot. Cov: 27.000000, Cluster: 30/54, ESBytes WO CSB: 9588450.000000, STDBytes WO CSB: 18112500.000000, IP Bytes WO CSB: 7324044.000000, IS_MAX: 0, Tot. Cov: 26.000000, ESBytes WO CSB: 9657200.000000, STDBytes WO CSB: 21257500.000000, IP Bytes WO CSB: 7051960.000000, IS_MAX: 1
Coverage: 25, Tot. Cov: 27.000000, Cluster: 31/54, ESBytes WO CSB: 11251950.000000, STDBytes WO CSB: 21700000.000000, IP Bytes WO CSB: 6828416.000000, IS_MAX: 0, Tot. Cov: 26.000000, ESBytes WO CSB: 10299150.000000, STDBytes WO CSB: 21920000.000000, IP Bytes WO CSB: 6569204.000000, IS_MAX: 1
Coverage: 25, Tot. Cov: 29.000000, Cluster: 32/54, ESBytes WO CSB: 5203450.000000, STDBytes WO CSB: 9240000.000000, IP Bytes WO CSB: 4059332.000000, IS_MAX: 0, Tot. Cov: 28.000000, ESBytes WO CSB: 5190050.000000, STDBytes WO CSB: 11217500.000000, IP Bytes WO CSB: 3909752.000000, IS_MAX: 1
Coverage: 25, Tot. Cov: 1163.000000, Cluster: 33/54, ESBytes WO CSB: 301402400.000000, STDBytes WO CSB: 501420000.000000, IP Bytes WO CSB: 157242016.000000, IS_MAX: 0, Tot. Cov: 1158.000000, ESBytes WO CSB: 285902650.000000, STDBytes WO CSB: 470700000.000000, IP Bytes WO CSB: 156241620.000000, IS_MAX: 1
Coverage: 25, Tot. Cov: 35.000000, Cluster: 34/54, ESBytes WO CSB: 7107850.000000, STDBytes WO CSB: 10300000.000000, IP Bytes WO CSB: 5710940.000000, IS_MAX: 0, Tot. Cov: 35.000000, ESBytes WO CSB: 7848150.000000, STDBytes WO CSB: 11882500.000000, IP Bytes WO CSB: 5712604.000000, IS_MAX: 1
Coverage: 25, Tot. Cov: 1307.000000, Cluster: 35/54, ESBytes WO CSB: 587894900.000000, STDBytes WO CSB: 849940000.000000, IP Bytes WO CSB: 327117624.000000, IS_MAX: 0, Tot. Cov: 1304.000000, ESBytes WO CSB: 563758100.000000, STDBytes WO CSB: 797510000.000000, IP Bytes WO CSB: 325427056.000000, IS_MAX: 1
Coverage: 25, Tot. Cov: 1568.000000, Cluster: 36/54, ESBytes WO CSB: 769862300.000000, STDBytes WO CSB: 1190170000.000000, IP Bytes WO CSB: 442765840.000000, IS_MAX: 0, Tot. Cov: 1513.000000, ESBytes WO CSB: 734142200.000000, STDBytes WO CSB: 1082900000.000000, IP Bytes WO CSB: 422981236.000000, IS_MAX: 1
Coverage: 25, Tot. Cov: 26.000000, Cluster: 37/54, ESBytes WO CSB: 15910800.000000, STDBytes WO CSB: 31740000.000000, IP Bytes WO CSB: 12140388.000000, IS_MAX: 0, Tot. Cov: 28.000000, ESBytes WO CSB: 18085500.000000, STDBytes WO CSB: 34895000.000000, IP Bytes WO CSB: 13086404.000000, IS_MAX: 1
Coverage: 25, Tot. Cov: 114.000000, Cluster: 38/54, ESBytes WO CSB: 106934150.000000, STDBytes WO CSB: 163200000.000000, IP Bytes WO CSB: 63940092.000000, IS_MAX: 0, Tot. Cov: 96.000000, ESBytes WO CSB: 92073100.000000, STDBytes WO CSB: 162307500.000000, IP Bytes WO CSB: 52182424.000000, IS_MAX: 1
Coverage: 25, Tot. Cov: 104.000000, Cluster: 39/54, ESBytes WO CSB: 244417450.000000, STDBytes WO CSB: 444577500.000000, IP Bytes WO CSB: 164245772.000000, IS_MAX: 0, Tot. Cov: 101.000000, ESBytes WO CSB: 238795150.000000, STDBytes WO CSB: 439665000.000000, IP Bytes WO CSB: 159064536.000000, IS_MAX: 1
Coverage: 25, Tot. Cov: 736.000000, Cluster: 40/54, ESBytes WO CSB: 1058220650.000000, STDBytes WO CSB: 1560880000.000000, IP Bytes WO CSB: 622644280.000000, IS_MAX: 0, Tot. Cov: 738.000000, ESBytes WO CSB: 975142300.000000, STDBytes WO CSB: 1383280000.000000, IP Bytes WO CSB: 622386984.000000, IS_MAX: 1
Coverage: 25, Tot. Cov: 561.000000, Cluster: 41/54, ESBytes WO CSB: 1111357500.000000, STDBytes WO CSB: 1465230000.000000, IP Bytes WO CSB: 693376012.000000, IS_MAX: 0, Tot. Cov: 563.000000, ESBytes WO CSB: 1054925800.000000, STDBytes WO CSB: 1407217500.000000, IP Bytes WO CSB: 697830248.000000, IS_MAX: 1
Coverage: 25, Tot. Cov: 100.000000, Cluster: 42/54, ESBytes WO CSB: 234806900.000000, STDBytes WO CSB: 376792500.000000, IP Bytes WO CSB: 151099608.000000, IS_MAX: 0, Tot. Cov: 98.000000, ESBytes WO CSB: 222733950.000000, STDBytes WO CSB: 362595000.000000, IP Bytes WO CSB: 147682828.000000, IS_MAX: 1
Coverage: 25, Tot. Cov: 58.000000, Cluster: 43/54, ESBytes WO CSB: 106250900.000000, STDBytes WO CSB: 215190000.000000, IP Bytes WO CSB: 74024296.000000, IS_MAX: 0, Tot. Cov: 54.000000, ESBytes WO CSB: 97036450.000000, STDBytes WO CSB: 215610000.000000, IP Bytes WO CSB: 68292104.000000, IS_MAX: 1
Coverage: 25, Tot. Cov: 52.000000, Cluster: 44/54, ESBytes WO CSB: 82416800.000000, STDBytes WO CSB: 217860000.000000, IP Bytes WO CSB: 62471944.000000, IS_MAX: 0, Tot. Cov: 64.000000, ESBytes WO CSB: 122398800.000000, STDBytes WO CSB: 236115000.000000, IP Bytes WO CSB: 83543960.000000, IS_MAX: 1
Coverage: 25, Tot. Cov: 180.000000, Cluster: 45/54, ESBytes WO CSB: 379388900.000000, STDBytes WO CSB: 472440000.000000, IP Bytes WO CSB: 285312440.000000, IS_MAX: 0, Tot. Cov: 176.000000, ESBytes WO CSB: 390016050.000000, STDBytes WO CSB: 490890000.000000, IP Bytes WO CSB: 279437572.000000, IS_MAX: 1
Coverage: 25, Tot. Cov: 25.000000, Cluster: 46/54, ESBytes WO CSB: 60069300.000000, STDBytes WO CSB: 123485000.000000, IP Bytes WO CSB: 51408496.000000, IS_MAX: 0, Tot. Cov: 28.000000, ESBytes WO CSB: 72564050.000000, STDBytes WO CSB: 134562500.000000, IP Bytes WO CSB: 57579192.000000, IS_MAX: 1
Coverage: 25, Tot. Cov: 551.000000, Cluster: 47/54, ESBytes WO CSB: 2010923600.000000, STDBytes WO CSB: 2766450000.000000, IP Bytes WO CSB: 1503719472.000000, IS_MAX: 0, Tot. Cov: 553.000000, ESBytes WO CSB: 2176005000.000000, STDBytes WO CSB: 2839530000.000000, IP Bytes WO CSB: 1513032400.000000, IS_MAX: 1
Coverage: 25, Tot. Cov: 124.000000, Cluster: 48/54, ESBytes WO CSB: 375200450.000000, STDBytes WO CSB: 526815000.000000, IP Bytes WO CSB: 234932396.000000, IS_MAX: 0, Tot. Cov: 122.000000, ESBytes WO CSB: 354872850.000000, STDBytes WO CSB: 495930000.000000, IP Bytes WO CSB: 231138988.000000, IS_MAX: 1
Coverage: 25, Tot. Cov: 278.000000, Cluster: 49/54, ESBytes WO CSB: 620027450.000000, STDBytes WO CSB: 1024660000.000000, IP Bytes WO CSB: 386358372.000000, IS_MAX: 0, Tot. Cov: 282.000000, ESBytes WO CSB: 607320050.000000, STDBytes WO CSB: 1005252500.000000, IP Bytes WO CSB: 393370304.000000, IS_MAX: 1
Coverage: 25, Tot. Cov: 246.000000, Cluster: 50/54, ESBytes WO CSB: 373528300.000000, STDBytes WO CSB: 561810000.000000, IP Bytes WO CSB: 217232024.000000, IS_MAX: 0, Tot. Cov: 261.000000, ESBytes WO CSB: 381971750.000000, STDBytes WO CSB: 567090000.000000, IP Bytes WO CSB: 234707420.000000, IS_MAX: 1
Coverage: 25, Tot. Cov: 258.000000, Cluster: 51/54, ESBytes WO CSB: 499032000.000000, STDBytes WO CSB: 698190000.000000, IP Bytes WO CSB: 296110504.000000, IS_MAX: 0, Tot. Cov: 256.000000, ESBytes WO CSB: 446726300.000000, STDBytes WO CSB: 648600000.000000, IP Bytes WO CSB: 294146568.000000, IS_MAX: 1
Coverage: 25, Tot. Cov: 137.000000, Cluster: 52/54, ESBytes WO CSB: 321663750.000000, STDBytes WO CSB: 504760000.000000, IP Bytes WO CSB: 198694228.000000, IS_MAX: 0, Tot. Cov: 140.000000, ESBytes WO CSB: 312060000.000000, STDBytes WO CSB: 481230000.000000, IP Bytes WO CSB: 204035716.000000, IS_MAX: 1
Coverage: 25, Tot. Cov: 1476.000000, Cluster: 53/54, ESBytes WO CSB: 7119223800.000000, STDBytes WO CSB: 14952075000.000000, IP Bytes WO CSB: 4398096680.000000, IS_MAX: 0, Tot. Cov: 1416.000000, ESBytes WO CSB: 7198527550.000000, STDBytes WO CSB: 15087825000.000000, IP Bytes WO CSB: 4279000120.000000, IS_MAX: 1
