Coverage: 30, Tot. Cov: 190.000000, Cluster: 1/54, ESBytes W CSB: 42165484.000000, STDBytes W CSB: 55507784.000000, IP Bytes W CSB: 21133108.000000, IS_MAX: 0, Tot. Cov: 168.000000, ESBytes WO CSB: 44214156.000000, STDBytes WO CSB: 59242856.000000, IP Bytes WO CSB: 21133108.000000, IS_MAX: 1
Coverage: 30, Tot. Cov: 1147.000000, Cluster: 2/54, ESBytes W CSB: 123038964.000000, STDBytes W CSB: 188137164.000000, IP Bytes W CSB: 55780504.000000, IS_MAX: 0, Tot. Cov: 1137.000000, ESBytes WO CSB: 116349864.000000, STDBytes WO CSB: 176164764.000000, IP Bytes WO CSB: 55780504.000000, IS_MAX: 1
Coverage: 30, Tot. Cov: 725.000000, Cluster: 3/54, ESBytes W CSB: 163685400.000000, STDBytes W CSB: 320701800.000000, IP Bytes W CSB: 69495728.000000, IS_MAX: 0, Tot. Cov: 717.000000, ESBytes WO CSB: 146923240.000000, STDBytes WO CSB: 278549640.000000, IP Bytes WO CSB: 69495728.000000, IS_MAX: 1
Coverage: 30, Tot. Cov: 779.000000, Cluster: 4/54, ESBytes W CSB: 46580336.000000, STDBytes W CSB: 106390936.000000, IP Bytes W CSB: 21560868.000000, IS_MAX: 0, Tot. Cov: 778.000000, ESBytes WO CSB: 46475740.000000, STDBytes WO CSB: 100834340.000000, IP Bytes WO CSB: 21560868.000000, IS_MAX: 1
Coverage: 30, Tot. Cov: 2060.000000, Cluster: 5/54, ESBytes W CSB: 2626594576.000000, STDBytes W CSB: 4097091876.000000, IP Bytes W CSB: 1364130892.000000, IS_MAX: 0, Tot. Cov: 2051.000000, ESBytes WO CSB: 2397900240.000000, STDBytes WO CSB: 3808620540.000000, IP Bytes WO CSB: 1364130892.000000, IS_MAX: 1
Coverage: 30, Tot. Cov: 262.000000, Cluster: 6/54, ESBytes W CSB: 424062296.000000, STDBytes W CSB: 514108596.000000, IP Bytes W CSB: 245742048.000000, IS_MAX: 0, Tot. Cov: 262.000000, ESBytes WO CSB: 411484480.000000, STDBytes WO CSB: 496875780.000000, IP Bytes WO CSB: 245742048.000000, IS_MAX: 1
Coverage: 30, Tot. Cov: 1527.000000, Cluster: 7/54, ESBytes W CSB: 2297662236.000000, STDBytes W CSB: 3043877536.000000, IP Bytes W CSB: 1364328900.000000, IS_MAX: 0, Tot. Cov: 1523.000000, ESBytes WO CSB: 2200272392.000000, STDBytes WO CSB: 2784558392.000000, IP Bytes WO CSB: 1364328900.000000, IS_MAX: 1
Coverage: 30, Tot. Cov: 81.000000, Cluster: 8/54, ESBytes W CSB: 216371724.000000, STDBytes W CSB: 267940324.000000, IP Bytes W CSB: 111160596.000000, IS_MAX: 0, Tot. Cov: 82.000000, ESBytes WO CSB: 210872104.000000, STDBytes WO CSB: 259084704.000000, IP Bytes WO CSB: 111160596.000000, IS_MAX: 1
Coverage: 30, Tot. Cov: 130.000000, Cluster: 9/54, ESBytes W CSB: 290225760.000000, STDBytes W CSB: 360348060.000000, IP Bytes W CSB: 169705108.000000, IS_MAX: 0, Tot. Cov: 129.000000, ESBytes WO CSB: 291558796.000000, STDBytes WO CSB: 358274496.000000, IP Bytes WO CSB: 169705108.000000, IS_MAX: 1
Coverage: 30, Tot. Cov: 202.000000, Cluster: 10/54, ESBytes W CSB: 530198988.000000, STDBytes W CSB: 680095488.000000, IP Bytes W CSB: 296444084.000000, IS_MAX: 0, Tot. Cov: 193.000000, ESBytes WO CSB: 543923396.000000, STDBytes WO CSB: 687617396.000000, IP Bytes WO CSB: 296444084.000000, IS_MAX: 1
Coverage: 30, Tot. Cov: 32.000000, Cluster: 11/54, ESBytes W CSB: 115282208.000000, STDBytes W CSB: 144910408.000000, IP Bytes W CSB: 62080572.000000, IS_MAX: 0, Tot. Cov: 33.000000, ESBytes WO CSB: 114451608.000000, STDBytes WO CSB: 146175808.000000, IP Bytes WO CSB: 62080572.000000, IS_MAX: 1
Coverage: 30, Tot. Cov: 752.000000, Cluster: 12/54, ESBytes W CSB: 475141608.000000, STDBytes W CSB: 645722408.000000, IP Bytes W CSB: 252048700.000000, IS_MAX: 0, Tot. Cov: 747.000000, ESBytes WO CSB: 462125032.000000, STDBytes WO CSB: 629981032.000000, IP Bytes WO CSB: 252048700.000000, IS_MAX: 1
Coverage: 30, Tot. Cov: 128.000000, Cluster: 13/54, ESBytes W CSB: 131593872.000000, STDBytes W CSB: 165517272.000000, IP Bytes W CSB: 70457748.000000, IS_MAX: 0, Tot. Cov: 129.000000, ESBytes WO CSB: 129683564.000000, STDBytes WO CSB: 163923264.000000, IP Bytes WO CSB: 70457748.000000, IS_MAX: 1
Coverage: 30, Tot. Cov: 199.000000, Cluster: 14/54, ESBytes W CSB: 161266464.000000, STDBytes W CSB: 201025664.000000, IP Bytes W CSB: 85306196.000000, IS_MAX: 0, Tot. Cov: 205.000000, ESBytes WO CSB: 155275224.000000, STDBytes WO CSB: 194983724.000000, IP Bytes WO CSB: 85306196.000000, IS_MAX: 1
Coverage: 30, Tot. Cov: 453.000000, Cluster: 15/54, ESBytes W CSB: 477811744.000000, STDBytes W CSB: 670969444.000000, IP Bytes W CSB: 214544492.000000, IS_MAX: 0, Tot. Cov: 464.000000, ESBytes WO CSB: 401492352.000000, STDBytes WO CSB: 568657052.000000, IP Bytes WO CSB: 214544492.000000, IS_MAX: 1
Coverage: 30, Tot. Cov: 102.000000, Cluster: 16/54, ESBytes W CSB: 93845112.000000, STDBytes W CSB: 119064612.000000, IP Bytes W CSB: 49159680.000000, IS_MAX: 0, Tot. Cov: 112.000000, ESBytes WO CSB: 89844608.000000, STDBytes WO CSB: 111571608.000000, IP Bytes WO CSB: 49159680.000000, IS_MAX: 1
Coverage: 30, Tot. Cov: 77.000000, Cluster: 17/54, ESBytes W CSB: 77844612.000000, STDBytes W CSB: 96554312.000000, IP Bytes W CSB: 37205788.000000, IS_MAX: 0, Tot. Cov: 63.000000, ESBytes WO CSB: 80349752.000000, STDBytes WO CSB: 105671352.000000, IP Bytes WO CSB: 37205788.000000, IS_MAX: 1
Coverage: 30, Tot. Cov: 86.000000, Cluster: 18/54, ESBytes W CSB: 60623360.000000, STDBytes W CSB: 73443160.000000, IP Bytes W CSB: 33555352.000000, IS_MAX: 0, Tot. Cov: 82.000000, ESBytes WO CSB: 60083912.000000, STDBytes WO CSB: 77132412.000000, IP Bytes WO CSB: 33555352.000000, IS_MAX: 1
Coverage: 30, Tot. Cov: 33.000000, Cluster: 19/54, ESBytes W CSB: 35164404.000000, STDBytes W CSB: 45166104.000000, IP Bytes W CSB: 17067752.000000, IS_MAX: 0, Tot. Cov: 30.000000, ESBytes WO CSB: 36341676.000000, STDBytes WO CSB: 47691676.000000, IP Bytes WO CSB: 17067752.000000, IS_MAX: 1
Coverage: 30, Tot. Cov: 331.000000, Cluster: 20/54, ESBytes W CSB: 292268064.000000, STDBytes W CSB: 369431264.000000, IP Bytes W CSB: 157329632.000000, IS_MAX: 0, Tot. Cov: 310.000000, ESBytes WO CSB: 284378528.000000, STDBytes WO CSB: 365885928.000000, IP Bytes WO CSB: 157329632.000000, IS_MAX: 1
Coverage: 30, Tot. Cov: 1727.000000, Cluster: 21/54, ESBytes W CSB: 1958831372.000000, STDBytes W CSB: 3249065872.000000, IP Bytes W CSB: 960597208.000000, IS_MAX: 0, Tot. Cov: 1725.000000, ESBytes WO CSB: 1597251748.000000, STDBytes WO CSB: 2740019148.000000, IP Bytes WO CSB: 960597208.000000, IS_MAX: 1
Coverage: 30, Tot. Cov: 209.000000, Cluster: 22/54, ESBytes W CSB: 354839612.000000, STDBytes W CSB: 459876912.000000, IP Bytes W CSB: 168923060.000000, IS_MAX: 0, Tot. Cov: 207.000000, ESBytes WO CSB: 337615876.000000, STDBytes WO CSB: 437670676.000000, IP Bytes WO CSB: 168923060.000000, IS_MAX: 1
Coverage: 30, Tot. Cov: 104.000000, Cluster: 23/54, ESBytes W CSB: 38230944.000000, STDBytes W CSB: 48855744.000000, IP Bytes W CSB: 18785104.000000, IS_MAX: 0, Tot. Cov: 105.000000, ESBytes WO CSB: 38783268.000000, STDBytes WO CSB: 52117668.000000, IP Bytes WO CSB: 18785104.000000, IS_MAX: 1
Coverage: 30, Tot. Cov: 142.000000, Cluster: 24/54, ESBytes W CSB: 37370688.000000, STDBytes W CSB: 47441388.000000, IP Bytes W CSB: 16663712.000000, IS_MAX: 0, Tot. Cov: 138.000000, ESBytes WO CSB: 36210448.000000, STDBytes WO CSB: 46442748.000000, IP Bytes WO CSB: 16663712.000000, IS_MAX: 1
Coverage: 30, Tot. Cov: 174.000000, Cluster: 25/54, ESBytes W CSB: 103827712.000000, STDBytes W CSB: 140224912.000000, IP Bytes W CSB: 41598472.000000, IS_MAX: 0, Tot. Cov: 167.000000, ESBytes WO CSB: 97203752.000000, STDBytes WO CSB: 129949152.000000, IP Bytes WO CSB: 41598472.000000, IS_MAX: 1
Coverage: 30, Tot. Cov: 423.000000, Cluster: 26/54, ESBytes W CSB: 81259916.000000, STDBytes W CSB: 130028616.000000, IP Bytes W CSB: 42751000.000000, IS_MAX: 0, Tot. Cov: 423.000000, ESBytes WO CSB: 87082676.000000, STDBytes WO CSB: 133586976.000000, IP Bytes WO CSB: 42751000.000000, IS_MAX: 1
Coverage: 30, Tot. Cov: 1575.000000, Cluster: 27/54, ESBytes W CSB: 741001788.000000, STDBytes W CSB: 1112463388.000000, IP Bytes W CSB: 275471240.000000, IS_MAX: 0, Tot. Cov: 1574.000000, ESBytes WO CSB: 559965824.000000, STDBytes WO CSB: 901249524.000000, IP Bytes WO CSB: 275471240.000000, IS_MAX: 1
Coverage: 30, Tot. Cov: 67.000000, Cluster: 28/54, ESBytes W CSB: 44544184.000000, STDBytes W CSB: 56422584.000000, IP Bytes W CSB: 22971284.000000, IS_MAX: 0, Tot. Cov: 71.000000, ESBytes WO CSB: 42033064.000000, STDBytes WO CSB: 58136564.000000, IP Bytes WO CSB: 22971284.000000, IS_MAX: 1
Coverage: 30, Tot. Cov: 76.000000, Cluster: 29/54, ESBytes W CSB: 32581220.000000, STDBytes W CSB: 42969920.000000, IP Bytes W CSB: 17183912.000000, IS_MAX: 0, Tot. Cov: 75.000000, ESBytes WO CSB: 32899388.000000, STDBytes WO CSB: 42498588.000000, IP Bytes WO CSB: 17183912.000000, IS_MAX: 1
Coverage: 30, Tot. Cov: 30.000000, Cluster: 30/54, ESBytes W CSB: 27187664.000000, STDBytes W CSB: 35001464.000000, IP Bytes W CSB: 13587204.000000, IS_MAX: 0, Tot. Cov: 33.000000, ESBytes WO CSB: 25988512.000000, STDBytes WO CSB: 34806012.000000, IP Bytes WO CSB: 13587204.000000, IS_MAX: 1
Coverage: 30, Tot. Cov: 31.000000, Cluster: 31/54, ESBytes W CSB: 27929476.000000, STDBytes W CSB: 37203876.000000, IP Bytes W CSB: 12782944.000000, IS_MAX: 0, Tot. Cov: 34.000000, ESBytes WO CSB: 26325156.000000, STDBytes WO CSB: 34442056.000000, IP Bytes WO CSB: 12782944.000000, IS_MAX: 1
Coverage: 30, Tot. Cov: 31.000000, Cluster: 32/54, ESBytes W CSB: 13856932.000000, STDBytes W CSB: 17860432.000000, IP Bytes W CSB: 7089528.000000, IS_MAX: 0, Tot. Cov: 31.000000, ESBytes WO CSB: 13856932.000000, STDBytes WO CSB: 17860432.000000, IP Bytes WO CSB: 7089528.000000, IS_MAX: 1
Coverage: 30, Tot. Cov: 1171.000000, Cluster: 33/54, ESBytes W CSB: 335779756.000000, STDBytes W CSB: 540061356.000000, IP Bytes W CSB: 165817880.000000, IS_MAX: 0, Tot. Cov: 1146.000000, ESBytes WO CSB: 329508568.000000, STDBytes WO CSB: 512694768.000000, IP Bytes WO CSB: 165817880.000000, IS_MAX: 1
Coverage: 30, Tot. Cov: 36.000000, Cluster: 34/54, ESBytes W CSB: 14292496.000000, STDBytes W CSB: 17473496.000000, IP Bytes W CSB: 8173620.000000, IS_MAX: 0, Tot. Cov: 36.000000, ESBytes WO CSB: 14292496.000000, STDBytes WO CSB: 17473496.000000, IP Bytes WO CSB: 8173620.000000, IS_MAX: 1
Coverage: 30, Tot. Cov: 1341.000000, Cluster: 35/54, ESBytes W CSB: 706974620.000000, STDBytes W CSB: 1035791820.000000, IP Bytes W CSB: 363462628.000000, IS_MAX: 0, Tot. Cov: 1340.000000, ESBytes WO CSB: 684153840.000000, STDBytes WO CSB: 941886440.000000, IP Bytes WO CSB: 363462628.000000, IS_MAX: 1
Coverage: 30, Tot. Cov: 1633.000000, Cluster: 36/54, ESBytes W CSB: 960421624.000000, STDBytes W CSB: 1511607324.000000, IP Bytes W CSB: 508971204.000000, IS_MAX: 0, Tot. Cov: 1623.000000, ESBytes WO CSB: 922938444.000000, STDBytes WO CSB: 1387902544.000000, IP Bytes WO CSB: 508971204.000000, IS_MAX: 1
Coverage: 30, Tot. Cov: 32.000000, Cluster: 37/54, ESBytes W CSB: 45561492.000000, STDBytes W CSB: 58505192.000000, IP Bytes W CSB: 23468756.000000, IS_MAX: 0, Tot. Cov: 35.000000, ESBytes WO CSB: 43349044.000000, STDBytes WO CSB: 55812344.000000, IP Bytes WO CSB: 23468756.000000, IS_MAX: 1
Coverage: 30, Tot. Cov: 109.000000, Cluster: 38/54, ESBytes W CSB: 195084376.000000, STDBytes W CSB: 259901376.000000, IP Bytes W CSB: 91481860.000000, IS_MAX: 0, Tot. Cov: 113.000000, ESBytes WO CSB: 188890128.000000, STDBytes WO CSB: 249859128.000000, IP Bytes WO CSB: 91481860.000000, IS_MAX: 1
Coverage: 30, Tot. Cov: 116.000000, Cluster: 39/54, ESBytes W CSB: 526857428.000000, STDBytes W CSB: 715835928.000000, IP Bytes W CSB: 269562720.000000, IS_MAX: 0, Tot. Cov: 116.000000, ESBytes WO CSB: 520945032.000000, STDBytes WO CSB: 701073132.000000, IP Bytes WO CSB: 269562720.000000, IS_MAX: 1
Coverage: 30, Tot. Cov: 761.000000, Cluster: 40/54, ESBytes W CSB: 1454022688.000000, STDBytes W CSB: 2532500088.000000, IP Bytes W CSB: 734390072.000000, IS_MAX: 0, Tot. Cov: 760.000000, ESBytes WO CSB: 1289664180.000000, STDBytes WO CSB: 2250943180.000000, IP Bytes WO CSB: 734390072.000000, IS_MAX: 1
Coverage: 30, Tot. Cov: 584.000000, Cluster: 41/54, ESBytes W CSB: 1465840272.000000, STDBytes W CSB: 1791090172.000000, IP Bytes W CSB: 823994016.000000, IS_MAX: 0, Tot. Cov: 593.000000, ESBytes WO CSB: 1366843992.000000, STDBytes WO CSB: 1647843592.000000, IP Bytes WO CSB: 823994016.000000, IS_MAX: 1
Coverage: 30, Tot. Cov: 114.000000, Cluster: 42/54, ESBytes W CSB: 457002936.000000, STDBytes W CSB: 568600236.000000, IP Bytes W CSB: 236191896.000000, IS_MAX: 0, Tot. Cov: 114.000000, ESBytes WO CSB: 446011268.000000, STDBytes WO CSB: 553866768.000000, IP Bytes WO CSB: 236191896.000000, IS_MAX: 1
Coverage: 30, Tot. Cov: 65.000000, Cluster: 43/54, ESBytes W CSB: 280981908.000000, STDBytes W CSB: 376983208.000000, IP Bytes W CSB: 138018848.000000, IS_MAX: 0, Tot. Cov: 73.000000, ESBytes WO CSB: 257760836.000000, STDBytes WO CSB: 342586136.000000, IP Bytes WO CSB: 138018848.000000, IS_MAX: 1
Coverage: 30, Tot. Cov: 67.000000, Cluster: 44/54, ESBytes W CSB: 288006432.000000, STDBytes W CSB: 393965132.000000, IP Bytes W CSB: 145790332.000000, IS_MAX: 0, Tot. Cov: 70.000000, ESBytes WO CSB: 281870092.000000, STDBytes WO CSB: 382719092.000000, IP Bytes WO CSB: 145790332.000000, IS_MAX: 1
Coverage: 30, Tot. Cov: 182.000000, Cluster: 45/54, ESBytes W CSB: 508996948.000000, STDBytes W CSB: 612075448.000000, IP Bytes W CSB: 331004556.000000, IS_MAX: 0, Tot. Cov: 180.000000, ESBytes WO CSB: 521166360.000000, STDBytes WO CSB: 629558760.000000, IP Bytes WO CSB: 331004556.000000, IS_MAX: 1
Coverage: 30, Tot. Cov: 32.000000, Cluster: 46/54, ESBytes W CSB: 189903680.000000, STDBytes W CSB: 236488580.000000, IP Bytes W CSB: 103037172.000000, IS_MAX: 0, Tot. Cov: 30.000000, ESBytes WO CSB: 199422920.000000, STDBytes WO CSB: 259552420.000000, IP Bytes WO CSB: 103037172.000000, IS_MAX: 1
Coverage: 30, Tot. Cov: 567.000000, Cluster: 47/54, ESBytes W CSB: 2434044792.000000, STDBytes W CSB: 3128912292.000000, IP Bytes W CSB: 1680317448.000000, IS_MAX: 0, Tot. Cov: 562.000000, ESBytes WO CSB: 2541276784.000000, STDBytes WO CSB: 3208998084.000000, IP Bytes WO CSB: 1680317448.000000, IS_MAX: 1
Coverage: 30, Tot. Cov: 134.000000, Cluster: 48/54, ESBytes W CSB: 522199492.000000, STDBytes W CSB: 650839992.000000, IP Bytes W CSB: 293134016.000000, IS_MAX: 0, Tot. Cov: 131.000000, ESBytes WO CSB: 513769684.000000, STDBytes WO CSB: 649611084.000000, IP Bytes WO CSB: 293134016.000000, IS_MAX: 1
Coverage: 30, Tot. Cov: 287.000000, Cluster: 49/54, ESBytes W CSB: 1059446776.000000, STDBytes W CSB: 1486242276.000000, IP Bytes W CSB: 535325796.000000, IS_MAX: 0, Tot. Cov: 295.000000, ESBytes WO CSB: 1018037500.000000, STDBytes WO CSB: 1499924700.000000, IP Bytes WO CSB: 535325796.000000, IS_MAX: 1
Coverage: 30, Tot. Cov: 263.000000, Cluster: 50/54, ESBytes W CSB: 569870744.000000, STDBytes W CSB: 772531344.000000, IP Bytes W CSB: 287534220.000000, IS_MAX: 0, Tot. Cov: 263.000000, ESBytes WO CSB: 540438944.000000, STDBytes WO CSB: 728401344.000000, IP Bytes WO CSB: 287534220.000000, IS_MAX: 1
Coverage: 30, Tot. Cov: 273.000000, Cluster: 51/54, ESBytes W CSB: 659213828.000000, STDBytes W CSB: 845387028.000000, IP Bytes W CSB: 355621208.000000, IS_MAX: 0, Tot. Cov: 271.000000, ESBytes WO CSB: 611047684.000000, STDBytes WO CSB: 789254184.000000, IP Bytes WO CSB: 355621208.000000, IS_MAX: 1
Coverage: 30, Tot. Cov: 152.000000, Cluster: 52/54, ESBytes W CSB: 627371924.000000, STDBytes W CSB: 787680924.000000, IP Bytes W CSB: 307066040.000000, IS_MAX: 0, Tot. Cov: 148.000000, ESBytes WO CSB: 611796224.000000, STDBytes WO CSB: 765331124.000000, IP Bytes WO CSB: 307066040.000000, IS_MAX: 1
Coverage: 30, Tot. Cov: 1480.000000, Cluster: 53/54, ESBytes W CSB: 7647614456.000000, STDBytes W CSB: 15890682156.000000, IP Bytes W CSB: 4574251128.000000, IS_MAX: 0, Tot. Cov: 1482.000000, ESBytes WO CSB: 7515811152.000000, STDBytes WO CSB: 15436712952.000000, IP Bytes WO CSB: 4574251128.000000, IS_MAX: 1
