Coverage: 20, Tot. Cov: 91.000000, 1/149, STDB: 34420000.000000, IPB: 8661260.000000, STDT: 369377061.000000, IPT: 329835245.000000, BOH/LOH: 3.974018,1.119884, MAX:1
Coverage: 20, Tot. Cov: 47.000000, 1/149, STDB: 25145000.000000, IPB: 4703228.000000, STDT: 220569580.000000, IPT: 164635091.000000, BOH/LOH: 5.346328,1.339748, MAX:1
Coverage: 20, Tot. Cov: 70.000000, 1/149, STDB: 18050000.000000, IPB: 6047556.000000, STDT: 596283596.000000, IPT: 252063595.000000, BOH/LOH: 2.984677,2.365608, MAX:1
Coverage: 20, Tot. Cov: 185.000000, 2/149, STDB: 152980000.000000, IPB: 27661912.000000, STDT: 1426498525.000000, IPT: 1070446913.000000, BOH/LOH: 5.530348,1.332620, MAX:1
Coverage: 20, Tot. Cov: 171.000000, 2/149, STDB: 117330000.000000, IPB: 25926696.000000, STDT: 1180373707.000000, IPT: 927001425.000000, BOH/LOH: 4.525451,1.273325, MAX:1
Coverage: 20, Tot. Cov: 172.000000, 2/149, STDB: 71690000.000000, IPB: 24869152.000000, STDT: 3318237770.000000, IPT: 1007383555.000000, BOH/LOH: 2.882688,3.293917, MAX:1
Coverage: 20, Tot. Cov: 49.000000, 3/149, STDB: 22882500.000000, IPB: 6078312.000000, STDT: 252097924.000000, IPT: 230286859.000000, BOH/LOH: 3.764614,1.094713, MAX:1
Coverage: 20, Tot. Cov: 48.000000, 3/149, STDB: 14612500.000000, IPB: 5939692.000000, STDT: 267684725.000000, IPT: 226566006.000000, BOH/LOH: 2.460144,1.181487, MAX:1
Coverage: 20, Tot. Cov: 35.000000, 3/149, STDB: 11580000.000000, IPB: 4322696.000000, STDT: 562980409.000000, IPT: 163852160.000000, BOH/LOH: 2.678884,3.435905, MAX:1
Coverage: 20, Tot. Cov: 150.000000, 4/149, STDB: 153802500.000000, IPB: 31507220.000000, STDT: 788642844.000000, IPT: 639161944.000000, BOH/LOH: 4.881500,1.233870, MAX:1
Coverage: 20, Tot. Cov: 119.000000, 4/149, STDB: 99802500.000000, IPB: 21667680.000000, STDT: 701986314.000000, IPT: 461413146.000000, BOH/LOH: 4.606054,1.521383, MAX:1
Coverage: 20, Tot. Cov: 124.000000, 4/149, STDB: 70260000.000000, IPB: 23032036.000000, STDT: 1971049325.000000, IPT: 491915083.000000, BOH/LOH: 3.050534,4.006889, MAX:1
Coverage: 20, Tot. Cov: 124.000000, 5/149, STDB: 57420000.000000, IPB: 13528920.000000, STDT: 739821801.000000, IPT: 538093277.000000, BOH/LOH: 4.244241,1.374895, MAX:1
Coverage: 20, Tot. Cov: 132.000000, 5/149, STDB: 54712500.000000, IPB: 14734596.000000, STDT: 690180230.000000, IPT: 577437581.000000, BOH/LOH: 3.713200,1.195246, MAX:1
Coverage: 20, Tot. Cov: 104.000000, 5/149, STDB: 39007500.000000, IPB: 10358576.000000, STDT: 1791334616.000000, IPT: 451614507.000000, BOH/LOH: 3.765720,3.966513, MAX:1
Coverage: 20, Tot. Cov: 92.000000, 6/149, STDB: 56005000.000000, IPB: 12388120.000000, STDT: 625271399.000000, IPT: 457434616.000000, BOH/LOH: 4.520864,1.366909, MAX:1
Coverage: 20, Tot. Cov: 76.000000, 6/149, STDB: 35890000.000000, IPB: 10921840.000000, STDT: 413398072.000000, IPT: 347196037.000000, BOH/LOH: 3.286076,1.190676, MAX:1
Coverage: 20, Tot. Cov: 63.000000, 6/149, STDB: 25885000.000000, IPB: 7755536.000000, STDT: 1154451135.000000, IPT: 331850664.000000, BOH/LOH: 3.337616,3.478827, MAX:1
Coverage: 20, Tot. Cov: 253.000000, 7/149, STDB: 138255000.000000, IPB: 32853440.000000, STDT: 2122588166.000000, IPT: 1066415165.000000, BOH/LOH: 4.208235,1.990396, MAX:1
Coverage: 20, Tot. Cov: 291.000000, 7/149, STDB: 120420000.000000, IPB: 37683512.000000, STDT: 2033627135.000000, IPT: 1325241941.000000, BOH/LOH: 3.195562,1.534533, MAX:1
Coverage: 20, Tot. Cov: 227.000000, 7/149, STDB: 69915000.000000, IPB: 27648408.000000, STDT: 6387573069.000000, IPT: 1070625623.000000, BOH/LOH: 2.528717,5.966206, MAX:1
Coverage: 20, Tot. Cov: 86.000000, 8/149, STDB: 79270000.000000, IPB: 14033712.000000, STDT: 812734273.000000, IPT: 451154385.000000, BOH/LOH: 5.648541,1.801455, MAX:1
Coverage: 20, Tot. Cov: 80.000000, 8/149, STDB: 39365000.000000, IPB: 14538076.000000, STDT: 484553929.000000, IPT: 365550909.000000, BOH/LOH: 2.707717,1.325544, MAX:1
Coverage: 20, Tot. Cov: 52.000000, 8/149, STDB: 26820000.000000, IPB: 8475004.000000, STDT: 782441589.000000, IPT: 264417273.000000, BOH/LOH: 3.164600,2.959117, MAX:1
Coverage: 20, Tot. Cov: 488.000000, 9/149, STDB: 507650000.000000, IPB: 79204040.000000, STDT: 3779666015.000000, IPT: 2873853726.000000, BOH/LOH: 6.409395,1.315191, MAX:1
Coverage: 20, Tot. Cov: 407.000000, 9/149, STDB: 453050000.000000, IPB: 62970252.000000, STDT: 2601831724.000000, IPT: 2178938486.000000, BOH/LOH: 7.194667,1.194082, MAX:1
Coverage: 20, Tot. Cov: 471.000000, 9/149, STDB: 328325000.000000, IPB: 69608160.000000, STDT: 17146972136.000000, IPT: 2774462259.000000, BOH/LOH: 4.716760,6.180287, MAX:1
Coverage: 20, Tot. Cov: 22.000000, 10/149, STDB: 138552500.000000, IPB: 15142492.000000, STDT: 481809822.000000, IPT: 183587684.000000, BOH/LOH: 9.149914,2.624413, MAX:1
Coverage: 20, Tot. Cov: 21.000000, 10/149, STDB: 80345000.000000, IPB: 15582464.000000, STDT: 286554907.000000, IPT: 172483170.000000, BOH/LOH: 5.156117,1.661350, MAX:1
Coverage: 20, Tot. Cov: 20.000000, 10/149, STDB: 55950000.000000, IPB: 12776568.000000, STDT: 961926161.000000, IPT: 175607981.000000, BOH/LOH: 4.379110,5.477690, MAX:1
Coverage: 20, Tot. Cov: 73.000000, 11/149, STDB: 276670000.000000, IPB: 108239772.000000, STDT: 624471422.000000, IPT: 437245366.000000, BOH/LOH: 2.556084,1.428194, MAX:1
Coverage: 20, Tot. Cov: 75.000000, 11/149, STDB: 223500000.000000, IPB: 87574844.000000, STDT: 3239430976.000000, IPT: 573810501.000000, BOH/LOH: 2.552103,5.645472, MAX:1
Coverage: 20, Tot. Cov: 311.000000, 12/149, STDB: 3259497500.000000, IPB: 399639492.000000, STDT: 2180782509.000000, IPT: 1866239663.000000, BOH/LOH: 8.156095,1.168544, MAX:1
Coverage: 20, Tot. Cov: 325.000000, 12/149, STDB: 2096552500.000000, IPB: 411130860.000000, STDT: 2850314372.000000, IPT: 1996266385.000000, BOH/LOH: 5.099477,1.427823, MAX:1
Coverage: 20, Tot. Cov: 317.000000, 12/149, STDB: 1309122500.000000, IPB: 359494164.000000, STDT: 11917645112.000000, IPT: 1986969813.000000, BOH/LOH: 3.641568,5.997899, MAX:1
Coverage: 20, Tot. Cov: 172.000000, 13/149, STDB: 400550000.000000, IPB: 134796864.000000, STDT: 1415261215.000000, IPT: 932119075.000000, BOH/LOH: 2.971508,1.518327, MAX:1
Coverage: 20, Tot. Cov: 190.000000, 13/149, STDB: 399790000.000000, IPB: 153768512.000000, STDT: 2037648506.000000, IPT: 1094871799.000000, BOH/LOH: 2.599947,1.861084, MAX:1
Coverage: 20, Tot. Cov: 170.000000, 13/149, STDB: 281210000.000000, IPB: 131489112.000000, STDT: 6898737973.000000, IPT: 918291569.000000, BOH/LOH: 2.138656,7.512579, MAX:1
Coverage: 20, Tot. Cov: 29.000000, 14/149, STDB: 146222500.000000, IPB: 29140436.000000, STDT: 261672930.000000, IPT: 144657994.000000, BOH/LOH: 5.017856,1.808907, MAX:1
Coverage: 20, Tot. Cov: 39.000000, 14/149, STDB: 92792500.000000, IPB: 39579432.000000, STDT: 246826961.000000, IPT: 193655738.000000, BOH/LOH: 2.344463,1.274566, MAX:1
Coverage: 20, Tot. Cov: 23.000000, 14/149, STDB: 72300000.000000, IPB: 23025004.000000, STDT: 895893155.000000, IPT: 114884873.000000, BOH/LOH: 3.140065,7.798182, MAX:1
Coverage: 20, Tot. Cov: 108.000000, 15/149, STDB: 486187500.000000, IPB: 94018208.000000, STDT: 708815922.000000, IPT: 516475674.000000, BOH/LOH: 5.171206,1.372409, MAX:1
Coverage: 20, Tot. Cov: 126.000000, 15/149, STDB: 332767500.000000, IPB: 110800880.000000, STDT: 719761322.000000, IPT: 621357635.000000, BOH/LOH: 3.003293,1.158369, MAX:1
Coverage: 20, Tot. Cov: 107.000000, 15/149, STDB: 227587500.000000, IPB: 88368224.000000, STDT: 3644319726.000000, IPT: 548382850.000000, BOH/LOH: 2.575445,6.645576, MAX:1
Coverage: 20, Tot. Cov: 186.000000, 16/149, STDB: 1679320000.000000, IPB: 367506988.000000, STDT: 1990007144.000000, IPT: 963513856.000000, BOH/LOH: 4.569491,2.065364, MAX:1
Coverage: 20, Tot. Cov: 187.000000, 16/149, STDB: 1606370000.000000, IPB: 377930068.000000, STDT: 1426315597.000000, IPT: 967607696.000000, BOH/LOH: 4.250442,1.474064, MAX:1
Coverage: 20, Tot. Cov: 170.000000, 16/149, STDB: 1151580000.000000, IPB: 290898796.000000, STDT: 3131988521.000000, IPT: 869000836.000000, BOH/LOH: 3.958696,3.604126, MAX:1
Coverage: 20, Tot. Cov: 389.000000, 17/149, STDB: 1227660000.000000, IPB: 397200108.000000, STDT: 2549337559.000000, IPT: 2048283420.000000, BOH/LOH: 3.090785,1.244621, MAX:1
Coverage: 20, Tot. Cov: 342.000000, 17/149, STDB: 1053220000.000000, IPB: 348123768.000000, STDT: 1875188093.000000, IPT: 1707081719.000000, BOH/LOH: 3.025418,1.098476, MAX:1
Coverage: 20, Tot. Cov: 351.000000, 17/149, STDB: 762660000.000000, IPB: 335884700.000000, STDT: 11672294202.000000, IPT: 1900162973.000000, BOH/LOH: 2.270601,6.142786, MAX:1
Coverage: 20, Tot. Cov: 67.000000, 18/149, STDB: 288085000.000000, IPB: 63389356.000000, STDT: 375759981.000000, IPT: 339970020.000000, BOH/LOH: 4.544690,1.105274, MAX:1
Coverage: 20, Tot. Cov: 79.000000, 18/149, STDB: 205840000.000000, IPB: 72253360.000000, STDT: 430429992.000000, IPT: 399992563.000000, BOH/LOH: 2.848864,1.076095, MAX:1
Coverage: 20, Tot. Cov: 52.000000, 18/149, STDB: 146145000.000000, IPB: 44992528.000000, STDT: 2139549634.000000, IPT: 266636113.000000, BOH/LOH: 3.248206,8.024231, MAX:1
Coverage: 20, Tot. Cov: 147.000000, 19/149, STDB: 324105000.000000, IPB: 50386056.000000, STDT: 662098439.000000, IPT: 579721457.000000, BOH/LOH: 6.432434,1.142098, MAX:1
Coverage: 20, Tot. Cov: 129.000000, 19/149, STDB: 259860000.000000, IPB: 36952224.000000, STDT: 590635132.000000, IPT: 487212704.000000, BOH/LOH: 7.032324,1.212274, MAX:1
Coverage: 20, Tot. Cov: 123.000000, 19/149, STDB: 183135000.000000, IPB: 29904444.000000, STDT: 1814049140.000000, IPT: 475037915.000000, BOH/LOH: 6.124006,3.818746, MAX:1
Coverage: 20, Tot. Cov: 71.000000, 20/149, STDB: 137340000.000000, IPB: 25823996.000000, STDT: 300547154.000000, IPT: 272878357.000000, BOH/LOH: 5.318309,1.101396, MAX:1
Coverage: 20, Tot. Cov: 53.000000, 20/149, STDB: 94830000.000000, IPB: 19618824.000000, STDT: 220784977.000000, IPT: 199090652.000000, BOH/LOH: 4.833623,1.108967, MAX:1
Coverage: 20, Tot. Cov: 60.000000, 20/149, STDB: 64165000.000000, IPB: 21817488.000000, STDT: 1553582179.000000, IPT: 231966715.000000, BOH/LOH: 2.940989,6.697436, MAX:1
Coverage: 20, Tot. Cov: 97.000000, 21/149, STDB: 488440000.000000, IPB: 124993196.000000, STDT: 803111853.000000, IPT: 633045725.000000, BOH/LOH: 3.907733,1.268647, MAX:1
Coverage: 20, Tot. Cov: 78.000000, 21/149, STDB: 337765000.000000, IPB: 107677972.000000, STDT: 528512736.000000, IPT: 467530863.000000, BOH/LOH: 3.136807,1.130434, MAX:1
Coverage: 20, Tot. Cov: 73.000000, 21/149, STDB: 224320000.000000, IPB: 87096812.000000, STDT: 1481481219.000000, IPT: 506598037.000000, BOH/LOH: 2.575525,2.924372, MAX:1
Coverage: 20, Tot. Cov: 249.000000, 22/149, STDB: 656205000.000000, IPB: 152737768.000000, STDT: 1285849975.000000, IPT: 1139841106.000000, BOH/LOH: 4.296285,1.128096, MAX:1
Coverage: 20, Tot. Cov: 272.000000, 22/149, STDB: 609900000.000000, IPB: 170379652.000000, STDT: 1781692067.000000, IPT: 1281562433.000000, BOH/LOH: 3.579653,1.390250, MAX:1
Coverage: 20, Tot. Cov: 242.000000, 22/149, STDB: 375285000.000000, IPB: 138086876.000000, STDT: 4024404945.000000, IPT: 1152910682.000000, BOH/LOH: 2.717746,3.490648, MAX:1
Coverage: 20, Tot. Cov: 37.000000, 23/149, STDB: 80670000.000000, IPB: 20587420.000000, STDT: 297321509.000000, IPT: 210278101.000000, BOH/LOH: 3.918412,1.413944, MAX:1
Coverage: 20, Tot. Cov: 47.000000, 23/149, STDB: 52192500.000000, IPB: 26162816.000000, STDT: 343620802.000000, IPT: 269456771.000000, BOH/LOH: 1.994911,1.275235, MAX:1
Coverage: 20, Tot. Cov: 23.000000, 23/149, STDB: 39537500.000000, IPB: 12781264.000000, STDT: 688339762.000000, IPT: 130966180.000000, BOH/LOH: 3.093395,5.255859, MAX:1
Coverage: 20, Tot. Cov: 189.000000, 24/149, STDB: 962130000.000000, IPB: 172392124.000000, STDT: 1176060813.000000, IPT: 993243373.000000, BOH/LOH: 5.581055,1.184061, MAX:1
Coverage: 20, Tot. Cov: 181.000000, 24/149, STDB: 829280000.000000, IPB: 162808264.000000, STDT: 1679792920.000000, IPT: 952934601.000000, BOH/LOH: 5.093599,1.762758, MAX:1
Coverage: 20, Tot. Cov: 171.000000, 24/149, STDB: 501190000.000000, IPB: 123121760.000000, STDT: 4276549513.000000, IPT: 945210742.000000, BOH/LOH: 4.070686,4.524440, MAX:1
Coverage: 20, Tot. Cov: 389.000000, 25/149, STDB: 811140000.000000, IPB: 237727092.000000, STDT: 2751788786.000000, IPT: 1908448731.000000, BOH/LOH: 3.412064,1.441898, MAX:1
Coverage: 20, Tot. Cov: 360.000000, 25/149, STDB: 588120000.000000, IPB: 210320344.000000, STDT: 10312963769.000000, IPT: 1704089447.000000, BOH/LOH: 2.796306,6.051891, MAX:1
Coverage: 20, Tot. Cov: 67.000000, 26/149, STDB: 673790000.000000, IPB: 161803876.000000, STDT: 494513930.000000, IPT: 361581689.000000, BOH/LOH: 4.164239,1.367641, MAX:1
Coverage: 20, Tot. Cov: 79.000000, 26/149, STDB: 570390000.000000, IPB: 142416980.000000, STDT: 671538326.000000, IPT: 499429711.000000, BOH/LOH: 4.005070,1.344610, MAX:1
Coverage: 20, Tot. Cov: 71.000000, 26/149, STDB: 397320000.000000, IPB: 94914004.000000, STDT: 2530007699.000000, IPT: 503292262.000000, BOH/LOH: 4.186105,5.026916, MAX:1
Coverage: 20, Tot. Cov: 288.000000, 27/149, STDB: 694755000.000000, IPB: 161686492.000000, STDT: 4281850157.000000, IPT: 1377059193.000000, BOH/LOH: 4.296927,3.109416, MAX:1
Coverage: 20, Tot. Cov: 270.000000, 27/149, STDB: 441450000.000000, IPB: 153307272.000000, STDT: 1424595228.000000, IPT: 1255850334.000000, BOH/LOH: 2.879511,1.134367, MAX:1
Coverage: 20, Tot. Cov: 201.000000, 27/149, STDB: 324030000.000000, IPB: 103195876.000000, STDT: 6677864952.000000, IPT: 969176221.000000, BOH/LOH: 3.139951,6.890248, MAX:1
Coverage: 20, Tot. Cov: 25.000000, 28/149, STDB: 68902500.000000, IPB: 11200976.000000, STDT: 269838109.000000, IPT: 244002459.000000, BOH/LOH: 6.151473,1.105883, MAX:1
Coverage: 20, Tot. Cov: 20.000000, 28/149, STDB: 49057500.000000, IPB: 6864348.000000, STDT: 591018055.000000, IPT: 195810842.000000, BOH/LOH: 7.146709,3.018311, MAX:1
Coverage: 20, Tot. Cov: 230.000000, 29/149, STDB: 275450000.000000, IPB: 51820172.000000, STDT: 1249971400.000000, IPT: 1062676234.000000, BOH/LOH: 5.315498,1.176249, MAX:1
Coverage: 20, Tot. Cov: 216.000000, 29/149, STDB: 297112500.000000, IPB: 47144120.000000, STDT: 1150165895.000000, IPT: 932648184.000000, BOH/LOH: 6.302218,1.233226, MAX:1
Coverage: 20, Tot. Cov: 219.000000, 29/149, STDB: 137125000.000000, IPB: 47271144.000000, STDT: 7035920121.000000, IPT: 980900996.000000, BOH/LOH: 2.900818,7.172916, MAX:1
Coverage: 20, Tot. Cov: 83.000000, 30/149, STDB: 66640000.000000, IPB: 10052256.000000, STDT: 620355365.000000, IPT: 518670683.000000, BOH/LOH: 6.629358,1.196049, MAX:1
Coverage: 20, Tot. Cov: 70.000000, 30/149, STDB: 44170000.000000, IPB: 7710960.000000, STDT: 481515165.000000, IPT: 395065570.000000, BOH/LOH: 5.728210,1.218823, MAX:1
Coverage: 20, Tot. Cov: 69.000000, 30/149, STDB: 29215000.000000, IPB: 7133248.000000, STDT: 1214543932.000000, IPT: 385632871.000000, BOH/LOH: 4.095610,3.149482, MAX:1
Coverage: 20, Tot. Cov: 185.000000, 31/149, STDB: 302540000.000000, IPB: 57579208.000000, STDT: 1427565047.000000, IPT: 730951547.000000, BOH/LOH: 5.254327,1.953023, MAX:1
Coverage: 20, Tot. Cov: 159.000000, 31/149, STDB: 187780000.000000, IPB: 49394036.000000, STDT: 630989117.000000, IPT: 601553639.000000, BOH/LOH: 3.801674,1.048932, MAX:1
Coverage: 20, Tot. Cov: 166.000000, 31/149, STDB: 142440000.000000, IPB: 48166872.000000, STDT: 2694816798.000000, IPT: 662359672.000000, BOH/LOH: 2.957219,4.068510, MAX:1
Coverage: 20, Tot. Cov: 81.000000, 32/149, STDB: 53090000.000000, IPB: 14209776.000000, STDT: 419263965.000000, IPT: 271698733.000000, BOH/LOH: 3.736160,1.543121, MAX:1
Coverage: 20, Tot. Cov: 83.000000, 32/149, STDB: 42505000.000000, IPB: 14813232.000000, STDT: 412352878.000000, IPT: 281649066.000000, BOH/LOH: 2.869394,1.464066, MAX:1
Coverage: 20, Tot. Cov: 49.000000, 32/149, STDB: 34420000.000000, IPB: 7326172.000000, STDT: 436430674.000000, IPT: 169721018.000000, BOH/LOH: 4.698224,2.571459, MAX:1
Coverage: 20, Tot. Cov: 90.000000, 33/149, STDB: 170435000.000000, IPB: 63111608.000000, STDT: 493831673.000000, IPT: 426121892.000000, BOH/LOH: 2.700533,1.158898, MAX:1
Coverage: 20, Tot. Cov: 69.000000, 33/149, STDB: 119540000.000000, IPB: 44064872.000000, STDT: 1913432826.000000, IPT: 312646857.000000, BOH/LOH: 2.712819,6.120109, MAX:1
Coverage: 20, Tot. Cov: 188.000000, 34/149, STDB: 334062500.000000, IPB: 48996996.000000, STDT: 1852266803.000000, IPT: 825700831.000000, BOH/LOH: 6.818020,2.243266, MAX:1
Coverage: 20, Tot. Cov: 220.000000, 34/149, STDB: 335212500.000000, IPB: 59532828.000000, STDT: 1074559457.000000, IPT: 983939532.000000, BOH/LOH: 5.630717,1.092099, MAX:1
Coverage: 20, Tot. Cov: 207.000000, 34/149, STDB: 193150000.000000, IPB: 51660332.000000, STDT: 4829322884.000000, IPT: 969412922.000000, BOH/LOH: 3.738846,4.981698, MAX:1
Coverage: 20, Tot. Cov: 46.000000, 35/149, STDB: 69770000.000000, IPB: 11131524.000000, STDT: 284410021.000000, IPT: 250411297.000000, BOH/LOH: 6.267785,1.135772, MAX:1
Coverage: 20, Tot. Cov: 67.000000, 35/149, STDB: 44520000.000000, IPB: 14898192.000000, STDT: 1645487897.000000, IPT: 454510873.000000, BOH/LOH: 2.988282,3.620349, MAX:1
Coverage: 20, Tot. Cov: 217.000000, 36/149, STDB: 151800000.000000, IPB: 52498996.000000, STDT: 1231057221.000000, IPT: 873370199.000000, BOH/LOH: 2.891484,1.409548, MAX:1
Coverage: 20, Tot. Cov: 196.000000, 36/149, STDB: 105112500.000000, IPB: 46620396.000000, STDT: 4942510993.000000, IPT: 813746149.000000, BOH/LOH: 2.254646,6.073775, MAX:1
Coverage: 20, Tot. Cov: 53.000000, 37/149, STDB: 81330000.000000, IPB: 9508084.000000, STDT: 528306044.000000, IPT: 330981785.000000, BOH/LOH: 8.553774,1.596179, MAX:1
Coverage: 20, Tot. Cov: 76.000000, 37/149, STDB: 53010000.000000, IPB: 15317868.000000, STDT: 573501101.000000, IPT: 444655569.000000, BOH/LOH: 3.460664,1.289765, MAX:1
Coverage: 20, Tot. Cov: 44.000000, 37/149, STDB: 35270000.000000, IPB: 7731860.000000, STDT: 1220637944.000000, IPT: 266276523.000000, BOH/LOH: 4.561645,4.584099, MAX:1
Coverage: 20, Tot. Cov: 234.000000, 38/149, STDB: 2413950000.000000, IPB: 474266876.000000, STDT: 1533797832.000000, IPT: 1246205587.000000, BOH/LOH: 5.089856,1.230774, MAX:1
Coverage: 20, Tot. Cov: 189.000000, 38/149, STDB: 2163787500.000000, IPB: 296913352.000000, STDT: 1136991175.000000, IPT: 927133585.000000, BOH/LOH: 7.287606,1.226351, MAX:1
Coverage: 20, Tot. Cov: 201.000000, 38/149, STDB: 1317012500.000000, IPB: 330094892.000000, STDT: 5976673667.000000, IPT: 1024687065.000000, BOH/LOH: 3.989800,5.832682, MAX:1
Coverage: 20, Tot. Cov: 66.000000, 39/149, STDB: 749270000.000000, IPB: 212714796.000000, STDT: 460232846.000000, IPT: 391921547.000000, BOH/LOH: 3.522416,1.174298, MAX:1
Coverage: 20, Tot. Cov: 85.000000, 39/149, STDB: 583065000.000000, IPB: 269280680.000000, STDT: 559507565.000000, IPT: 509910149.000000, BOH/LOH: 2.165269,1.097267, MAX:1
Coverage: 20, Tot. Cov: 55.000000, 39/149, STDB: 452310000.000000, IPB: 167292344.000000, STDT: 3066614514.000000, IPT: 329932242.000000, BOH/LOH: 2.703710,9.294680, MAX:1
Coverage: 20, Tot. Cov: 113.000000, 40/149, STDB: 1689877500.000000, IPB: 369459384.000000, STDT: 1373186225.000000, IPT: 860652929.000000, BOH/LOH: 4.573920,1.595517, MAX:1
Coverage: 20, Tot. Cov: 130.000000, 40/149, STDB: 1165042500.000000, IPB: 432041432.000000, STDT: 1150037442.000000, IPT: 1007634730.000000, BOH/LOH: 2.696599,1.141324, MAX:1
Coverage: 20, Tot. Cov: 117.000000, 40/149, STDB: 825082500.000000, IPB: 375400484.000000, STDT: 7408507064.000000, IPT: 894704213.000000, BOH/LOH: 2.197873,8.280398, MAX:1
Coverage: 20, Tot. Cov: 246.000000, 41/149, STDB: 659300000.000000, IPB: 145223072.000000, STDT: 5297064595.000000, IPT: 1478873555.000000, BOH/LOH: 4.539912,3.581824, MAX:1
Coverage: 20, Tot. Cov: 238.000000, 41/149, STDB: 467937500.000000, IPB: 140768348.000000, STDT: 1448964924.000000, IPT: 1404532267.000000, BOH/LOH: 3.324167,1.031635, MAX:1
Coverage: 20, Tot. Cov: 218.000000, 41/149, STDB: 272275000.000000, IPB: 123476452.000000, STDT: 8255907020.000000, IPT: 1249330488.000000, BOH/LOH: 2.205076,6.608265, MAX:1
Coverage: 20, Tot. Cov: 141.000000, 42/149, STDB: 708450000.000000, IPB: 103401472.000000, STDT: 862726381.000000, IPT: 687268535.000000, BOH/LOH: 6.851450,1.255297, MAX:1
Coverage: 20, Tot. Cov: 156.000000, 42/149, STDB: 558060000.000000, IPB: 119195196.000000, STDT: 1040780452.000000, IPT: 780068434.000000, BOH/LOH: 4.681900,1.334217, MAX:1
Coverage: 20, Tot. Cov: 147.000000, 42/149, STDB: 368760000.000000, IPB: 105380192.000000, STDT: 3942747182.000000, IPT: 744395103.000000, BOH/LOH: 3.499329,5.296579, MAX:1
Coverage: 20, Tot. Cov: 28.000000, 43/149, STDB: 788865000.000000, IPB: 188999880.000000, STDT: 262815591.000000, IPT: 176209755.000000, BOH/LOH: 4.173892,1.491493, MAX:1
Coverage: 20, Tot. Cov: 27.000000, 43/149, STDB: 604775000.000000, IPB: 180409152.000000, STDT: 242262756.000000, IPT: 168765238.000000, BOH/LOH: 3.352241,1.435502, MAX:1
Coverage: 20, Tot. Cov: 20.000000, 43/149, STDB: 419977500.000000, IPB: 132502536.000000, STDT: 1026350685.000000, IPT: 124722887.000000, BOH/LOH: 3.169581,8.229048, MAX:1
Coverage: 20, Tot. Cov: 69.000000, 44/149, STDB: 481880000.000000, IPB: 57227396.000000, STDT: 475488135.000000, IPT: 358468259.000000, BOH/LOH: 8.420443,1.326444, MAX:1
Coverage: 20, Tot. Cov: 73.000000, 44/149, STDB: 329490000.000000, IPB: 65000532.000000, STDT: 448234368.000000, IPT: 387094989.000000, BOH/LOH: 5.069035,1.157944, MAX:1
Coverage: 20, Tot. Cov: 71.000000, 44/149, STDB: 209305000.000000, IPB: 58536060.000000, STDT: 3146822970.000000, IPT: 389839531.000000, BOH/LOH: 3.575659,8.072098, MAX:1
Coverage: 20, Tot. Cov: 42.000000, 45/149, STDB: 190655000.000000, IPB: 54629256.000000, STDT: 237703635.000000, IPT: 196584602.000000, BOH/LOH: 3.489980,1.209167, MAX:1
Coverage: 20, Tot. Cov: 20.000000, 45/149, STDB: 135485000.000000, IPB: 25907024.000000, STDT: 130975595.000000, IPT: 92732150.000000, BOH/LOH: 5.229663,1.412408, MAX:1
Coverage: 20, Tot. Cov: 25.000000, 45/149, STDB: 83105000.000000, IPB: 32478592.000000, STDT: 653092971.000000, IPT: 116571963.000000, BOH/LOH: 2.558762,5.602488, MAX:1
Coverage: 20, Tot. Cov: 215.000000, 46/149, STDB: 651525000.000000, IPB: 121475412.000000, STDT: 1989371996.000000, IPT: 1538799625.000000, BOH/LOH: 5.363431,1.292808, MAX:1
Coverage: 20, Tot. Cov: 223.000000, 46/149, STDB: 683162500.000000, IPB: 135201216.000000, STDT: 1739190020.000000, IPT: 1609435592.000000, BOH/LOH: 5.052932,1.080621, MAX:1
Coverage: 20, Tot. Cov: 208.000000, 46/149, STDB: 359650000.000000, IPB: 113816852.000000, STDT: 6982024325.000000, IPT: 1475107472.000000, BOH/LOH: 3.159901,4.733231, MAX:1
Coverage: 20, Tot. Cov: 125.000000, 47/149, STDB: 612172500.000000, IPB: 120977492.000000, STDT: 738956547.000000, IPT: 578167042.000000, BOH/LOH: 5.060218,1.278102, MAX:1
Coverage: 20, Tot. Cov: 100.000000, 47/149, STDB: 395332500.000000, IPB: 100396016.000000, STDT: 519976212.000000, IPT: 450608320.000000, BOH/LOH: 3.937731,1.153943, MAX:1
Coverage: 20, Tot. Cov: 118.000000, 47/149, STDB: 261022500.000000, IPB: 107278424.000000, STDT: 2180489315.000000, IPT: 565391296.000000, BOH/LOH: 2.433131,3.856602, MAX:1
Coverage: 20, Tot. Cov: 63.000000, 48/149, STDB: 220905000.000000, IPB: 44549544.000000, STDT: 851297676.000000, IPT: 300520636.000000, BOH/LOH: 4.958637,2.832743, MAX:1
Coverage: 20, Tot. Cov: 70.000000, 48/149, STDB: 157370000.000000, IPB: 48968760.000000, STDT: 477179871.000000, IPT: 335203572.000000, BOH/LOH: 3.213682,1.423552, MAX:1
Coverage: 20, Tot. Cov: 45.000000, 48/149, STDB: 110440000.000000, IPB: 29645376.000000, STDT: 2218088191.000000, IPT: 223207640.000000, BOH/LOH: 3.725370,9.937331, MAX:1
Coverage: 20, Tot. Cov: 120.000000, 49/149, STDB: 495352500.000000, IPB: 75583500.000000, STDT: 851894918.000000, IPT: 736477898.000000, BOH/LOH: 6.553712,1.156715, MAX:1
Coverage: 20, Tot. Cov: 102.000000, 49/149, STDB: 288232500.000000, IPB: 58149604.000000, STDT: 3126485954.000000, IPT: 629898754.000000, BOH/LOH: 4.956741,4.963474, MAX:1
Coverage: 20, Tot. Cov: 229.000000, 50/149, STDB: 718462500.000000, IPB: 188962548.000000, STDT: 2598613644.000000, IPT: 1222555994.000000, BOH/LOH: 3.802142,2.125558, MAX:1
Coverage: 20, Tot. Cov: 233.000000, 50/149, STDB: 626625000.000000, IPB: 195787092.000000, STDT: 1915711594.000000, IPT: 1234838213.000000, BOH/LOH: 3.200543,1.551387, MAX:1
Coverage: 20, Tot. Cov: 212.000000, 50/149, STDB: 449087500.000000, IPB: 168253232.000000, STDT: 4985276413.000000, IPT: 1139396304.000000, BOH/LOH: 2.669117,4.375366, MAX:1
Coverage: 20, Tot. Cov: 148.000000, 51/149, STDB: 269685000.000000, IPB: 108545260.000000, STDT: 920607377.000000, IPT: 633359360.000000, BOH/LOH: 2.484540,1.453531, MAX:1
Coverage: 20, Tot. Cov: 118.000000, 51/149, STDB: 194100000.000000, IPB: 80076808.000000, STDT: 2431171893.000000, IPT: 511218202.000000, BOH/LOH: 2.423923,4.755644, MAX:1
Coverage: 20, Tot. Cov: 285.000000, 52/149, STDB: 735150000.000000, IPB: 170359796.000000, STDT: 2055897838.000000, IPT: 1390055105.000000, BOH/LOH: 4.315279,1.479005, MAX:1
Coverage: 20, Tot. Cov: 278.000000, 52/149, STDB: 468120000.000000, IPB: 166413860.000000, STDT: 1532872058.000000, IPT: 1338124738.000000, BOH/LOH: 2.812987,1.145537, MAX:1
Coverage: 20, Tot. Cov: 225.000000, 52/149, STDB: 316965000.000000, IPB: 127513192.000000, STDT: 8348137196.000000, IPT: 1114829694.000000, BOH/LOH: 2.485743,7.488262, MAX:1
Coverage: 20, Tot. Cov: 83.000000, 53/149, STDB: 16210000.000000, IPB: 2802612.000000, STDT: 405581491.000000, IPT: 254877961.000000, BOH/LOH: 5.783890,1.591277, MAX:1
Coverage: 20, Tot. Cov: 92.000000, 53/149, STDB: 9230000.000000, IPB: 3124944.000000, STDT: 363162849.000000, IPT: 286384996.000000, BOH/LOH: 2.953653,1.268093, MAX:1
Coverage: 20, Tot. Cov: 64.000000, 53/149, STDB: 7330000.000000, IPB: 2116416.000000, STDT: 444016023.000000, IPT: 195613001.000000, BOH/LOH: 3.463402,2.269870, MAX:1
Coverage: 20, Tot. Cov: 39.000000, 54/149, STDB: 3142500.000000, IPB: 763812.000000, STDT: 166896558.000000, IPT: 115374950.000000, BOH/LOH: 4.114232,1.446558, MAX:1
Coverage: 20, Tot. Cov: 25.000000, 54/149, STDB: 2287500.000000, IPB: 488732.000000, STDT: 84486075.000000, IPT: 71834116.000000, BOH/LOH: 4.680479,1.176127, MAX:1
Coverage: 20, Tot. Cov: 24.000000, 54/149, STDB: 1197500.000000, IPB: 468296.000000, STDT: 88806000.000000, IPT: 69020401.000000, BOH/LOH: 2.557143,1.286663, MAX:1
Coverage: 20, Tot. Cov: 34.000000, 55/149, STDB: 5300000.000000, IPB: 1238124.000000, STDT: 192214006.000000, IPT: 111544950.000000, BOH/LOH: 4.280670,1.723198, MAX:1
Coverage: 20, Tot. Cov: 34.000000, 55/149, STDB: 3722500.000000, IPB: 1237800.000000, STDT: 121836672.000000, IPT: 111328887.000000, BOH/LOH: 3.007352,1.094385, MAX:1
Coverage: 20, Tot. Cov: 25.000000, 55/149, STDB: 2612500.000000, IPB: 909940.000000, STDT: 161607806.000000, IPT: 81977073.000000, BOH/LOH: 2.871068,1.971378, MAX:1
Coverage: 20, Tot. Cov: 271.000000, 56/149, STDB: 47100000.000000, IPB: 6139484.000000, STDT: 1804734911.000000, IPT: 1060610648.000000, BOH/LOH: 7.671654,1.701600, MAX:1
Coverage: 20, Tot. Cov: 275.000000, 56/149, STDB: 34695000.000000, IPB: 6232648.000000, STDT: 1761183318.000000, IPT: 1098302805.000000, BOH/LOH: 5.566655,1.603550, MAX:1
Coverage: 20, Tot. Cov: 275.000000, 56/149, STDB: 25290000.000000, IPB: 6154276.000000, STDT: 3214265528.000000, IPT: 1110780275.000000, BOH/LOH: 4.109338,2.893701, MAX:1
Coverage: 20, Tot. Cov: 201.000000, 57/149, STDB: 47912500.000000, IPB: 7826064.000000, STDT: 980270960.000000, IPT: 769381842.000000, BOH/LOH: 6.122171,1.274102, MAX:1
Coverage: 20, Tot. Cov: 216.000000, 57/149, STDB: 30775000.000000, IPB: 8334852.000000, STDT: 1412279982.000000, IPT: 891019458.000000, BOH/LOH: 3.692327,1.585016, MAX:1
Coverage: 20, Tot. Cov: 188.000000, 57/149, STDB: 23637500.000000, IPB: 6602168.000000, STDT: 2978678391.000000, IPT: 800268862.000000, BOH/LOH: 3.580263,3.722097, MAX:1
Coverage: 20, Tot. Cov: 121.000000, 58/149, STDB: 173730000.000000, IPB: 16603168.000000, STDT: 824916602.000000, IPT: 663768437.000000, BOH/LOH: 10.463666,1.242778, MAX:1
Coverage: 20, Tot. Cov: 128.000000, 58/149, STDB: 103920000.000000, IPB: 18175488.000000, STDT: 938831074.000000, IPT: 717372197.000000, BOH/LOH: 5.717591,1.308708, MAX:1
Coverage: 20, Tot. Cov: 120.000000, 58/149, STDB: 76410000.000000, IPB: 14784944.000000, STDT: 1549292273.000000, IPT: 708552085.000000, BOH/LOH: 5.168095,2.186561, MAX:1
Coverage: 20, Tot. Cov: 250.000000, 59/149, STDB: 42585000.000000, IPB: 9905904.000000, STDT: 1231994591.000000, IPT: 727387237.000000, BOH/LOH: 4.298951,1.693726, MAX:1
Coverage: 20, Tot. Cov: 262.000000, 59/149, STDB: 41820000.000000, IPB: 10632504.000000, STDT: 993133579.000000, IPT: 759913803.000000, BOH/LOH: 3.933222,1.306903, MAX:1
Coverage: 20, Tot. Cov: 280.000000, 59/149, STDB: 27870000.000000, IPB: 11306044.000000, STDT: 3343777226.000000, IPT: 896155946.000000, BOH/LOH: 2.465053,3.731245, MAX:1
Coverage: 20, Tot. Cov: 189.000000, 60/149, STDB: 28780000.000000, IPB: 6336024.000000, STDT: 739747538.000000, IPT: 634874401.000000, BOH/LOH: 4.542281,1.165187, MAX:1
Coverage: 20, Tot. Cov: 175.000000, 60/149, STDB: 19950000.000000, IPB: 5880516.000000, STDT: 761124581.000000, IPT: 589038629.000000, BOH/LOH: 3.392559,1.292147, MAX:1
Coverage: 20, Tot. Cov: 168.000000, 60/149, STDB: 14680000.000000, IPB: 5327752.000000, STDT: 1533686012.000000, IPT: 570909712.000000, BOH/LOH: 2.755384,2.686390, MAX:1
Coverage: 20, Tot. Cov: 43.000000, 61/149, STDB: 12495000.000000, IPB: 3578920.000000, STDT: 388301906.000000, IPT: 143369680.000000, BOH/LOH: 3.491277,2.708396, MAX:1
Coverage: 20, Tot. Cov: 23.000000, 61/149, STDB: 9242500.000000, IPB: 1916460.000000, STDT: 93802691.000000, IPT: 75412087.000000, BOH/LOH: 4.822694,1.243868, MAX:1
Coverage: 20, Tot. Cov: 20.000000, 61/149, STDB: 5910000.000000, IPB: 1661780.000000, STDT: 206983318.000000, IPT: 65685847.000000, BOH/LOH: 3.556427,3.151110, MAX:1
Coverage: 20, Tot. Cov: 150.000000, 62/149, STDB: 3080962500.000000, IPB: 571328916.000000, STDT: 1230499054.000000, IPT: 1141908340.000000, BOH/LOH: 5.392625,1.077581, MAX:1
Coverage: 20, Tot. Cov: 147.000000, 62/149, STDB: 2345602500.000000, IPB: 565373456.000000, STDT: 1368705635.000000, IPT: 1115000930.000000, BOH/LOH: 4.148767,1.227538, MAX:1
Coverage: 20, Tot. Cov: 122.000000, 62/149, STDB: 1431645000.000000, IPB: 364451004.000000, STDT: 3366587977.000000, IPT: 883736509.000000, BOH/LOH: 3.928224,3.809493, MAX:1
Coverage: 20, Tot. Cov: 190.000000, 63/149, STDB: 2008530000.000000, IPB: 331310740.000000, STDT: 1632133832.000000, IPT: 1295223077.000000, BOH/LOH: 6.062375,1.260118, MAX:1
Coverage: 20, Tot. Cov: 175.000000, 63/149, STDB: 1472800000.000000, IPB: 296814476.000000, STDT: 1275961781.000000, IPT: 1155185637.000000, BOH/LOH: 4.962022,1.104551, MAX:1
Coverage: 20, Tot. Cov: 154.000000, 63/149, STDB: 909710000.000000, IPB: 237428412.000000, STDT: 5911709811.000000, IPT: 982649855.000000, BOH/LOH: 3.831513,6.016090, MAX:1
Coverage: 20, Tot. Cov: 121.000000, 64/149, STDB: 799950000.000000, IPB: 166560956.000000, STDT: 1303770102.000000, IPT: 796920143.000000, BOH/LOH: 4.802746,1.636011, MAX:1
Coverage: 20, Tot. Cov: 133.000000, 64/149, STDB: 463185000.000000, IPB: 181455500.000000, STDT: 1135391274.000000, IPT: 913827668.000000, BOH/LOH: 2.552609,1.242457, MAX:1
Coverage: 20, Tot. Cov: 78.000000, 64/149, STDB: 352995000.000000, IPB: 97865436.000000, STDT: 4564737339.000000, IPT: 544490822.000000, BOH/LOH: 3.606942,8.383497, MAX:1
Coverage: 20, Tot. Cov: 228.000000, 65/149, STDB: 1352950000.000000, IPB: 336810504.000000, STDT: 1396041864.000000, IPT: 1276899122.000000, BOH/LOH: 4.016947,1.093306, MAX:1
Coverage: 20, Tot. Cov: 223.000000, 65/149, STDB: 953437500.000000, IPB: 322564488.000000, STDT: 1484457869.000000, IPT: 1262135944.000000, BOH/LOH: 2.955804,1.176147, MAX:1
Coverage: 20, Tot. Cov: 180.000000, 65/149, STDB: 650812500.000000, IPB: 241811560.000000, STDT: 6422476752.000000, IPT: 1002073322.000000, BOH/LOH: 2.691404,6.409188, MAX:1
Coverage: 20, Tot. Cov: 121.000000, 66/149, STDB: 681975000.000000, IPB: 147007456.000000, STDT: 1223339264.000000, IPT: 629398174.000000, BOH/LOH: 4.639050,1.943665, MAX:1
Coverage: 20, Tot. Cov: 96.000000, 66/149, STDB: 400987500.000000, IPB: 120542492.000000, STDT: 615003195.000000, IPT: 476255362.000000, BOH/LOH: 3.326524,1.291331, MAX:1
Coverage: 20, Tot. Cov: 96.000000, 66/149, STDB: 312592500.000000, IPB: 97756156.000000, STDT: 2464945300.000000, IPT: 542670087.000000, BOH/LOH: 3.197676,4.542254, MAX:1
Coverage: 20, Tot. Cov: 196.000000, 67/149, STDB: 824490000.000000, IPB: 211488432.000000, STDT: 1519347457.000000, IPT: 1364774207.000000, BOH/LOH: 3.898511,1.113259, MAX:1
Coverage: 20, Tot. Cov: 155.000000, 67/149, STDB: 428920000.000000, IPB: 152195176.000000, STDT: 9191983152.000000, IPT: 1093415995.000000, BOH/LOH: 2.818223,8.406666, MAX:1
Coverage: 20, Tot. Cov: 191.000000, 68/149, STDB: 1906230000.000000, IPB: 409228704.000000, STDT: 1799765420.000000, IPT: 1151287527.000000, BOH/LOH: 4.658104,1.563263, MAX:1
Coverage: 20, Tot. Cov: 182.000000, 68/149, STDB: 1128950000.000000, IPB: 383764500.000000, STDT: 1350781600.000000, IPT: 1083311889.000000, BOH/LOH: 2.941778,1.246900, MAX:1
Coverage: 20, Tot. Cov: 144.000000, 68/149, STDB: 742290000.000000, IPB: 268808260.000000, STDT: 6416221339.000000, IPT: 887848359.000000, BOH/LOH: 2.761411,7.226709, MAX:1
Coverage: 20, Tot. Cov: 165.000000, 69/149, STDB: 1743840000.000000, IPB: 280349476.000000, STDT: 1868607209.000000, IPT: 1201329205.000000, BOH/LOH: 6.220236,1.555450, MAX:1
Coverage: 20, Tot. Cov: 178.000000, 69/149, STDB: 1068770000.000000, IPB: 313441684.000000, STDT: 1513759994.000000, IPT: 1323420412.000000, BOH/LOH: 3.409789,1.143824, MAX:1
Coverage: 20, Tot. Cov: 153.000000, 69/149, STDB: 693030000.000000, IPB: 248909420.000000, STDT: 5553165441.000000, IPT: 1130710012.000000, BOH/LOH: 2.784266,4.911220, MAX:1
Coverage: 20, Tot. Cov: 24.000000, 70/149, STDB: 329492500.000000, IPB: 60323728.000000, STDT: 222069494.000000, IPT: 180707076.000000, BOH/LOH: 5.462071,1.228892, MAX:1
Coverage: 20, Tot. Cov: 24.000000, 70/149, STDB: 238077500.000000, IPB: 59843740.000000, STDT: 201198694.000000, IPT: 181318322.000000, BOH/LOH: 3.978319,1.109643, MAX:1
Coverage: 20, Tot. Cov: 20.000000, 70/149, STDB: 174795000.000000, IPB: 49617052.000000, STDT: 871300187.000000, IPT: 152293334.000000, BOH/LOH: 3.522882,5.721197, MAX:1
Coverage: 20, Tot. Cov: 129.000000, 71/149, STDB: 1692750000.000000, IPB: 228392856.000000, STDT: 1058594726.000000, IPT: 709723871.000000, BOH/LOH: 7.411572,1.491559, MAX:1
Coverage: 20, Tot. Cov: 136.000000, 71/149, STDB: 1010325000.000000, IPB: 261328132.000000, STDT: 822726635.000000, IPT: 754006450.000000, BOH/LOH: 3.866116,1.091140, MAX:1
Coverage: 20, Tot. Cov: 121.000000, 71/149, STDB: 726705000.000000, IPB: 198209280.000000, STDT: 4671846784.000000, IPT: 642613911.000000, BOH/LOH: 3.666352,7.270068, MAX:1
Coverage: 20, Tot. Cov: 147.000000, 72/149, STDB: 1173307500.000000, IPB: 350835768.000000, STDT: 1374617676.000000, IPT: 1136099307.000000, BOH/LOH: 3.344321,1.209945, MAX:1
Coverage: 20, Tot. Cov: 142.000000, 72/149, STDB: 898417500.000000, IPB: 336863412.000000, STDT: 1545076860.000000, IPT: 1089856888.000000, BOH/LOH: 2.667008,1.417688, MAX:1
Coverage: 20, Tot. Cov: 125.000000, 72/149, STDB: 550470000.000000, IPB: 287501576.000000, STDT: 5961280453.000000, IPT: 942874721.000000, BOH/LOH: 1.914668,6.322452, MAX:1
Coverage: 20, Tot. Cov: 133.000000, 73/149, STDB: 1550610000.000000, IPB: 356268720.000000, STDT: 875893296.000000, IPT: 836985331.000000, BOH/LOH: 4.352361,1.046486, MAX:1
Coverage: 20, Tot. Cov: 127.000000, 73/149, STDB: 1117357500.000000, IPB: 338585640.000000, STDT: 820648702.000000, IPT: 785449763.000000, BOH/LOH: 3.300074,1.044814, MAX:1
Coverage: 20, Tot. Cov: 97.000000, 73/149, STDB: 619020000.000000, IPB: 235355632.000000, STDT: 5464625257.000000, IPT: 612874200.000000, BOH/LOH: 2.630147,8.916390, MAX:1
Coverage: 20, Tot. Cov: 61.000000, 74/149, STDB: 813900000.000000, IPB: 142741688.000000, STDT: 482264065.000000, IPT: 448879302.000000, BOH/LOH: 5.701908,1.074374, MAX:1
Coverage: 20, Tot. Cov: 46.000000, 74/149, STDB: 571900000.000000, IPB: 105513844.000000, STDT: 521500729.000000, IPT: 331489916.000000, BOH/LOH: 5.420142,1.573202, MAX:1
Coverage: 20, Tot. Cov: 67.000000, 74/149, STDB: 420640000.000000, IPB: 134839948.000000, STDT: 2511570754.000000, IPT: 525518077.000000, BOH/LOH: 3.119550,4.779228, MAX:1
Coverage: 20, Tot. Cov: 293.000000, 75/149, STDB: 435780000.000000, IPB: 94132436.000000, STDT: 3162041551.000000, IPT: 1350837369.000000, BOH/LOH: 4.629435,2.340801, MAX:1
Coverage: 20, Tot. Cov: 299.000000, 75/149, STDB: 357030000.000000, IPB: 97131448.000000, STDT: 3052092631.000000, IPT: 1387305407.000000, BOH/LOH: 3.675741,2.200015, MAX:1
Coverage: 20, Tot. Cov: 273.000000, 75/149, STDB: 250290000.000000, IPB: 84251396.000000, STDT: 5944569943.000000, IPT: 1224784657.000000, BOH/LOH: 2.970752,4.853563, MAX:1
Coverage: 20, Tot. Cov: 184.000000, 76/149, STDB: 266870000.000000, IPB: 50739524.000000, STDT: 1303657933.000000, IPT: 802190767.000000, BOH/LOH: 5.259608,1.625122, MAX:1
Coverage: 20, Tot. Cov: 174.000000, 76/149, STDB: 233610000.000000, IPB: 49307032.000000, STDT: 772817982.000000, IPT: 726956784.000000, BOH/LOH: 4.737864,1.063087, MAX:1
Coverage: 20, Tot. Cov: 148.000000, 76/149, STDB: 148510000.000000, IPB: 32531500.000000, STDT: 1971293505.000000, IPT: 639109597.000000, BOH/LOH: 4.565114,3.084437, MAX:1
Coverage: 20, Tot. Cov: 130.000000, 77/149, STDB: 256635000.000000, IPB: 42828064.000000, STDT: 770538845.000000, IPT: 704698504.000000, BOH/LOH: 5.992216,1.093431, MAX:1
Coverage: 20, Tot. Cov: 136.000000, 77/149, STDB: 198015000.000000, IPB: 46121980.000000, STDT: 975340174.000000, IPT: 764009684.000000, BOH/LOH: 4.293289,1.276607, MAX:1
Coverage: 20, Tot. Cov: 121.000000, 77/149, STDB: 116745000.000000, IPB: 36747912.000000, STDT: 2300014692.000000, IPT: 617617598.000000, BOH/LOH: 3.176915,3.724011, MAX:1
Coverage: 20, Tot. Cov: 149.000000, 78/149, STDB: 282660000.000000, IPB: 70625536.000000, STDT: 1097070724.000000, IPT: 709298654.000000, BOH/LOH: 4.002235,1.546698, MAX:1
Coverage: 20, Tot. Cov: 130.000000, 78/149, STDB: 195315000.000000, IPB: 60977912.000000, STDT: 910768497.000000, IPT: 551924113.000000, BOH/LOH: 3.203045,1.650170, MAX:1
Coverage: 20, Tot. Cov: 120.000000, 78/149, STDB: 126600000.000000, IPB: 53110960.000000, STDT: 1899707995.000000, IPT: 619748861.000000, BOH/LOH: 2.383689,3.065287, MAX:1
Coverage: 20, Tot. Cov: 40.000000, 79/149, STDB: 89557500.000000, IPB: 20416484.000000, STDT: 377564021.000000, IPT: 159995506.000000, BOH/LOH: 4.386529,2.359841, MAX:1
Coverage: 20, Tot. Cov: 21.000000, 79/149, STDB: 49510000.000000, IPB: 8952244.000000, STDT: 84693650.000000, IPT: 80250414.000000, BOH/LOH: 5.530457,1.055367, MAX:1
Coverage: 20, Tot. Cov: 22.000000, 79/149, STDB: 31815000.000000, IPB: 9360044.000000, STDT: 448967733.000000, IPT: 85866096.000000, BOH/LOH: 3.399022,5.228696, MAX:1
Coverage: 20, Tot. Cov: 61.000000, 80/149, STDB: 71415000.000000, IPB: 15110804.000000, STDT: 300242594.000000, IPT: 249571201.000000, BOH/LOH: 4.726089,1.203034, MAX:1
Coverage: 20, Tot. Cov: 78.000000, 80/149, STDB: 60675000.000000, IPB: 19188136.000000, STDT: 466226629.000000, IPT: 328915935.000000, BOH/LOH: 3.162110,1.417464, MAX:1
Coverage: 20, Tot. Cov: 53.000000, 80/149, STDB: 42535000.000000, IPB: 11914788.000000, STDT: 1273648151.000000, IPT: 235556652.000000, BOH/LOH: 3.569933,5.406972, MAX:1
Coverage: 20, Tot. Cov: 77.000000, 81/149, STDB: 83995000.000000, IPB: 18263776.000000, STDT: 661424158.000000, IPT: 358365716.000000, BOH/LOH: 4.598994,1.845668, MAX:1
Coverage: 20, Tot. Cov: 74.000000, 81/149, STDB: 50895000.000000, IPB: 17961908.000000, STDT: 386468144.000000, IPT: 334614681.000000, BOH/LOH: 2.833496,1.154965, MAX:1
Coverage: 20, Tot. Cov: 40.000000, 81/149, STDB: 35085000.000000, IPB: 9365824.000000, STDT: 772025130.000000, IPT: 178237138.000000, BOH/LOH: 3.746067,4.331449, MAX:1
Coverage: 20, Tot. Cov: 65.000000, 82/149, STDB: 83835000.000000, IPB: 16218976.000000, STDT: 748035934.000000, IPT: 233617504.000000, BOH/LOH: 5.168945,3.201969, MAX:1
Coverage: 20, Tot. Cov: 85.000000, 82/149, STDB: 53660000.000000, IPB: 21050452.000000, STDT: 347433803.000000, IPT: 308178817.000000, BOH/LOH: 2.549114,1.127377, MAX:1
Coverage: 20, Tot. Cov: 57.000000, 82/149, STDB: 37700000.000000, IPB: 13983700.000000, STDT: 1131526943.000000, IPT: 206280521.000000, BOH/LOH: 2.695996,5.485380, MAX:1
Coverage: 20, Tot. Cov: 341.000000, 83/149, STDB: 2074485000.000000, IPB: 169206612.000000, STDT: 2398268624.000000, IPT: 1722508235.000000, BOH/LOH: 12.260071,1.392312, MAX:1
Coverage: 20, Tot. Cov: 328.000000, 83/149, STDB: 1662430000.000000, IPB: 143489708.000000, STDT: 1719115372.000000, IPT: 1593544925.000000, BOH/LOH: 11.585709,1.078799, MAX:1
Coverage: 20, Tot. Cov: 328.000000, 83/149, STDB: 1160057500.000000, IPB: 137064368.000000, STDT: 11237566436.000000, IPT: 1599697895.000000, BOH/LOH: 8.463596,7.024805, MAX:1
Coverage: 20, Tot. Cov: 163.000000, 84/149, STDB: 157480000.000000, IPB: 35530212.000000, STDT: 1280277887.000000, IPT: 789105604.000000, BOH/LOH: 4.432284,1.622442, MAX:1
Coverage: 20, Tot. Cov: 156.000000, 84/149, STDB: 127570000.000000, IPB: 33168100.000000, STDT: 987715904.000000, IPT: 776019875.000000, BOH/LOH: 3.846165,1.272797, MAX:1
Coverage: 20, Tot. Cov: 146.000000, 84/149, STDB: 89160000.000000, IPB: 30155316.000000, STDT: 3479552178.000000, IPT: 746850789.000000, BOH/LOH: 2.956693,4.658966, MAX:1
Coverage: 20, Tot. Cov: 29.000000, 85/149, STDB: 41485000.000000, IPB: 7630052.000000, STDT: 183523274.000000, IPT: 133997339.000000, BOH/LOH: 5.437053,1.369604, MAX:1
Coverage: 20, Tot. Cov: 38.000000, 85/149, STDB: 33860000.000000, IPB: 9979556.000000, STDT: 210394640.000000, IPT: 171270286.000000, BOH/LOH: 3.392937,1.228436, MAX:1
Coverage: 20, Tot. Cov: 20.000000, 85/149, STDB: 21240000.000000, IPB: 5251484.000000, STDT: 507925509.000000, IPT: 84842650.000000, BOH/LOH: 4.044571,5.986677, MAX:1
Coverage: 20, Tot. Cov: 63.000000, 86/149, STDB: 119750000.000000, IPB: 21559184.000000, STDT: 413425369.000000, IPT: 301419169.000000, BOH/LOH: 5.554477,1.371596, MAX:1
Coverage: 20, Tot. Cov: 65.000000, 86/149, STDB: 80605000.000000, IPB: 23571832.000000, STDT: 340387190.000000, IPT: 302563550.000000, BOH/LOH: 3.419548,1.125011, MAX:1
Coverage: 20, Tot. Cov: 46.000000, 86/149, STDB: 60195000.000000, IPB: 15347788.000000, STDT: 1131002160.000000, IPT: 212085095.000000, BOH/LOH: 3.922064,5.332775, MAX:1
Coverage: 20, Tot. Cov: 127.000000, 87/149, STDB: 219742500.000000, IPB: 43859740.000000, STDT: 848140425.000000, IPT: 788325802.000000, BOH/LOH: 5.010119,1.075876, MAX:1
Coverage: 20, Tot. Cov: 149.000000, 87/149, STDB: 149085000.000000, IPB: 51200884.000000, STDT: 1376945976.000000, IPT: 979025376.000000, BOH/LOH: 2.911766,1.406446, MAX:1
Coverage: 20, Tot. Cov: 105.000000, 87/149, STDB: 83827500.000000, IPB: 34018516.000000, STDT: 4030778583.000000, IPT: 722091512.000000, BOH/LOH: 2.464173,5.582088, MAX:1
Coverage: 20, Tot. Cov: 347.000000, 88/149, STDB: 451640000.000000, IPB: 107290444.000000, STDT: 3450136724.000000, IPT: 1620138858.000000, BOH/LOH: 4.209508,2.129531, MAX:1
Coverage: 20, Tot. Cov: 323.000000, 88/149, STDB: 387835000.000000, IPB: 101990244.000000, STDT: 1690518959.000000, IPT: 1429882252.000000, BOH/LOH: 3.802668,1.182278, MAX:1
Coverage: 20, Tot. Cov: 296.000000, 88/149, STDB: 229425000.000000, IPB: 86657900.000000, STDT: 6806668607.000000, IPT: 1358731230.000000, BOH/LOH: 2.647479,5.009577, MAX:1
Coverage: 20, Tot. Cov: 81.000000, 89/149, STDB: 128155000.000000, IPB: 36749760.000000, STDT: 340675739.000000, IPT: 322729752.000000, BOH/LOH: 3.487234,1.055607, MAX:1
Coverage: 20, Tot. Cov: 68.000000, 89/149, STDB: 73305000.000000, IPB: 28330548.000000, STDT: 1688394653.000000, IPT: 291705853.000000, BOH/LOH: 2.587490,5.788004, MAX:1
Coverage: 20, Tot. Cov: 73.000000, 90/149, STDB: 162420000.000000, IPB: 24835020.000000, STDT: 516464315.000000, IPT: 431690352.000000, BOH/LOH: 6.539958,1.196377, MAX:1
Coverage: 20, Tot. Cov: 87.000000, 90/149, STDB: 152560000.000000, IPB: 32511376.000000, STDT: 619928895.000000, IPT: 557032718.000000, BOH/LOH: 4.692511,1.112913, MAX:1
Coverage: 20, Tot. Cov: 79.000000, 90/149, STDB: 86935000.000000, IPB: 27346092.000000, STDT: 2803143729.000000, IPT: 503033528.000000, BOH/LOH: 3.179065,5.572479, MAX:1
Coverage: 20, Tot. Cov: 167.000000, 91/149, STDB: 567470000.000000, IPB: 106105940.000000, STDT: 1025674871.000000, IPT: 852209089.000000, BOH/LOH: 5.348145,1.203548, MAX:1
Coverage: 20, Tot. Cov: 147.000000, 91/149, STDB: 293740000.000000, IPB: 93732360.000000, STDT: 5945673584.000000, IPT: 781614581.000000, BOH/LOH: 3.133816,7.606912, MAX:1
Coverage: 20, Tot. Cov: 70.000000, 92/149, STDB: 96095000.000000, IPB: 19594528.000000, STDT: 390025248.000000, IPT: 315985430.000000, BOH/LOH: 4.904175,1.234314, MAX:1
Coverage: 20, Tot. Cov: 85.000000, 92/149, STDB: 63485000.000000, IPB: 23363264.000000, STDT: 497317365.000000, IPT: 412095287.000000, BOH/LOH: 2.717300,1.206802, MAX:1
Coverage: 20, Tot. Cov: 53.000000, 92/149, STDB: 44410000.000000, IPB: 14328740.000000, STDT: 1473521142.000000, IPT: 256467309.000000, BOH/LOH: 3.099365,5.745454, MAX:1
Coverage: 20, Tot. Cov: 121.000000, 93/149, STDB: 285682500.000000, IPB: 43927004.000000, STDT: 1166440543.000000, IPT: 475982341.000000, BOH/LOH: 6.503574,2.450596, MAX:1
Coverage: 20, Tot. Cov: 131.000000, 93/149, STDB: 259320000.000000, IPB: 54358132.000000, STDT: 526016597.000000, IPT: 503131925.000000, BOH/LOH: 4.770583,1.045484, MAX:1
Coverage: 20, Tot. Cov: 121.000000, 93/149, STDB: 146602500.000000, IPB: 43914216.000000, STDT: 2109769723.000000, IPT: 476095263.000000, BOH/LOH: 3.338384,4.431402, MAX:1
Coverage: 20, Tot. Cov: 20.000000, 94/149, STDB: 51570000.000000, IPB: 7928348.000000, STDT: 98814086.000000, IPT: 74139232.000000, BOH/LOH: 6.504508,1.332818, MAX:1
Coverage: 20, Tot. Cov: 32.000000, 94/149, STDB: 42700000.000000, IPB: 12731648.000000, STDT: 125347033.000000, IPT: 120135797.000000, BOH/LOH: 3.353847,1.043378, MAX:1
Coverage: 20, Tot. Cov: 24.000000, 94/149, STDB: 29120000.000000, IPB: 8820936.000000, STDT: 661778801.000000, IPT: 100349164.000000, BOH/LOH: 3.301237,6.594761, MAX:1
Coverage: 20, Tot. Cov: 34.000000, 95/149, STDB: 76917500.000000, IPB: 18722064.000000, STDT: 219032936.000000, IPT: 137736161.000000, BOH/LOH: 4.108388,1.590236, MAX:1
Coverage: 20, Tot. Cov: 20.000000, 95/149, STDB: 62437500.000000, IPB: 10779920.000000, STDT: 99433725.000000, IPT: 79001690.000000, BOH/LOH: 5.792019,1.258628, MAX:1
Coverage: 20, Tot. Cov: 21.000000, 95/149, STDB: 40112500.000000, IPB: 10736976.000000, STDT: 447313041.000000, IPT: 83850165.000000, BOH/LOH: 3.735922,5.334671, MAX:1
Coverage: 20, Tot. Cov: 346.000000, 96/149, STDB: 582380000.000000, IPB: 134640576.000000, STDT: 3755962749.000000, IPT: 1864083237.000000, BOH/LOH: 4.325442,2.014911, MAX:1
Coverage: 20, Tot. Cov: 362.000000, 96/149, STDB: 367160000.000000, IPB: 138264184.000000, STDT: 10521116470.000000, IPT: 2013304349.000000, BOH/LOH: 2.655496,5.225795, MAX:1
Coverage: 20, Tot. Cov: 390.000000, 97/149, STDB: 2371380000.000000, IPB: 273962132.000000, STDT: 2674062699.000000, IPT: 2120017023.000000, BOH/LOH: 8.655868,1.261340, MAX:1
Coverage: 20, Tot. Cov: 397.000000, 97/149, STDB: 1738640000.000000, IPB: 290672508.000000, STDT: 2894169974.000000, IPT: 2181243487.000000, BOH/LOH: 5.981439,1.326844, MAX:1
Coverage: 20, Tot. Cov: 370.000000, 97/149, STDB: 1250040000.000000, IPB: 223137632.000000, STDT: 9234359573.000000, IPT: 1978526925.000000, BOH/LOH: 5.602103,4.667290, MAX:1
Coverage: 20, Tot. Cov: 20.000000, 98/149, STDB: 74392500.000000, IPB: 10078216.000000, STDT: 175476167.000000, IPT: 141097301.000000, BOH/LOH: 7.381515,1.243654, MAX:1
Coverage: 20, Tot. Cov: 20.000000, 98/149, STDB: 66792500.000000, IPB: 10078216.000000, STDT: 186052750.000000, IPT: 141097301.000000, BOH/LOH: 6.627413,1.318613, MAX:1
Coverage: 20, Tot. Cov: 20.000000, 98/149, STDB: 42565000.000000, IPB: 9324688.000000, STDT: 837535936.000000, IPT: 151316127.000000, BOH/LOH: 4.564764,5.535008, MAX:1
Coverage: 20, Tot. Cov: 87.000000, 99/149, STDB: 226590000.000000, IPB: 31560316.000000, STDT: 738104308.000000, IPT: 493366519.000000, BOH/LOH: 7.179586,1.496057, MAX:1
Coverage: 20, Tot. Cov: 116.000000, 99/149, STDB: 138547500.000000, IPB: 41759704.000000, STDT: 879969434.000000, IPT: 655400064.000000, BOH/LOH: 3.317732,1.342645, MAX:1
Coverage: 20, Tot. Cov: 114.000000, 99/149, STDB: 113812500.000000, IPB: 34327020.000000, STDT: 2552692538.000000, IPT: 765424462.000000, BOH/LOH: 3.315537,3.335003, MAX:1
Coverage: 20, Tot. Cov: 200.000000, 100/149, STDB: 98650000.000000, IPB: 15753952.000000, STDT: 1549543574.000000, IPT: 1083082642.000000, BOH/LOH: 6.261921,1.430679, MAX:1
Coverage: 20, Tot. Cov: 166.000000, 100/149, STDB: 80740000.000000, IPB: 11918672.000000, STDT: 865250010.000000, IPT: 777657481.000000, BOH/LOH: 6.774245,1.112636, MAX:1
Coverage: 20, Tot. Cov: 175.000000, 100/149, STDB: 43120000.000000, IPB: 12701444.000000, STDT: 4042385599.000000, IPT: 870625039.000000, BOH/LOH: 3.394890,4.643084, MAX:1
Coverage: 20, Tot. Cov: 136.000000, 101/149, STDB: 183052500.000000, IPB: 26380352.000000, STDT: 568953357.000000, IPT: 505164199.000000, BOH/LOH: 6.938971,1.126274, MAX:1
Coverage: 20, Tot. Cov: 140.000000, 101/149, STDB: 160492500.000000, IPB: 28864544.000000, STDT: 718848322.000000, IPT: 519223101.000000, BOH/LOH: 5.560195,1.384469, MAX:1
Coverage: 20, Tot. Cov: 121.000000, 101/149, STDB: 101820000.000000, IPB: 18797448.000000, STDT: 937033160.000000, IPT: 441814489.000000, BOH/LOH: 5.416693,2.120875, MAX:1
Coverage: 20, Tot. Cov: 20.000000, 102/149, STDB: 78142500.000000, IPB: 10561676.000000, STDT: 237616195.000000, IPT: 175093663.000000, BOH/LOH: 7.398684,1.357080, MAX:1
Coverage: 20, Tot. Cov: 31.000000, 102/149, STDB: 51510000.000000, IPB: 16210764.000000, STDT: 434780830.000000, IPT: 274445019.000000, BOH/LOH: 3.177518,1.584218, MAX:1
Coverage: 20, Tot. Cov: 21.000000, 102/149, STDB: 40992500.000000, IPB: 10287120.000000, STDT: 905184205.000000, IPT: 189107172.000000, BOH/LOH: 3.984837,4.786620, MAX:1
Coverage: 20, Tot. Cov: 42.000000, 103/149, STDB: 6400000.000000, IPB: 1853088.000000, STDT: 254965371.000000, IPT: 151548616.000000, BOH/LOH: 3.453695,1.682400, MAX:1
Coverage: 20, Tot. Cov: 43.000000, 103/149, STDB: 5232500.000000, IPB: 1913088.000000, STDT: 179318665.000000, IPT: 154788624.000000, BOH/LOH: 2.735107,1.158474, MAX:1
Coverage: 20, Tot. Cov: 26.000000, 103/149, STDB: 3345000.000000, IPB: 1146544.000000, STDT: 204309671.000000, IPT: 93629552.000000, BOH/LOH: 2.917463,2.182107, MAX:1
Coverage: 20, Tot. Cov: 147.000000, 104/149, STDB: 39577500.000000, IPB: 8370628.000000, STDT: 873031101.000000, IPT: 546090798.000000, BOH/LOH: 4.728140,1.598692, MAX:1
Coverage: 20, Tot. Cov: 120.000000, 104/149, STDB: 22020000.000000, IPB: 6545252.000000, STDT: 693902841.000000, IPT: 446823532.000000, BOH/LOH: 3.364271,1.552968, MAX:1
Coverage: 20, Tot. Cov: 120.000000, 104/149, STDB: 18315000.000000, IPB: 6556640.000000, STDT: 1061775340.000000, IPT: 448005532.000000, BOH/LOH: 2.793351,2.370005, MAX:1
Coverage: 20, Tot. Cov: 193.000000, 105/149, STDB: 55780000.000000, IPB: 13607420.000000, STDT: 891174336.000000, IPT: 713803415.000000, BOH/LOH: 4.099234,1.248487, MAX:1
Coverage: 20, Tot. Cov: 147.000000, 105/149, STDB: 43300000.000000, IPB: 10287340.000000, STDT: 600458864.000000, IPT: 521118241.000000, BOH/LOH: 4.209057,1.152251, MAX:1
Coverage: 20, Tot. Cov: 167.000000, 105/149, STDB: 31220000.000000, IPB: 11225928.000000, STDT: 1833424910.000000, IPT: 620883534.000000, BOH/LOH: 2.781062,2.952929, MAX:1
Coverage: 20, Tot. Cov: 172.000000, 106/149, STDB: 96370000.000000, IPB: 13586860.000000, STDT: 1065653341.000000, IPT: 581325317.000000, BOH/LOH: 7.092882,1.833145, MAX:1
Coverage: 20, Tot. Cov: 185.000000, 106/149, STDB: 87710000.000000, IPB: 16927476.000000, STDT: 781822608.000000, IPT: 632587453.000000, BOH/LOH: 5.181517,1.235912, MAX:1
Coverage: 20, Tot. Cov: 158.000000, 106/149, STDB: 53620000.000000, IPB: 11786648.000000, STDT: 1880107849.000000, IPT: 527027211.000000, BOH/LOH: 4.549215,3.567383, MAX:1
Coverage: 20, Tot. Cov: 216.000000, 107/149, STDB: 64675000.000000, IPB: 14716076.000000, STDT: 1601131916.000000, IPT: 931752859.000000, BOH/LOH: 4.394854,1.718408, MAX:1
Coverage: 20, Tot. Cov: 220.000000, 107/149, STDB: 61337500.000000, IPB: 14763072.000000, STDT: 1693793614.000000, IPT: 1011835226.000000, BOH/LOH: 4.154792,1.673982, MAX:1
Coverage: 20, Tot. Cov: 205.000000, 107/149, STDB: 45087500.000000, IPB: 12419452.000000, STDT: 3517312213.000000, IPT: 1007356341.000000, BOH/LOH: 3.630394,3.491627, MAX:1
Coverage: 20, Tot. Cov: 257.000000, 108/149, STDB: 120555000.000000, IPB: 22336352.000000, STDT: 805863769.000000, IPT: 757446339.000000, BOH/LOH: 5.397256,1.063922, MAX:1
Coverage: 20, Tot. Cov: 246.000000, 108/149, STDB: 93435000.000000, IPB: 19353600.000000, STDT: 921254905.000000, IPT: 724541466.000000, BOH/LOH: 4.827784,1.271501, MAX:1
Coverage: 20, Tot. Cov: 248.000000, 108/149, STDB: 82755000.000000, IPB: 18929484.000000, STDT: 1916049370.000000, IPT: 744231524.000000, BOH/LOH: 4.371751,2.574534, MAX:1
Coverage: 20, Tot. Cov: 193.000000, 109/149, STDB: 589480000.000000, IPB: 70091772.000000, STDT: 1245251260.000000, IPT: 1037998540.000000, BOH/LOH: 8.410117,1.199666, MAX:1
Coverage: 20, Tot. Cov: 168.000000, 109/149, STDB: 440580000.000000, IPB: 47159072.000000, STDT: 1086427502.000000, IPT: 817265315.000000, BOH/LOH: 9.342423,1.329345, MAX:1
Coverage: 20, Tot. Cov: 170.000000, 109/149, STDB: 283700000.000000, IPB: 43837140.000000, STDT: 3867122219.000000, IPT: 846065194.000000, BOH/LOH: 6.471681,4.570714, MAX:1
Coverage: 20, Tot. Cov: 24.000000, 110/149, STDB: 34097500.000000, IPB: 4767804.000000, STDT: 182152606.000000, IPT: 111371382.000000, BOH/LOH: 7.151615,1.635542, MAX:1
Coverage: 20, Tot. Cov: 32.000000, 110/149, STDB: 22957500.000000, IPB: 6397320.000000, STDT: 178789142.000000, IPT: 151502823.000000, BOH/LOH: 3.588612,1.180104, MAX:1
Coverage: 20, Tot. Cov: 22.000000, 110/149, STDB: 18512500.000000, IPB: 4354396.000000, STDT: 541693652.000000, IPT: 99713259.000000, BOH/LOH: 4.251451,5.432514, MAX:1
Coverage: 20, Tot. Cov: 134.000000, 111/149, STDB: 493260000.000000, IPB: 98325520.000000, STDT: 551854222.000000, IPT: 506446238.000000, BOH/LOH: 5.016602,1.089660, MAX:1
Coverage: 20, Tot. Cov: 119.000000, 111/149, STDB: 300667500.000000, IPB: 64448748.000000, STDT: 1349184082.000000, IPT: 447785080.000000, BOH/LOH: 4.665219,3.013017, MAX:1
Coverage: 20, Tot. Cov: 186.000000, 112/149, STDB: 214380000.000000, IPB: 50375412.000000, STDT: 1205265318.000000, IPT: 1060926302.000000, BOH/LOH: 4.255648,1.136050, MAX:1
Coverage: 20, Tot. Cov: 183.000000, 112/149, STDB: 118370000.000000, IPB: 49078516.000000, STDT: 4829666138.000000, IPT: 1043749572.000000, BOH/LOH: 2.411850,4.627227, MAX:1
Coverage: 20, Tot. Cov: 77.000000, 113/149, STDB: 150030000.000000, IPB: 17998000.000000, STDT: 559341925.000000, IPT: 470674983.000000, BOH/LOH: 8.335926,1.188383, MAX:1
Coverage: 20, Tot. Cov: 88.000000, 113/149, STDB: 81140000.000000, IPB: 20750248.000000, STDT: 2178056363.000000, IPT: 579864938.000000, BOH/LOH: 3.910315,3.756144, MAX:1
Coverage: 20, Tot. Cov: 217.000000, 114/149, STDB: 171900000.000000, IPB: 36944264.000000, STDT: 1516787788.000000, IPT: 826585666.000000, BOH/LOH: 4.652955,1.835004, MAX:1
Coverage: 20, Tot. Cov: 202.000000, 114/149, STDB: 108800000.000000, IPB: 34959020.000000, STDT: 817261113.000000, IPT: 752195086.000000, BOH/LOH: 3.112215,1.086502, MAX:1
Coverage: 20, Tot. Cov: 185.000000, 114/149, STDB: 79800000.000000, IPB: 30485176.000000, STDT: 2931429916.000000, IPT: 703760915.000000, BOH/LOH: 2.617666,4.165378, MAX:1
Coverage: 20, Tot. Cov: 87.000000, 115/149, STDB: 438675000.000000, IPB: 137005940.000000, STDT: 770861145.000000, IPT: 593346294.000000, BOH/LOH: 3.201868,1.299176, MAX:1
Coverage: 20, Tot. Cov: 82.000000, 115/149, STDB: 352070000.000000, IPB: 124531440.000000, STDT: 924582366.000000, IPT: 574463823.000000, BOH/LOH: 2.827158,1.609470, MAX:1
Coverage: 20, Tot. Cov: 77.000000, 115/149, STDB: 284145000.000000, IPB: 110789140.000000, STDT: 2456252360.000000, IPT: 567264585.000000, BOH/LOH: 2.564737,4.329994, MAX:1
Coverage: 20, Tot. Cov: 120.000000, 116/149, STDB: 1022407500.000000, IPB: 195221584.000000, STDT: 1053433084.000000, IPT: 844220399.000000, BOH/LOH: 5.237164,1.247818, MAX:1
Coverage: 20, Tot. Cov: 150.000000, 116/149, STDB: 929385000.000000, IPB: 276081404.000000, STDT: 1778308492.000000, IPT: 1071985044.000000, BOH/LOH: 3.366344,1.658893, MAX:1
Coverage: 20, Tot. Cov: 120.000000, 116/149, STDB: 648577500.000000, IPB: 168932528.000000, STDT: 2658334149.000000, IPT: 890133849.000000, BOH/LOH: 3.839269,2.986443, MAX:1
Coverage: 20, Tot. Cov: 110.000000, 117/149, STDB: 917985000.000000, IPB: 185867016.000000, STDT: 688334998.000000, IPT: 486426269.000000, BOH/LOH: 4.938934,1.415086, MAX:1
Coverage: 20, Tot. Cov: 120.000000, 117/149, STDB: 669007500.000000, IPB: 196008016.000000, STDT: 619178472.000000, IPT: 538371217.000000, BOH/LOH: 3.413164,1.150096, MAX:1
Coverage: 20, Tot. Cov: 112.000000, 117/149, STDB: 505365000.000000, IPB: 171757708.000000, STDT: 1849515003.000000, IPT: 512281502.000000, BOH/LOH: 2.942313,3.610349, MAX:1
Coverage: 20, Tot. Cov: 211.000000, 118/149, STDB: 999137500.000000, IPB: 244609368.000000, STDT: 2079862191.000000, IPT: 1907060647.000000, BOH/LOH: 4.084625,1.090611, MAX:1
Coverage: 20, Tot. Cov: 196.000000, 118/149, STDB: 748975000.000000, IPB: 216068616.000000, STDT: 2104247800.000000, IPT: 1760081289.000000, BOH/LOH: 3.466376,1.195540, MAX:1
Coverage: 20, Tot. Cov: 212.000000, 118/149, STDB: 674200000.000000, IPB: 239386172.000000, STDT: 8548472129.000000, IPT: 1913558874.000000, BOH/LOH: 2.816370,4.467316, MAX:1
Coverage: 20, Tot. Cov: 97.000000, 119/149, STDB: 1081822500.000000, IPB: 185681344.000000, STDT: 746721964.000000, IPT: 560008764.000000, BOH/LOH: 5.826232,1.333411, MAX:1
Coverage: 20, Tot. Cov: 114.000000, 119/149, STDB: 684630000.000000, IPB: 229171592.000000, STDT: 841908747.000000, IPT: 663737513.000000, BOH/LOH: 2.987412,1.268436, MAX:1
Coverage: 20, Tot. Cov: 91.000000, 119/149, STDB: 570337500.000000, IPB: 164207752.000000, STDT: 2940179055.000000, IPT: 534969486.000000, BOH/LOH: 3.473268,5.495975, MAX:1
Coverage: 20, Tot. Cov: 169.000000, 120/149, STDB: 537810000.000000, IPB: 141277760.000000, STDT: 939197372.000000, IPT: 871273175.000000, BOH/LOH: 3.806756,1.077960, MAX:1
Coverage: 20, Tot. Cov: 169.000000, 120/149, STDB: 407740000.000000, IPB: 141389924.000000, STDT: 946769423.000000, IPT: 866067338.000000, BOH/LOH: 2.883798,1.093182, MAX:1
Coverage: 20, Tot. Cov: 145.000000, 120/149, STDB: 275100000.000000, IPB: 115263468.000000, STDT: 6387986781.000000, IPT: 751121941.000000, BOH/LOH: 2.386706,8.504594, MAX:1
Coverage: 20, Tot. Cov: 117.000000, 121/149, STDB: 446085000.000000, IPB: 85744216.000000, STDT: 1532343420.000000, IPT: 763317231.000000, BOH/LOH: 5.202508,2.007479, MAX:1
Coverage: 20, Tot. Cov: 148.000000, 121/149, STDB: 369217500.000000, IPB: 115629484.000000, STDT: 1426695428.000000, IPT: 1056329362.000000, BOH/LOH: 3.193109,1.350616, MAX:1
Coverage: 20, Tot. Cov: 101.000000, 121/149, STDB: 236932500.000000, IPB: 70882708.000000, STDT: 4123551214.000000, IPT: 676632339.000000, BOH/LOH: 3.342599,6.094227, MAX:1
Coverage: 20, Tot. Cov: 89.000000, 122/149, STDB: 344600000.000000, IPB: 70134192.000000, STDT: 1070005841.000000, IPT: 555038568.000000, BOH/LOH: 4.913438,1.927804, MAX:1
Coverage: 20, Tot. Cov: 72.000000, 122/149, STDB: 224700000.000000, IPB: 53686384.000000, STDT: 507517737.000000, IPT: 427322640.000000, BOH/LOH: 4.185419,1.187669, MAX:1
Coverage: 20, Tot. Cov: 70.000000, 122/149, STDB: 161555000.000000, IPB: 50411288.000000, STDT: 2948604962.000000, IPT: 427380847.000000, BOH/LOH: 3.204739,6.899245, MAX:1
Coverage: 20, Tot. Cov: 267.000000, 123/149, STDB: 933420000.000000, IPB: 234085380.000000, STDT: 1662161796.000000, IPT: 1414560503.000000, BOH/LOH: 3.987519,1.175038, MAX:1
Coverage: 20, Tot. Cov: 248.000000, 123/149, STDB: 634260000.000000, IPB: 197939480.000000, STDT: 1545161305.000000, IPT: 1324216167.000000, BOH/LOH: 3.204313,1.166850, MAX:1
Coverage: 20, Tot. Cov: 213.000000, 123/149, STDB: 447705000.000000, IPB: 160357624.000000, STDT: 10136320665.000000, IPT: 1124028265.000000, BOH/LOH: 2.791916,9.017852, MAX:1
Coverage: 20, Tot. Cov: 89.000000, 124/149, STDB: 252025000.000000, IPB: 51829996.000000, STDT: 913767873.000000, IPT: 514293283.000000, BOH/LOH: 4.862532,1.776745, MAX:1
Coverage: 20, Tot. Cov: 86.000000, 124/149, STDB: 136145000.000000, IPB: 50220080.000000, STDT: 765835325.000000, IPT: 493461365.000000, BOH/LOH: 2.710967,1.551966, MAX:1
Coverage: 20, Tot. Cov: 72.000000, 124/149, STDB: 108150000.000000, IPB: 36761716.000000, STDT: 1623273646.000000, IPT: 460059692.000000, BOH/LOH: 2.941919,3.528398, MAX:1
Coverage: 20, Tot. Cov: 336.000000, 125/149, STDB: 1289660000.000000, IPB: 228928480.000000, STDT: 2054917732.000000, IPT: 1613026354.000000, BOH/LOH: 5.633462,1.273952, MAX:1
Coverage: 20, Tot. Cov: 356.000000, 125/149, STDB: 892520000.000000, IPB: 243076148.000000, STDT: 2411504741.000000, IPT: 1746563700.000000, BOH/LOH: 3.671771,1.380714, MAX:1
Coverage: 20, Tot. Cov: 345.000000, 125/149, STDB: 647800000.000000, IPB: 224824992.000000, STDT: 11900940962.000000, IPT: 1781568188.000000, BOH/LOH: 2.881352,6.680037, MAX:1
Coverage: 20, Tot. Cov: 58.000000, 126/149, STDB: 382365000.000000, IPB: 59480312.000000, STDT: 477916181.000000, IPT: 270474463.000000, BOH/LOH: 6.428430,1.766955, MAX:1
Coverage: 20, Tot. Cov: 59.000000, 126/149, STDB: 209900000.000000, IPB: 61946568.000000, STDT: 331883724.000000, IPT: 273205140.000000, BOH/LOH: 3.388404,1.214778, MAX:1
Coverage: 20, Tot. Cov: 55.000000, 126/149, STDB: 155775000.000000, IPB: 50257876.000000, STDT: 2219311180.000000, IPT: 292046881.000000, BOH/LOH: 3.099514,7.599161, MAX:1
Coverage: 20, Tot. Cov: 81.000000, 127/149, STDB: 385230000.000000, IPB: 32263400.000000, STDT: 577591527.000000, IPT: 363026416.000000, BOH/LOH: 11.940155,1.591045, MAX:1
Coverage: 20, Tot. Cov: 71.000000, 127/149, STDB: 206060000.000000, IPB: 21703824.000000, STDT: 352302727.000000, IPT: 290571772.000000, BOH/LOH: 9.494179,1.212446, MAX:1
Coverage: 20, Tot. Cov: 75.000000, 127/149, STDB: 176870000.000000, IPB: 25989964.000000, STDT: 1343967619.000000, IPT: 320546356.000000, BOH/LOH: 6.805319,4.192740, MAX:1
Coverage: 20, Tot. Cov: 72.000000, 128/149, STDB: 255340000.000000, IPB: 51272624.000000, STDT: 684572059.000000, IPT: 298688068.000000, BOH/LOH: 4.980045,2.291930, MAX:1
Coverage: 20, Tot. Cov: 81.000000, 128/149, STDB: 164065000.000000, IPB: 58792136.000000, STDT: 484712155.000000, IPT: 345172496.000000, BOH/LOH: 2.790594,1.404261, MAX:1
Coverage: 20, Tot. Cov: 64.000000, 128/149, STDB: 117455000.000000, IPB: 44642368.000000, STDT: 1636091073.000000, IPT: 273992650.000000, BOH/LOH: 2.631021,5.971295, MAX:1
Coverage: 20, Tot. Cov: 156.000000, 129/149, STDB: 597620000.000000, IPB: 125977824.000000, STDT: 1135987192.000000, IPT: 1031738438.000000, BOH/LOH: 4.743851,1.101042, MAX:1
Coverage: 20, Tot. Cov: 174.000000, 129/149, STDB: 421330000.000000, IPB: 126108604.000000, STDT: 1611694244.000000, IPT: 1216814630.000000, BOH/LOH: 3.341009,1.324519, MAX:1
Coverage: 20, Tot. Cov: 168.000000, 129/149, STDB: 336160000.000000, IPB: 113671072.000000, STDT: 4658284232.000000, IPT: 1207361525.000000, BOH/LOH: 2.957305,3.858235, MAX:1
Coverage: 20, Tot. Cov: 197.000000, 130/149, STDB: 612210000.000000, IPB: 109336176.000000, STDT: 1628340291.000000, IPT: 1057687112.000000, BOH/LOH: 5.599336,1.539529, MAX:1
Coverage: 20, Tot. Cov: 171.000000, 130/149, STDB: 387410000.000000, IPB: 90588224.000000, STDT: 1160022338.000000, IPT: 872770540.000000, BOH/LOH: 4.276604,1.329126, MAX:1
Coverage: 20, Tot. Cov: 172.000000, 130/149, STDB: 282690000.000000, IPB: 87337600.000000, STDT: 4176654454.000000, IPT: 906821988.000000, BOH/LOH: 3.236750,4.605815, MAX:1
Coverage: 20, Tot. Cov: 291.000000, 131/149, STDB: 1184310000.000000, IPB: 197555136.000000, STDT: 1405623945.000000, IPT: 1358211323.000000, BOH/LOH: 5.994833,1.034908, MAX:1
Coverage: 20, Tot. Cov: 295.000000, 131/149, STDB: 813960000.000000, IPB: 199533552.000000, STDT: 1912294638.000000, IPT: 1388512437.000000, BOH/LOH: 4.079314,1.377225, MAX:1
Coverage: 20, Tot. Cov: 271.000000, 131/149, STDB: 594615000.000000, IPB: 158703816.000000, STDT: 3800498891.000000, IPT: 1285748550.000000, BOH/LOH: 3.746696,2.955865, MAX:1
Coverage: 20, Tot. Cov: 166.000000, 132/149, STDB: 395560000.000000, IPB: 66549112.000000, STDT: 769392922.000000, IPT: 677206111.000000, BOH/LOH: 5.943881,1.136128, MAX:1
Coverage: 20, Tot. Cov: 178.000000, 132/149, STDB: 328260000.000000, IPB: 75702676.000000, STDT: 832527426.000000, IPT: 725670601.000000, BOH/LOH: 4.336174,1.147253, MAX:1
Coverage: 20, Tot. Cov: 173.000000, 132/149, STDB: 240410000.000000, IPB: 63006748.000000, STDT: 2295841761.000000, IPT: 742512100.000000, BOH/LOH: 3.815623,3.091992, MAX:1
Coverage: 20, Tot. Cov: 140.000000, 133/149, STDB: 293662500.000000, IPB: 63813656.000000, STDT: 799665663.000000, IPT: 697897225.000000, BOH/LOH: 4.601875,1.145822, MAX:1
Coverage: 20, Tot. Cov: 143.000000, 133/149, STDB: 234472500.000000, IPB: 66236476.000000, STDT: 870954147.000000, IPT: 712371429.000000, BOH/LOH: 3.539930,1.222612, MAX:1
Coverage: 20, Tot. Cov: 120.000000, 133/149, STDB: 163650000.000000, IPB: 46667284.000000, STDT: 2455684241.000000, IPT: 609157691.000000, BOH/LOH: 3.506739,4.031278, MAX:1
Coverage: 20, Tot. Cov: 89.000000, 134/149, STDB: 184072500.000000, IPB: 49195508.000000, STDT: 404276582.000000, IPT: 369907620.000000, BOH/LOH: 3.741653,1.092912, MAX:1
Coverage: 20, Tot. Cov: 93.000000, 134/149, STDB: 131640000.000000, IPB: 50670308.000000, STDT: 3083929459.000000, IPT: 395617261.000000, BOH/LOH: 2.597971,7.795235, MAX:1
Coverage: 20, Tot. Cov: 73.000000, 135/149, STDB: 156760000.000000, IPB: 34466984.000000, STDT: 699346608.000000, IPT: 387379067.000000, BOH/LOH: 4.548121,1.805329, MAX:1
Coverage: 20, Tot. Cov: 62.000000, 135/149, STDB: 99825000.000000, IPB: 27387568.000000, STDT: 680529920.000000, IPT: 360883836.000000, BOH/LOH: 3.644902,1.885731, MAX:1
Coverage: 20, Tot. Cov: 54.000000, 135/149, STDB: 80615000.000000, IPB: 23951592.000000, STDT: 1787887313.000000, IPT: 306953214.000000, BOH/LOH: 3.365747,5.824625, MAX:1
Coverage: 20, Tot. Cov: 70.000000, 136/149, STDB: 289215000.000000, IPB: 30384412.000000, STDT: 438412663.000000, IPT: 408896939.000000, BOH/LOH: 9.518532,1.072184, MAX:1
Coverage: 20, Tot. Cov: 76.000000, 136/149, STDB: 246040000.000000, IPB: 36115580.000000, STDT: 515443278.000000, IPT: 468849082.000000, BOH/LOH: 6.812572,1.099380, MAX:1
Coverage: 20, Tot. Cov: 70.000000, 136/149, STDB: 183635000.000000, IPB: 30677104.000000, STDT: 1749822171.000000, IPT: 409656234.000000, BOH/LOH: 5.986060,4.271440, MAX:1
Coverage: 20, Tot. Cov: 176.000000, 137/149, STDB: 452230000.000000, IPB: 76077148.000000, STDT: 1593154315.000000, IPT: 867556437.000000, BOH/LOH: 5.944361,1.836370, MAX:1
Coverage: 20, Tot. Cov: 154.000000, 137/149, STDB: 262790000.000000, IPB: 66832588.000000, STDT: 937746678.000000, IPT: 731419420.000000, BOH/LOH: 3.932064,1.282092, MAX:1
Coverage: 20, Tot. Cov: 175.000000, 137/149, STDB: 201820000.000000, IPB: 75028000.000000, STDT: 3790246824.000000, IPT: 867604132.000000, BOH/LOH: 2.689929,4.368636, MAX:1
Coverage: 20, Tot. Cov: 217.000000, 138/149, STDB: 365375000.000000, IPB: 77086808.000000, STDT: 2130349525.000000, IPT: 1004896419.000000, BOH/LOH: 4.739786,2.119969, MAX:1
Coverage: 20, Tot. Cov: 213.000000, 138/149, STDB: 308900000.000000, IPB: 75684004.000000, STDT: 1479404030.000000, IPT: 963857018.000000, BOH/LOH: 4.081444,1.534879, MAX:1
Coverage: 20, Tot. Cov: 190.000000, 138/149, STDB: 169925000.000000, IPB: 64371936.000000, STDT: 4457493018.000000, IPT: 898494466.000000, BOH/LOH: 2.639737,4.961069, MAX:1
Coverage: 20, Tot. Cov: 62.000000, 139/149, STDB: 127180000.000000, IPB: 20682676.000000, STDT: 884218954.000000, IPT: 248435338.000000, BOH/LOH: 6.149108,3.559151, MAX:1
Coverage: 20, Tot. Cov: 64.000000, 139/149, STDB: 73935000.000000, IPB: 21501508.000000, STDT: 339598616.000000, IPT: 254651984.000000, BOH/LOH: 3.438596,1.333579, MAX:1
Coverage: 20, Tot. Cov: 54.000000, 139/149, STDB: 55420000.000000, IPB: 18035192.000000, STDT: 1185588573.000000, IPT: 217964426.000000, BOH/LOH: 3.072881,5.439367, MAX:1
Coverage: 20, Tot. Cov: 186.000000, 140/149, STDB: 126140000.000000, IPB: 22883328.000000, STDT: 870047524.000000, IPT: 721125184.000000, BOH/LOH: 5.512310,1.206514, MAX:1
Coverage: 20, Tot. Cov: 176.000000, 140/149, STDB: 108320000.000000, IPB: 21485652.000000, STDT: 916564549.000000, IPT: 662851796.000000, BOH/LOH: 5.041504,1.382759, MAX:1
Coverage: 20, Tot. Cov: 175.000000, 140/149, STDB: 68530000.000000, IPB: 20433360.000000, STDT: 1525697478.000000, IPT: 688691784.000000, BOH/LOH: 3.353829,2.215356, MAX:1
Coverage: 20, Tot. Cov: 162.000000, 141/149, STDB: 114880000.000000, IPB: 26571120.000000, STDT: 743200194.000000, IPT: 619911184.000000, BOH/LOH: 4.323491,1.198882, MAX:1
Coverage: 20, Tot. Cov: 149.000000, 141/149, STDB: 88730000.000000, IPB: 24549848.000000, STDT: 669072056.000000, IPT: 561905735.000000, BOH/LOH: 3.614279,1.190719, MAX:1
Coverage: 20, Tot. Cov: 167.000000, 141/149, STDB: 61620000.000000, IPB: 26663396.000000, STDT: 2642593071.000000, IPT: 659979244.000000, BOH/LOH: 2.311033,4.004055, MAX:1
Coverage: 20, Tot. Cov: 268.000000, 142/149, STDB: 138480000.000000, IPB: 34445796.000000, STDT: 2321957490.000000, IPT: 1318263835.000000, BOH/LOH: 4.020229,1.761375, MAX:1
Coverage: 20, Tot. Cov: 241.000000, 142/149, STDB: 92805000.000000, IPB: 29211940.000000, STDT: 4142144755.000000, IPT: 1204319177.000000, BOH/LOH: 3.176954,3.439408, MAX:1
Coverage: 20, Tot. Cov: 34.000000, 143/149, STDB: 26477500.000000, IPB: 6400988.000000, STDT: 262508015.000000, IPT: 210401470.000000, BOH/LOH: 4.136471,1.247653, MAX:1
Coverage: 20, Tot. Cov: 26.000000, 143/149, STDB: 18017500.000000, IPB: 4889960.000000, STDT: 193054821.000000, IPT: 163130849.000000, BOH/LOH: 3.684590,1.183435, MAX:1
Coverage: 20, Tot. Cov: 22.000000, 143/149, STDB: 14697500.000000, IPB: 4130456.000000, STDT: 573240992.000000, IPT: 144901058.000000, BOH/LOH: 3.558324,3.956086, MAX:1
Coverage: 20, Tot. Cov: 21.000000, 144/149, STDB: 108002500.000000, IPB: 16863712.000000, STDT: 90383656.000000, IPT: 74319419.000000, BOH/LOH: 6.404432,1.216151, MAX:1
Coverage: 20, Tot. Cov: 26.000000, 144/149, STDB: 82780000.000000, IPB: 20838836.000000, STDT: 109441891.000000, IPT: 92683026.000000, BOH/LOH: 3.972391,1.180819, MAX:1
Coverage: 20, Tot. Cov: 30.000000, 144/149, STDB: 53592500.000000, IPB: 23905884.000000, STDT: 786666595.000000, IPT: 109331562.000000, BOH/LOH: 2.241812,7.195238, MAX:1
Coverage: 20, Tot. Cov: 117.000000, 145/149, STDB: 266220000.000000, IPB: 24528972.000000, STDT: 926121386.000000, IPT: 605398085.000000, BOH/LOH: 10.853288,1.529773, MAX:1
Coverage: 20, Tot. Cov: 125.000000, 145/149, STDB: 199830000.000000, IPB: 29659204.000000, STDT: 901250549.000000, IPT: 670444649.000000, BOH/LOH: 6.737538,1.344258, MAX:1
Coverage: 20, Tot. Cov: 115.000000, 145/149, STDB: 121552500.000000, IPB: 22973512.000000, STDT: 2616261138.000000, IPT: 601757197.000000, BOH/LOH: 5.290985,4.347702, MAX:1
Coverage: 20, Tot. Cov: 241.000000, 146/149, STDB: 134200000.000000, IPB: 37010696.000000, STDT: 1381809139.000000, IPT: 1147431643.000000, BOH/LOH: 3.625979,1.204263, MAX:1
Coverage: 20, Tot. Cov: 220.000000, 146/149, STDB: 127350000.000000, IPB: 34085060.000000, STDT: 1324423527.000000, IPT: 1021280262.000000, BOH/LOH: 3.736241,1.296827, MAX:1
Coverage: 20, Tot. Cov: 218.000000, 146/149, STDB: 73675000.000000, IPB: 32773992.000000, STDT: 4402057470.000000, IPT: 1077862003.000000, BOH/LOH: 2.247972,4.084064, MAX:1
Coverage: 20, Tot. Cov: 170.000000, 147/149, STDB: 1698170000.000000, IPB: 114163704.000000, STDT: 887908628.000000, IPT: 810839799.000000, BOH/LOH: 14.874868,1.095048, MAX:1
Coverage: 20, Tot. Cov: 200.000000, 147/149, STDB: 1289250000.000000, IPB: 182129680.000000, STDT: 1311988210.000000, IPT: 1100679136.000000, BOH/LOH: 7.078747,1.191981, MAX:1
Coverage: 20, Tot. Cov: 171.000000, 147/149, STDB: 719830000.000000, IPB: 112644676.000000, STDT: 6912965026.000000, IPT: 823550641.000000, BOH/LOH: 6.390271,8.394098, MAX:1
Coverage: 20, Tot. Cov: 79.000000, 148/149, STDB: 80315000.000000, IPB: 14654976.000000, STDT: 373984149.000000, IPT: 314428915.000000, BOH/LOH: 5.480391,1.189408, MAX:1
Coverage: 20, Tot. Cov: 96.000000, 148/149, STDB: 52920000.000000, IPB: 18601896.000000, STDT: 464951463.000000, IPT: 383478811.000000, BOH/LOH: 2.844871,1.212457, MAX:1
Coverage: 20, Tot. Cov: 52.000000, 148/149, STDB: 34310000.000000, IPB: 9483512.000000, STDT: 715502513.000000, IPT: 208715507.000000, BOH/LOH: 3.617858,3.428123, MAX:1
