Coverage: 48, Tot. Cov: 98.000000, 1/149, STDB: 28325000.000000, IPB: 9203972.000000, STDT: 789991620.000000, IPT: 377992313.000000, BOH/LOH: 3.077476,2.089967, MAX:1
Coverage: 48, Tot. Cov: 200.000000, 2/149, STDB: 173750000.000000, IPB: 30551460.000000, STDT: 1930212049.000000, IPT: 1183011979.000000, BOH/LOH: 5.687126,1.631608, MAX:1
Coverage: 48, Tot. Cov: 200.000000, 2/149, STDB: 106490000.000000, IPB: 30551460.000000, STDT: 1857131931.000000, IPT: 1183011979.000000, BOH/LOH: 3.485594,1.569834, MAX:1
Coverage: 48, Tot. Cov: 198.000000, 2/149, STDB: 71440000.000000, IPB: 30244052.000000, STDT: 4865264183.000000, IPT: 1175640364.000000, BOH/LOH: 2.362117,4.138395, MAX:1
Coverage: 48, Tot. Cov: 49.000000, 3/149, STDB: 22882500.000000, IPB: 6078312.000000, STDT: 252097924.000000, IPT: 230286859.000000, BOH/LOH: 3.764614,1.094713, MAX:1
Coverage: 48, Tot. Cov: 48.000000, 3/149, STDB: 14612500.000000, IPB: 5939692.000000, STDT: 267684725.000000, IPT: 226566006.000000, BOH/LOH: 2.460144,1.181487, MAX:1
Coverage: 48, Tot. Cov: 50.000000, 3/149, STDB: 11617500.000000, IPB: 6199192.000000, STDT: 1098646505.000000, IPT: 235909896.000000, BOH/LOH: 1.874035,4.657060, MAX:1
Coverage: 48, Tot. Cov: 150.000000, 4/149, STDB: 153802500.000000, IPB: 31507220.000000, STDT: 788642844.000000, IPT: 639161944.000000, BOH/LOH: 4.881500,1.233870, MAX:1
Coverage: 48, Tot. Cov: 147.000000, 4/149, STDB: 103657500.000000, IPB: 30585572.000000, STDT: 897296506.000000, IPT: 618375626.000000, BOH/LOH: 3.389098,1.451054, MAX:1
Coverage: 48, Tot. Cov: 148.000000, 4/149, STDB: 83265000.000000, IPB: 30774864.000000, STDT: 3752495804.000000, IPT: 627787150.000000, BOH/LOH: 2.705617,5.977338, MAX:1
Coverage: 48, Tot. Cov: 145.000000, 5/149, STDB: 84735000.000000, IPB: 17158728.000000, STDT: 814484967.000000, IPT: 634014767.000000, BOH/LOH: 4.938303,1.284647, MAX:1
Coverage: 48, Tot. Cov: 97.000000, 6/149, STDB: 59570000.000000, IPB: 13270500.000000, STDT: 576273669.000000, IPT: 482253124.000000, BOH/LOH: 4.488904,1.194961, MAX:1
Coverage: 48, Tot. Cov: 100.000000, 6/149, STDB: 36880000.000000, IPB: 13618796.000000, STDT: 884191272.000000, IPT: 505179670.000000, BOH/LOH: 2.708022,1.750251, MAX:1
Coverage: 48, Tot. Cov: 99.000000, 6/149, STDB: 29530000.000000, IPB: 13443764.000000, STDT: 2447106796.000000, IPT: 500093065.000000, BOH/LOH: 2.196557,4.893303, MAX:1
Coverage: 48, Tot. Cov: 296.000000, 7/149, STDB: 172845000.000000, IPB: 37994280.000000, STDT: 2443138512.000000, IPT: 1379286065.000000, BOH/LOH: 4.549237,1.771307, MAX:1
Coverage: 48, Tot. Cov: 99.000000, 8/149, STDB: 47290000.000000, IPB: 17176220.000000, STDT: 816101366.000000, IPT: 502361552.000000, BOH/LOH: 2.753225,1.624530, MAX:1
Coverage: 48, Tot. Cov: 98.000000, 8/149, STDB: 43450000.000000, IPB: 16940520.000000, STDT: 3504190731.000000, IPT: 500923723.000000, BOH/LOH: 2.564856,6.995458, MAX:1
Coverage: 48, Tot. Cov: 500.000000, 9/149, STDB: 555025000.000000, IPB: 82351268.000000, STDT: 4103638897.000000, IPT: 2980073825.000000, BOH/LOH: 6.739726,1.377026, MAX:1
Coverage: 48, Tot. Cov: 498.000000, 9/149, STDB: 500775000.000000, IPB: 81739764.000000, STDT: 3470613057.000000, IPT: 2961419057.000000, BOH/LOH: 6.126455,1.171943, MAX:1
Coverage: 48, Tot. Cov: 499.000000, 9/149, STDB: 365350000.000000, IPB: 81905592.000000, STDT: 21515514482.000000, IPT: 2971032239.000000, BOH/LOH: 4.460623,7.241764, MAX:1
Coverage: 48, Tot. Cov: 49.000000, 10/149, STDB: 105335000.000000, IPB: 37821240.000000, STDT: 722661492.000000, IPT: 431412120.000000, BOH/LOH: 2.785075,1.675107, MAX:1
Coverage: 48, Tot. Cov: 48.000000, 10/149, STDB: 69877500.000000, IPB: 36555872.000000, STDT: 3786940278.000000, IPT: 427100792.000000, BOH/LOH: 1.911526,8.866620, MAX:1
Coverage: 48, Tot. Cov: 98.000000, 11/149, STDB: 291005000.000000, IPB: 129387316.000000, STDT: 964243229.000000, IPT: 674985000.000000, BOH/LOH: 2.249100,1.428540, MAX:1
Coverage: 48, Tot. Cov: 98.000000, 11/149, STDB: 227905000.000000, IPB: 128543012.000000, STDT: 5145515365.000000, IPT: 684907721.000000, BOH/LOH: 1.772986,7.512713, MAX:1
Coverage: 48, Tot. Cov: 347.000000, 12/149, STDB: 2142717500.000000, IPB: 450184684.000000, STDT: 2897405526.000000, IPT: 2196850580.000000, BOH/LOH: 4.759641,1.318891, MAX:1
Coverage: 48, Tot. Cov: 200.000000, 13/149, STDB: 668330000.000000, IPB: 163339848.000000, STDT: 1398552466.000000, IPT: 1186604807.000000, BOH/LOH: 4.091653,1.178617, MAX:1
Coverage: 48, Tot. Cov: 197.000000, 13/149, STDB: 514540000.000000, IPB: 160386936.000000, STDT: 1749128030.000000, IPT: 1157902765.000000, BOH/LOH: 3.208117,1.510600, MAX:1
Coverage: 48, Tot. Cov: 199.000000, 13/149, STDB: 357280000.000000, IPB: 161846088.000000, STDT: 17524456475.000000, IPT: 1177881763.000000, BOH/LOH: 2.207529,14.877942, MAX:1
Coverage: 48, Tot. Cov: 48.000000, 14/149, STDB: 123135000.000000, IPB: 48743264.000000, STDT: 271607494.000000, IPT: 240843084.000000, BOH/LOH: 2.526195,1.127736, MAX:1
Coverage: 48, Tot. Cov: 148.000000, 15/149, STDB: 561562500.000000, IPB: 128698852.000000, STDT: 1315004715.000000, IPT: 777133725.000000, BOH/LOH: 4.363384,1.692122, MAX:1
Coverage: 48, Tot. Cov: 145.000000, 15/149, STDB: 414412500.000000, IPB: 125978392.000000, STDT: 791817021.000000, IPT: 754357967.000000, BOH/LOH: 3.289552,1.049657, MAX:1
Coverage: 48, Tot. Cov: 197.000000, 16/149, STDB: 1938790000.000000, IPB: 429742056.000000, STDT: 1482210530.000000, IPT: 1030381916.000000, BOH/LOH: 4.511520,1.438506, MAX:1
Coverage: 48, Tot. Cov: 195.000000, 16/149, STDB: 1749270000.000000, IPB: 423261824.000000, STDT: 1183443744.000000, IPT: 1014594850.000000, BOH/LOH: 4.132832,1.166420, MAX:1
Coverage: 48, Tot. Cov: 392.000000, 17/149, STDB: 1254980000.000000, IPB: 399248156.000000, STDT: 2434757698.000000, IPT: 2075941698.000000, BOH/LOH: 3.143358,1.172845, MAX:1
Coverage: 48, Tot. Cov: 399.000000, 17/149, STDB: 1210820000.000000, IPB: 404949592.000000, STDT: 4234672802.000000, IPT: 2140634948.000000, BOH/LOH: 2.990051,1.978232, MAX:1
Coverage: 48, Tot. Cov: 97.000000, 18/149, STDB: 231295000.000000, IPB: 88361736.000000, STDT: 636341440.000000, IPT: 509625426.000000, BOH/LOH: 2.617592,1.248645, MAX:1
Coverage: 48, Tot. Cov: 99.000000, 18/149, STDB: 185010000.000000, IPB: 89881340.000000, STDT: 6969120370.000000, IPT: 526801164.000000, BOH/LOH: 2.058381,13.229129, MAX:1
Coverage: 48, Tot. Cov: 148.000000, 19/149, STDB: 341032500.000000, IPB: 51511304.000000, STDT: 762298856.000000, IPT: 582294602.000000, BOH/LOH: 6.620537,1.309129, MAX:1
Coverage: 48, Tot. Cov: 147.000000, 19/149, STDB: 303082500.000000, IPB: 51437716.000000, STDT: 666908982.000000, IPT: 573216082.000000, BOH/LOH: 5.892223,1.163451, MAX:1
Coverage: 48, Tot. Cov: 98.000000, 20/149, STDB: 167825000.000000, IPB: 41299912.000000, STDT: 694837415.000000, IPT: 401929293.000000, BOH/LOH: 4.063568,1.728755, MAX:1
Coverage: 48, Tot. Cov: 96.000000, 20/149, STDB: 149190000.000000, IPB: 40219964.000000, STDT: 433452255.000000, IPT: 386964662.000000, BOH/LOH: 3.709352,1.120134, MAX:1
Coverage: 48, Tot. Cov: 98.000000, 20/149, STDB: 86715000.000000, IPB: 40703684.000000, STDT: 3583844407.000000, IPT: 407235895.000000, BOH/LOH: 2.130397,8.800414, MAX:1
Coverage: 48, Tot. Cov: 97.000000, 21/149, STDB: 488440000.000000, IPB: 124993196.000000, STDT: 803111853.000000, IPT: 633045725.000000, BOH/LOH: 3.907733,1.268647, MAX:1
Coverage: 48, Tot. Cov: 97.000000, 21/149, STDB: 322780000.000000, IPB: 124913000.000000, STDT: 894734753.000000, IPT: 636664404.000000, BOH/LOH: 2.584038,1.405348, MAX:1
Coverage: 48, Tot. Cov: 299.000000, 22/149, STDB: 851295000.000000, IPB: 190139372.000000, STDT: 3725228170.000000, IPT: 1482020211.000000, BOH/LOH: 4.477216,2.513615, MAX:1
Coverage: 48, Tot. Cov: 295.000000, 22/149, STDB: 704205000.000000, IPB: 187950024.000000, STDT: 1673992600.000000, IPT: 1447567674.000000, BOH/LOH: 3.746767,1.156418, MAX:1
Coverage: 48, Tot. Cov: 297.000000, 22/149, STDB: 492375000.000000, IPB: 187320056.000000, STDT: 17542675086.000000, IPT: 1474625349.000000, BOH/LOH: 2.628523,11.896361, MAX:1
Coverage: 48, Tot. Cov: 50.000000, 23/149, STDB: 95325000.000000, IPB: 27829224.000000, STDT: 576613385.000000, IPT: 295462124.000000, BOH/LOH: 3.425356,1.951564, MAX:1
Coverage: 48, Tot. Cov: 49.000000, 23/149, STDB: 73337500.000000, IPB: 27270912.000000, STDT: 300319154.000000, IPT: 286513705.000000, BOH/LOH: 2.689221,1.048184, MAX:1
Coverage: 48, Tot. Cov: 199.000000, 24/149, STDB: 1055190000.000000, IPB: 180625344.000000, STDT: 2022774877.000000, IPT: 1080162588.000000, BOH/LOH: 5.841871,1.872658, MAX:1
Coverage: 48, Tot. Cov: 200.000000, 24/149, STDB: 908730000.000000, IPB: 182715124.000000, STDT: 1560051025.000000, IPT: 1089824248.000000, BOH/LOH: 4.973480,1.431470, MAX:1
Coverage: 48, Tot. Cov: 397.000000, 25/149, STDB: 593080000.000000, IPB: 243330156.000000, STDT: 19797623243.000000, IPT: 1986421800.000000, BOH/LOH: 2.437347,9.966475, MAX:1
Coverage: 48, Tot. Cov: 100.000000, 26/149, STDB: 627895000.000000, IPB: 192461520.000000, STDT: 1024752870.000000, IPT: 638140648.000000, BOH/LOH: 3.262444,1.605842, MAX:1
Coverage: 48, Tot. Cov: 49.000000, 28/149, STDB: 76422500.000000, IPB: 25073616.000000, STDT: 559545658.000000, IPT: 480835665.000000, BOH/LOH: 3.047925,1.163694, MAX:1
Coverage: 48, Tot. Cov: 49.000000, 28/149, STDB: 53172500.000000, IPB: 25073616.000000, STDT: 2904902188.000000, IPT: 480835665.000000, BOH/LOH: 2.120655,6.041362, MAX:1
Coverage: 48, Tot. Cov: 249.000000, 29/149, STDB: 321062500.000000, IPB: 57411960.000000, STDT: 1731538142.000000, IPT: 1237872851.000000, BOH/LOH: 5.592258,1.398801, MAX:1
Coverage: 48, Tot. Cov: 249.000000, 29/149, STDB: 148262500.000000, IPB: 57425940.000000, STDT: 10790675667.000000, IPT: 1238342129.000000, BOH/LOH: 2.581804,8.713808, MAX:1
Coverage: 48, Tot. Cov: 99.000000, 30/149, STDB: 76790000.000000, IPB: 12620268.000000, STDT: 699194070.000000, IPT: 666410176.000000, BOH/LOH: 6.084657,1.049195, MAX:1
Coverage: 48, Tot. Cov: 99.000000, 30/149, STDB: 55440000.000000, IPB: 12620268.000000, STDT: 771731703.000000, IPT: 666410176.000000, BOH/LOH: 4.392934,1.158043, MAX:1
Coverage: 48, Tot. Cov: 98.000000, 30/149, STDB: 36860000.000000, IPB: 12353012.000000, STDT: 4337572925.000000, IPT: 657079516.000000, BOH/LOH: 2.983888,6.601291, MAX:1
Coverage: 48, Tot. Cov: 197.000000, 31/149, STDB: 216060000.000000, IPB: 63290356.000000, STDT: 1014538172.000000, IPT: 786132528.000000, BOH/LOH: 3.413790,1.290543, MAX:1
Coverage: 48, Tot. Cov: 198.000000, 31/149, STDB: 157080000.000000, IPB: 63288156.000000, STDT: 4813129159.000000, IPT: 798175865.000000, BOH/LOH: 2.481981,6.030161, MAX:1
Coverage: 48, Tot. Cov: 99.000000, 32/149, STDB: 76375000.000000, IPB: 18563052.000000, STDT: 643242787.000000, IPT: 347085194.000000, BOH/LOH: 4.114356,1.853271, MAX:1
Coverage: 48, Tot. Cov: 97.000000, 32/149, STDB: 44890000.000000, IPB: 18198904.000000, STDT: 543915843.000000, IPT: 334068871.000000, BOH/LOH: 2.466632,1.628155, MAX:1
Coverage: 48, Tot. Cov: 96.000000, 32/149, STDB: 39290000.000000, IPB: 17852304.000000, STDT: 3334006482.000000, IPT: 337726927.000000, BOH/LOH: 2.200836,9.871900, MAX:1
Coverage: 48, Tot. Cov: 98.000000, 33/149, STDB: 131960000.000000, IPB: 69635408.000000, STDT: 5865349485.000000, IPT: 489485543.000000, BOH/LOH: 1.895013,11.982682, MAX:1
Coverage: 48, Tot. Cov: 249.000000, 34/149, STDB: 390787500.000000, IPB: 71520272.000000, STDT: 3111165520.000000, IPT: 1174325467.000000, BOH/LOH: 5.464010,2.649321, MAX:1
Coverage: 48, Tot. Cov: 250.000000, 34/149, STDB: 332725000.000000, IPB: 72146192.000000, STDT: 2914653817.000000, IPT: 1183145308.000000, BOH/LOH: 4.611817,2.463479, MAX:1
Coverage: 48, Tot. Cov: 248.000000, 34/149, STDB: 220750000.000000, IPB: 70888200.000000, STDT: 8168403015.000000, IPT: 1172216186.000000, BOH/LOH: 3.114058,6.968342, MAX:1
Coverage: 48, Tot. Cov: 247.000000, 36/149, STDB: 114487500.000000, IPB: 59720760.000000, STDT: 12625167691.000000, IPT: 1050468031.000000, BOH/LOH: 1.917047,12.018612, MAX:1
Coverage: 48, Tot. Cov: 99.000000, 37/149, STDB: 68975000.000000, IPB: 20286684.000000, STDT: 993004709.000000, IPT: 632031404.000000, BOH/LOH: 3.400014,1.571132, MAX:1
Coverage: 48, Tot. Cov: 250.000000, 38/149, STDB: 3236250000.000000, IPB: 536667520.000000, STDT: 1642659441.000000, IPT: 1374941930.000000, BOH/LOH: 6.030270,1.194712, MAX:1
Coverage: 48, Tot. Cov: 98.000000, 39/149, STDB: 1040425000.000000, IPB: 311742128.000000, STDT: 1378123677.000000, IPT: 592832182.000000, BOH/LOH: 3.337454,2.324644, MAX:1
Coverage: 48, Tot. Cov: 98.000000, 39/149, STDB: 507635000.000000, IPB: 310854604.000000, STDT: 9264403819.000000, IPT: 599912504.000000, BOH/LOH: 1.633030,15.442925, MAX:1
Coverage: 48, Tot. Cov: 148.000000, 40/149, STDB: 1997520000.000000, IPB: 497808076.000000, STDT: 1899864096.000000, IPT: 1173130181.000000, BOH/LOH: 4.012631,1.619483, MAX:1
Coverage: 48, Tot. Cov: 147.000000, 40/149, STDB: 1510162500.000000, IPB: 495719188.000000, STDT: 1258059954.000000, IPT: 1162819354.000000, BOH/LOH: 3.046407,1.081905, MAX:1
Coverage: 48, Tot. Cov: 200.000000, 42/149, STDB: 751640000.000000, IPB: 164686572.000000, STDT: 1784678399.000000, IPT: 1095988379.000000, BOH/LOH: 4.564064,1.628373, MAX:1
Coverage: 48, Tot. Cov: 199.000000, 42/149, STDB: 561080000.000000, IPB: 163147992.000000, STDT: 1470890675.000000, IPT: 1086646059.000000, BOH/LOH: 3.439086,1.353606, MAX:1
Coverage: 48, Tot. Cov: 48.000000, 43/149, STDB: 1046482500.000000, IPB: 323588416.000000, STDT: 415689407.000000, IPT: 303677257.000000, BOH/LOH: 3.233992,1.368853, MAX:1
Coverage: 48, Tot. Cov: 48.000000, 43/149, STDB: 752670000.000000, IPB: 323588416.000000, STDT: 310979838.000000, IPT: 303677257.000000, BOH/LOH: 2.326010,1.024047, MAX:1
Coverage: 48, Tot. Cov: 249.000000, 46/149, STDB: 894950000.000000, IPB: 159649924.000000, STDT: 2255111838.000000, IPT: 1864548011.000000, BOH/LOH: 5.605703,1.209468, MAX:1
Coverage: 48, Tot. Cov: 249.000000, 46/149, STDB: 726875000.000000, IPB: 160434736.000000, STDT: 2184202393.000000, IPT: 1864381862.000000, BOH/LOH: 4.530658,1.171542, MAX:1
Coverage: 48, Tot. Cov: 144.000000, 47/149, STDB: 660510000.000000, IPB: 144400616.000000, STDT: 843775022.000000, IPT: 671842336.000000, BOH/LOH: 4.574149,1.255912, MAX:1
Coverage: 48, Tot. Cov: 145.000000, 47/149, STDB: 379620000.000000, IPB: 145726580.000000, STDT: 838618853.000000, IPT: 677534571.000000, BOH/LOH: 2.605016,1.237751, MAX:1
Coverage: 48, Tot. Cov: 144.000000, 47/149, STDB: 297930000.000000, IPB: 144126300.000000, STDT: 4431089547.000000, IPT: 675406056.000000, BOH/LOH: 2.067145,6.560630, MAX:1
Coverage: 48, Tot. Cov: 97.000000, 48/149, STDB: 121685000.000000, IPB: 68325236.000000, STDT: 8582326392.000000, IPT: 501068364.000000, BOH/LOH: 1.780967,17.128055, MAX:1
Coverage: 48, Tot. Cov: 150.000000, 49/149, STDB: 563955000.000000, IPB: 105255032.000000, STDT: 1267686163.000000, IPT: 1028324324.000000, BOH/LOH: 5.357986,1.232769, MAX:1
Coverage: 48, Tot. Cov: 250.000000, 50/149, STDB: 861237500.000000, IPB: 213618972.000000, STDT: 1903598324.000000, IPT: 1355152776.000000, BOH/LOH: 4.031653,1.404711, MAX:1
Coverage: 48, Tot. Cov: 247.000000, 50/149, STDB: 525700000.000000, IPB: 209314896.000000, STDT: 8775882735.000000, IPT: 1338726304.000000, BOH/LOH: 2.511527,6.555397, MAX:1
Coverage: 48, Tot. Cov: 148.000000, 51/149, STDB: 269685000.000000, IPB: 108545260.000000, STDT: 920607377.000000, IPT: 633359360.000000, BOH/LOH: 2.484540,1.453531, MAX:1
Coverage: 48, Tot. Cov: 147.000000, 51/149, STDB: 211275000.000000, IPB: 107057940.000000, STDT: 4615974304.000000, IPT: 634030142.000000, BOH/LOH: 1.973464,7.280370, MAX:1
Coverage: 48, Tot. Cov: 296.000000, 52/149, STDB: 330945000.000000, IPB: 176138768.000000, STDT: 22329656100.000000, IPT: 1502011555.000000, BOH/LOH: 1.878888,14.866501, MAX:1
Coverage: 48, Tot. Cov: 99.000000, 53/149, STDB: 18660000.000000, IPB: 3388272.000000, STDT: 362222806.000000, IPT: 317335512.000000, BOH/LOH: 5.507232,1.141451, MAX:1
Coverage: 48, Tot. Cov: 99.000000, 53/149, STDB: 17780000.000000, IPB: 3388272.000000, STDT: 355798070.000000, IPT: 317335512.000000, BOH/LOH: 5.247513,1.121205, MAX:1
Coverage: 48, Tot. Cov: 48.000000, 54/149, STDB: 3272500.000000, IPB: 938856.000000, STDT: 224886506.000000, IPT: 142991147.000000, BOH/LOH: 3.485625,1.572730, MAX:1
Coverage: 48, Tot. Cov: 50.000000, 54/149, STDB: 3095000.000000, IPB: 978268.000000, STDT: 186045155.000000, IPT: 149963767.000000, BOH/LOH: 3.163755,1.240601, MAX:1
Coverage: 48, Tot. Cov: 48.000000, 54/149, STDB: 1405000.000000, IPB: 939068.000000, STDT: 238936062.000000, IPT: 143010905.000000, BOH/LOH: 1.496164,1.670754, MAX:1
Coverage: 48, Tot. Cov: 49.000000, 55/149, STDB: 5980000.000000, IPB: 1793360.000000, STDT: 230801268.000000, IPT: 162125597.000000, BOH/LOH: 3.334523,1.423595, MAX:1
Coverage: 48, Tot. Cov: 50.000000, 55/149, STDB: 5807500.000000, IPB: 1830460.000000, STDT: 192503306.000000, IPT: 166093097.000000, BOH/LOH: 3.172700,1.159008, MAX:1
Coverage: 48, Tot. Cov: 48.000000, 55/149, STDB: 3025000.000000, IPB: 1756852.000000, STDT: 352616285.000000, IPT: 158472390.000000, BOH/LOH: 1.721830,2.225096, MAX:1
Coverage: 48, Tot. Cov: 299.000000, 56/149, STDB: 117840000.000000, IPB: 8514272.000000, STDT: 1605703846.000000, IPT: 1301139042.000000, BOH/LOH: 13.840291,1.234076, MAX:1
Coverage: 48, Tot. Cov: 299.000000, 56/149, STDB: 66420000.000000, IPB: 8514728.000000, STDT: 8361050471.000000, IPT: 1301505341.000000, BOH/LOH: 7.800601,6.424138, MAX:1
Coverage: 48, Tot. Cov: 250.000000, 57/149, STDB: 54812500.000000, IPB: 9814236.000000, STDT: 1815019834.000000, IPT: 1165647636.000000, BOH/LOH: 5.584999,1.557091, MAX:1
Coverage: 48, Tot. Cov: 250.000000, 57/149, STDB: 38200000.000000, IPB: 9814236.000000, STDT: 2222458868.000000, IPT: 1165647636.000000, BOH/LOH: 3.892305,1.906630, MAX:1
Coverage: 48, Tot. Cov: 247.000000, 57/149, STDB: 26262500.000000, IPB: 9635872.000000, STDT: 7205523254.000000, IPT: 1144739882.000000, BOH/LOH: 2.725493,6.294463, MAX:1
Coverage: 48, Tot. Cov: 149.000000, 58/149, STDB: 157305000.000000, IPB: 27086404.000000, STDT: 1276307275.000000, IPT: 848849510.000000, BOH/LOH: 5.807526,1.503573, MAX:1
Coverage: 48, Tot. Cov: 149.000000, 58/149, STDB: 99967500.000000, IPB: 27084732.000000, STDT: 3605123460.000000, IPT: 854710396.000000, BOH/LOH: 3.690917,4.217947, MAX:1
Coverage: 48, Tot. Cov: 296.000000, 59/149, STDB: 45600000.000000, IPB: 12290044.000000, STDT: 1916783715.000000, IPT: 973879052.000000, BOH/LOH: 3.710320,1.968195, MAX:1
Coverage: 48, Tot. Cov: 297.000000, 59/149, STDB: 30630000.000000, IPB: 12309460.000000, STDT: 9241179243.000000, IPT: 990321277.000000, BOH/LOH: 2.488330,9.331496, MAX:1
Coverage: 48, Tot. Cov: 199.000000, 60/149, STDB: 30790000.000000, IPB: 6688452.000000, STDT: 938471827.000000, IPT: 691536621.000000, BOH/LOH: 4.603457,1.357082, MAX:1
Coverage: 48, Tot. Cov: 196.000000, 60/149, STDB: 27420000.000000, IPB: 6611928.000000, STDT: 745387851.000000, IPT: 669610917.000000, BOH/LOH: 4.147051,1.113166, MAX:1
Coverage: 48, Tot. Cov: 198.000000, 60/149, STDB: 15750000.000000, IPB: 6642016.000000, STDT: 2913665610.000000, IPT: 686031757.000000, BOH/LOH: 2.371268,4.247129, MAX:1
Coverage: 48, Tot. Cov: 150.000000, 62/149, STDB: 3080962500.000000, IPB: 571328916.000000, STDT: 1230499054.000000, IPT: 1141908340.000000, BOH/LOH: 5.392625,1.077581, MAX:1
Coverage: 48, Tot. Cov: 148.000000, 62/149, STDB: 2539635000.000000, IPB: 567251288.000000, STDT: 1258593138.000000, IPT: 1124122045.000000, BOH/LOH: 4.477090,1.119623, MAX:1
Coverage: 48, Tot. Cov: 149.000000, 62/149, STDB: 1627687500.000000, IPB: 563306936.000000, STDT: 8520461748.000000, IPT: 1131964011.000000, BOH/LOH: 2.889521,7.527149, MAX:1
Coverage: 48, Tot. Cov: 199.000000, 63/149, STDB: 2222740000.000000, IPB: 351803876.000000, STDT: 1869335624.000000, IPT: 1381349925.000000, BOH/LOH: 6.318123,1.353267, MAX:1
Coverage: 48, Tot. Cov: 199.000000, 63/149, STDB: 1790720000.000000, IPB: 351088028.000000, STDT: 1744023968.000000, IPT: 1380347964.000000, BOH/LOH: 5.100487,1.263467, MAX:1
Coverage: 48, Tot. Cov: 146.000000, 64/149, STDB: 835732500.000000, IPB: 201489592.000000, STDT: 1812175336.000000, IPT: 1028384530.000000, BOH/LOH: 4.147770,1.762157, MAX:1
Coverage: 48, Tot. Cov: 150.000000, 64/149, STDB: 481410000.000000, IPB: 208626180.000000, STDT: 1508836935.000000, IPT: 1061766341.000000, BOH/LOH: 2.307524,1.421063, MAX:1
Coverage: 48, Tot. Cov: 144.000000, 64/149, STDB: 399195000.000000, IPB: 197824612.000000, STDT: 17721353316.000000, IPT: 1014413971.000000, BOH/LOH: 2.017924,17.469548, MAX:1
Coverage: 48, Tot. Cov: 245.000000, 65/149, STDB: 1248025000.000000, IPB: 363937096.000000, STDT: 1642641048.000000, IPT: 1428266946.000000, BOH/LOH: 3.429233,1.150094, MAX:1
Coverage: 48, Tot. Cov: 246.000000, 65/149, STDB: 957725000.000000, IPB: 359012352.000000, STDT: 23024178152.000000, IPT: 1449037206.000000, BOH/LOH: 2.667666,15.889294, MAX:1
Coverage: 48, Tot. Cov: 148.000000, 66/149, STDB: 424290000.000000, IPB: 178841216.000000, STDT: 1540011732.000000, IPT: 795938164.000000, BOH/LOH: 2.372440,1.934838, MAX:1
Coverage: 48, Tot. Cov: 147.000000, 66/149, STDB: 330007500.000000, IPB: 177496724.000000, STDT: 7790683399.000000, IPT: 786736040.000000, BOH/LOH: 1.859231,9.902538, MAX:1
Coverage: 48, Tot. Cov: 200.000000, 67/149, STDB: 816990000.000000, IPB: 216929476.000000, STDT: 2476045036.000000, IPT: 1403305581.000000, BOH/LOH: 3.766155,1.764438, MAX:1
Coverage: 48, Tot. Cov: 198.000000, 67/149, STDB: 495610000.000000, IPB: 213875840.000000, STDT: 18943817318.000000, IPT: 1387509962.000000, BOH/LOH: 2.317279,13.653104, MAX:1
Coverage: 48, Tot. Cov: 197.000000, 68/149, STDB: 1953210000.000000, IPB: 423321024.000000, STDT: 1719903772.000000, IPT: 1195750051.000000, BOH/LOH: 4.614016,1.438347, MAX:1
Coverage: 48, Tot. Cov: 197.000000, 68/149, STDB: 1208700000.000000, IPB: 425246868.000000, STDT: 1500587302.000000, IPT: 1193972328.000000, BOH/LOH: 2.842349,1.256802, MAX:1
Coverage: 48, Tot. Cov: 197.000000, 68/149, STDB: 814750000.000000, IPB: 422529704.000000, STDT: 19703807354.000000, IPT: 1206158062.000000, BOH/LOH: 1.928267,16.336008, MAX:1
Coverage: 48, Tot. Cov: 197.000000, 69/149, STDB: 1119550000.000000, IPB: 360553856.000000, STDT: 1759805010.000000, IPT: 1499554683.000000, BOH/LOH: 3.105084,1.173552, MAX:1
Coverage: 48, Tot. Cov: 48.000000, 70/149, STDB: 395560000.000000, IPB: 123224752.000000, STDT: 512447940.000000, IPT: 375950748.000000, BOH/LOH: 3.210069,1.363072, MAX:1
Coverage: 48, Tot. Cov: 49.000000, 70/149, STDB: 251610000.000000, IPB: 125886052.000000, STDT: 418577102.000000, IPT: 385055156.000000, BOH/LOH: 1.998712,1.087058, MAX:1
Coverage: 48, Tot. Cov: 148.000000, 71/149, STDB: 1913242500.000000, IPB: 300976432.000000, STDT: 1064659150.000000, IPT: 862496983.000000, BOH/LOH: 6.356785,1.234392, MAX:1
Coverage: 48, Tot. Cov: 148.000000, 71/149, STDB: 1328857500.000000, IPB: 300976432.000000, STDT: 952383824.000000, IPT: 862496983.000000, BOH/LOH: 4.415155,1.104217, MAX:1
Coverage: 48, Tot. Cov: 147.000000, 72/149, STDB: 1173307500.000000, IPB: 350835768.000000, STDT: 1374617676.000000, IPT: 1136099307.000000, BOH/LOH: 3.344321,1.209945, MAX:1
Coverage: 48, Tot. Cov: 147.000000, 72/149, STDB: 881917500.000000, IPB: 350835768.000000, STDT: 1529369332.000000, IPT: 1136099307.000000, BOH/LOH: 2.513762,1.346158, MAX:1
Coverage: 48, Tot. Cov: 149.000000, 72/149, STDB: 590175000.000000, IPB: 354935064.000000, STDT: 14752745745.000000, IPT: 1154392001.000000, BOH/LOH: 1.662769,12.779667, MAX:1
Coverage: 48, Tot. Cov: 146.000000, 73/149, STDB: 650250000.000000, IPB: 392258496.000000, STDT: 16233300606.000000, IPT: 972287919.000000, BOH/LOH: 1.657708,16.695981, MAX:1
Coverage: 48, Tot. Cov: 98.000000, 74/149, STDB: 1124340000.000000, IPB: 233079004.000000, STDT: 1106587198.000000, IPT: 752276129.000000, BOH/LOH: 4.823858,1.470985, MAX:1
Coverage: 48, Tot. Cov: 98.000000, 74/149, STDB: 831045000.000000, IPB: 233079004.000000, STDT: 927870738.000000, IPT: 752276129.000000, BOH/LOH: 3.565508,1.233418, MAX:1
Coverage: 48, Tot. Cov: 99.000000, 74/149, STDB: 521375000.000000, IPB: 235005660.000000, STDT: 6662839975.000000, IPT: 765490237.000000, BOH/LOH: 2.218564,8.704017, MAX:1
Coverage: 48, Tot. Cov: 300.000000, 75/149, STDB: 447300000.000000, IPB: 97606232.000000, STDT: 2380278317.000000, IPT: 1396078343.000000, BOH/LOH: 4.582699,1.704975, MAX:1
Coverage: 48, Tot. Cov: 299.000000, 75/149, STDB: 357030000.000000, IPB: 97131448.000000, STDT: 3052092631.000000, IPT: 1387305407.000000, BOH/LOH: 3.675741,2.200015, MAX:1
Coverage: 48, Tot. Cov: 299.000000, 75/149, STDB: 273660000.000000, IPB: 97056724.000000, STDT: 8609040912.000000, IPT: 1389731062.000000, BOH/LOH: 2.819588,6.194753, MAX:1
Coverage: 48, Tot. Cov: 198.000000, 76/149, STDB: 168980000.000000, IPB: 57709324.000000, STDT: 11355518947.000000, IPT: 908772746.000000, BOH/LOH: 2.928123,12.495444, MAX:1
Coverage: 48, Tot. Cov: 149.000000, 77/149, STDB: 210157500.000000, IPB: 51055164.000000, STDT: 1286554462.000000, IPT: 892497709.000000, BOH/LOH: 4.116283,1.441521, MAX:1
Coverage: 48, Tot. Cov: 150.000000, 77/149, STDB: 141412500.000000, IPB: 51422840.000000, STDT: 5128417120.000000, IPT: 902493603.000000, BOH/LOH: 2.749994,5.682497, MAX:1
Coverage: 48, Tot. Cov: 149.000000, 78/149, STDB: 282660000.000000, IPB: 70625536.000000, STDT: 1097070724.000000, IPT: 709298654.000000, BOH/LOH: 4.002235,1.546698, MAX:1
Coverage: 48, Tot. Cov: 148.000000, 78/149, STDB: 184522500.000000, IPB: 70643372.000000, STDT: 1064679266.000000, IPT: 693630922.000000, BOH/LOH: 2.612028,1.534936, MAX:1
Coverage: 48, Tot. Cov: 48.000000, 79/149, STDB: 97210000.000000, IPB: 26150996.000000, STDT: 269351666.000000, IPT: 194977366.000000, BOH/LOH: 3.717258,1.381451, MAX:1
Coverage: 48, Tot. Cov: 49.000000, 79/149, STDB: 85542500.000000, IPB: 26864424.000000, STDT: 244803502.000000, IPT: 200477897.000000, BOH/LOH: 3.184230,1.221100, MAX:1
Coverage: 48, Tot. Cov: 97.000000, 80/149, STDB: 87545000.000000, IPB: 23751216.000000, STDT: 843764494.000000, IPT: 429251893.000000, BOH/LOH: 3.685917,1.965663, MAX:1
Coverage: 48, Tot. Cov: 97.000000, 80/149, STDB: 68705000.000000, IPB: 23907660.000000, STDT: 682232776.000000, IPT: 424212861.000000, BOH/LOH: 2.873765,1.608232, MAX:1
Coverage: 48, Tot. Cov: 98.000000, 80/149, STDB: 49355000.000000, IPB: 23650824.000000, STDT: 4702659300.000000, IPT: 443397267.000000, BOH/LOH: 2.086819,10.605973, MAX:1
Coverage: 48, Tot. Cov: 98.000000, 81/149, STDB: 81940000.000000, IPB: 24499304.000000, STDT: 635018945.000000, IPT: 454416049.000000, BOH/LOH: 3.344585,1.397440, MAX:1
Coverage: 48, Tot. Cov: 349.000000, 83/149, STDB: 2059155000.000000, IPB: 180838812.000000, STDT: 2464365878.000000, IPT: 1802336218.000000, BOH/LOH: 11.386687,1.367318, MAX:1
Coverage: 48, Tot. Cov: 348.000000, 83/149, STDB: 1157940000.000000, IPB: 177859932.000000, STDT: 20448383014.000000, IPT: 1793056951.000000, BOH/LOH: 6.510404,11.404202, MAX:1
Coverage: 48, Tot. Cov: 199.000000, 84/149, STDB: 238050000.000000, IPB: 47007032.000000, STDT: 1795440441.000000, IPT: 1013991641.000000, BOH/LOH: 5.064136,1.770666, MAX:1
Coverage: 48, Tot. Cov: 196.000000, 84/149, STDB: 194520000.000000, IPB: 46298304.000000, STDT: 1299782819.000000, IPT: 987507983.000000, BOH/LOH: 4.201450,1.316225, MAX:1
Coverage: 48, Tot. Cov: 49.000000, 85/149, STDB: 54222500.000000, IPB: 12876184.000000, STDT: 470472735.000000, IPT: 230512796.000000, BOH/LOH: 4.211069,2.040983, MAX:1
Coverage: 48, Tot. Cov: 48.000000, 85/149, STDB: 35467500.000000, IPB: 12613312.000000, STDT: 292748846.000000, IPT: 224758483.000000, BOH/LOH: 2.811910,1.302504, MAX:1
Coverage: 48, Tot. Cov: 97.000000, 86/149, STDB: 141225000.000000, IPB: 38279312.000000, STDT: 1213888067.000000, IPT: 470171836.000000, BOH/LOH: 3.689330,2.581797, MAX:1
Coverage: 48, Tot. Cov: 98.000000, 86/149, STDB: 133035000.000000, IPB: 39100968.000000, STDT: 631669076.000000, IPT: 469046425.000000, BOH/LOH: 3.402345,1.346709, MAX:1
Coverage: 48, Tot. Cov: 98.000000, 86/149, STDB: 86560000.000000, IPB: 38730204.000000, STDT: 8252697494.000000, IPT: 479258755.000000, BOH/LOH: 2.234948,17.219711, MAX:1
Coverage: 48, Tot. Cov: 149.000000, 87/149, STDB: 149085000.000000, IPB: 51200884.000000, STDT: 1376945976.000000, IPT: 979025376.000000, BOH/LOH: 2.911766,1.406446, MAX:1
Coverage: 48, Tot. Cov: 148.000000, 87/149, STDB: 133365000.000000, IPB: 50549252.000000, STDT: 11564706663.000000, IPT: 972344564.000000, BOH/LOH: 2.638318,11.893630, MAX:1
Coverage: 48, Tot. Cov: 349.000000, 88/149, STDB: 487375000.000000, IPB: 108183568.000000, STDT: 2811077358.000000, IPT: 1629436569.000000, BOH/LOH: 4.505074,1.725184, MAX:1
Coverage: 48, Tot. Cov: 348.000000, 88/149, STDB: 235112500.000000, IPB: 107784040.000000, STDT: 11230773127.000000, IPT: 1628886350.000000, BOH/LOH: 2.181329,6.894756, MAX:1
Coverage: 48, Tot. Cov: 96.000000, 89/149, STDB: 151480000.000000, IPB: 44370496.000000, STDT: 414011939.000000, IPT: 399416127.000000, BOH/LOH: 3.413980,1.036543, MAX:1
Coverage: 48, Tot. Cov: 98.000000, 89/149, STDB: 86740000.000000, IPB: 44997956.000000, STDT: 2984999787.000000, IPT: 421213789.000000, BOH/LOH: 1.927643,7.086662, MAX:1
Coverage: 48, Tot. Cov: 100.000000, 90/149, STDB: 219510000.000000, IPB: 39111268.000000, STDT: 826228328.000000, IPT: 680130155.000000, BOH/LOH: 5.612449,1.214809, MAX:1
Coverage: 48, Tot. Cov: 99.000000, 90/149, STDB: 159240000.000000, IPB: 38671112.000000, STDT: 796154811.000000, IPT: 670139195.000000, BOH/LOH: 4.117802,1.188044, MAX:1
Coverage: 48, Tot. Cov: 99.000000, 90/149, STDB: 92155000.000000, IPB: 38525140.000000, STDT: 5076620997.000000, IPT: 671780679.000000, BOH/LOH: 2.392074,7.556962, MAX:1
Coverage: 48, Tot. Cov: 195.000000, 91/149, STDB: 589170000.000000, IPB: 137267980.000000, STDT: 1513385047.000000, IPT: 1097007679.000000, BOH/LOH: 4.292115,1.379557, MAX:1
Coverage: 48, Tot. Cov: 196.000000, 91/149, STDB: 319510000.000000, IPB: 137479268.000000, STDT: 20306754390.000000, IPT: 1118458527.000000, BOH/LOH: 2.324060,18.156019, MAX:1
Coverage: 48, Tot. Cov: 98.000000, 92/149, STDB: 235125000.000000, IPB: 29757276.000000, STDT: 648829668.000000, IPT: 504229763.000000, BOH/LOH: 7.901429,1.286774, MAX:1
Coverage: 48, Tot. Cov: 97.000000, 92/149, STDB: 153100000.000000, IPB: 28451748.000000, STDT: 4908761894.000000, IPT: 498596085.000000, BOH/LOH: 5.381040,9.845167, MAX:1
Coverage: 48, Tot. Cov: 150.000000, 93/149, STDB: 526342500.000000, IPB: 74781392.000000, STDT: 2022303716.000000, IPT: 608651929.000000, BOH/LOH: 7.038415,3.322595, MAX:1
Coverage: 48, Tot. Cov: 149.000000, 93/149, STDB: 413932500.000000, IPB: 74013856.000000, STDT: 719332267.000000, IPT: 599951437.000000, BOH/LOH: 5.592635,1.198984, MAX:1
Coverage: 48, Tot. Cov: 148.000000, 93/149, STDB: 297810000.000000, IPB: 71318480.000000, STDT: 4128720554.000000, IPT: 600159626.000000, BOH/LOH: 4.175776,6.879371, MAX:1
Coverage: 48, Tot. Cov: 48.000000, 94/149, STDB: 61307500.000000, IPB: 18481376.000000, STDT: 212403880.000000, IPT: 195367107.000000, BOH/LOH: 3.317258,1.087204, MAX:1
Coverage: 48, Tot. Cov: 49.000000, 94/149, STDB: 33102500.000000, IPB: 18889232.000000, STDT: 2096490409.000000, IPT: 204687791.000000, BOH/LOH: 1.752453,10.242381, MAX:1
Coverage: 48, Tot. Cov: 400.000000, 96/149, STDB: 1515000000.000000, IPB: 170434112.000000, STDT: 17985492158.000000, IPT: 2265129828.000000, BOH/LOH: 8.889066,7.940160, MAX:1
Coverage: 48, Tot. Cov: 397.000000, 97/149, STDB: 1738640000.000000, IPB: 290672508.000000, STDT: 2894169974.000000, IPT: 2181243487.000000, BOH/LOH: 5.981439,1.326844, MAX:1
Coverage: 48, Tot. Cov: 49.000000, 98/149, STDB: 111075000.000000, IPB: 26218260.000000, STDT: 580987281.000000, IPT: 394051976.000000, BOH/LOH: 4.236551,1.474393, MAX:1
Coverage: 48, Tot. Cov: 49.000000, 98/149, STDB: 89095000.000000, IPB: 26275972.000000, STDT: 429745369.000000, IPT: 392729208.000000, BOH/LOH: 3.390740,1.094254, MAX:1
Coverage: 48, Tot. Cov: 146.000000, 99/149, STDB: 116962500.000000, IPB: 49796660.000000, STDT: 7425017797.000000, IPT: 947310788.000000, BOH/LOH: 2.348802,7.837996, MAX:1
Coverage: 48, Tot. Cov: 200.000000, 100/149, STDB: 98650000.000000, IPB: 15753952.000000, STDT: 1549543574.000000, IPT: 1083082642.000000, BOH/LOH: 6.261921,1.430679, MAX:1
Coverage: 48, Tot. Cov: 200.000000, 100/149, STDB: 77960000.000000, IPB: 15753952.000000, STDT: 1264741683.000000, IPT: 1083082642.000000, BOH/LOH: 4.948600,1.167724, MAX:1
Coverage: 48, Tot. Cov: 198.000000, 100/149, STDB: 46850000.000000, IPB: 15512692.000000, STDT: 10147084634.000000, IPT: 1067007582.000000, BOH/LOH: 3.020108,9.509852, MAX:1
Coverage: 48, Tot. Cov: 147.000000, 101/149, STDB: 188715000.000000, IPB: 32408728.000000, STDT: 774547505.000000, IPT: 553539543.000000, BOH/LOH: 5.822968,1.399263, MAX:1
Coverage: 48, Tot. Cov: 148.000000, 101/149, STDB: 110347500.000000, IPB: 32461736.000000, STDT: 3112809835.000000, IPT: 569578825.000000, BOH/LOH: 3.399310,5.465108, MAX:1
Coverage: 48, Tot. Cov: 49.000000, 102/149, STDB: 119835000.000000, IPB: 27555756.000000, STDT: 614060610.000000, IPT: 437016636.000000, BOH/LOH: 4.348819,1.405120, MAX:1
Coverage: 48, Tot. Cov: 48.000000, 102/149, STDB: 82685000.000000, IPB: 27002072.000000, STDT: 633947098.000000, IPT: 427151670.000000, BOH/LOH: 3.062172,1.484126, MAX:1
Coverage: 48, Tot. Cov: 48.000000, 102/149, STDB: 52280000.000000, IPB: 26740516.000000, STDT: 5048216503.000000, IPT: 428076143.000000, BOH/LOH: 1.955086,11.792800, MAX:1
Coverage: 48, Tot. Cov: 48.000000, 103/149, STDB: 8777500.000000, IPB: 2140544.000000, STDT: 434129826.000000, IPT: 180776126.000000, BOH/LOH: 4.100593,2.401478, MAX:1
Coverage: 48, Tot. Cov: 48.000000, 103/149, STDB: 7825000.000000, IPB: 2140372.000000, STDT: 242818383.000000, IPT: 175756128.000000, BOH/LOH: 3.655907,1.381564, MAX:1
Coverage: 48, Tot. Cov: 147.000000, 104/149, STDB: 39577500.000000, IPB: 8370628.000000, STDT: 873031101.000000, IPT: 546090798.000000, BOH/LOH: 4.728140,1.598692, MAX:1
Coverage: 48, Tot. Cov: 148.000000, 104/149, STDB: 21667500.000000, IPB: 8446980.000000, STDT: 3663714935.000000, IPT: 559829540.000000, BOH/LOH: 2.565118,6.544340, MAX:1
Coverage: 48, Tot. Cov: 199.000000, 105/149, STDB: 64620000.000000, IPB: 13978024.000000, STDT: 1555581395.000000, IPT: 759654714.000000, BOH/LOH: 4.622971,2.047748, MAX:1
Coverage: 48, Tot. Cov: 197.000000, 105/149, STDB: 73870000.000000, IPB: 13845780.000000, STDT: 1088524968.000000, IPT: 742009291.000000, BOH/LOH: 5.335200,1.466996, MAX:1
Coverage: 48, Tot. Cov: 196.000000, 105/149, STDB: 33880000.000000, IPB: 13756116.000000, STDT: 3934858217.000000, IPT: 739091301.000000, BOH/LOH: 2.462905,5.323914, MAX:1
Coverage: 48, Tot. Cov: 198.000000, 106/149, STDB: 120080000.000000, IPB: 18354816.000000, STDT: 847555770.000000, IPT: 708443955.000000, BOH/LOH: 6.542152,1.196362, MAX:1
Coverage: 48, Tot. Cov: 197.000000, 106/149, STDB: 103010000.000000, IPB: 18319112.000000, STDT: 899048066.000000, IPT: 698773183.000000, BOH/LOH: 5.623089,1.286609, MAX:1
Coverage: 48, Tot. Cov: 198.000000, 106/149, STDB: 71480000.000000, IPB: 18352888.000000, STDT: 4595315301.000000, IPT: 713130088.000000, BOH/LOH: 3.894755,6.443867, MAX:1
Coverage: 48, Tot. Cov: 245.000000, 107/149, STDB: 68862500.000000, IPB: 16471488.000000, STDT: 2024866901.000000, IPT: 1161215473.000000, BOH/LOH: 4.180709,1.743748, MAX:1
Coverage: 48, Tot. Cov: 245.000000, 107/149, STDB: 60862500.000000, IPB: 16471488.000000, STDT: 1759418841.000000, IPT: 1161215473.000000, BOH/LOH: 3.695021,1.515153, MAX:1
Coverage: 48, Tot. Cov: 248.000000, 107/149, STDB: 52212500.000000, IPB: 16707368.000000, STDT: 5538168145.000000, IPT: 1188472125.000000, BOH/LOH: 3.125118,4.659906, MAX:1
Coverage: 48, Tot. Cov: 296.000000, 108/149, STDB: 160200000.000000, IPB: 28625104.000000, STDT: 1075304319.000000, IPT: 932018251.000000, BOH/LOH: 5.596486,1.153737, MAX:1
Coverage: 48, Tot. Cov: 297.000000, 108/149, STDB: 96975000.000000, IPB: 28534976.000000, STDT: 6040304923.000000, IPT: 947505672.000000, BOH/LOH: 3.398461,6.374954, MAX:1
Coverage: 48, Tot. Cov: 200.000000, 109/149, STDB: 590950000.000000, IPB: 73327972.000000, STDT: 1442792443.000000, IPT: 1103523764.000000, BOH/LOH: 8.058998,1.307441, MAX:1
Coverage: 48, Tot. Cov: 200.000000, 109/149, STDB: 486460000.000000, IPB: 73327972.000000, STDT: 1639859970.000000, IPT: 1103523764.000000, BOH/LOH: 6.634030,1.486021, MAX:1
Coverage: 48, Tot. Cov: 49.000000, 110/149, STDB: 27892500.000000, IPB: 9889532.000000, STDT: 301368221.000000, IPT: 238461596.000000, BOH/LOH: 2.820406,1.263802, MAX:1
Coverage: 48, Tot. Cov: 196.000000, 112/149, STDB: 201100000.000000, IPB: 53973724.000000, STDT: 1187938440.000000, IPT: 1152933583.000000, BOH/LOH: 3.725887,1.030362, MAX:1
Coverage: 48, Tot. Cov: 199.000000, 112/149, STDB: 120170000.000000, IPB: 54876748.000000, STDT: 7177850999.000000, IPT: 1180123272.000000, BOH/LOH: 2.189816,6.082289, MAX:1
Coverage: 48, Tot. Cov: 100.000000, 113/149, STDB: 141950000.000000, IPB: 26561656.000000, STDT: 873669484.000000, IPT: 698972028.000000, BOH/LOH: 5.344170,1.249935, MAX:1
Coverage: 48, Tot. Cov: 99.000000, 113/149, STDB: 103600000.000000, IPB: 25898044.000000, STDT: 2767682681.000000, IPT: 688973941.000000, BOH/LOH: 4.000302,4.017108, MAX:1
Coverage: 48, Tot. Cov: 246.000000, 114/149, STDB: 190787500.000000, IPB: 41793548.000000, STDT: 3293487999.000000, IPT: 971522977.000000, BOH/LOH: 4.564999,3.390026, MAX:1
Coverage: 48, Tot. Cov: 245.000000, 114/149, STDB: 142587500.000000, IPB: 41831200.000000, STDT: 1255255430.000000, IPT: 952329106.000000, BOH/LOH: 3.408640,1.318090, MAX:1
Coverage: 48, Tot. Cov: 245.000000, 114/149, STDB: 89550000.000000, IPB: 41718288.000000, STDT: 8279514016.000000, IPT: 957836058.000000, BOH/LOH: 2.146541,8.643978, MAX:1
Coverage: 48, Tot. Cov: 98.000000, 115/149, STDB: 352745000.000000, IPB: 150278164.000000, STDT: 1073398713.000000, IPT: 694902972.000000, BOH/LOH: 2.347280,1.544674, MAX:1
Coverage: 48, Tot. Cov: 150.000000, 116/149, STDB: 929385000.000000, IPB: 276081404.000000, STDT: 1778308492.000000, IPT: 1071985044.000000, BOH/LOH: 3.366344,1.658893, MAX:1
Coverage: 48, Tot. Cov: 147.000000, 117/149, STDB: 957135000.000000, IPB: 267943976.000000, STDT: 765722471.000000, IPT: 674783094.000000, BOH/LOH: 3.572146,1.134768, MAX:1
Coverage: 48, Tot. Cov: 147.000000, 117/149, STDB: 735345000.000000, IPB: 267943976.000000, STDT: 940503967.000000, IPT: 674783094.000000, BOH/LOH: 2.744398,1.393787, MAX:1
Coverage: 48, Tot. Cov: 248.000000, 118/149, STDB: 1250375000.000000, IPB: 316656628.000000, STDT: 18143197443.000000, IPT: 2258577498.000000, BOH/LOH: 3.948678,8.033020, MAX:1
Coverage: 48, Tot. Cov: 150.000000, 119/149, STDB: 1275750000.000000, IPB: 318226008.000000, STDT: 1396814023.000000, IPT: 917381929.000000, BOH/LOH: 4.008943,1.522609, MAX:1
Coverage: 48, Tot. Cov: 147.000000, 119/149, STDB: 904425000.000000, IPB: 312299108.000000, STDT: 1073071008.000000, IPT: 892163734.000000, BOH/LOH: 2.896022,1.202774, MAX:1
Coverage: 48, Tot. Cov: 149.000000, 119/149, STDB: 696772500.000000, IPB: 314908676.000000, STDT: 22158042675.000000, IPT: 911684248.000000, BOH/LOH: 2.212618,24.304514, MAX:1
Coverage: 48, Tot. Cov: 195.000000, 120/149, STDB: 477830000.000000, IPB: 161147528.000000, STDT: 1362549021.000000, IPT: 1020919845.000000, BOH/LOH: 2.965171,1.334629, MAX:1
Coverage: 48, Tot. Cov: 198.000000, 120/149, STDB: 330410000.000000, IPB: 163174068.000000, STDT: 13293468619.000000, IPT: 1050259843.000000, BOH/LOH: 2.024893,12.657314, MAX:1
Coverage: 48, Tot. Cov: 150.000000, 121/149, STDB: 539130000.000000, IPB: 117669224.000000, STDT: 3317929250.000000, IPT: 1076227484.000000, BOH/LOH: 4.581742,3.082926, MAX:1
Coverage: 48, Tot. Cov: 148.000000, 121/149, STDB: 369217500.000000, IPB: 115629484.000000, STDT: 1426695428.000000, IPT: 1056329362.000000, BOH/LOH: 3.193109,1.350616, MAX:1
Coverage: 48, Tot. Cov: 148.000000, 121/149, STDB: 282022500.000000, IPB: 114862388.000000, STDT: 16768326442.000000, IPT: 1066488861.000000, BOH/LOH: 2.455308,15.722927, MAX:1
Coverage: 48, Tot. Cov: 99.000000, 122/149, STDB: 354130000.000000, IPB: 80556888.000000, STDT: 865612777.000000, IPT: 634361252.000000, BOH/LOH: 4.396024,1.364542, MAX:1
Coverage: 48, Tot. Cov: 99.000000, 122/149, STDB: 280710000.000000, IPB: 80556888.000000, STDT: 763388978.000000, IPT: 634361252.000000, BOH/LOH: 3.484618,1.203398, MAX:1
Coverage: 48, Tot. Cov: 97.000000, 122/149, STDB: 177880000.000000, IPB: 78426032.000000, STDT: 6920944835.000000, IPT: 621500996.000000, BOH/LOH: 2.268124,11.135855, MAX:1
Coverage: 48, Tot. Cov: 293.000000, 123/149, STDB: 1180650000.000000, IPB: 259498652.000000, STDT: 2127239146.000000, IPT: 1581437314.000000, BOH/LOH: 4.549735,1.345130, MAX:1
Coverage: 48, Tot. Cov: 293.000000, 123/149, STDB: 973545000.000000, IPB: 261067436.000000, STDT: 1886308409.000000, IPT: 1577230097.000000, BOH/LOH: 3.729094,1.195963, MAX:1
Coverage: 48, Tot. Cov: 396.000000, 125/149, STDB: 1139580000.000000, IPB: 283133616.000000, STDT: 3348112549.000000, IPT: 2041062132.000000, BOH/LOH: 4.024884,1.640378, MAX:1
Coverage: 48, Tot. Cov: 398.000000, 125/149, STDB: 967680000.000000, IPB: 285195772.000000, STDT: 21348747569.000000, IPT: 2060441755.000000, BOH/LOH: 3.393038,10.361248, MAX:1
Coverage: 48, Tot. Cov: 99.000000, 126/149, STDB: 172385000.000000, IPB: 97456284.000000, STDT: 5890448736.000000, IPT: 530061166.000000, BOH/LOH: 1.768844,11.112772, MAX:1
Coverage: 48, Tot. Cov: 98.000000, 127/149, STDB: 262240000.000000, IPB: 51388380.000000, STDT: 536898986.000000, IPT: 491890416.000000, BOH/LOH: 5.103099,1.091501, MAX:1
Coverage: 48, Tot. Cov: 194.000000, 129/149, STDB: 726060000.000000, IPB: 144673684.000000, STDT: 1621451981.000000, IPT: 1375006279.000000, BOH/LOH: 5.018604,1.179232, MAX:1
Coverage: 48, Tot. Cov: 197.000000, 129/149, STDB: 470690000.000000, IPB: 147129316.000000, STDT: 1805630180.000000, IPT: 1402863714.000000, BOH/LOH: 3.199158,1.287103, MAX:1
Coverage: 48, Tot. Cov: 197.000000, 130/149, STDB: 612210000.000000, IPB: 109336176.000000, STDT: 1628340291.000000, IPT: 1057687112.000000, BOH/LOH: 5.599336,1.539529, MAX:1
Coverage: 48, Tot. Cov: 197.000000, 130/149, STDB: 428530000.000000, IPB: 109336176.000000, STDT: 1198796630.000000, IPT: 1057687112.000000, BOH/LOH: 3.919380,1.133413, MAX:1
Coverage: 48, Tot. Cov: 295.000000, 131/149, STDB: 813960000.000000, IPB: 199533552.000000, STDT: 1912294638.000000, IPT: 1388512437.000000, BOH/LOH: 4.079314,1.377225, MAX:1
Coverage: 48, Tot. Cov: 198.000000, 132/149, STDB: 530020000.000000, IPB: 86470392.000000, STDT: 1088772894.000000, IPT: 837021973.000000, BOH/LOH: 6.129497,1.300770, MAX:1
Coverage: 48, Tot. Cov: 199.000000, 132/149, STDB: 256250000.000000, IPB: 86087396.000000, STDT: 4126172044.000000, IPT: 851552572.000000, BOH/LOH: 2.976626,4.845470, MAX:1
Coverage: 48, Tot. Cov: 146.000000, 133/149, STDB: 313455000.000000, IPB: 68620808.000000, STDT: 837972646.000000, IPT: 730213659.000000, BOH/LOH: 4.567929,1.147572, MAX:1
Coverage: 48, Tot. Cov: 147.000000, 133/149, STDB: 259687500.000000, IPB: 69437368.000000, STDT: 830166849.000000, IPT: 735001054.000000, BOH/LOH: 3.739881,1.129477, MAX:1
Coverage: 48, Tot. Cov: 147.000000, 134/149, STDB: 303180000.000000, IPB: 94081800.000000, STDT: 912482003.000000, IPT: 627454353.000000, BOH/LOH: 3.222515,1.454260, MAX:1
Coverage: 48, Tot. Cov: 97.000000, 135/149, STDB: 111730000.000000, IPB: 45112700.000000, STDT: 926483890.000000, IPT: 543659319.000000, BOH/LOH: 2.476686,1.704163, MAX:1
Coverage: 48, Tot. Cov: 99.000000, 136/149, STDB: 465975000.000000, IPB: 65511148.000000, STDT: 726963305.000000, IPT: 694486704.000000, BOH/LOH: 7.112912,1.046763, MAX:1
Coverage: 48, Tot. Cov: 98.000000, 136/149, STDB: 283265000.000000, IPB: 63713688.000000, STDT: 768670635.000000, IPT: 684575617.000000, BOH/LOH: 4.445905,1.122843, MAX:1
Coverage: 48, Tot. Cov: 100.000000, 136/149, STDB: 233640000.000000, IPB: 66872324.000000, STDT: 6432623119.000000, IPT: 704449777.000000, BOH/LOH: 3.493822,9.131415, MAX:1
Coverage: 48, Tot. Cov: 197.000000, 137/149, STDB: 356170000.000000, IPB: 93260116.000000, STDT: 1307679896.000000, IPT: 973634289.000000, BOH/LOH: 3.819103,1.343091, MAX:1
Coverage: 48, Tot. Cov: 249.000000, 138/149, STDB: 446650000.000000, IPB: 90402756.000000, STDT: 2270424759.000000, IPT: 1214371019.000000, BOH/LOH: 4.940668,1.869630, MAX:1
Coverage: 48, Tot. Cov: 249.000000, 138/149, STDB: 180750000.000000, IPB: 90407804.000000, STDT: 9616673344.000000, IPT: 1216766549.000000, BOH/LOH: 1.999274,7.903466, MAX:1
Coverage: 48, Tot. Cov: 99.000000, 139/149, STDB: 63505000.000000, IPB: 33415536.000000, STDT: 5209843065.000000, IPT: 418545693.000000, BOH/LOH: 1.900463,12.447489, MAX:1
Coverage: 48, Tot. Cov: 196.000000, 140/149, STDB: 70300000.000000, IPB: 24398696.000000, STDT: 3379231931.000000, IPT: 786745476.000000, BOH/LOH: 2.881302,4.295204, MAX:1
Coverage: 48, Tot. Cov: 199.000000, 141/149, STDB: 70220000.000000, IPB: 32373828.000000, STDT: 5463250826.000000, IPT: 810499890.000000, BOH/LOH: 2.169036,6.740594, MAX:1
Coverage: 48, Tot. Cov: 298.000000, 142/149, STDB: 163155000.000000, IPB: 39479536.000000, STDT: 16260469531.000000, IPT: 1528082555.000000, BOH/LOH: 4.132647,10.641094, MAX:1
Coverage: 48, Tot. Cov: 49.000000, 143/149, STDB: 30152500.000000, IPB: 9229228.000000, STDT: 386680738.000000, IPT: 339222466.000000, BOH/LOH: 3.267066,1.139903, MAX:1
Coverage: 48, Tot. Cov: 48.000000, 143/149, STDB: 14710000.000000, IPB: 9037744.000000, STDT: 1921443841.000000, IPT: 337878679.000000, BOH/LOH: 1.627619,5.686786, MAX:1
Coverage: 48, Tot. Cov: 148.000000, 145/149, STDB: 332992500.000000, IPB: 51121388.000000, STDT: 9491632134.000000, IPT: 863365276.000000, BOH/LOH: 6.513761,10.993762, MAX:1
Coverage: 48, Tot. Cov: 250.000000, 146/149, STDB: 184462500.000000, IPB: 38270956.000000, STDT: 3708701641.000000, IPT: 1225535284.000000, BOH/LOH: 4.819908,3.026189, MAX:1
Coverage: 48, Tot. Cov: 243.000000, 146/149, STDB: 76900000.000000, IPB: 37157536.000000, STDT: 5522580141.000000, IPT: 1179001746.000000, BOH/LOH: 2.069567,4.684115, MAX:1
Coverage: 48, Tot. Cov: 200.000000, 147/149, STDB: 1289250000.000000, IPB: 182129680.000000, STDT: 1311988210.000000, IPT: 1100679136.000000, BOH/LOH: 7.078747,1.191981, MAX:1
Coverage: 48, Tot. Cov: 97.000000, 148/149, STDB: 87110000.000000, IPB: 18852980.000000, STDT: 423206925.000000, IPT: 389658553.000000, BOH/LOH: 4.620490,1.086097, MAX:1
