Coverage: 20, Tot. Cov: 70.000000, 1/29, STDB: 957045000.000000, IPB: 470592200.000000, STDT: 3393803934.000000, IPT: 499115824.000000, BOH/LOH: 2.033703,6.799632, MAX:1
Coverage: 20, Tot. Cov: 95.000000, 2/29, STDB: 825382500.000000, IPB: 345160716.000000, STDT: 7071322585.000000, IPT: 767118016.000000, BOH/LOH: 2.391299,9.218037, MAX:1
Coverage: 20, Tot. Cov: 3070.000000, 3/29, STDB: 7429615000.000000, IPB: 190151372.000000, STDT: 99677577073.000000, IPT: 13117805004.000000, BOH/LOH: 39.072108,7.598648, MAX:1
Coverage: 20, Tot. Cov: 1031.000000, 4/29, STDB: 1272975000.000000, IPB: 588909556.000000, STDT: 37079841876.000000, IPT: 5816173354.000000, BOH/LOH: 2.161580,6.375299, MAX:1
Coverage: 20, Tot. Cov: 673.000000, 5/29, STDB: 582750000.000000, IPB: 250586016.000000, STDT: 16685534795.000000, IPT: 3114136259.000000, BOH/LOH: 2.325549,5.357998, MAX:1
Coverage: 20, Tot. Cov: 277.000000, 6/29, STDB: 192325000.000000, IPB: 68458100.000000, STDT: 6843737342.000000, IPT: 1654789429.000000, BOH/LOH: 2.809383,4.135715, MAX:1
Coverage: 20, Tot. Cov: 2542.000000, 7/29, STDB: 3043740000.000000, IPB: 1326549856.000000, STDT: 86434093911.000000, IPT: 12123070322.000000, BOH/LOH: 2.294478,7.129720, MAX:1
Coverage: 20, Tot. Cov: 2589.000000, 8/29, STDB: 5012415000.000000, IPB: 2237231032.000000, STDT: 133851064456.000000, IPT: 13580991714.000000, BOH/LOH: 2.240455,9.855765, MAX:1
Coverage: 20, Tot. Cov: 59.000000, 9/29, STDB: 43550000.000000, IPB: 14536056.000000, STDT: 1493298828.000000, IPT: 214736318.000000, BOH/LOH: 2.995998,6.954105, MAX:1
Coverage: 20, Tot. Cov: 360.000000, 10/29, STDB: 107900000.000000, IPB: 46161960.000000, STDT: 12302246084.000000, IPT: 1640454441.000000, BOH/LOH: 2.337422,7.499292, MAX:1
Coverage: 20, Tot. Cov: 1460.000000, 11/29, STDB: 694012500.000000, IPB: 260573792.000000, STDT: 28569350208.000000, IPT: 6187905950.000000, BOH/LOH: 2.663401,4.616966, MAX:1
Coverage: 20, Tot. Cov: 2103.000000, 12/29, STDB: 1824790000.000000, IPB: 593408564.000000, STDT: 51193371083.000000, IPT: 8823022667.000000, BOH/LOH: 3.075099,5.802249, MAX:1
Coverage: 20, Tot. Cov: 859.000000, 13/29, STDB: 520380000.000000, IPB: 227828052.000000, STDT: 23452842262.000000, IPT: 4690767051.000000, BOH/LOH: 2.284091,4.999788, MAX:1
Coverage: 20, Tot. Cov: 70.000000, 14/29, STDB: 30240000.000000, IPB: 8804516.000000, STDT: 1854604818.000000, IPT: 578536376.000000, BOH/LOH: 3.434601,3.205684, MAX:1
Coverage: 20, Tot. Cov: 434.000000, 15/29, STDB: 196267500.000000, IPB: 63775460.000000, STDT: 5969616621.000000, IPT: 1902703718.000000, BOH/LOH: 3.077477,3.137439, MAX:1
Coverage: 20, Tot. Cov: 73.000000, 16/29, STDB: 34110000.000000, IPB: 11254996.000000, STDT: 1187359912.000000, IPT: 393699893.000000, BOH/LOH: 3.030654,3.015901, MAX:1
Coverage: 20, Tot. Cov: 138.000000, 17/29, STDB: 73080000.000000, IPB: 26677416.000000, STDT: 2665698284.000000, IPT: 573855822.000000, BOH/LOH: 2.739396,4.645240, MAX:1
Coverage: 20, Tot. Cov: 120.000000, 18/29, STDB: 49305000.000000, IPB: 19037104.000000, STDT: 3325963357.000000, IPT: 1008364473.000000, BOH/LOH: 2.589942,3.298374, MAX:1
Coverage: 20, Tot. Cov: 21.000000, 19/29, STDB: 26652500.000000, IPB: 5815388.000000, STDT: 402025401.000000, IPT: 91024907.000000, BOH/LOH: 4.583099,4.416653, MAX:1
Coverage: 20, Tot. Cov: 1099.000000, 20/29, STDB: 359375000.000000, IPB: 119519392.000000, STDT: 18365993588.000000, IPT: 4629976662.000000, BOH/LOH: 3.006834,3.966757, MAX:1
Coverage: 20, Tot. Cov: 1044.000000, 21/29, STDB: 1171445000.000000, IPB: 443310216.000000, STDT: 41155670371.000000, IPT: 7062330559.000000, BOH/LOH: 2.642495,5.827491, MAX:1
Coverage: 20, Tot. Cov: 198.000000, 22/29, STDB: 720262500.000000, IPB: 293376376.000000, STDT: 9624564330.000000, IPT: 1332622489.000000, BOH/LOH: 2.455080,7.222274, MAX:1
Coverage: 20, Tot. Cov: 63.000000, 23/29, STDB: 346612500.000000, IPB: 64776780.000000, STDT: 1358592724.000000, IPT: 303292699.000000, BOH/LOH: 5.350876,4.479477, MAX:1
Coverage: 20, Tot. Cov: 124.000000, 24/29, STDB: 355470000.000000, IPB: 203238372.000000, STDT: 3551414124.000000, IPT: 552156252.000000, BOH/LOH: 1.749030,6.431901, MAX:1
Coverage: 20, Tot. Cov: 33.000000, 25/29, STDB: 136280000.000000, IPB: 66330596.000000, STDT: 1229942567.000000, IPT: 158190952.000000, BOH/LOH: 2.054557,7.775050, MAX:1
Coverage: 20, Tot. Cov: 1132.000000, 26/29, STDB: 2781742500.000000, IPB: 1272126324.000000, STDT: 46051688452.000000, IPT: 6511109822.000000, BOH/LOH: 2.186687,7.072786, MAX:1
Coverage: 20, Tot. Cov: 1645.000000, 27/29, STDB: 5565630000.000000, IPB: 1763313400.000000, STDT: 35357556675.000000, IPT: 12563842501.000000, BOH/LOH: 3.156348,2.814231, MAX:1
Coverage: 20, Tot. Cov: 1678.000000, 28/29, STDB: 9433462500.000000, IPB: 4164479700.000000, STDT: 82645372846.000000, IPT: 12148930623.000000, BOH/LOH: 2.265220,6.802687, MAX:1
