Coverage: 15, Tot. Cov: 67.000000, 1/29, STDB: 953005000.000000, IPB: 449590104.000000, STDT: 3060657752.000000, IPT: 473688572.000000, BOH/LOH: 2.119720,6.461329, MAX:1
Coverage: 15, Tot. Cov: 52.000000, 2/29, STDB: 787665000.000000, IPB: 178176424.000000, STDT: 3143357268.000000, IPT: 428469859.000000, BOH/LOH: 4.420703,7.336239, MAX:1
Coverage: 15, Tot. Cov: 3065.000000, 3/29, STDB: 7287170000.000000, IPB: 183047224.000000, STDT: 88103761635.000000, IPT: 13071158087.000000, BOH/LOH: 39.810328,6.740318, MAX:1
Coverage: 15, Tot. Cov: 985.000000, 4/29, STDB: 1232055000.000000, IPB: 557098608.000000, STDT: 33964286106.000000, IPT: 5529071687.000000, BOH/LOH: 2.211556,6.142855, MAX:1
Coverage: 15, Tot. Cov: 676.000000, 5/29, STDB: 586350000.000000, IPB: 251838180.000000, STDT: 14725309971.000000, IPT: 3143713332.000000, BOH/LOH: 2.328281,4.684050, MAX:1
Coverage: 15, Tot. Cov: 277.000000, 6/29, STDB: 192325000.000000, IPB: 68458100.000000, STDT: 6843737342.000000, IPT: 1654789429.000000, BOH/LOH: 2.809383,4.135715, MAX:1
Coverage: 15, Tot. Cov: 2466.000000, 7/29, STDB: 3025260000.000000, IPB: 1275475088.000000, STDT: 80991701516.000000, IPT: 11751188967.000000, BOH/LOH: 2.371869,6.892213, MAX:1
Coverage: 15, Tot. Cov: 2548.000000, 8/29, STDB: 4900230000.000000, IPB: 2191147796.000000, STDT: 122090872212.000000, IPT: 13303343612.000000, BOH/LOH: 2.236376,9.177458, MAX:1
Coverage: 15, Tot. Cov: 32.000000, 9/29, STDB: 40525000.000000, IPB: 7909804.000000, STDT: 615812725.000000, IPT: 115574503.000000, BOH/LOH: 5.123389,5.328275, MAX:1
Coverage: 15, Tot. Cov: 360.000000, 10/29, STDB: 107900000.000000, IPB: 46161960.000000, STDT: 12302246084.000000, IPT: 1640454441.000000, BOH/LOH: 2.337422,7.499292, MAX:1
Coverage: 15, Tot. Cov: 1460.000000, 11/29, STDB: 694012500.000000, IPB: 260573792.000000, STDT: 28569350208.000000, IPT: 6187905950.000000, BOH/LOH: 2.663401,4.616966, MAX:1
Coverage: 15, Tot. Cov: 2049.000000, 12/29, STDB: 1540220000.000000, IPB: 571790312.000000, STDT: 43858089568.000000, IPT: 8485614935.000000, BOH/LOH: 2.693680,5.168522, MAX:1
Coverage: 15, Tot. Cov: 773.000000, 13/29, STDB: 498285000.000000, IPB: 198140120.000000, STDT: 20289740402.000000, IPT: 4280451345.000000, BOH/LOH: 2.514811,4.740094, MAX:1
Coverage: 15, Tot. Cov: 65.000000, 14/29, STDB: 30640000.000000, IPB: 7917988.000000, STDT: 1625303466.000000, IPT: 540403244.000000, BOH/LOH: 3.869670,3.007575, MAX:1
Coverage: 15, Tot. Cov: 434.000000, 15/29, STDB: 196267500.000000, IPB: 63775460.000000, STDT: 5969616621.000000, IPT: 1902703718.000000, BOH/LOH: 3.077477,3.137439, MAX:1
Coverage: 15, Tot. Cov: 73.000000, 16/29, STDB: 34110000.000000, IPB: 11254996.000000, STDT: 1187359912.000000, IPT: 393699893.000000, BOH/LOH: 3.030654,3.015901, MAX:1
Coverage: 15, Tot. Cov: 125.000000, 17/29, STDB: 71580000.000000, IPB: 24019136.000000, STDT: 1852459194.000000, IPT: 517261850.000000, BOH/LOH: 2.980124,3.581279, MAX:1
Coverage: 15, Tot. Cov: 120.000000, 18/29, STDB: 49305000.000000, IPB: 19037104.000000, STDT: 3325963357.000000, IPT: 1008364473.000000, BOH/LOH: 2.589942,3.298374, MAX:1
Coverage: 15, Tot. Cov: 16.000000, 19/29, STDB: 26077500.000000, IPB: 4420532.000000, STDT: 418933654.000000, IPT: 68661115.000000, BOH/LOH: 5.899177,6.101469, MAX:1
Coverage: 15, Tot. Cov: 1093.000000, 20/29, STDB: 359375000.000000, IPB: 118403644.000000, STDT: 17151679436.000000, IPT: 4618329152.000000, BOH/LOH: 3.035168,3.713828, MAX:1
Coverage: 15, Tot. Cov: 1017.000000, 21/29, STDB: 1155055000.000000, IPB: 425961120.000000, STDT: 37146102262.000000, IPT: 6906630828.000000, BOH/LOH: 2.711644,5.378325, MAX:1
Coverage: 15, Tot. Cov: 179.000000, 22/29, STDB: 679150000.000000, IPB: 257574792.000000, STDT: 8285657818.000000, IPT: 1202764574.000000, BOH/LOH: 2.636710,6.888844, MAX:1
Coverage: 15, Tot. Cov: 57.000000, 23/29, STDB: 330555000.000000, IPB: 54045916.000000, STDT: 974185819.000000, IPT: 277840449.000000, BOH/LOH: 6.116188,3.506278, MAX:1
Coverage: 15, Tot. Cov: 124.000000, 24/29, STDB: 355470000.000000, IPB: 203238372.000000, STDT: 3551414124.000000, IPT: 552156252.000000, BOH/LOH: 1.749030,6.431901, MAX:1
Coverage: 15, Tot. Cov: 18.000000, 25/29, STDB: 124710000.000000, IPB: 35165900.000000, STDT: 514159686.000000, IPT: 89048351.000000, BOH/LOH: 3.546333,5.773938, MAX:1
Coverage: 15, Tot. Cov: 1113.000000, 26/29, STDB: 2812185000.000000, IPB: 1248751388.000000, STDT: 43415391243.000000, IPT: 6399417873.000000, BOH/LOH: 2.251997,6.784272, MAX:1
Coverage: 15, Tot. Cov: 1638.000000, 27/29, STDB: 5550415000.000000, IPB: 1748926308.000000, STDT: 33426630454.000000, IPT: 12519234988.000000, BOH/LOH: 3.173613,2.670022, MAX:1
Coverage: 15, Tot. Cov: 1622.000000, 28/29, STDB: 9370900000.000000, IPB: 3969237248.000000, STDT: 80113347388.000000, IPT: 11760828997.000000, BOH/LOH: 2.360882,6.811879, MAX:1
