Coverage: 10, Tot. Cov: 134.000000, 1/54, STDB: 71080000.000000, IPB: 12406796.000000, STDT: 1209132169.000000, IPT: 879194986.000000, BOH/LOH: 5.729118,1.375272, MAX:1
Coverage: 10, Tot. Cov: 106.000000, 1/54, STDB: 53150000.000000, IPB: 9468132.000000, STDT: 871748944.000000, IPT: 678054742.000000, BOH/LOH: 5.613568,1.285662, MAX:1
Coverage: 10, Tot. Cov: 136.000000, 1/54, STDB: 40570000.000000, IPB: 11747648.000000, STDT: 2319022788.000000, IPT: 956439196.000000, BOH/LOH: 3.453457,2.424642, MAX:1
Coverage: 10, Tot. Cov: 1097.000000, 2/54, STDB: 261420000.000000, IPB: 48643500.000000, STDT: 5336279583.000000, IPT: 3960558780.000000, BOH/LOH: 5.374202,1.347355, MAX:1
Coverage: 10, Tot. Cov: 1103.000000, 2/54, STDB: 215100000.000000, IPB: 49547436.000000, STDT: 4455502871.000000, IPT: 3907309051.000000, BOH/LOH: 4.341294,1.140300, MAX:1
Coverage: 10, Tot. Cov: 1080.000000, 2/54, STDB: 153300000.000000, IPB: 46914212.000000, STDT: 10713324027.000000, IPT: 4007067075.000000, BOH/LOH: 3.267667,2.673607, MAX:1
Coverage: 10, Tot. Cov: 657.000000, 3/54, STDB: 319800000.000000, IPB: 55486664.000000, STDT: 3136355138.000000, IPT: 2530246991.000000, BOH/LOH: 5.763547,1.239545, MAX:1
Coverage: 10, Tot. Cov: 667.000000, 3/54, STDB: 272737500.000000, IPB: 55717296.000000, STDT: 2951108107.000000, IPT: 2605617596.000000, BOH/LOH: 4.895024,1.132594, MAX:1
Coverage: 10, Tot. Cov: 646.000000, 3/54, STDB: 201562500.000000, IPB: 52392356.000000, STDT: 9160020336.000000, IPT: 2537175764.000000, BOH/LOH: 3.847174,3.610322, MAX:1
Coverage: 10, Tot. Cov: 762.000000, 4/54, STDB: 131240000.000000, IPB: 19086220.000000, STDT: 4286192225.000000, IPT: 2724973512.000000, BOH/LOH: 6.876165,1.572930, MAX:1
Coverage: 10, Tot. Cov: 722.000000, 4/54, STDB: 88160000.000000, IPB: 17449736.000000, STDT: 3261872062.000000, IPT: 2425892820.000000, BOH/LOH: 5.052225,1.344607, MAX:1
Coverage: 10, Tot. Cov: 658.000000, 4/54, STDB: 59160000.000000, IPB: 15040292.000000, STDT: 7226443225.000000, IPT: 2290794632.000000, BOH/LOH: 3.933434,3.154557, MAX:1
Coverage: 10, Tot. Cov: 1996.000000, 5/54, STDB: 4916520000.000000, IPB: 1272697164.000000, STDT: 15016866881.000000, IPT: 11285788306.000000, BOH/LOH: 3.863071,1.330600, MAX:1
Coverage: 10, Tot. Cov: 1934.000000, 5/54, STDB: 3349290000.000000, IPB: 1192621564.000000, STDT: 71495484130.000000, IPT: 11146197430.000000, BOH/LOH: 2.808343,6.414339, MAX:1
Coverage: 10, Tot. Cov: 220.000000, 6/54, STDB: 533925000.000000, IPB: 178617048.000000, STDT: 1354473071.000000, IPT: 964029381.000000, BOH/LOH: 2.989216,1.405012, MAX:1
Coverage: 10, Tot. Cov: 196.000000, 6/54, STDB: 364155000.000000, IPB: 151053820.000000, STDT: 6361344439.000000, IPT: 873768252.000000, BOH/LOH: 2.410763,7.280357, MAX:1
Coverage: 10, Tot. Cov: 1540.000000, 7/54, STDB: 4350480000.000000, IPB: 1292683936.000000, STDT: 13220934724.000000, IPT: 7506304693.000000, BOH/LOH: 3.365463,1.761311, MAX:1
Coverage: 10, Tot. Cov: 1331.000000, 7/54, STDB: 2962000000.000000, IPB: 1100893376.000000, STDT: 10946566601.000000, IPT: 6244069819.000000, BOH/LOH: 2.690542,1.753114, MAX:1
Coverage: 10, Tot. Cov: 1396.000000, 7/54, STDB: 2385360000.000000, IPB: 1129525744.000000, STDT: 62243743426.000000, IPT: 6900243475.000000, BOH/LOH: 2.111824,9.020514, MAX:1
Coverage: 10, Tot. Cov: 56.000000, 8/54, STDB: 227910000.000000, IPB: 63994920.000000, STDT: 363397000.000000, IPT: 290546137.000000, BOH/LOH: 3.561376,1.250738, MAX:1
Coverage: 10, Tot. Cov: 21.000000, 8/54, STDB: 167680000.000000, IPB: 20309428.000000, STDT: 786694721.000000, IPT: 130964215.000000, BOH/LOH: 8.256264,6.006944, MAX:1
Coverage: 10, Tot. Cov: 125.000000, 9/54, STDB: 544065000.000000, IPB: 141054328.000000, STDT: 801934271.000000, IPT: 651462134.000000, BOH/LOH: 3.857131,1.230976, MAX:1
Coverage: 10, Tot. Cov: 117.000000, 9/54, STDB: 385830000.000000, IPB: 132191448.000000, STDT: 846916670.000000, IPT: 606836959.000000, BOH/LOH: 2.918721,1.395625, MAX:1
Coverage: 10, Tot. Cov: 95.000000, 9/54, STDB: 262110000.000000, IPB: 101550668.000000, STDT: 2699195852.000000, IPT: 511307672.000000, BOH/LOH: 2.581076,5.279005, MAX:1
Coverage: 10, Tot. Cov: 164.000000, 10/54, STDB: 866312500.000000, IPB: 183633404.000000, STDT: 1295309004.000000, IPT: 727885049.000000, BOH/LOH: 4.717619,1.779552, MAX:1
Coverage: 10, Tot. Cov: 152.000000, 10/54, STDB: 508550000.000000, IPB: 165484272.000000, STDT: 882209799.000000, IPT: 682436367.000000, BOH/LOH: 3.073102,1.292736, MAX:1
Coverage: 10, Tot. Cov: 114.000000, 10/54, STDB: 424250000.000000, IPB: 117893440.000000, STDT: 2647872133.000000, IPT: 508128167.000000, BOH/LOH: 3.598589,5.211032, MAX:1
Coverage: 10, Tot. Cov: 44.000000, 11/54, STDB: 167630000.000000, IPB: 54703068.000000, STDT: 258228071.000000, IPT: 204314263.000000, BOH/LOH: 3.064362,1.263877, MAX:1
Coverage: 10, Tot. Cov: 43.000000, 11/54, STDB: 111785000.000000, IPB: 53479816.000000, STDT: 221947091.000000, IPT: 199924100.000000, BOH/LOH: 2.090228,1.110157, MAX:1
Coverage: 10, Tot. Cov: 12.000000, 11/54, STDB: 79995000.000000, IPB: 14864652.000000, STDT: 302555296.000000, IPT: 63983391.000000, BOH/LOH: 5.381559,4.728654, MAX:1
Coverage: 10, Tot. Cov: 785.000000, 12/54, STDB: 804600000.000000, IPB: 237537212.000000, STDT: 10187818499.000000, IPT: 5450230651.000000, BOH/LOH: 3.387259,1.869245, MAX:1
Coverage: 10, Tot. Cov: 744.000000, 12/54, STDB: 716360000.000000, IPB: 224387644.000000, STDT: 8924605231.000000, IPT: 5075663012.000000, BOH/LOH: 3.192511,1.758313, MAX:1
Coverage: 10, Tot. Cov: 706.000000, 12/54, STDB: 537040000.000000, IPB: 202394108.000000, STDT: 22746391290.000000, IPT: 4982403646.000000, BOH/LOH: 2.653437,4.565345, MAX:1
Coverage: 10, Tot. Cov: 88.000000, 13/54, STDB: 193065000.000000, IPB: 38599720.000000, STDT: 460627210.000000, IPT: 357609869.000000, BOH/LOH: 5.001720,1.288072, MAX:1
Coverage: 10, Tot. Cov: 55.000000, 13/54, STDB: 132855000.000000, IPB: 22991112.000000, STDT: 261613101.000000, IPT: 223497413.000000, BOH/LOH: 5.778537,1.170542, MAX:1
Coverage: 10, Tot. Cov: 108.000000, 13/54, STDB: 110167500.000000, IPB: 45520856.000000, STDT: 1984040251.000000, IPT: 453451830.000000, BOH/LOH: 2.420154,4.375416, MAX:1
Coverage: 10, Tot. Cov: 193.000000, 14/54, STDB: 339962500.000000, IPB: 59777012.000000, STDT: 2062802800.000000, IPT: 1105744282.000000, BOH/LOH: 5.687178,1.865533, MAX:1
Coverage: 10, Tot. Cov: 212.000000, 14/54, STDB: 236862500.000000, IPB: 68935188.000000, STDT: 1300174305.000000, IPT: 1198610959.000000, BOH/LOH: 3.436017,1.084734, MAX:1
Coverage: 10, Tot. Cov: 143.000000, 14/54, STDB: 135475000.000000, IPB: 41273900.000000, STDT: 3696322104.000000, IPT: 933210550.000000, BOH/LOH: 3.282341,3.960866, MAX:1
Coverage: 10, Tot. Cov: 432.000000, 15/54, STDB: 865000000.000000, IPB: 176771912.000000, STDT: 3382623244.000000, IPT: 1919880181.000000, BOH/LOH: 4.893311,1.761893, MAX:1
Coverage: 10, Tot. Cov: 316.000000, 15/54, STDB: 575750000.000000, IPB: 125056412.000000, STDT: 2008000095.000000, IPT: 1361536693.000000, BOH/LOH: 4.603922,1.474804, MAX:1
Coverage: 10, Tot. Cov: 363.000000, 15/54, STDB: 372175000.000000, IPB: 137892168.000000, STDT: 9423103381.000000, IPT: 1613451877.000000, BOH/LOH: 2.699029,5.840337, MAX:1
Coverage: 10, Tot. Cov: 72.000000, 16/54, STDB: 153052500.000000, IPB: 23066556.000000, STDT: 1659195753.000000, IPT: 285904275.000000, BOH/LOH: 6.635256,5.803326, MAX:1
Coverage: 10, Tot. Cov: 94.000000, 16/54, STDB: 80850000.000000, IPB: 30624960.000000, STDT: 537244657.000000, IPT: 372310909.000000, BOH/LOH: 2.640003,1.443000, MAX:1
Coverage: 10, Tot. Cov: 49.000000, 16/54, STDB: 70927500.000000, IPB: 15530736.000000, STDT: 961465214.000000, IPT: 199768472.000000, BOH/LOH: 4.566912,4.812898, MAX:1
Coverage: 10, Tot. Cov: 96.000000, 17/54, STDB: 142290000.000000, IPB: 35811008.000000, STDT: 504822765.000000, IPT: 430865219.000000, BOH/LOH: 3.973359,1.171649, MAX:1
Coverage: 10, Tot. Cov: 83.000000, 17/54, STDB: 85740000.000000, IPB: 31002536.000000, STDT: 433904585.000000, IPT: 365307105.000000, BOH/LOH: 2.765580,1.187780, MAX:1
Coverage: 10, Tot. Cov: 25.000000, 17/54, STDB: 60150000.000000, IPB: 9228684.000000, STDT: 553834252.000000, IPT: 110658669.000000, BOH/LOH: 6.517722,5.004888, MAX:1
Coverage: 10, Tot. Cov: 51.000000, 18/54, STDB: 118480000.000000, IPB: 16684292.000000, STDT: 684145464.000000, IPT: 206646800.000000, BOH/LOH: 7.101290,3.310700, MAX:1
Coverage: 10, Tot. Cov: 83.000000, 18/54, STDB: 70890000.000000, IPB: 27911136.000000, STDT: 418582171.000000, IPT: 340841432.000000, BOH/LOH: 2.539846,1.228085, MAX:1
Coverage: 10, Tot. Cov: 55.000000, 18/54, STDB: 53095000.000000, IPB: 18026260.000000, STDT: 738142533.000000, IPT: 226477770.000000, BOH/LOH: 2.945425,3.259227, MAX:1
Coverage: 10, Tot. Cov: 45.000000, 19/54, STDB: 55262500.000000, IPB: 15216000.000000, STDT: 243266630.000000, IPT: 203537337.000000, BOH/LOH: 3.631868,1.195194, MAX:1
Coverage: 10, Tot. Cov: 21.000000, 19/54, STDB: 34750000.000000, IPB: 6923464.000000, STDT: 117901102.000000, IPT: 93065854.000000, BOH/LOH: 5.019164,1.266857, MAX:1
Coverage: 10, Tot. Cov: 11.000000, 19/54, STDB: 26802500.000000, IPB: 3286464.000000, STDT: 151446804.000000, IPT: 47969024.000000, BOH/LOH: 8.155422,3.157179, MAX:1
Coverage: 10, Tot. Cov: 288.000000, 20/54, STDB: 391300000.000000, IPB: 129659116.000000, STDT: 1921195896.000000, IPT: 1299889420.000000, BOH/LOH: 3.017914,1.477969, MAX:1
Coverage: 10, Tot. Cov: 253.000000, 20/54, STDB: 288995000.000000, IPB: 105165232.000000, STDT: 7460294048.000000, IPT: 1263135729.000000, BOH/LOH: 2.748009,5.906170, MAX:1
Coverage: 10, Tot. Cov: 1603.000000, 21/54, STDB: 3810187500.000000, IPB: 854442048.000000, STDT: 8840715438.000000, IPT: 7444772077.000000, BOH/LOH: 4.459270,1.187507, MAX:1
Coverage: 10, Tot. Cov: 1619.000000, 21/54, STDB: 3072650000.000000, IPB: 877088248.000000, STDT: 10565085066.000000, IPT: 7456994347.000000, BOH/LOH: 3.503239,1.416802, MAX:1
Coverage: 10, Tot. Cov: 1483.000000, 21/54, STDB: 1743175000.000000, IPB: 760245136.000000, STDT: 41600491022.000000, IPT: 7028648501.000000, BOH/LOH: 2.292912,5.918704, MAX:1
Coverage: 10, Tot. Cov: 186.000000, 22/54, STDB: 415987500.000000, IPB: 112496432.000000, STDT: 1189957396.000000, IPT: 918388956.000000, BOH/LOH: 3.697784,1.295701, MAX:1
Coverage: 10, Tot. Cov: 120.000000, 22/54, STDB: 248075000.000000, IPB: 58740352.000000, STDT: 2592480935.000000, IPT: 647034525.000000, BOH/LOH: 4.223247,4.006712, MAX:1
Coverage: 10, Tot. Cov: 142.000000, 23/54, STDB: 64845000.000000, IPB: 17586408.000000, STDT: 1612126340.000000, IPT: 993647427.000000, BOH/LOH: 3.687223,1.622433, MAX:1
Coverage: 10, Tot. Cov: 71.000000, 23/54, STDB: 41677500.000000, IPB: 9108908.000000, STDT: 789653958.000000, IPT: 414788929.000000, BOH/LOH: 4.575466,1.903749, MAX:1
Coverage: 10, Tot. Cov: 75.000000, 23/54, STDB: 29422500.000000, IPB: 9097904.000000, STDT: 1841253529.000000, IPT: 536925492.000000, BOH/LOH: 3.233987,3.429253, MAX:1
Coverage: 10, Tot. Cov: 86.000000, 24/54, STDB: 75180000.000000, IPB: 8855184.000000, STDT: 359164042.000000, IPT: 351651526.000000, BOH/LOH: 8.489942,1.021364, MAX:1
Coverage: 10, Tot. Cov: 142.000000, 24/54, STDB: 55170000.000000, IPB: 15844048.000000, STDT: 758363708.000000, IPT: 596331860.000000, BOH/LOH: 3.482065,1.271714, MAX:1
Coverage: 10, Tot. Cov: 107.000000, 24/54, STDB: 37530000.000000, IPB: 10892940.000000, STDT: 1088936452.000000, IPT: 452303742.000000, BOH/LOH: 3.445351,2.407534, MAX:1
Coverage: 10, Tot. Cov: 162.000000, 25/54, STDB: 157250000.000000, IPB: 33316736.000000, STDT: 1140334472.000000, IPT: 874036244.000000, BOH/LOH: 4.719850,1.304676, MAX:1
Coverage: 10, Tot. Cov: 157.000000, 25/54, STDB: 129960000.000000, IPB: 32545948.000000, STDT: 1213818414.000000, IPT: 811317391.000000, BOH/LOH: 3.993124,1.496108, MAX:1
Coverage: 10, Tot. Cov: 148.000000, 25/54, STDB: 103160000.000000, IPB: 27928704.000000, STDT: 2153093582.000000, IPT: 848794756.000000, BOH/LOH: 3.693691,2.536648, MAX:1
Coverage: 10, Tot. Cov: 372.000000, 26/54, STDB: 215302500.000000, IPB: 31265280.000000, STDT: 2471659185.000000, IPT: 1578497736.000000, BOH/LOH: 6.886313,1.565830, MAX:1
Coverage: 10, Tot. Cov: 396.000000, 26/54, STDB: 177142500.000000, IPB: 34394056.000000, STDT: 1992416287.000000, IPT: 1672834301.000000, BOH/LOH: 5.150381,1.191042, MAX:1
Coverage: 10, Tot. Cov: 384.000000, 26/54, STDB: 111622500.000000, IPB: 31638548.000000, STDT: 8465186807.000000, IPT: 1717385298.000000, BOH/LOH: 3.528054,4.929113, MAX:1
Coverage: 10, Tot. Cov: 1473.000000, 27/54, STDB: 1330132500.000000, IPB: 248918988.000000, STDT: 8050747779.000000, IPT: 6367442013.000000, BOH/LOH: 5.343636,1.264361, MAX:1
Coverage: 10, Tot. Cov: 1395.000000, 27/54, STDB: 957125000.000000, IPB: 238953668.000000, STDT: 6753909758.000000, IPT: 5753758494.000000, BOH/LOH: 4.005484,1.173826, MAX:1
Coverage: 10, Tot. Cov: 1379.000000, 27/54, STDB: 620000000.000000, IPB: 226365420.000000, STDT: 20265813593.000000, IPT: 5945187728.000000, BOH/LOH: 2.738934,3.408776, MAX:1
Coverage: 10, Tot. Cov: 65.000000, 28/54, STDB: 43650000.000000, IPB: 14978672.000000, STDT: 256802802.000000, IPT: 234808960.000000, BOH/LOH: 2.914144,1.093667, MAX:1
Coverage: 10, Tot. Cov: 41.000000, 28/54, STDB: 36015000.000000, IPB: 9477500.000000, STDT: 527642586.000000, IPT: 149759943.000000, BOH/LOH: 3.800053,3.523256, MAX:1
Coverage: 10, Tot. Cov: 79.000000, 29/54, STDB: 66950000.000000, IPB: 12902460.000000, STDT: 1326362675.000000, IPT: 295941128.000000, BOH/LOH: 5.188933,4.481846, MAX:1
Coverage: 10, Tot. Cov: 50.000000, 29/54, STDB: 39605000.000000, IPB: 7687464.000000, STDT: 255910183.000000, IPT: 179600813.000000, BOH/LOH: 5.151894,1.424883, MAX:1
Coverage: 10, Tot. Cov: 38.000000, 29/54, STDB: 28265000.000000, IPB: 6597296.000000, STDT: 514721896.000000, IPT: 146034995.000000, BOH/LOH: 4.284331,3.524648, MAX:1
Coverage: 10, Tot. Cov: 23.000000, 30/54, STDB: 33955000.000000, IPB: 6276456.000000, STDT: 124892011.000000, IPT: 99986301.000000, BOH/LOH: 5.409900,1.249091, MAX:1
Coverage: 10, Tot. Cov: 15.000000, 30/54, STDB: 17380000.000000, IPB: 4051848.000000, STDT: 164791401.000000, IPT: 67731617.000000, BOH/LOH: 4.289401,2.433006, MAX:1
Coverage: 10, Tot. Cov: 30.000000, 31/54, STDB: 40270000.000000, IPB: 7626440.000000, STDT: 234638629.000000, IPT: 111586423.000000, BOH/LOH: 5.280314,2.102752, MAX:1
Coverage: 10, Tot. Cov: 28.000000, 31/54, STDB: 30712500.000000, IPB: 7106284.000000, STDT: 114574058.000000, IPT: 101985233.000000, BOH/LOH: 4.321879,1.123438, MAX:1
Coverage: 10, Tot. Cov: 14.000000, 31/54, STDB: 19965000.000000, IPB: 3507904.000000, STDT: 214174310.000000, IPT: 50605507.000000, BOH/LOH: 5.691433,4.232233, MAX:1
Coverage: 10, Tot. Cov: 10.000000, 32/54, STDB: 14902500.000000, IPB: 1336228.000000, STDT: 54276893.000000, IPT: 33061768.000000, BOH/LOH: 11.152663,1.641682, MAX:1
Coverage: 10, Tot. Cov: 12.000000, 32/54, STDB: 13017500.000000, IPB: 1623352.000000, STDT: 44061742.000000, IPT: 40100991.000000, BOH/LOH: 8.018902,1.098769, MAX:1
Coverage: 10, Tot. Cov: 22.000000, 32/54, STDB: 9025000.000000, IPB: 3038436.000000, STDT: 202526892.000000, IPT: 76784165.000000, BOH/LOH: 2.970278,2.637613, MAX:1
Coverage: 10, Tot. Cov: 1136.000000, 33/54, STDB: 705600000.000000, IPB: 154658556.000000, STDT: 6217227030.000000, IPT: 4640959672.000000, BOH/LOH: 4.562308,1.339643, MAX:1
Coverage: 10, Tot. Cov: 1114.000000, 33/54, STDB: 442920000.000000, IPB: 146453392.000000, STDT: 23199046156.000000, IPT: 4755599919.000000, BOH/LOH: 3.024307,4.878259, MAX:1
Coverage: 10, Tot. Cov: 21.000000, 34/54, STDB: 22730000.000000, IPB: 3167160.000000, STDT: 177128754.000000, IPT: 152699667.000000, BOH/LOH: 7.176777,1.159981, MAX:1
Coverage: 10, Tot. Cov: 18.000000, 34/54, STDB: 16812500.000000, IPB: 2813052.000000, STDT: 143688954.000000, IPT: 126699379.000000, BOH/LOH: 5.976605,1.134094, MAX:1
Coverage: 10, Tot. Cov: 17.000000, 34/54, STDB: 10300000.000000, IPB: 2773152.000000, STDT: 308454967.000000, IPT: 126776231.000000, BOH/LOH: 3.714185,2.433066, MAX:1
Coverage: 10, Tot. Cov: 1286.000000, 35/54, STDB: 1488270000.000000, IPB: 318189264.000000, STDT: 8272948971.000000, IPT: 6018252886.000000, BOH/LOH: 4.677311,1.374643, MAX:1
Coverage: 10, Tot. Cov: 1347.000000, 35/54, STDB: 1184120000.000000, IPB: 337113248.000000, STDT: 7201568221.000000, IPT: 6402454563.000000, BOH/LOH: 3.512529,1.124814, MAX:1
Coverage: 10, Tot. Cov: 1166.000000, 35/54, STDB: 713720000.000000, IPB: 278041512.000000, STDT: 24690603582.000000, IPT: 5450323243.000000, BOH/LOH: 2.566955,4.530117, MAX:1
Coverage: 10, Tot. Cov: 1516.000000, 36/54, STDB: 1718955000.000000, IPB: 434367432.000000, STDT: 8882630038.000000, IPT: 6052783438.000000, BOH/LOH: 3.957375,1.467528, MAX:1
Coverage: 10, Tot. Cov: 1549.000000, 36/54, STDB: 1560685000.000000, IPB: 444912748.000000, STDT: 7926699431.000000, IPT: 6177024448.000000, BOH/LOH: 3.507845,1.283255, MAX:1
Coverage: 10, Tot. Cov: 1435.000000, 36/54, STDB: 1058420000.000000, IPB: 389190012.000000, STDT: 26881218007.000000, IPT: 5875683903.000000, BOH/LOH: 2.719546,4.574994, MAX:1
Coverage: 10, Tot. Cov: 20.000000, 37/54, STDB: 75150000.000000, IPB: 9323784.000000, STDT: 275215176.000000, IPT: 87398304.000000, BOH/LOH: 8.060032,3.148976, MAX:1
Coverage: 10, Tot. Cov: 26.000000, 37/54, STDB: 44962500.000000, IPB: 12164292.000000, STDT: 143545470.000000, IPT: 112593123.000000, BOH/LOH: 3.696269,1.274904, MAX:1
Coverage: 10, Tot. Cov: 11.000000, 37/54, STDB: 34427500.000000, IPB: 5166452.000000, STDT: 177682304.000000, IPT: 47735974.000000, BOH/LOH: 6.663664,3.722189, MAX:1
Coverage: 10, Tot. Cov: 87.000000, 38/54, STDB: 240862500.000000, IPB: 50389348.000000, STDT: 772107334.000000, IPT: 630050943.000000, BOH/LOH: 4.780028,1.225468, MAX:1
Coverage: 10, Tot. Cov: 67.000000, 38/54, STDB: 203857500.000000, IPB: 35283420.000000, STDT: 661705099.000000, IPT: 491803064.000000, BOH/LOH: 5.777714,1.345468, MAX:1
Coverage: 10, Tot. Cov: 81.000000, 38/54, STDB: 154057500.000000, IPB: 36251164.000000, STDT: 2717041238.000000, IPT: 682614095.000000, BOH/LOH: 4.249726,3.980347, MAX:1
Coverage: 10, Tot. Cov: 103.000000, 39/54, STDB: 1031790000.000000, IPB: 162548072.000000, STDT: 1138719225.000000, IPT: 611277294.000000, BOH/LOH: 6.347599,1.862852, MAX:1
Coverage: 10, Tot. Cov: 104.000000, 39/54, STDB: 636420000.000000, IPB: 174532868.000000, STDT: 684363367.000000, IPT: 598277487.000000, BOH/LOH: 3.646419,1.143890, MAX:1
Coverage: 10, Tot. Cov: 75.000000, 39/54, STDB: 391515000.000000, IPB: 108095044.000000, STDT: 2756741496.000000, IPT: 452966753.000000, BOH/LOH: 3.621951,6.085969, MAX:1
Coverage: 10, Tot. Cov: 711.000000, 40/54, STDB: 2576160000.000000, IPB: 572286108.000000, STDT: 5638104343.000000, IPT: 4667864872.000000, BOH/LOH: 4.501525,1.207855, MAX:1
Coverage: 10, Tot. Cov: 679.000000, 40/54, STDB: 1715840000.000000, IPB: 539066616.000000, STDT: 5177496452.000000, IPT: 4431304223.000000, BOH/LOH: 3.182983,1.168391, MAX:1
Coverage: 10, Tot. Cov: 653.000000, 40/54, STDB: 1208960000.000000, IPB: 493993504.000000, STDT: 22002314694.000000, IPT: 4477440866.000000, BOH/LOH: 2.447320,4.914038, MAX:1
Coverage: 10, Tot. Cov: 582.000000, 41/54, STDB: 2819147500.000000, IPB: 725099220.000000, STDT: 6940593978.000000, IPT: 3072103450.000000, BOH/LOH: 3.887947,2.259232, MAX:1
Coverage: 10, Tot. Cov: 521.000000, 41/54, STDB: 2044055000.000000, IPB: 651536912.000000, STDT: 2909462187.000000, IPT: 2641121204.000000, BOH/LOH: 3.137282,1.101601, MAX:1
Coverage: 10, Tot. Cov: 473.000000, 41/54, STDB: 1314755000.000000, IPB: 567122596.000000, STDT: 23088066391.000000, IPT: 2498508709.000000, BOH/LOH: 2.318291,9.240739, MAX:1
Coverage: 10, Tot. Cov: 72.000000, 42/54, STDB: 787402500.000000, IPB: 113492240.000000, STDT: 576481895.000000, IPT: 428688051.000000, BOH/LOH: 6.937941,1.344758, MAX:1
Coverage: 10, Tot. Cov: 117.000000, 42/54, STDB: 501022500.000000, IPB: 181097744.000000, STDT: 804425081.000000, IPT: 723030914.000000, BOH/LOH: 2.766586,1.112574, MAX:1
Coverage: 10, Tot. Cov: 50.000000, 42/54, STDB: 351930000.000000, IPB: 67673264.000000, STDT: 2485468064.000000, IPT: 374240480.000000, BOH/LOH: 5.200429,6.641366, MAX:1
Coverage: 10, Tot. Cov: 58.000000, 43/54, STDB: 459355000.000000, IPB: 79485428.000000, STDT: 348020273.000000, IPT: 276709331.000000, BOH/LOH: 5.779110,1.257711, MAX:1
Coverage: 10, Tot. Cov: 66.000000, 43/54, STDB: 351805000.000000, IPB: 88863548.000000, STDT: 386916771.000000, IPT: 310370526.000000, BOH/LOH: 3.958935,1.246629, MAX:1
Coverage: 10, Tot. Cov: 30.000000, 43/54, STDB: 194790000.000000, IPB: 32656168.000000, STDT: 488269786.000000, IPT: 146773027.000000, BOH/LOH: 5.964876,3.326700, MAX:1
Coverage: 10, Tot. Cov: 28.000000, 44/54, STDB: 475345000.000000, IPB: 23307236.000000, STDT: 212918156.000000, IPT: 128375958.000000, BOH/LOH: 20.394739,1.658552, MAX:1
Coverage: 10, Tot. Cov: 52.000000, 44/54, STDB: 318155000.000000, IPB: 70407632.000000, STDT: 246395394.000000, IPT: 226137499.000000, BOH/LOH: 4.518757,1.089582, MAX:1
Coverage: 10, Tot. Cov: 32.000000, 44/54, STDB: 218400000.000000, IPB: 27380368.000000, STDT: 423459457.000000, IPT: 153723308.000000, BOH/LOH: 7.976518,2.754686, MAX:1
Coverage: 10, Tot. Cov: 104.000000, 45/54, STDB: 801600000.000000, IPB: 167848760.000000, STDT: 487838669.000000, IPT: 446127604.000000, BOH/LOH: 4.775728,1.093496, MAX:1
Coverage: 10, Tot. Cov: 96.000000, 45/54, STDB: 677000000.000000, IPB: 156576896.000000, STDT: 450917634.000000, IPT: 407791966.000000, BOH/LOH: 4.323754,1.105754, MAX:1
Coverage: 10, Tot. Cov: 155.000000, 45/54, STDB: 477000000.000000, IPB: 246623552.000000, STDT: 4529325727.000000, IPT: 681703186.000000, BOH/LOH: 1.934122,6.644132, MAX:1
Coverage: 10, Tot. Cov: 19.000000, 46/54, STDB: 219152500.000000, IPB: 39278012.000000, STDT: 102469960.000000, IPT: 85577251.000000, BOH/LOH: 5.579521,1.197397, MAX:1
Coverage: 10, Tot. Cov: 21.000000, 46/54, STDB: 181317500.000000, IPB: 43622172.000000, STDT: 134963622.000000, IPT: 94599903.000000, BOH/LOH: 4.156545,1.426678, MAX:1
Coverage: 10, Tot. Cov: 11.000000, 46/54, STDB: 124787500.000000, IPB: 22624544.000000, STDT: 211910419.000000, IPT: 50055386.000000, BOH/LOH: 5.515581,4.233519, MAX:1
Coverage: 10, Tot. Cov: 542.000000, 47/54, STDB: 4105620000.000000, IPB: 1523906140.000000, STDT: 3636779359.000000, IPT: 2927202609.000000, BOH/LOH: 2.694142,1.242408, MAX:1
Coverage: 10, Tot. Cov: 531.000000, 47/54, STDB: 2672220000.000000, IPB: 1426258656.000000, STDT: 18616115030.000000, IPT: 2999593744.000000, BOH/LOH: 1.873587,6.206212, MAX:1
Coverage: 10, Tot. Cov: 77.000000, 48/54, STDB: 759750000.000000, IPB: 146306848.000000, STDT: 691885763.000000, IPT: 421975954.000000, BOH/LOH: 5.192853,1.639633, MAX:1
Coverage: 10, Tot. Cov: 135.000000, 48/54, STDB: 663067500.000000, IPB: 260701740.000000, STDT: 1438184968.000000, IPT: 775700392.000000, BOH/LOH: 2.543395,1.854047, MAX:1
Coverage: 10, Tot. Cov: 108.000000, 48/54, STDB: 480420000.000000, IPB: 202035204.000000, STDT: 3662156282.000000, IPT: 615975654.000000, BOH/LOH: 2.377902,5.945294, MAX:1
Coverage: 10, Tot. Cov: 319.000000, 49/54, STDB: 1650355000.000000, IPB: 381848988.000000, STDT: 3332907918.000000, IPT: 2712774920.000000, BOH/LOH: 4.322010,1.228597, MAX:1
Coverage: 10, Tot. Cov: 298.000000, 49/54, STDB: 1314372500.000000, IPB: 333443772.000000, STDT: 3281136124.000000, IPT: 2570268746.000000, BOH/LOH: 3.941812,1.276573, MAX:1
Coverage: 10, Tot. Cov: 289.000000, 49/54, STDB: 910507500.000000, IPB: 319797244.000000, STDT: 8361555858.000000, IPT: 2488907267.000000, BOH/LOH: 2.847140,3.359529, MAX:1
Coverage: 10, Tot. Cov: 202.000000, 50/54, STDB: 670800000.000000, IPB: 158647032.000000, STDT: 2083376107.000000, IPT: 1763302671.000000, BOH/LOH: 4.228254,1.181519, MAX:1
Coverage: 10, Tot. Cov: 233.000000, 50/54, STDB: 577905000.000000, IPB: 187723616.000000, STDT: 3058951859.000000, IPT: 2048713602.000000, BOH/LOH: 3.078489,1.493109, MAX:1
Coverage: 10, Tot. Cov: 233.000000, 50/54, STDB: 479940000.000000, IPB: 184257784.000000, STDT: 6400854345.000000, IPT: 2049705769.000000, BOH/LOH: 2.604720,3.122816, MAX:1
Coverage: 10, Tot. Cov: 276.000000, 51/54, STDB: 1418625000.000000, IPB: 318629084.000000, STDT: 3916128594.000000, IPT: 2243802493.000000, BOH/LOH: 4.452277,1.745309, MAX:1
Coverage: 10, Tot. Cov: 245.000000, 51/54, STDB: 808680000.000000, IPB: 278393524.000000, STDT: 2301751550.000000, IPT: 1949998736.000000, BOH/LOH: 2.904809,1.180386, MAX:1
Coverage: 10, Tot. Cov: 216.000000, 51/54, STDB: 574110000.000000, IPB: 241066044.000000, STDT: 10136171154.000000, IPT: 1697528713.000000, BOH/LOH: 2.381547,5.971134, MAX:1
Coverage: 10, Tot. Cov: 118.000000, 52/54, STDB: 948820000.000000, IPB: 172101236.000000, STDT: 1078592939.000000, IPT: 635244935.000000, BOH/LOH: 5.513150,1.697917, MAX:1
Coverage: 10, Tot. Cov: 172.000000, 52/54, STDB: 677370000.000000, IPB: 254202724.000000, STDT: 1289378097.000000, IPT: 935516253.000000, BOH/LOH: 2.664684,1.378253, MAX:1
Coverage: 10, Tot. Cov: 100.000000, 52/54, STDB: 460900000.000000, IPB: 138922600.000000, STDT: 3162410401.000000, IPT: 549687023.000000, BOH/LOH: 3.317675,5.753111, MAX:1
Coverage: 10, Tot. Cov: 1521.000000, 53/54, STDB: 26572347500.000000, IPB: 3852147808.000000, STDT: 20120722269.000000, IPT: 12392826284.000000, BOH/LOH: 6.898060,1.623578, MAX:1
Coverage: 10, Tot. Cov: 1436.000000, 53/54, STDB: 21989152500.000000, IPB: 3617330404.000000, STDT: 13517524593.000000, IPT: 11577038682.000000, BOH/LOH: 6.078834,1.167615, MAX:1
Coverage: 10, Tot. Cov: 1509.000000, 53/54, STDB: 14606270000.000000, IPB: 3770246764.000000, STDT: 51076867866.000000, IPT: 12283780573.000000, BOH/LOH: 3.874089,4.158074, MAX:1
