Coverage: 48, Tot. Cov: 200.000000, 1/54, STDB: 71560000.000000, IPB: 18839040.000000, STDT: 2056207975.000000, IPT: 1421157703.000000, BOH/LOH: 3.798495,1.446854, MAX:1
Coverage: 48, Tot. Cov: 198.000000, 1/54, STDB: 47180000.000000, IPB: 18594616.000000, STDT: 8496691556.000000, IPT: 1406014372.000000, BOH/LOH: 2.537294,6.043104, MAX:1
Coverage: 48, Tot. Cov: 1193.000000, 2/54, STDB: 586440000.000000, IPB: 55430112.000000, STDT: 5620505454.000000, IPT: 4585886460.000000, BOH/LOH: 10.579809,1.225609, MAX:1
Coverage: 48, Tot. Cov: 1198.000000, 2/54, STDB: 498240000.000000, IPB: 55657764.000000, STDT: 6496653274.000000, IPT: 4632967993.000000, BOH/LOH: 8.951851,1.402266, MAX:1
Coverage: 48, Tot. Cov: 1199.000000, 2/54, STDB: 287640000.000000, IPB: 55621524.000000, STDT: 58462707540.000000, IPT: 4643858716.000000, BOH/LOH: 5.171379,12.589252, MAX:1
Coverage: 48, Tot. Cov: 748.000000, 3/54, STDB: 672637500.000000, IPB: 69168352.000000, STDT: 3936003249.000000, IPT: 3026660201.000000, BOH/LOH: 9.724643,1.300444, MAX:1
Coverage: 48, Tot. Cov: 747.000000, 3/54, STDB: 639112500.000000, IPB: 69050816.000000, STDT: 3973423081.000000, IPT: 3018118985.000000, BOH/LOH: 9.255684,1.316523, MAX:1
Coverage: 48, Tot. Cov: 748.000000, 3/54, STDB: 419700000.000000, IPB: 68811836.000000, STDT: 25013887020.000000, IPT: 3036202146.000000, BOH/LOH: 6.099241,8.238545, MAX:1
Coverage: 48, Tot. Cov: 800.000000, 4/54, STDB: 221160000.000000, IPB: 20742776.000000, STDT: 4872262359.000000, IPT: 3070891163.000000, BOH/LOH: 10.662025,1.586596, MAX:1
Coverage: 48, Tot. Cov: 798.000000, 4/54, STDB: 166680000.000000, IPB: 20675088.000000, STDT: 4245078081.000000, IPT: 3051764129.000000, BOH/LOH: 8.061876,1.391024, MAX:1
Coverage: 48, Tot. Cov: 798.000000, 4/54, STDB: 101640000.000000, IPB: 20663656.000000, STDT: 12722506450.000000, IPT: 3056975887.000000, BOH/LOH: 4.918781,4.161795, MAX:1
Coverage: 48, Tot. Cov: 2091.000000, 5/54, STDB: 5680395000.000000, IPB: 1341786728.000000, STDT: 14885035872.000000, IPT: 12120664400.000000, BOH/LOH: 4.233456,1.228071, MAX:1
Coverage: 48, Tot. Cov: 2097.000000, 5/54, STDB: 3916500000.000000, IPB: 1346298372.000000, STDT: 116379866512.000000, IPT: 12183563329.000000, BOH/LOH: 2.909088,9.552203, MAX:1
Coverage: 48, Tot. Cov: 297.000000, 6/54, STDB: 775245000.000000, IPB: 243420284.000000, STDT: 2195285714.000000, IPT: 1376024085.000000, BOH/LOH: 3.184800,1.595383, MAX:1
Coverage: 48, Tot. Cov: 295.000000, 6/54, STDB: 411705000.000000, IPB: 240187244.000000, STDT: 16144668390.000000, IPT: 1382088587.000000, BOH/LOH: 1.714100,11.681356, MAX:1
Coverage: 48, Tot. Cov: 1597.000000, 7/54, STDB: 4824080000.000000, IPB: 1348857192.000000, STDT: 22420603004.000000, IPT: 7929014518.000000, BOH/LOH: 3.576420,2.827666, MAX:1
Coverage: 48, Tot. Cov: 1593.000000, 7/54, STDB: 3529600000.000000, IPB: 1341867220.000000, STDT: 111465113630.000000, IPT: 7911719599.000000, BOH/LOH: 2.630365,14.088608, MAX:1
Coverage: 48, Tot. Cov: 97.000000, 8/54, STDB: 294020000.000000, IPB: 106952600.000000, STDT: 676811025.000000, IPT: 586792098.000000, BOH/LOH: 2.749068,1.153409, MAX:1
Coverage: 48, Tot. Cov: 98.000000, 8/54, STDB: 206245000.000000, IPB: 106815440.000000, STDT: 6620405890.000000, IPT: 601109186.000000, BOH/LOH: 1.930854,11.013650, MAX:1
Coverage: 48, Tot. Cov: 146.000000, 9/54, STDB: 647790000.000000, IPB: 164464272.000000, STDT: 2014709806.000000, IPT: 807294523.000000, BOH/LOH: 3.938789,2.495632, MAX:1
Coverage: 48, Tot. Cov: 797.000000, 12/54, STDB: 948960000.000000, IPB: 241550352.000000, STDT: 7414285082.000000, IPT: 5556196395.000000, BOH/LOH: 3.928622,1.334417, MAX:1
Coverage: 48, Tot. Cov: 798.000000, 12/54, STDB: 814200000.000000, IPB: 242017536.000000, STDT: 7811547348.000000, IPT: 5565892379.000000, BOH/LOH: 3.364219,1.403467, MAX:1
Coverage: 48, Tot. Cov: 797.000000, 12/54, STDB: 704840000.000000, IPB: 241043400.000000, STDT: 76062081147.000000, IPT: 5568411362.000000, BOH/LOH: 2.924121,13.659566, MAX:1
Coverage: 48, Tot. Cov: 148.000000, 13/54, STDB: 394305000.000000, IPB: 68188320.000000, STDT: 1931119997.000000, IPT: 641367712.000000, BOH/LOH: 5.782589,3.010940, MAX:1
Coverage: 48, Tot. Cov: 147.000000, 13/54, STDB: 231525000.000000, IPB: 68520788.000000, STDT: 674962939.000000, IPT: 629639694.000000, BOH/LOH: 3.378902,1.071983, MAX:1
Coverage: 48, Tot. Cov: 248.000000, 14/54, STDB: 150687500.000000, IPB: 78509684.000000, STDT: 12901828197.000000, IPT: 1548930484.000000, BOH/LOH: 1.919349,8.329508, MAX:1
Coverage: 48, Tot. Cov: 498.000000, 15/54, STDB: 550250000.000000, IPB: 210477784.000000, STDT: 37895179005.000000, IPT: 2306513325.000000, BOH/LOH: 2.614290,16.429638, MAX:1
Coverage: 48, Tot. Cov: 145.000000, 16/54, STDB: 78075000.000000, IPB: 47521696.000000, STDT: 7034463362.000000, IPT: 607051011.000000, BOH/LOH: 1.642934,11.587928, MAX:1
Coverage: 48, Tot. Cov: 98.000000, 17/54, STDB: 149985000.000000, IPB: 36545000.000000, STDT: 762331848.000000, IPT: 442015684.000000, BOH/LOH: 4.104118,1.724671, MAX:1
Coverage: 48, Tot. Cov: 98.000000, 17/54, STDB: 115275000.000000, IPB: 36545000.000000, STDT: 561705519.000000, IPT: 442015684.000000, BOH/LOH: 3.154330,1.270782, MAX:1
Coverage: 48, Tot. Cov: 96.000000, 17/54, STDB: 70110000.000000, IPB: 35770100.000000, STDT: 3833906830.000000, IPT: 433614949.000000, BOH/LOH: 1.960017,8.841731, MAX:1
Coverage: 48, Tot. Cov: 99.000000, 18/54, STDB: 61890000.000000, IPB: 33293380.000000, STDT: 2740952924.000000, IPT: 420790651.000000, BOH/LOH: 1.858928,6.513816, MAX:1
Coverage: 48, Tot. Cov: 48.000000, 19/54, STDB: 63827500.000000, IPB: 16112644.000000, STDT: 301706602.000000, IPT: 218444492.000000, BOH/LOH: 3.961330,1.381159, MAX:1
Coverage: 48, Tot. Cov: 48.000000, 19/54, STDB: 46560000.000000, IPB: 16112644.000000, STDT: 243035070.000000, IPT: 218444492.000000, BOH/LOH: 2.889656,1.112571, MAX:1
Coverage: 48, Tot. Cov: 49.000000, 19/54, STDB: 29805000.000000, IPB: 16445576.000000, STDT: 1692179630.000000, IPT: 227880285.000000, BOH/LOH: 1.812342,7.425739, MAX:1
Coverage: 48, Tot. Cov: 345.000000, 20/54, STDB: 314422500.000000, IPB: 153574644.000000, STDT: 18358564145.000000, IPT: 1703774919.000000, BOH/LOH: 2.047359,10.775229, MAX:1
Coverage: 48, Tot. Cov: 1750.000000, 21/54, STDB: 5440662500.000000, IPB: 954491064.000000, STDT: 16322418328.000000, IPT: 8422417973.000000, BOH/LOH: 5.700066,1.937973, MAX:1
Coverage: 48, Tot. Cov: 246.000000, 22/54, STDB: 494087500.000000, IPB: 154508092.000000, STDT: 28094883224.000000, IPT: 1389729168.000000, BOH/LOH: 3.197810,20.216085, MAX:1
Coverage: 48, Tot. Cov: 150.000000, 23/54, STDB: 72847500.000000, IPB: 18533780.000000, STDT: 1524360037.000000, IPT: 1066425843.000000, BOH/LOH: 3.930526,1.429410, MAX:1
Coverage: 48, Tot. Cov: 149.000000, 23/54, STDB: 67095000.000000, IPB: 18393424.000000, STDT: 1193038712.000000, IPT: 1057283234.000000, BOH/LOH: 3.647771,1.128400, MAX:1
Coverage: 48, Tot. Cov: 147.000000, 23/54, STDB: 35482500.000000, IPB: 18174556.000000, STDT: 7373783200.000000, IPT: 1040003567.000000, BOH/LOH: 1.952317,7.090152, MAX:1
Coverage: 48, Tot. Cov: 147.000000, 24/54, STDB: 67665000.000000, IPB: 16399072.000000, STDT: 708633503.000000, IPT: 622648651.000000, BOH/LOH: 4.126148,1.138095, MAX:1
Coverage: 48, Tot. Cov: 199.000000, 25/54, STDB: 110600000.000000, IPB: 40484016.000000, STDT: 5614178260.000000, IPT: 1174748329.000000, BOH/LOH: 2.731942,4.779048, MAX:1
Coverage: 48, Tot. Cov: 448.000000, 26/54, STDB: 248670000.000000, IPB: 42358140.000000, STDT: 4528654800.000000, IPT: 2090941515.000000, BOH/LOH: 5.870654,2.165845, MAX:1
Coverage: 48, Tot. Cov: 448.000000, 26/54, STDB: 260190000.000000, IPB: 42358044.000000, STDT: 2725538402.000000, IPT: 2090233967.000000, BOH/LOH: 6.142635,1.303939, MAX:1
Coverage: 48, Tot. Cov: 98.000000, 28/54, STDB: 67215000.000000, IPB: 22526248.000000, STDT: 509496705.000000, IPT: 364210331.000000, BOH/LOH: 2.983852,1.398908, MAX:1
Coverage: 48, Tot. Cov: 98.000000, 29/54, STDB: 77160000.000000, IPB: 16829760.000000, STDT: 696157312.000000, IPT: 379032604.000000, BOH/LOH: 4.584736,1.836669, MAX:1
Coverage: 48, Tot. Cov: 98.000000, 29/54, STDB: 53465000.000000, IPB: 16829760.000000, STDT: 538926833.000000, IPT: 379032604.000000, BOH/LOH: 3.176813,1.421848, MAX:1
Coverage: 48, Tot. Cov: 98.000000, 29/54, STDB: 39120000.000000, IPB: 16827832.000000, STDT: 3269126426.000000, IPT: 383718737.000000, BOH/LOH: 2.324720,8.519590, MAX:1
Coverage: 48, Tot. Cov: 48.000000, 30/54, STDB: 35292500.000000, IPB: 13053784.000000, STDT: 274358213.000000, IPT: 216669760.000000, BOH/LOH: 2.703622,1.266251, MAX:1
Coverage: 48, Tot. Cov: 49.000000, 31/54, STDB: 24450000.000000, IPB: 12538276.000000, STDT: 1949640017.000000, IPT: 222372675.000000, BOH/LOH: 1.950029,8.767444, MAX:1
Coverage: 48, Tot. Cov: 50.000000, 32/54, STDB: 25355000.000000, IPB: 7111144.000000, STDT: 477323843.000000, IPT: 185640672.000000, BOH/LOH: 3.565530,2.571224, MAX:1
Coverage: 48, Tot. Cov: 1200.000000, 33/54, STDB: 888360000.000000, IPB: 165541044.000000, STDT: 11606318034.000000, IPT: 5152252088.000000, BOH/LOH: 5.366403,2.252669, MAX:1
Coverage: 48, Tot. Cov: 1198.000000, 33/54, STDB: 670140000.000000, IPB: 164844980.000000, STDT: 64822327902.000000, IPT: 5140692713.000000, BOH/LOH: 4.065274,12.609648, MAX:1
Coverage: 48, Tot. Cov: 48.000000, 34/54, STDB: 22597500.000000, IPB: 7548332.000000, STDT: 428184496.000000, IPT: 387376197.000000, BOH/LOH: 2.993708,1.105345, MAX:1
Coverage: 48, Tot. Cov: 48.000000, 34/54, STDB: 14175000.000000, IPB: 7537728.000000, STDT: 1465523144.000000, IPT: 389821863.000000, BOH/LOH: 1.880540,3.759469, MAX:1
Coverage: 48, Tot. Cov: 1395.000000, 35/54, STDB: 1739850000.000000, IPB: 356392536.000000, STDT: 67848224598.000000, IPT: 6736961909.000000, BOH/LOH: 4.881836,10.071042, MAX:1
Coverage: 48, Tot. Cov: 1700.000000, 36/54, STDB: 4969440000.000000, IPB: 507616296.000000, STDT: 16430602127.000000, IPT: 7188199023.000000, BOH/LOH: 9.789757,2.285775, MAX:1
Coverage: 48, Tot. Cov: 1698.000000, 36/54, STDB: 2960805000.000000, IPB: 504999368.000000, STDT: 65983184196.000000, IPT: 7177333849.000000, BOH/LOH: 5.862988,9.193272, MAX:1
Coverage: 48, Tot. Cov: 148.000000, 38/54, STDB: 313252500.000000, IPB: 84797396.000000, STDT: 1461758352.000000, IPT: 1178077052.000000, BOH/LOH: 3.694129,1.240800, MAX:1
Coverage: 48, Tot. Cov: 148.000000, 38/54, STDB: 244275000.000000, IPB: 84331640.000000, STDT: 1416987645.000000, IPT: 1182279638.000000, BOH/LOH: 2.896600,1.198522, MAX:1
Coverage: 48, Tot. Cov: 146.000000, 39/54, STDB: 754822500.000000, IPB: 256494736.000000, STDT: 1050567250.000000, IPT: 947766181.000000, BOH/LOH: 2.942838,1.108467, MAX:1
Coverage: 48, Tot. Cov: 796.000000, 40/54, STDB: 5656560000.000000, IPB: 681786060.000000, STDT: 12111421019.000000, IPT: 5409482533.000000, BOH/LOH: 8.296679,2.238924, MAX:1
Coverage: 48, Tot. Cov: 795.000000, 40/54, STDB: 4251760000.000000, IPB: 680794984.000000, STDT: 6477500140.000000, IPT: 5399845918.000000, BOH/LOH: 6.245287,1.199571, MAX:1
Coverage: 48, Tot. Cov: 796.000000, 40/54, STDB: 3340520000.000000, IPB: 681803172.000000, STDT: 85819330989.000000, IPT: 5411936066.000000, BOH/LOH: 4.899537,15.857418, MAX:1
Coverage: 48, Tot. Cov: 648.000000, 41/54, STDB: 3163615000.000000, IPB: 814809812.000000, STDT: 8444842883.000000, IPT: 3544618665.000000, BOH/LOH: 3.882642,2.382440, MAX:1
Coverage: 48, Tot. Cov: 644.000000, 41/54, STDB: 1566435000.000000, IPB: 807969984.000000, STDT: 69220335988.000000, IPT: 3526576763.000000, BOH/LOH: 1.938729,19.628195, MAX:1
Coverage: 48, Tot. Cov: 149.000000, 42/54, STDB: 549480000.000000, IPB: 226113356.000000, STDT: 14259785736.000000, IPT: 1009033633.000000, BOH/LOH: 2.430109,14.132121, MAX:1
Coverage: 48, Tot. Cov: 98.000000, 43/54, STDB: 369960000.000000, IPB: 134993116.000000, STDT: 622842707.000000, IPT: 497141106.000000, BOH/LOH: 2.740584,1.252849, MAX:1
Coverage: 48, Tot. Cov: 96.000000, 43/54, STDB: 218525000.000000, IPB: 131992920.000000, STDT: 7103596591.000000, IPT: 487119918.000000, BOH/LOH: 1.655581,14.582850, MAX:1
Coverage: 48, Tot. Cov: 97.000000, 44/54, STDB: 517775000.000000, IPB: 140643948.000000, STDT: 1185205780.000000, IPT: 474580320.000000, BOH/LOH: 3.681460,2.497377, MAX:1
Coverage: 48, Tot. Cov: 97.000000, 44/54, STDB: 356175000.000000, IPB: 140546132.000000, STDT: 487879252.000000, IPT: 470965748.000000, BOH/LOH: 2.534221,1.035912, MAX:1
Coverage: 48, Tot. Cov: 97.000000, 44/54, STDB: 228370000.000000, IPB: 140546316.000000, STDT: 6837342177.000000, IPT: 479541802.000000, BOH/LOH: 1.624874,14.258073, MAX:1
Coverage: 48, Tot. Cov: 196.000000, 45/54, STDB: 883570000.000000, IPB: 322905032.000000, STDT: 902269135.000000, IPT: 874502495.000000, BOH/LOH: 2.736315,1.031751, MAX:1
Coverage: 48, Tot. Cov: 198.000000, 45/54, STDB: 814220000.000000, IPB: 325051296.000000, STDT: 11217012388.000000, IPT: 893205312.000000, BOH/LOH: 2.504897,12.558157, MAX:1
Coverage: 48, Tot. Cov: 150.000000, 48/54, STDB: 1084957500.000000, IPB: 292564144.000000, STDT: 2263688593.000000, IPT: 879809819.000000, BOH/LOH: 3.708443,2.572929, MAX:1
Coverage: 48, Tot. Cov: 148.000000, 48/54, STDB: 752827500.000000, IPB: 289522268.000000, STDT: 1044999082.000000, IPT: 861956812.000000, BOH/LOH: 2.600240,1.212357, MAX:1
Coverage: 48, Tot. Cov: 348.000000, 49/54, STDB: 2385477500.000000, IPB: 439891780.000000, STDT: 3361931401.000000, IPT: 2987916106.000000, BOH/LOH: 5.422874,1.125176, MAX:1
Coverage: 48, Tot. Cov: 348.000000, 49/54, STDB: 2148720000.000000, IPB: 439891780.000000, STDT: 3298826410.000000, IPT: 2987916106.000000, BOH/LOH: 4.884656,1.104056, MAX:1
Coverage: 48, Tot. Cov: 348.000000, 49/54, STDB: 1807855000.000000, IPB: 439832212.000000, STDT: 32917886854.000000, IPT: 2988328689.000000, BOH/LOH: 4.110329,11.015484, MAX:1
Coverage: 48, Tot. Cov: 298.000000, 50/54, STDB: 1144830000.000000, IPB: 264471936.000000, STDT: 3162553301.000000, IPT: 2571111197.000000, BOH/LOH: 4.328739,1.230034, MAX:1
Coverage: 48, Tot. Cov: 299.000000, 50/54, STDB: 987150000.000000, IPB: 266249616.000000, STDT: 3085496284.000000, IPT: 2580108957.000000, BOH/LOH: 3.707611,1.195878, MAX:1
Coverage: 48, Tot. Cov: 298.000000, 51/54, STDB: 1423125000.000000, IPB: 349106716.000000, STDT: 3584705812.000000, IPT: 2448554193.000000, BOH/LOH: 4.076476,1.464009, MAX:1
Coverage: 48, Tot. Cov: 295.000000, 51/54, STDB: 896415000.000000, IPB: 345900144.000000, STDT: 2699530406.000000, IPT: 2419755477.000000, BOH/LOH: 2.591543,1.115621, MAX:1
Coverage: 48, Tot. Cov: 298.000000, 51/54, STDB: 743250000.000000, IPB: 348326024.000000, STDT: 35386614514.000000, IPT: 2449217713.000000, BOH/LOH: 2.133777,14.448129, MAX:1
Coverage: 48, Tot. Cov: 197.000000, 52/54, STDB: 1560890000.000000, IPB: 297316720.000000, STDT: 2707982494.000000, IPT: 1116899208.000000, BOH/LOH: 5.249923,2.424554, MAX:1
Coverage: 48, Tot. Cov: 195.000000, 52/54, STDB: 989780000.000000, IPB: 296096780.000000, STDT: 1223370920.000000, IPT: 1097816843.000000, BOH/LOH: 3.342758,1.114367, MAX:1
Coverage: 48, Tot. Cov: 198.000000, 52/54, STDB: 773140000.000000, IPB: 297916656.000000, STDT: 21687837384.000000, IPT: 1128891883.000000, BOH/LOH: 2.595155,19.211616, MAX:1
Coverage: 48, Tot. Cov: 1550.000000, 53/54, STDB: 29274462500.000000, IPB: 4067773796.000000, STDT: 19934329237.000000, IPT: 12656033716.000000, BOH/LOH: 7.196679,1.575085, MAX:1
Coverage: 48, Tot. Cov: 1547.000000, 53/54, STDB: 25455650000.000000, IPB: 4054405604.000000, STDT: 14919576489.000000, IPT: 12626996875.000000, BOH/LOH: 6.278516,1.181562, MAX:1
Coverage: 48, Tot. Cov: 1549.000000, 53/54, STDB: 16756275000.000000, IPB: 4059751816.000000, STDT: 74385246042.000000, IPT: 12646089387.000000, BOH/LOH: 4.127414,5.882075, MAX:1
