Coverage: 5, Tot. Cov: 134.000000, 1/54, STDB: 71080000.000000, IPB: 12406796.000000, STDT: 1209132169.000000, IPT: 879194986.000000, BOH/LOH: 5.729118,1.375272, MAX:1
Coverage: 5, Tot. Cov: 106.000000, 1/54, STDB: 53150000.000000, IPB: 9468132.000000, STDT: 871748944.000000, IPT: 678054742.000000, BOH/LOH: 5.613568,1.285662, MAX:1
Coverage: 5, Tot. Cov: 136.000000, 1/54, STDB: 40570000.000000, IPB: 11747648.000000, STDT: 2319022788.000000, IPT: 956439196.000000, BOH/LOH: 3.453457,2.424642, MAX:1
Coverage: 5, Tot. Cov: 1097.000000, 2/54, STDB: 261420000.000000, IPB: 48643500.000000, STDT: 5336279583.000000, IPT: 3960558780.000000, BOH/LOH: 5.374202,1.347355, MAX:1
Coverage: 5, Tot. Cov: 1061.000000, 2/54, STDB: 210720000.000000, IPB: 46703180.000000, STDT: 5228251441.000000, IPT: 3751359586.000000, BOH/LOH: 4.511898,1.393695, MAX:1
Coverage: 5, Tot. Cov: 1080.000000, 2/54, STDB: 153300000.000000, IPB: 46914212.000000, STDT: 10713324027.000000, IPT: 4007067075.000000, BOH/LOH: 3.267667,2.673607, MAX:1
Coverage: 5, Tot. Cov: 657.000000, 3/54, STDB: 319800000.000000, IPB: 55486664.000000, STDT: 3136355138.000000, IPT: 2530246991.000000, BOH/LOH: 5.763547,1.239545, MAX:1
Coverage: 5, Tot. Cov: 667.000000, 3/54, STDB: 272737500.000000, IPB: 55717296.000000, STDT: 2951108107.000000, IPT: 2605617596.000000, BOH/LOH: 4.895024,1.132594, MAX:1
Coverage: 5, Tot. Cov: 622.000000, 3/54, STDB: 194625000.000000, IPB: 49346288.000000, STDT: 7602355972.000000, IPT: 2419909384.000000, BOH/LOH: 3.944066,3.141587, MAX:1
Coverage: 5, Tot. Cov: 761.000000, 4/54, STDB: 131240000.000000, IPB: 19046080.000000, STDT: 4299619584.000000, IPT: 2715936689.000000, BOH/LOH: 6.890657,1.583107, MAX:1
Coverage: 5, Tot. Cov: 722.000000, 4/54, STDB: 88160000.000000, IPB: 17449736.000000, STDT: 3261872062.000000, IPT: 2425892820.000000, BOH/LOH: 5.052225,1.344607, MAX:1
Coverage: 5, Tot. Cov: 635.000000, 4/54, STDB: 55600000.000000, IPB: 14281464.000000, STDT: 7116857166.000000, IPT: 2165601872.000000, BOH/LOH: 3.893158,3.286318, MAX:1
Coverage: 5, Tot. Cov: 1646.000000, 5/54, STDB: 4984350000.000000, IPB: 1051725240.000000, STDT: 10887687595.000000, IPT: 8444439648.000000, BOH/LOH: 4.739213,1.289332, MAX:1
Coverage: 5, Tot. Cov: 1917.000000, 5/54, STDB: 3266130000.000000, IPB: 1178390140.000000, STDT: 69761942598.000000, IPT: 11048997341.000000, BOH/LOH: 2.771688,6.313871, MAX:1
Coverage: 5, Tot. Cov: 220.000000, 6/54, STDB: 533925000.000000, IPB: 178617048.000000, STDT: 1354473071.000000, IPT: 964029381.000000, BOH/LOH: 2.989216,1.405012, MAX:1
Coverage: 5, Tot. Cov: 186.000000, 6/54, STDB: 360390000.000000, IPB: 144803748.000000, STDT: 5479259010.000000, IPT: 810116813.000000, BOH/LOH: 2.488817,6.763542, MAX:1
Coverage: 5, Tot. Cov: 1540.000000, 7/54, STDB: 4350480000.000000, IPB: 1292683936.000000, STDT: 13220934724.000000, IPT: 7506304693.000000, BOH/LOH: 3.365463,1.761311, MAX:1
Coverage: 5, Tot. Cov: 1331.000000, 7/54, STDB: 2962000000.000000, IPB: 1100893376.000000, STDT: 10946566601.000000, IPT: 6244069819.000000, BOH/LOH: 2.690542,1.753114, MAX:1
Coverage: 5, Tot. Cov: 1245.000000, 7/54, STDB: 2231120000.000000, IPB: 989588168.000000, STDT: 51984733064.000000, IPT: 6149927732.000000, BOH/LOH: 2.254594,8.452901, MAX:1
Coverage: 5, Tot. Cov: 49.000000, 8/54, STDB: 224980000.000000, IPB: 56884620.000000, STDT: 311883687.000000, IPT: 249492520.000000, BOH/LOH: 3.955023,1.250072, MAX:1
Coverage: 5, Tot. Cov: 14.000000, 8/54, STDB: 164530000.000000, IPB: 12898040.000000, STDT: 365584353.000000, IPT: 85242904.000000, BOH/LOH: 12.756202,4.288736, MAX:1
Coverage: 5, Tot. Cov: 125.000000, 9/54, STDB: 544065000.000000, IPB: 141054328.000000, STDT: 801934271.000000, IPT: 651462134.000000, BOH/LOH: 3.857131,1.230976, MAX:1
Coverage: 5, Tot. Cov: 65.000000, 9/54, STDB: 361440000.000000, IPB: 74525144.000000, STDT: 436909728.000000, IPT: 321462867.000000, BOH/LOH: 4.849907,1.359130, MAX:1
Coverage: 5, Tot. Cov: 65.000000, 9/54, STDB: 251145000.000000, IPB: 69237624.000000, STDT: 1725176103.000000, IPT: 349491348.000000, BOH/LOH: 3.627291,4.936248, MAX:1
Coverage: 5, Tot. Cov: 140.000000, 10/54, STDB: 851825000.000000, IPB: 157293832.000000, STDT: 963508342.000000, IPT: 613221451.000000, BOH/LOH: 5.415502,1.571224, MAX:1
Coverage: 5, Tot. Cov: 149.000000, 10/54, STDB: 527412500.000000, IPB: 164752948.000000, STDT: 890900703.000000, IPT: 657980671.000000, BOH/LOH: 3.201233,1.353992, MAX:1
Coverage: 5, Tot. Cov: 105.000000, 10/54, STDB: 425575000.000000, IPB: 105484520.000000, STDT: 2556452913.000000, IPT: 473187132.000000, BOH/LOH: 4.034478,5.402626, MAX:1
Coverage: 5, Tot. Cov: 44.000000, 11/54, STDB: 167630000.000000, IPB: 54703068.000000, STDT: 258228071.000000, IPT: 204314263.000000, BOH/LOH: 3.064362,1.263877, MAX:1
Coverage: 5, Tot. Cov: 43.000000, 11/54, STDB: 111785000.000000, IPB: 53479816.000000, STDT: 221947091.000000, IPT: 199924100.000000, BOH/LOH: 2.090228,1.110157, MAX:1
Coverage: 5, Tot. Cov: 5.000000, 11/54, STDB: 69532500.000000, IPB: 6214488.000000, STDT: 70363649.000000, IPT: 24480911.000000, BOH/LOH: 11.188774,2.874225, MAX:1
Coverage: 5, Tot. Cov: 785.000000, 12/54, STDB: 804600000.000000, IPB: 237537212.000000, STDT: 10187818499.000000, IPT: 5450230651.000000, BOH/LOH: 3.387259,1.869245, MAX:1
Coverage: 5, Tot. Cov: 744.000000, 12/54, STDB: 716360000.000000, IPB: 224387644.000000, STDT: 8924605231.000000, IPT: 5075663012.000000, BOH/LOH: 3.192511,1.758313, MAX:1
Coverage: 5, Tot. Cov: 642.000000, 12/54, STDB: 534960000.000000, IPB: 176528344.000000, STDT: 18848832355.000000, IPT: 4578271546.000000, BOH/LOH: 3.030448,4.117019, MAX:1
Coverage: 5, Tot. Cov: 44.000000, 13/54, STDB: 186952500.000000, IPB: 18949412.000000, STDT: 292647314.000000, IPT: 172552697.000000, BOH/LOH: 9.865873,1.695988, MAX:1
Coverage: 5, Tot. Cov: 55.000000, 13/54, STDB: 132855000.000000, IPB: 22991112.000000, STDT: 261613101.000000, IPT: 223497413.000000, BOH/LOH: 5.778537,1.170542, MAX:1
Coverage: 5, Tot. Cov: 51.000000, 13/54, STDB: 101115000.000000, IPB: 21378500.000000, STDT: 966348142.000000, IPT: 209200819.000000, BOH/LOH: 4.729752,4.619237, MAX:1
Coverage: 5, Tot. Cov: 193.000000, 14/54, STDB: 339962500.000000, IPB: 59777012.000000, STDT: 2062802800.000000, IPT: 1105744282.000000, BOH/LOH: 5.687178,1.865533, MAX:1
Coverage: 5, Tot. Cov: 142.000000, 14/54, STDB: 231925000.000000, IPB: 45996512.000000, STDT: 748882542.000000, IPT: 691533243.000000, BOH/LOH: 5.042230,1.082931, MAX:1
Coverage: 5, Tot. Cov: 110.000000, 14/54, STDB: 136400000.000000, IPB: 30358596.000000, STDT: 2444682617.000000, IPT: 742734003.000000, BOH/LOH: 4.492961,3.291465, MAX:1
Coverage: 5, Tot. Cov: 432.000000, 15/54, STDB: 865000000.000000, IPB: 176771912.000000, STDT: 3382623244.000000, IPT: 1919880181.000000, BOH/LOH: 4.893311,1.761893, MAX:1
Coverage: 5, Tot. Cov: 316.000000, 15/54, STDB: 575750000.000000, IPB: 125056412.000000, STDT: 2008000095.000000, IPT: 1361536693.000000, BOH/LOH: 4.603922,1.474804, MAX:1
Coverage: 5, Tot. Cov: 267.000000, 15/54, STDB: 361275000.000000, IPB: 98961192.000000, STDT: 6414543019.000000, IPT: 1180778820.000000, BOH/LOH: 3.650673,5.432468, MAX:1
Coverage: 5, Tot. Cov: 70.000000, 16/54, STDB: 134340000.000000, IPB: 23679084.000000, STDT: 436528008.000000, IPT: 266162380.000000, BOH/LOH: 5.673361,1.640082, MAX:1
Coverage: 5, Tot. Cov: 94.000000, 16/54, STDB: 80850000.000000, IPB: 30624960.000000, STDT: 537244657.000000, IPT: 372310909.000000, BOH/LOH: 2.640003,1.443000, MAX:1
Coverage: 5, Tot. Cov: 49.000000, 16/54, STDB: 70927500.000000, IPB: 15530736.000000, STDT: 961465214.000000, IPT: 199768472.000000, BOH/LOH: 4.566912,4.812898, MAX:1
Coverage: 5, Tot. Cov: 96.000000, 17/54, STDB: 142290000.000000, IPB: 35811008.000000, STDT: 504822765.000000, IPT: 430865219.000000, BOH/LOH: 3.973359,1.171649, MAX:1
Coverage: 5, Tot. Cov: 83.000000, 17/54, STDB: 85740000.000000, IPB: 31002536.000000, STDT: 433904585.000000, IPT: 365307105.000000, BOH/LOH: 2.765580,1.187780, MAX:1
Coverage: 5, Tot. Cov: 15.000000, 17/54, STDB: 60255000.000000, IPB: 5543260.000000, STDT: 335185233.000000, IPT: 66785438.000000, BOH/LOH: 10.869957,5.018837, MAX:1
Coverage: 5, Tot. Cov: 51.000000, 18/54, STDB: 118480000.000000, IPB: 16684292.000000, STDT: 684145464.000000, IPT: 206646800.000000, BOH/LOH: 7.101290,3.310700, MAX:1
Coverage: 5, Tot. Cov: 83.000000, 18/54, STDB: 70890000.000000, IPB: 27911136.000000, STDT: 418582171.000000, IPT: 340841432.000000, BOH/LOH: 2.539846,1.228085, MAX:1
Coverage: 5, Tot. Cov: 52.000000, 18/54, STDB: 53930000.000000, IPB: 17001924.000000, STDT: 547315534.000000, IPT: 214389736.000000, BOH/LOH: 3.171994,2.552900, MAX:1
Coverage: 5, Tot. Cov: 7.000000, 19/54, STDB: 57557500.000000, IPB: 2088132.000000, STDT: 51177668.000000, IPT: 28333185.000000, BOH/LOH: 27.564110,1.806280, MAX:1
Coverage: 5, Tot. Cov: 21.000000, 19/54, STDB: 34750000.000000, IPB: 6923464.000000, STDT: 117901102.000000, IPT: 93065854.000000, BOH/LOH: 5.019164,1.266857, MAX:1
Coverage: 5, Tot. Cov: 5.000000, 19/54, STDB: 21667500.000000, IPB: 1375700.000000, STDT: 47160144.000000, IPT: 19302305.000000, BOH/LOH: 15.750164,2.443239, MAX:1
Coverage: 5, Tot. Cov: 276.000000, 20/54, STDB: 383250000.000000, IPB: 124790024.000000, STDT: 1676987257.000000, IPT: 1221042231.000000, BOH/LOH: 3.071159,1.373406, MAX:1
Coverage: 5, Tot. Cov: 252.000000, 20/54, STDB: 295575000.000000, IPB: 103850908.000000, STDT: 7422561094.000000, IPT: 1274053548.000000, BOH/LOH: 2.846147,5.825941, MAX:1
Coverage: 5, Tot. Cov: 1528.000000, 21/54, STDB: 3728025000.000000, IPB: 801391400.000000, STDT: 11867371628.000000, IPT: 7099769061.000000, BOH/LOH: 4.651940,1.671515, MAX:1
Coverage: 5, Tot. Cov: 1535.000000, 21/54, STDB: 2901500000.000000, IPB: 829653532.000000, STDT: 9962243142.000000, IPT: 6964904766.000000, BOH/LOH: 3.497243,1.430349, MAX:1
Coverage: 5, Tot. Cov: 1408.000000, 21/54, STDB: 1734950000.000000, IPB: 716596568.000000, STDT: 38841015049.000000, IPT: 6607932420.000000, BOH/LOH: 2.421097,5.877938, MAX:1
Coverage: 5, Tot. Cov: 121.000000, 22/54, STDB: 550400000.000000, IPB: 65753508.000000, STDT: 896396331.000000, IPT: 593977734.000000, BOH/LOH: 8.370656,1.509141, MAX:1
Coverage: 5, Tot. Cov: 135.000000, 22/54, STDB: 341275000.000000, IPB: 76793884.000000, STDT: 930550805.000000, IPT: 655377107.000000, BOH/LOH: 4.444039,1.419871, MAX:1
Coverage: 5, Tot. Cov: 105.000000, 22/54, STDB: 240987500.000000, IPB: 49263128.000000, STDT: 2039947531.000000, IPT: 559856538.000000, BOH/LOH: 4.891843,3.643697, MAX:1
Coverage: 5, Tot. Cov: 65.000000, 23/54, STDB: 56115000.000000, IPB: 8537984.000000, STDT: 428003665.000000, IPT: 364116930.000000, BOH/LOH: 6.572395,1.175457, MAX:1
Coverage: 5, Tot. Cov: 71.000000, 23/54, STDB: 41677500.000000, IPB: 9108908.000000, STDT: 789653958.000000, IPT: 414788929.000000, BOH/LOH: 4.575466,1.903749, MAX:1
Coverage: 5, Tot. Cov: 34.000000, 23/54, STDB: 28290000.000000, IPB: 3978724.000000, STDT: 668666323.000000, IPT: 227513600.000000, BOH/LOH: 7.110320,2.939017, MAX:1
Coverage: 5, Tot. Cov: 86.000000, 24/54, STDB: 75180000.000000, IPB: 8855184.000000, STDT: 359164042.000000, IPT: 351651526.000000, BOH/LOH: 8.489942,1.021364, MAX:1
Coverage: 5, Tot. Cov: 142.000000, 24/54, STDB: 55170000.000000, IPB: 15844048.000000, STDT: 758363708.000000, IPT: 596331860.000000, BOH/LOH: 3.482065,1.271714, MAX:1
Coverage: 5, Tot. Cov: 98.000000, 24/54, STDB: 36030000.000000, IPB: 9770080.000000, STDT: 916955701.000000, IPT: 412422685.000000, BOH/LOH: 3.687790,2.223340, MAX:1
Coverage: 5, Tot. Cov: 162.000000, 25/54, STDB: 157250000.000000, IPB: 33316736.000000, STDT: 1140334472.000000, IPT: 874036244.000000, BOH/LOH: 4.719850,1.304676, MAX:1
Coverage: 5, Tot. Cov: 136.000000, 25/54, STDB: 128910000.000000, IPB: 28565612.000000, STDT: 986394167.000000, IPT: 659887759.000000, BOH/LOH: 4.512769,1.494791, MAX:1
Coverage: 5, Tot. Cov: 111.000000, 25/54, STDB: 90370000.000000, IPB: 19517732.000000, STDT: 1284218514.000000, IPT: 616776444.000000, BOH/LOH: 4.630149,2.082146, MAX:1
Coverage: 5, Tot. Cov: 372.000000, 26/54, STDB: 215302500.000000, IPB: 31265280.000000, STDT: 2471659185.000000, IPT: 1578497736.000000, BOH/LOH: 6.886313,1.565830, MAX:1
Coverage: 5, Tot. Cov: 396.000000, 26/54, STDB: 177142500.000000, IPB: 34394056.000000, STDT: 1992416287.000000, IPT: 1672834301.000000, BOH/LOH: 5.150381,1.191042, MAX:1
Coverage: 5, Tot. Cov: 384.000000, 26/54, STDB: 111622500.000000, IPB: 31638548.000000, STDT: 8465186807.000000, IPT: 1717385298.000000, BOH/LOH: 3.528054,4.929113, MAX:1
Coverage: 5, Tot. Cov: 1473.000000, 27/54, STDB: 1330132500.000000, IPB: 248918988.000000, STDT: 8050747779.000000, IPT: 6367442013.000000, BOH/LOH: 5.343636,1.264361, MAX:1
Coverage: 5, Tot. Cov: 1395.000000, 27/54, STDB: 957125000.000000, IPB: 238953668.000000, STDT: 6753909758.000000, IPT: 5753758494.000000, BOH/LOH: 4.005484,1.173826, MAX:1
Coverage: 5, Tot. Cov: 1379.000000, 27/54, STDB: 620000000.000000, IPB: 226365420.000000, STDT: 20265813593.000000, IPT: 5945187728.000000, BOH/LOH: 2.738934,3.408776, MAX:1
Coverage: 5, Tot. Cov: 65.000000, 28/54, STDB: 43650000.000000, IPB: 14978672.000000, STDT: 256802802.000000, IPT: 234808960.000000, BOH/LOH: 2.914144,1.093667, MAX:1
Coverage: 5, Tot. Cov: 23.000000, 28/54, STDB: 29465000.000000, IPB: 5340364.000000, STDT: 289513251.000000, IPT: 84609601.000000, BOH/LOH: 5.517414,3.421754, MAX:1
Coverage: 5, Tot. Cov: 55.000000, 29/54, STDB: 53345000.000000, IPB: 7991212.000000, STDT: 250725173.000000, IPT: 194197754.000000, BOH/LOH: 6.675458,1.291082, MAX:1
Coverage: 5, Tot. Cov: 50.000000, 29/54, STDB: 39605000.000000, IPB: 7687464.000000, STDT: 255910183.000000, IPT: 179600813.000000, BOH/LOH: 5.151894,1.424883, MAX:1
Coverage: 5, Tot. Cov: 18.000000, 29/54, STDB: 26040000.000000, IPB: 2831644.000000, STDT: 188954601.000000, IPT: 66092055.000000, BOH/LOH: 9.196071,2.858961, MAX:1
Coverage: 5, Tot. Cov: 8.000000, 30/54, STDB: 31475000.000000, IPB: 2174744.000000, STDT: 48395384.000000, IPT: 39347701.000000, BOH/LOH: 14.472968,1.229942, MAX:1
Coverage: 5, Tot. Cov: 5.000000, 30/54, STDB: 16450000.000000, IPB: 1345044.000000, STDT: 43603603.000000, IPT: 22350690.000000, BOH/LOH: 12.230083,1.950884, MAX:1
Coverage: 5, Tot. Cov: 30.000000, 31/54, STDB: 40270000.000000, IPB: 7626440.000000, STDT: 234638629.000000, IPT: 111586423.000000, BOH/LOH: 5.280314,2.102752, MAX:1
Coverage: 5, Tot. Cov: 28.000000, 31/54, STDB: 30712500.000000, IPB: 7106284.000000, STDT: 114574058.000000, IPT: 101985233.000000, BOH/LOH: 4.321879,1.123438, MAX:1
Coverage: 5, Tot. Cov: 5.000000, 31/54, STDB: 17860000.000000, IPB: 1261772.000000, STDT: 52339453.000000, IPT: 18372341.000000, BOH/LOH: 14.154697,2.848818, MAX:1
Coverage: 5, Tot. Cov: 10.000000, 32/54, STDB: 14902500.000000, IPB: 1336228.000000, STDT: 54276893.000000, IPT: 33061768.000000, BOH/LOH: 11.152663,1.641682, MAX:1
Coverage: 5, Tot. Cov: 12.000000, 32/54, STDB: 13017500.000000, IPB: 1623352.000000, STDT: 44061742.000000, IPT: 40100991.000000, BOH/LOH: 8.018902,1.098769, MAX:1
Coverage: 5, Tot. Cov: 8.000000, 32/54, STDB: 8707500.000000, IPB: 1029812.000000, STDT: 68039091.000000, IPT: 26164835.000000, BOH/LOH: 8.455427,2.600402, MAX:1
Coverage: 5, Tot. Cov: 1136.000000, 33/54, STDB: 705600000.000000, IPB: 154658556.000000, STDT: 6217227030.000000, IPT: 4640959672.000000, BOH/LOH: 4.562308,1.339643, MAX:1
Coverage: 5, Tot. Cov: 1088.000000, 33/54, STDB: 433860000.000000, IPB: 141204164.000000, STDT: 20788479963.000000, IPT: 4638644040.000000, BOH/LOH: 3.072572,4.481586, MAX:1
Coverage: 5, Tot. Cov: 21.000000, 34/54, STDB: 22730000.000000, IPB: 3167160.000000, STDT: 177128754.000000, IPT: 152699667.000000, BOH/LOH: 7.176777,1.159981, MAX:1
Coverage: 5, Tot. Cov: 18.000000, 34/54, STDB: 16812500.000000, IPB: 2813052.000000, STDT: 143688954.000000, IPT: 126699379.000000, BOH/LOH: 5.976605,1.134094, MAX:1
Coverage: 5, Tot. Cov: 6.000000, 34/54, STDB: 9957500.000000, IPB: 980816.000000, STDT: 94666764.000000, IPT: 43479063.000000, BOH/LOH: 10.152261,2.177295, MAX:1
Coverage: 5, Tot. Cov: 1266.000000, 35/54, STDB: 1443540000.000000, IPB: 313340576.000000, STDT: 7229276481.000000, IPT: 5824035748.000000, BOH/LOH: 4.606936,1.241283, MAX:1
Coverage: 5, Tot. Cov: 1347.000000, 35/54, STDB: 1184120000.000000, IPB: 337113248.000000, STDT: 7201568221.000000, IPT: 6402454563.000000, BOH/LOH: 3.512529,1.124814, MAX:1
Coverage: 5, Tot. Cov: 1157.000000, 35/54, STDB: 703500000.000000, IPB: 275205812.000000, STDT: 24106625656.000000, IPT: 5408389278.000000, BOH/LOH: 2.556269,4.457265, MAX:1
Coverage: 5, Tot. Cov: 1516.000000, 36/54, STDB: 1718955000.000000, IPB: 434367432.000000, STDT: 8882630038.000000, IPT: 6052783438.000000, BOH/LOH: 3.957375,1.467528, MAX:1
Coverage: 5, Tot. Cov: 1544.000000, 36/54, STDB: 1508580000.000000, IPB: 443458428.000000, STDT: 7970485207.000000, IPT: 6149255781.000000, BOH/LOH: 3.401852,1.296171, MAX:1
Coverage: 5, Tot. Cov: 1386.000000, 36/54, STDB: 1044650000.000000, IPB: 370576300.000000, STDT: 25796376639.000000, IPT: 5644119361.000000, BOH/LOH: 2.818988,4.570487, MAX:1
Coverage: 5, Tot. Cov: 5.000000, 37/54, STDB: 60485000.000000, IPB: 2349228.000000, STDT: 22633119.000000, IPT: 21406840.000000, BOH/LOH: 25.746756,1.057284, MAX:1
Coverage: 5, Tot. Cov: 26.000000, 37/54, STDB: 44962500.000000, IPB: 12164292.000000, STDT: 143545470.000000, IPT: 112593123.000000, BOH/LOH: 3.696269,1.274904, MAX:1
Coverage: 5, Tot. Cov: 5.000000, 37/54, STDB: 28940000.000000, IPB: 2365388.000000, STDT: 54771935.000000, IPT: 21257436.000000, BOH/LOH: 12.234779,2.576601, MAX:1
Coverage: 5, Tot. Cov: 87.000000, 38/54, STDB: 240862500.000000, IPB: 50389348.000000, STDT: 772107334.000000, IPT: 630050943.000000, BOH/LOH: 4.780028,1.225468, MAX:1
Coverage: 5, Tot. Cov: 39.000000, 38/54, STDB: 185460000.000000, IPB: 16840104.000000, STDT: 391680328.000000, IPT: 266521901.000000, BOH/LOH: 11.012996,1.469599, MAX:1
Coverage: 5, Tot. Cov: 51.000000, 38/54, STDB: 138142500.000000, IPB: 19664184.000000, STDT: 1231477459.000000, IPT: 413398473.000000, BOH/LOH: 7.025082,2.978911, MAX:1
Coverage: 5, Tot. Cov: 49.000000, 39/54, STDB: 836767500.000000, IPB: 73292844.000000, STDT: 319831991.000000, IPT: 264405175.000000, BOH/LOH: 11.416769,1.209628, MAX:1
Coverage: 5, Tot. Cov: 44.000000, 39/54, STDB: 512197500.000000, IPB: 61366636.000000, STDT: 323797022.000000, IPT: 241950180.000000, BOH/LOH: 8.346514,1.338280, MAX:1
Coverage: 5, Tot. Cov: 20.000000, 39/54, STDB: 371422500.000000, IPB: 18259408.000000, STDT: 339330351.000000, IPT: 127000821.000000, BOH/LOH: 20.341432,2.671875, MAX:1
Coverage: 5, Tot. Cov: 515.000000, 40/54, STDB: 2601160000.000000, IPB: 395987172.000000, STDT: 4544432810.000000, IPT: 3254853022.000000, BOH/LOH: 6.568799,1.396202, MAX:1
Coverage: 5, Tot. Cov: 679.000000, 40/54, STDB: 1715840000.000000, IPB: 539066616.000000, STDT: 5177496452.000000, IPT: 4431304223.000000, BOH/LOH: 3.182983,1.168391, MAX:1
Coverage: 5, Tot. Cov: 610.000000, 40/54, STDB: 1177040000.000000, IPB: 454506948.000000, STDT: 18974989290.000000, IPT: 4242346215.000000, BOH/LOH: 2.589707,4.472758, MAX:1
Coverage: 5, Tot. Cov: 582.000000, 41/54, STDB: 2819147500.000000, IPB: 725099220.000000, STDT: 6940593978.000000, IPT: 3072103450.000000, BOH/LOH: 3.887947,2.259232, MAX:1
Coverage: 5, Tot. Cov: 530.000000, 41/54, STDB: 1985815000.000000, IPB: 663407740.000000, STDT: 3057738214.000000, IPT: 2700716320.000000, BOH/LOH: 2.993355,1.132195, MAX:1
Coverage: 5, Tot. Cov: 379.000000, 41/54, STDB: 1280467500.000000, IPB: 445796056.000000, STDT: 16099927565.000000, IPT: 1922551599.000000, BOH/LOH: 2.872317,8.374250, MAX:1
Coverage: 5, Tot. Cov: 72.000000, 42/54, STDB: 787402500.000000, IPB: 113492240.000000, STDT: 576481895.000000, IPT: 428688051.000000, BOH/LOH: 6.937941,1.344758, MAX:1
Coverage: 5, Tot. Cov: 69.000000, 42/54, STDB: 512190000.000000, IPB: 110657472.000000, STDT: 443025510.000000, IPT: 392734394.000000, BOH/LOH: 4.628607,1.128054, MAX:1
Coverage: 5, Tot. Cov: 31.000000, 42/54, STDB: 343777500.000000, IPB: 39991504.000000, STDT: 1291346941.000000, IPT: 241949878.000000, BOH/LOH: 8.596263,5.337250, MAX:1
Coverage: 5, Tot. Cov: 58.000000, 43/54, STDB: 459355000.000000, IPB: 79485428.000000, STDT: 348020273.000000, IPT: 276709331.000000, BOH/LOH: 5.779110,1.257711, MAX:1
Coverage: 5, Tot. Cov: 49.000000, 43/54, STDB: 334115000.000000, IPB: 68654352.000000, STDT: 239779212.000000, IPT: 220505926.000000, BOH/LOH: 4.866625,1.087405, MAX:1
Coverage: 5, Tot. Cov: 24.000000, 43/54, STDB: 196270000.000000, IPB: 23818980.000000, STDT: 264088998.000000, IPT: 120492585.000000, BOH/LOH: 8.240067,2.191745, MAX:1
Coverage: 5, Tot. Cov: 18.000000, 44/54, STDB: 383330000.000000, IPB: 18741300.000000, STDT: 104152273.000000, IPT: 73829736.000000, BOH/LOH: 20.453757,1.410709, MAX:1
Coverage: 5, Tot. Cov: 52.000000, 44/54, STDB: 318155000.000000, IPB: 70407632.000000, STDT: 246395394.000000, IPT: 226137499.000000, BOH/LOH: 4.518757,1.089582, MAX:1
Coverage: 5, Tot. Cov: 24.000000, 44/54, STDB: 198190000.000000, IPB: 16198172.000000, STDT: 193521630.000000, IPT: 113243154.000000, BOH/LOH: 12.235331,1.708904, MAX:1
Coverage: 5, Tot. Cov: 104.000000, 45/54, STDB: 801600000.000000, IPB: 167848760.000000, STDT: 487838669.000000, IPT: 446127604.000000, BOH/LOH: 4.775728,1.093496, MAX:1
Coverage: 5, Tot. Cov: 96.000000, 45/54, STDB: 677000000.000000, IPB: 156576896.000000, STDT: 450917634.000000, IPT: 407791966.000000, BOH/LOH: 4.323754,1.105754, MAX:1
Coverage: 5, Tot. Cov: 155.000000, 45/54, STDB: 477000000.000000, IPB: 246623552.000000, STDT: 4529325727.000000, IPT: 681703186.000000, BOH/LOH: 1.934122,6.644132, MAX:1
Coverage: 5, Tot. Cov: 19.000000, 46/54, STDB: 219152500.000000, IPB: 39278012.000000, STDT: 102469960.000000, IPT: 85577251.000000, BOH/LOH: 5.579521,1.197397, MAX:1
Coverage: 5, Tot. Cov: 21.000000, 46/54, STDB: 181317500.000000, IPB: 43622172.000000, STDT: 134963622.000000, IPT: 94599903.000000, BOH/LOH: 4.156545,1.426678, MAX:1
Coverage: 5, Tot. Cov: 5.000000, 46/54, STDB: 113547500.000000, IPB: 10418624.000000, STDT: 65178945.000000, IPT: 22100476.000000, BOH/LOH: 10.898512,2.949210, MAX:1
Coverage: 5, Tot. Cov: 542.000000, 47/54, STDB: 4105620000.000000, IPB: 1523906140.000000, STDT: 3636779359.000000, IPT: 2927202609.000000, BOH/LOH: 2.694142,1.242408, MAX:1
Coverage: 5, Tot. Cov: 459.000000, 47/54, STDB: 2527110000.000000, IPB: 1195624464.000000, STDT: 12887836109.000000, IPT: 2577465803.000000, BOH/LOH: 2.113632,5.000197, MAX:1
Coverage: 5, Tot. Cov: 77.000000, 48/54, STDB: 759750000.000000, IPB: 146306848.000000, STDT: 691885763.000000, IPT: 421975954.000000, BOH/LOH: 5.192853,1.639633, MAX:1
Coverage: 5, Tot. Cov: 135.000000, 48/54, STDB: 663067500.000000, IPB: 260701740.000000, STDT: 1438184968.000000, IPT: 775700392.000000, BOH/LOH: 2.543395,1.854047, MAX:1
Coverage: 5, Tot. Cov: 67.000000, 48/54, STDB: 457717500.000000, IPB: 120152412.000000, STDT: 1847220900.000000, IPT: 370617077.000000, BOH/LOH: 3.809474,4.984176, MAX:1
Coverage: 5, Tot. Cov: 319.000000, 49/54, STDB: 1650355000.000000, IPB: 381848988.000000, STDT: 3332907918.000000, IPT: 2712774920.000000, BOH/LOH: 4.322010,1.228597, MAX:1
Coverage: 5, Tot. Cov: 282.000000, 49/54, STDB: 1126387500.000000, IPB: 311007260.000000, STDT: 3093558529.000000, IPT: 2420902847.000000, BOH/LOH: 3.621740,1.277853, MAX:1
Coverage: 5, Tot. Cov: 289.000000, 49/54, STDB: 910507500.000000, IPB: 319797244.000000, STDT: 8361555858.000000, IPT: 2488907267.000000, BOH/LOH: 2.847140,3.359529, MAX:1
Coverage: 5, Tot. Cov: 202.000000, 50/54, STDB: 670800000.000000, IPB: 158647032.000000, STDT: 2083376107.000000, IPT: 1763302671.000000, BOH/LOH: 4.228254,1.181519, MAX:1
Coverage: 5, Tot. Cov: 233.000000, 50/54, STDB: 577905000.000000, IPB: 187723616.000000, STDT: 3058951859.000000, IPT: 2048713602.000000, BOH/LOH: 3.078489,1.493109, MAX:1
Coverage: 5, Tot. Cov: 142.000000, 50/54, STDB: 419565000.000000, IPB: 100043768.000000, STDT: 2866852500.000000, IPT: 1246495289.000000, BOH/LOH: 4.193814,2.299930, MAX:1
Coverage: 5, Tot. Cov: 220.000000, 51/54, STDB: 1285440000.000000, IPB: 246173572.000000, STDT: 2664824399.000000, IPT: 1717055502.000000, BOH/LOH: 5.221682,1.551973, MAX:1
Coverage: 5, Tot. Cov: 245.000000, 51/54, STDB: 808680000.000000, IPB: 278393524.000000, STDT: 2301751550.000000, IPT: 1949998736.000000, BOH/LOH: 2.904809,1.180386, MAX:1
Coverage: 5, Tot. Cov: 204.000000, 51/54, STDB: 571785000.000000, IPB: 227337664.000000, STDT: 8837162523.000000, IPT: 1587328546.000000, BOH/LOH: 2.515135,5.567318, MAX:1
Coverage: 5, Tot. Cov: 118.000000, 52/54, STDB: 948820000.000000, IPB: 172101236.000000, STDT: 1078592939.000000, IPT: 635244935.000000, BOH/LOH: 5.513150,1.697917, MAX:1
Coverage: 5, Tot. Cov: 172.000000, 52/54, STDB: 677370000.000000, IPB: 254202724.000000, STDT: 1289378097.000000, IPT: 935516253.000000, BOH/LOH: 2.664684,1.378253, MAX:1
Coverage: 5, Tot. Cov: 69.000000, 52/54, STDB: 459380000.000000, IPB: 94060048.000000, STDT: 2204627688.000000, IPT: 385116100.000000, BOH/LOH: 4.883901,5.724579, MAX:1
Coverage: 5, Tot. Cov: 1521.000000, 53/54, STDB: 26572347500.000000, IPB: 3852147808.000000, STDT: 20120722269.000000, IPT: 12392826284.000000, BOH/LOH: 6.898060,1.623578, MAX:1
Coverage: 5, Tot. Cov: 1436.000000, 53/54, STDB: 21989152500.000000, IPB: 3617330404.000000, STDT: 13517524593.000000, IPT: 11577038682.000000, BOH/LOH: 6.078834,1.167615, MAX:1
Coverage: 5, Tot. Cov: 1482.000000, 53/54, STDB: 13978597500.000000, IPB: 3582278408.000000, STDT: 46501572338.000000, IPT: 12096408240.000000, BOH/LOH: 3.902153,3.844246, MAX:1
