Coverage: 45, Tot. Cov: 200.000000, 1/54, STDB: 71560000.000000, IPB: 18839040.000000, STDT: 2056207975.000000, IPT: 1421157703.000000, BOH/LOH: 3.798495,1.446854, MAX:1
Coverage: 45, Tot. Cov: 198.000000, 1/54, STDB: 47180000.000000, IPB: 18594616.000000, STDT: 8496691556.000000, IPT: 1406014372.000000, BOH/LOH: 2.537294,6.043104, MAX:1
Coverage: 45, Tot. Cov: 1181.000000, 2/54, STDB: 568080000.000000, IPB: 54352436.000000, STDT: 5533954272.000000, IPT: 4485727751.000000, BOH/LOH: 10.451785,1.233680, MAX:1
Coverage: 45, Tot. Cov: 1189.000000, 2/54, STDB: 476220000.000000, IPB: 54846180.000000, STDT: 5793604451.000000, IPT: 4554636418.000000, BOH/LOH: 8.682829,1.272023, MAX:1
Coverage: 45, Tot. Cov: 1195.000000, 2/54, STDB: 283560000.000000, IPB: 54999596.000000, STDT: 59380228681.000000, IPT: 4615738235.000000, BOH/LOH: 5.155674,12.864731, MAX:1
Coverage: 45, Tot. Cov: 748.000000, 3/54, STDB: 672637500.000000, IPB: 69168352.000000, STDT: 3936003249.000000, IPT: 3026660201.000000, BOH/LOH: 9.724643,1.300444, MAX:1
Coverage: 45, Tot. Cov: 743.000000, 3/54, STDB: 568875000.000000, IPB: 67929728.000000, STDT: 3921813156.000000, IPT: 2991997353.000000, BOH/LOH: 8.374463,1.310768, MAX:1
Coverage: 45, Tot. Cov: 745.000000, 3/54, STDB: 343762500.000000, IPB: 67828556.000000, STDT: 24495444378.000000, IPT: 3019558124.000000, BOH/LOH: 5.068109,8.112261, MAX:1
Coverage: 45, Tot. Cov: 793.000000, 4/54, STDB: 169000000.000000, IPB: 20493768.000000, STDT: 4994441990.000000, IPT: 3002193725.000000, BOH/LOH: 8.246409,1.663598, MAX:1
Coverage: 45, Tot. Cov: 789.000000, 4/54, STDB: 154320000.000000, IPB: 20379504.000000, STDT: 3543226258.000000, IPT: 2969686619.000000, BOH/LOH: 7.572314,1.193131, MAX:1
Coverage: 45, Tot. Cov: 798.000000, 4/54, STDB: 101640000.000000, IPB: 20663656.000000, STDT: 12722506450.000000, IPT: 3056975887.000000, BOH/LOH: 4.918781,4.161795, MAX:1
Coverage: 45, Tot. Cov: 2071.000000, 5/54, STDB: 5657925000.000000, IPB: 1327550412.000000, STDT: 15011969493.000000, IPT: 11938868242.000000, BOH/LOH: 4.261929,1.257403, MAX:1
Coverage: 45, Tot. Cov: 2090.000000, 5/54, STDB: 3815805000.000000, IPB: 1338604052.000000, STDT: 112940232275.000000, IPT: 12133598805.000000, BOH/LOH: 2.850585,9.308057, MAX:1
Coverage: 45, Tot. Cov: 297.000000, 6/54, STDB: 775245000.000000, IPB: 243420284.000000, STDT: 2195285714.000000, IPT: 1376024085.000000, BOH/LOH: 3.184800,1.595383, MAX:1
Coverage: 45, Tot. Cov: 288.000000, 6/54, STDB: 412335000.000000, IPB: 233666192.000000, STDT: 17117170904.000000, IPT: 1344747269.000000, BOH/LOH: 1.764633,12.728913, MAX:1
Coverage: 45, Tot. Cov: 1581.000000, 7/54, STDB: 4699920000.000000, IPB: 1333531760.000000, STDT: 15237323466.000000, IPT: 7788810404.000000, BOH/LOH: 3.524415,1.956309, MAX:1
Coverage: 45, Tot. Cov: 1587.000000, 7/54, STDB: 3396400000.000000, IPB: 1333023984.000000, STDT: 122393439914.000000, IPT: 7885206746.000000, BOH/LOH: 2.547891,15.521906, MAX:1
Coverage: 45, Tot. Cov: 97.000000, 8/54, STDB: 294020000.000000, IPB: 106952600.000000, STDT: 676811025.000000, IPT: 586792098.000000, BOH/LOH: 2.749068,1.153409, MAX:1
Coverage: 45, Tot. Cov: 96.000000, 8/54, STDB: 205300000.000000, IPB: 104191508.000000, STDT: 6054560294.000000, IPT: 591085128.000000, BOH/LOH: 1.970410,10.243127, MAX:1
Coverage: 45, Tot. Cov: 146.000000, 9/54, STDB: 647790000.000000, IPB: 164464272.000000, STDT: 2014709806.000000, IPT: 807294523.000000, BOH/LOH: 3.938789,2.495632, MAX:1
Coverage: 45, Tot. Cov: 145.000000, 9/54, STDB: 500527500.000000, IPB: 164322404.000000, STDT: 943897774.000000, IPT: 796215971.000000, BOH/LOH: 3.046009,1.185480, MAX:1
Coverage: 45, Tot. Cov: 146.000000, 9/54, STDB: 290685000.000000, IPB: 163822084.000000, STDT: 7284270574.000000, IPT: 812207607.000000, BOH/LOH: 1.774394,8.968484, MAX:1
Coverage: 45, Tot. Cov: 240.000000, 10/54, STDB: 1032800000.000000, IPB: 281684888.000000, STDT: 2435153724.000000, IPT: 1093913213.000000, BOH/LOH: 3.666508,2.226094, MAX:1
Coverage: 45, Tot. Cov: 245.000000, 10/54, STDB: 697412500.000000, IPB: 289238748.000000, STDT: 1621126880.000000, IPT: 1117334865.000000, BOH/LOH: 2.411200,1.450887, MAX:1
Coverage: 45, Tot. Cov: 242.000000, 10/54, STDB: 505400000.000000, IPB: 282801064.000000, STDT: 16771638531.000000, IPT: 1122323102.000000, BOH/LOH: 1.787122,14.943681, MAX:1
Coverage: 45, Tot. Cov: 45.000000, 11/54, STDB: 139677500.000000, IPB: 55883560.000000, STDT: 235790106.000000, IPT: 210654595.000000, BOH/LOH: 2.499438,1.119321, MAX:1
Coverage: 45, Tot. Cov: 785.000000, 12/54, STDB: 804600000.000000, IPB: 237537212.000000, STDT: 10187818499.000000, IPT: 5450230651.000000, BOH/LOH: 3.387259,1.869245, MAX:1
Coverage: 45, Tot. Cov: 781.000000, 12/54, STDB: 758440000.000000, IPB: 236966448.000000, STDT: 7302880821.000000, IPT: 5404118246.000000, BOH/LOH: 3.200622,1.351355, MAX:1
Coverage: 45, Tot. Cov: 792.000000, 12/54, STDB: 594240000.000000, IPB: 238574744.000000, STDT: 39018422518.000000, IPT: 5540423468.000000, BOH/LOH: 2.490792,7.042498, MAX:1
Coverage: 45, Tot. Cov: 147.000000, 13/54, STDB: 291472500.000000, IPB: 67519812.000000, STDT: 1201483446.000000, IPT: 636359338.000000, BOH/LOH: 4.316844,1.888058, MAX:1
Coverage: 45, Tot. Cov: 141.000000, 13/54, STDB: 212610000.000000, IPB: 63924760.000000, STDT: 919817325.000000, IPT: 596527796.000000, BOH/LOH: 3.325941,1.541952, MAX:1
Coverage: 45, Tot. Cov: 145.000000, 13/54, STDB: 166545000.000000, IPB: 65224868.000000, STDT: 5604642408.000000, IPT: 626697984.000000, BOH/LOH: 2.553397,8.943131, MAX:1
Coverage: 45, Tot. Cov: 246.000000, 14/54, STDB: 148600000.000000, IPB: 77790544.000000, STDT: 9664191311.000000, IPT: 1532969544.000000, BOH/LOH: 1.910258,6.304229, MAX:1
Coverage: 45, Tot. Cov: 486.000000, 15/54, STDB: 658125000.000000, IPB: 205726344.000000, STDT: 3057610795.000000, IPT: 2201713917.000000, BOH/LOH: 3.199031,1.388741, MAX:1
Coverage: 45, Tot. Cov: 498.000000, 15/54, STDB: 550250000.000000, IPB: 210477784.000000, STDT: 37895179005.000000, IPT: 2306513325.000000, BOH/LOH: 2.614290,16.429638, MAX:1
Coverage: 45, Tot. Cov: 136.000000, 16/54, STDB: 105697500.000000, IPB: 44504840.000000, STDT: 671813359.000000, IPT: 548655109.000000, BOH/LOH: 2.374966,1.224473, MAX:1
Coverage: 45, Tot. Cov: 145.000000, 16/54, STDB: 78075000.000000, IPB: 47521696.000000, STDT: 7034463362.000000, IPT: 607051011.000000, BOH/LOH: 1.642934,11.587928, MAX:1
Coverage: 45, Tot. Cov: 96.000000, 17/54, STDB: 142290000.000000, IPB: 35811008.000000, STDT: 504822765.000000, IPT: 430865219.000000, BOH/LOH: 3.973359,1.171649, MAX:1
Coverage: 45, Tot. Cov: 96.000000, 17/54, STDB: 102740000.000000, IPB: 35809660.000000, STDT: 627252328.000000, IPT: 429732221.000000, BOH/LOH: 2.869058,1.459635, MAX:1
Coverage: 45, Tot. Cov: 93.000000, 17/54, STDB: 69465000.000000, IPB: 34629672.000000, STDT: 3694522426.000000, IPT: 420464668.000000, BOH/LOH: 2.005939,8.786761, MAX:1
Coverage: 45, Tot. Cov: 96.000000, 18/54, STDB: 84215000.000000, IPB: 32292512.000000, STDT: 511463812.000000, IPT: 399216062.000000, BOH/LOH: 2.607880,1.281170, MAX:1
Coverage: 45, Tot. Cov: 92.000000, 18/54, STDB: 59105000.000000, IPB: 30874360.000000, STDT: 2291611118.000000, IPT: 386603469.000000, BOH/LOH: 1.914372,5.927549, MAX:1
Coverage: 45, Tot. Cov: 45.000000, 19/54, STDB: 55262500.000000, IPB: 15216000.000000, STDT: 243266630.000000, IPT: 203537337.000000, BOH/LOH: 3.631868,1.195194, MAX:1
Coverage: 45, Tot. Cov: 47.000000, 19/54, STDB: 45597500.000000, IPB: 15908180.000000, STDT: 278339783.000000, IPT: 213031142.000000, BOH/LOH: 2.866293,1.306569, MAX:1
Coverage: 45, Tot. Cov: 45.000000, 19/54, STDB: 29297500.000000, IPB: 15071524.000000, STDT: 1340395605.000000, IPT: 204723679.000000, BOH/LOH: 1.943898,6.547340, MAX:1
Coverage: 45, Tot. Cov: 335.000000, 20/54, STDB: 433002500.000000, IPB: 150645992.000000, STDT: 1738479453.000000, IPT: 1601291596.000000, BOH/LOH: 2.874305,1.085673, MAX:1
Coverage: 45, Tot. Cov: 342.000000, 20/54, STDB: 315367500.000000, IPB: 151612512.000000, STDT: 15034407851.000000, IPT: 1694062849.000000, BOH/LOH: 2.080089,8.874764, MAX:1
Coverage: 45, Tot. Cov: 1724.000000, 21/54, STDB: 5084275000.000000, IPB: 936797604.000000, STDT: 18859082705.000000, IPT: 8214137121.000000, BOH/LOH: 5.427293,2.295930, MAX:1
Coverage: 45, Tot. Cov: 1718.000000, 21/54, STDB: 3312137500.000000, IPB: 935562892.000000, STDT: 11394537143.000000, IPT: 8142128344.000000, BOH/LOH: 3.540262,1.399454, MAX:1
Coverage: 45, Tot. Cov: 244.000000, 22/54, STDB: 472325000.000000, IPB: 151603052.000000, STDT: 28619968623.000000, IPT: 1375267991.000000, BOH/LOH: 3.115538,20.810467, MAX:1
Coverage: 45, Tot. Cov: 142.000000, 23/54, STDB: 64845000.000000, IPB: 17586408.000000, STDT: 1612126340.000000, IPT: 993647427.000000, BOH/LOH: 3.687223,1.622433, MAX:1
Coverage: 45, Tot. Cov: 144.000000, 23/54, STDB: 62670000.000000, IPB: 17830540.000000, STDT: 1158431643.000000, IPT: 1011865157.000000, BOH/LOH: 3.514756,1.144848, MAX:1
Coverage: 45, Tot. Cov: 143.000000, 23/54, STDB: 34402500.000000, IPB: 17626684.000000, STDT: 6512072770.000000, IPT: 1012463760.000000, BOH/LOH: 1.951728,6.431907, MAX:1
Coverage: 45, Tot. Cov: 142.000000, 24/54, STDB: 55170000.000000, IPB: 15844048.000000, STDT: 758363708.000000, IPT: 596331860.000000, BOH/LOH: 3.482065,1.271714, MAX:1
Coverage: 45, Tot. Cov: 146.000000, 24/54, STDB: 44062500.000000, IPB: 16159080.000000, STDT: 2667024042.000000, IPT: 623241378.000000, BOH/LOH: 2.726795,4.279279, MAX:1
Coverage: 45, Tot. Cov: 193.000000, 25/54, STDB: 180610000.000000, IPB: 39266108.000000, STDT: 1636887868.000000, IPT: 1124888536.000000, BOH/LOH: 4.599641,1.455156, MAX:1
Coverage: 45, Tot. Cov: 195.000000, 25/54, STDB: 158890000.000000, IPB: 39883364.000000, STDT: 1249457963.000000, IPT: 1132758880.000000, BOH/LOH: 3.983867,1.103022, MAX:1
Coverage: 45, Tot. Cov: 192.000000, 25/54, STDB: 109960000.000000, IPB: 38838924.000000, STDT: 4485406115.000000, IPT: 1125073277.000000, BOH/LOH: 2.831180,3.986768, MAX:1
Coverage: 45, Tot. Cov: 448.000000, 26/54, STDB: 248670000.000000, IPB: 42358140.000000, STDT: 4528654800.000000, IPT: 2090941515.000000, BOH/LOH: 5.870654,2.165845, MAX:1
Coverage: 45, Tot. Cov: 448.000000, 26/54, STDB: 260190000.000000, IPB: 42358044.000000, STDT: 2725538402.000000, IPT: 2090233967.000000, BOH/LOH: 6.142635,1.303939, MAX:1
Coverage: 45, Tot. Cov: 447.000000, 26/54, STDB: 124785000.000000, IPB: 42166520.000000, STDT: 17689095638.000000, IPT: 2089464349.000000, BOH/LOH: 2.959338,8.465852, MAX:1
Coverage: 45, Tot. Cov: 1537.000000, 27/54, STDB: 1772270000.000000, IPB: 262829368.000000, STDT: 9369539354.000000, IPT: 6850716649.000000, BOH/LOH: 6.743044,1.367673, MAX:1
Coverage: 45, Tot. Cov: 95.000000, 28/54, STDB: 60620000.000000, IPB: 21843696.000000, STDT: 466406918.000000, IPT: 350750615.000000, BOH/LOH: 2.775171,1.329739, MAX:1
Coverage: 45, Tot. Cov: 92.000000, 28/54, STDB: 41560000.000000, IPB: 21137564.000000, STDT: 2323372571.000000, IPT: 339838253.000000, BOH/LOH: 1.966168,6.836701, MAX:1
Coverage: 45, Tot. Cov: 98.000000, 29/54, STDB: 77160000.000000, IPB: 16829760.000000, STDT: 696157312.000000, IPT: 379032604.000000, BOH/LOH: 4.584736,1.836669, MAX:1
Coverage: 45, Tot. Cov: 94.000000, 29/54, STDB: 54530000.000000, IPB: 16067400.000000, STDT: 381137623.000000, IPT: 359679629.000000, BOH/LOH: 3.393828,1.059659, MAX:1
Coverage: 45, Tot. Cov: 95.000000, 29/54, STDB: 33375000.000000, IPB: 16207476.000000, STDT: 2364193723.000000, IPT: 364914270.000000, BOH/LOH: 2.059235,6.478765, MAX:1
Coverage: 45, Tot. Cov: 48.000000, 30/54, STDB: 35292500.000000, IPB: 13053784.000000, STDT: 274358213.000000, IPT: 216669760.000000, BOH/LOH: 2.703622,1.266251, MAX:1
Coverage: 45, Tot. Cov: 47.000000, 30/54, STDB: 20895000.000000, IPB: 12519236.000000, STDT: 1233528217.000000, IPT: 219525265.000000, BOH/LOH: 1.669032,5.619072, MAX:1
Coverage: 45, Tot. Cov: 46.000000, 31/54, STDB: 23625000.000000, IPB: 11755180.000000, STDT: 1892358920.000000, IPT: 197145521.000000, BOH/LOH: 2.009752,9.598792, MAX:1
Coverage: 45, Tot. Cov: 47.000000, 32/54, STDB: 22475000.000000, IPB: 6670404.000000, STDT: 371180906.000000, IPT: 173132361.000000, BOH/LOH: 3.369361,2.143914, MAX:1
Coverage: 45, Tot. Cov: 47.000000, 32/54, STDB: 22365000.000000, IPB: 6670404.000000, STDT: 204661737.000000, IPT: 173132361.000000, BOH/LOH: 3.352870,1.182111, MAX:1
Coverage: 45, Tot. Cov: 45.000000, 32/54, STDB: 12910000.000000, IPB: 6362076.000000, STDT: 675267183.000000, IPT: 165235413.000000, BOH/LOH: 2.029212,4.086698, MAX:1
Coverage: 45, Tot. Cov: 1200.000000, 33/54, STDB: 888360000.000000, IPB: 165541044.000000, STDT: 11606318034.000000, IPT: 5152252088.000000, BOH/LOH: 5.366403,2.252669, MAX:1
Coverage: 45, Tot. Cov: 1184.000000, 33/54, STDB: 492540000.000000, IPB: 161395748.000000, STDT: 29552623912.000000, IPT: 5065626671.000000, BOH/LOH: 3.051753,5.833952, MAX:1
Coverage: 45, Tot. Cov: 45.000000, 34/54, STDB: 24287500.000000, IPB: 7092332.000000, STDT: 384635389.000000, IPT: 360573882.000000, BOH/LOH: 3.424473,1.066731, MAX:1
Coverage: 45, Tot. Cov: 47.000000, 34/54, STDB: 14640000.000000, IPB: 7373248.000000, STDT: 1298631589.000000, IPT: 382444510.000000, BOH/LOH: 1.985556,3.395608, MAX:1
Coverage: 45, Tot. Cov: 1380.000000, 35/54, STDB: 1314110000.000000, IPB: 349348188.000000, STDT: 8421002938.000000, IPT: 6628514713.000000, BOH/LOH: 3.761605,1.270421, MAX:1
Coverage: 45, Tot. Cov: 1386.000000, 35/54, STDB: 1198190000.000000, IPB: 350885472.000000, STDT: 72194928303.000000, IPT: 6693294144.000000, BOH/LOH: 3.414761,10.786158, MAX:1
Coverage: 45, Tot. Cov: 1690.000000, 36/54, STDB: 2516425000.000000, IPB: 499183000.000000, STDT: 16947963437.000000, IPT: 7126470861.000000, BOH/LOH: 5.041087,2.378171, MAX:1
Coverage: 45, Tot. Cov: 1690.000000, 36/54, STDB: 1484865000.000000, IPB: 499209912.000000, STDT: 64594922220.000000, IPT: 7128745047.000000, BOH/LOH: 2.974430,9.061191, MAX:1
Coverage: 45, Tot. Cov: 46.000000, 37/54, STDB: 62087500.000000, IPB: 21606184.000000, STDT: 262888956.000000, IPT: 200344055.000000, BOH/LOH: 2.873599,1.312187, MAX:1
Coverage: 45, Tot. Cov: 148.000000, 38/54, STDB: 313252500.000000, IPB: 84797396.000000, STDT: 1461758352.000000, IPT: 1178077052.000000, BOH/LOH: 3.694129,1.240800, MAX:1
Coverage: 45, Tot. Cov: 148.000000, 38/54, STDB: 244275000.000000, IPB: 84331640.000000, STDT: 1416987645.000000, IPT: 1182279638.000000, BOH/LOH: 2.896600,1.198522, MAX:1
Coverage: 45, Tot. Cov: 145.000000, 38/54, STDB: 208237500.000000, IPB: 81086184.000000, STDT: 11755405454.000000, IPT: 1167378143.000000, BOH/LOH: 2.568101,10.069921, MAX:1
Coverage: 45, Tot. Cov: 144.000000, 39/54, STDB: 1140675000.000000, IPB: 248005152.000000, STDT: 2294106680.000000, IPT: 942289555.000000, BOH/LOH: 4.599400,2.434609, MAX:1
Coverage: 45, Tot. Cov: 146.000000, 39/54, STDB: 754822500.000000, IPB: 256494736.000000, STDT: 1050567250.000000, IPT: 947766181.000000, BOH/LOH: 2.942838,1.108467, MAX:1
Coverage: 45, Tot. Cov: 142.000000, 39/54, STDB: 575070000.000000, IPB: 243160020.000000, STDT: 14523268980.000000, IPT: 931837422.000000, BOH/LOH: 2.364986,15.585625, MAX:1
Coverage: 45, Tot. Cov: 789.000000, 40/54, STDB: 3155560000.000000, IPB: 663014552.000000, STDT: 6645326769.000000, IPT: 5360693141.000000, BOH/LOH: 4.759413,1.239639, MAX:1
Coverage: 45, Tot. Cov: 784.000000, 40/54, STDB: 3709000000.000000, IPB: 664629472.000000, STDT: 7489989374.000000, IPT: 5308198147.000000, BOH/LOH: 5.580553,1.411023, MAX:1
Coverage: 45, Tot. Cov: 791.000000, 40/54, STDB: 3169560000.000000, IPB: 667033016.000000, STDT: 77614008738.000000, IPT: 5377922482.000000, BOH/LOH: 4.751729,14.431969, MAX:1
Coverage: 45, Tot. Cov: 641.000000, 41/54, STDB: 3080740000.000000, IPB: 805542540.000000, STDT: 8148038662.000000, IPT: 3483089668.000000, BOH/LOH: 3.824429,2.339313, MAX:1
Coverage: 45, Tot. Cov: 639.000000, 41/54, STDB: 2298952500.000000, IPB: 805450948.000000, STDT: 3884307513.000000, IPT: 3455250330.000000, BOH/LOH: 2.854243,1.124175, MAX:1
Coverage: 45, Tot. Cov: 639.000000, 41/54, STDB: 1545180000.000000, IPB: 800040608.000000, STDT: 63865964046.000000, IPT: 3491829829.000000, BOH/LOH: 1.931377,18.290114, MAX:1
Coverage: 45, Tot. Cov: 146.000000, 42/54, STDB: 395992500.000000, IPB: 219131108.000000, STDT: 13429374284.000000, IPT: 990344754.000000, BOH/LOH: 1.807103,13.560302, MAX:1
Coverage: 45, Tot. Cov: 91.000000, 43/54, STDB: 350910000.000000, IPB: 124502060.000000, STDT: 711494729.000000, IPT: 446274894.000000, BOH/LOH: 2.818508,1.594297, MAX:1
Coverage: 45, Tot. Cov: 94.000000, 43/54, STDB: 215935000.000000, IPB: 128945352.000000, STDT: 6683257047.000000, IPT: 476425997.000000, BOH/LOH: 1.674624,14.027902, MAX:1
Coverage: 45, Tot. Cov: 94.000000, 44/54, STDB: 537020000.000000, IPB: 135487140.000000, STDT: 763204904.000000, IPT: 456369186.000000, BOH/LOH: 3.963623,1.672341, MAX:1
Coverage: 45, Tot. Cov: 92.000000, 44/54, STDB: 400895000.000000, IPB: 134667292.000000, STDT: 577608948.000000, IPT: 441296667.000000, BOH/LOH: 2.976929,1.308890, MAX:1
Coverage: 45, Tot. Cov: 93.000000, 44/54, STDB: 229955000.000000, IPB: 133669100.000000, STDT: 5870315747.000000, IPT: 458781411.000000, BOH/LOH: 1.720330,12.795452, MAX:1
Coverage: 45, Tot. Cov: 194.000000, 45/54, STDB: 926640000.000000, IPB: 317788604.000000, STDT: 918377083.000000, IPT: 864861724.000000, BOH/LOH: 2.915901,1.061877, MAX:1
Coverage: 45, Tot. Cov: 195.000000, 45/54, STDB: 594280000.000000, IPB: 316877568.000000, STDT: 10119587556.000000, IPT: 879477370.000000, BOH/LOH: 1.875425,11.506365, MAX:1
Coverage: 45, Tot. Cov: 45.000000, 46/54, STDB: 234685000.000000, IPB: 90726048.000000, STDT: 213059081.000000, IPT: 209139059.000000, BOH/LOH: 2.586743,1.018744, MAX:1
Coverage: 45, Tot. Cov: 45.000000, 46/54, STDB: 133205000.000000, IPB: 90794992.000000, STDT: 2065394243.000000, IPT: 214619388.000000, BOH/LOH: 1.467096,9.623521, MAX:1
Coverage: 45, Tot. Cov: 595.000000, 47/54, STDB: 2973660000.000000, IPB: 1652632624.000000, STDT: 31122401606.000000, IPT: 3391576991.000000, BOH/LOH: 1.799347,9.176381, MAX:1
Coverage: 45, Tot. Cov: 144.000000, 48/54, STDB: 1029075000.000000, IPB: 281156004.000000, STDT: 1513628344.000000, IPT: 833188081.000000, BOH/LOH: 3.660157,1.816671, MAX:1
Coverage: 45, Tot. Cov: 146.000000, 48/54, STDB: 748927500.000000, IPB: 285619452.000000, STDT: 984602000.000000, IPT: 843357079.000000, BOH/LOH: 2.622117,1.167479, MAX:1
Coverage: 45, Tot. Cov: 346.000000, 49/54, STDB: 2305747500.000000, IPB: 432603344.000000, STDT: 3261958981.000000, IPT: 2968706742.000000, BOH/LOH: 5.329935,1.098781, MAX:1
Coverage: 45, Tot. Cov: 346.000000, 49/54, STDB: 1994632500.000000, IPB: 432715756.000000, STDT: 3388628470.000000, IPT: 2968801954.000000, BOH/LOH: 4.609568,1.141413, MAX:1
Coverage: 45, Tot. Cov: 345.000000, 49/54, STDB: 1698375000.000000, IPB: 429650372.000000, STDT: 32922075153.000000, IPT: 2961522366.000000, BOH/LOH: 3.952923,11.116605, MAX:1
Coverage: 45, Tot. Cov: 284.000000, 50/54, STDB: 1082565000.000000, IPB: 252696692.000000, STDT: 2650677139.000000, IPT: 2435282718.000000, BOH/LOH: 4.284049,1.088447, MAX:1
Coverage: 45, Tot. Cov: 293.000000, 50/54, STDB: 835920000.000000, IPB: 256544180.000000, STDT: 3370284524.000000, IPT: 2527919633.000000, BOH/LOH: 3.258386,1.333225, MAX:1
Coverage: 45, Tot. Cov: 294.000000, 50/54, STDB: 746685000.000000, IPB: 257685648.000000, STDT: 15844831293.000000, IPT: 2537086052.000000, BOH/LOH: 2.897658,6.245287, MAX:1
Coverage: 45, Tot. Cov: 298.000000, 51/54, STDB: 1423125000.000000, IPB: 349106716.000000, STDT: 3584705812.000000, IPT: 2448554193.000000, BOH/LOH: 4.076476,1.464009, MAX:1
Coverage: 45, Tot. Cov: 288.000000, 51/54, STDB: 811245000.000000, IPB: 335695396.000000, STDT: 3842954503.000000, IPT: 2354838515.000000, BOH/LOH: 2.416610,1.631940, MAX:1
Coverage: 45, Tot. Cov: 292.000000, 51/54, STDB: 692265000.000000, IPB: 339316672.000000, STDT: 31186012689.000000, IPT: 2395018474.000000, BOH/LOH: 2.040174,13.021199, MAX:1
Coverage: 45, Tot. Cov: 194.000000, 52/54, STDB: 1278190000.000000, IPB: 290413488.000000, STDT: 1812834265.000000, IPT: 1094373482.000000, BOH/LOH: 4.401276,1.656504, MAX:1
Coverage: 45, Tot. Cov: 193.000000, 52/54, STDB: 981200000.000000, IPB: 291470140.000000, STDT: 1207341570.000000, IPT: 1081464350.000000, BOH/LOH: 3.366383,1.116395, MAX:1
Coverage: 45, Tot. Cov: 195.000000, 52/54, STDB: 632440000.000000, IPB: 291147708.000000, STDT: 20655924864.000000, IPT: 1107070333.000000, BOH/LOH: 2.172231,18.658187, MAX:1
Coverage: 45, Tot. Cov: 1550.000000, 53/54, STDB: 29274462500.000000, IPB: 4067773796.000000, STDT: 19934329237.000000, IPT: 12656033716.000000, BOH/LOH: 7.196679,1.575085, MAX:1
Coverage: 45, Tot. Cov: 1547.000000, 53/54, STDB: 25455650000.000000, IPB: 4054405604.000000, STDT: 14919576489.000000, IPT: 12626996875.000000, BOH/LOH: 6.278516,1.181562, MAX:1
Coverage: 45, Tot. Cov: 1546.000000, 53/54, STDB: 16571127500.000000, IPB: 4036529028.000000, STDT: 72928400400.000000, IPT: 12617275324.000000, BOH/LOH: 4.105291,5.780044, MAX:1
