Coverage: 35, Tot. Cov: 174.000000, 1/54, STDB: 44470000.000000, IPB: 15835856.000000, STDT: 3629078947.000000, IPT: 1221308223.000000, BOH/LOH: 2.808184,2.971469, MAX:1
Coverage: 35, Tot. Cov: 1148.000000, 2/54, STDB: 163980000.000000, IPB: 51370788.000000, STDT: 11946600114.000000, IPT: 4301949671.000000, BOH/LOH: 3.192087,2.777020, MAX:1
Coverage: 35, Tot. Cov: 725.000000, 3/54, STDB: 260625000.000000, IPB: 64126788.000000, STDT: 12037469075.000000, IPT: 2910323962.000000, BOH/LOH: 4.064214,4.136127, MAX:1
Coverage: 35, Tot. Cov: 787.000000, 4/54, STDB: 87560000.000000, IPB: 19992156.000000, STDT: 12897537693.000000, IPT: 2955079817.000000, BOH/LOH: 4.379718,4.364531, MAX:1
Coverage: 35, Tot. Cov: 2074.000000, 5/54, STDB: 3690960000.000000, IPB: 1322175116.000000, STDT: 94750092280.000000, IPT: 12024975659.000000, BOH/LOH: 2.791582,7.879442, MAX:1
Coverage: 35, Tot. Cov: 279.000000, 6/54, STDB: 394455000.000000, IPB: 224831220.000000, STDT: 11598582459.000000, IPT: 1293134111.000000, BOH/LOH: 1.754449,8.969358, MAX:1
Coverage: 35, Tot. Cov: 1553.000000, 7/54, STDB: 2550720000.000000, IPB: 1289223800.000000, STDT: 86460626539.000000, IPT: 7727901583.000000, BOH/LOH: 1.978493,11.188112, MAX:1
Coverage: 35, Tot. Cov: 85.000000, 8/54, STDB: 189160000.000000, IPB: 90121904.000000, STDT: 4706477581.000000, IPT: 535284566.000000, BOH/LOH: 2.098935,8.792478, MAX:1
Coverage: 35, Tot. Cov: 132.000000, 9/54, STDB: 273180000.000000, IPB: 145565444.000000, STDT: 5002735215.000000, IPT: 730730732.000000, BOH/LOH: 1.876682,6.846209, MAX:1
Coverage: 35, Tot. Cov: 217.000000, 10/54, STDB: 471775000.000000, IPB: 247279684.000000, STDT: 10859483566.000000, IPT: 992324383.000000, BOH/LOH: 1.907860,10.943482, MAX:1
Coverage: 35, Tot. Cov: 36.000000, 11/54, STDB: 83147500.000000, IPB: 44625080.000000, STDT: 1689713473.000000, IPT: 181254619.000000, BOH/LOH: 1.863246,9.322320, MAX:1
Coverage: 35, Tot. Cov: 752.000000, 12/54, STDB: 563320000.000000, IPB: 221532088.000000, STDT: 28053489544.000000, IPT: 5282928598.000000, BOH/LOH: 2.542837,5.310216, MAX:1
Coverage: 35, Tot. Cov: 135.000000, 13/54, STDB: 126375000.000000, IPB: 58506528.000000, STDT: 4676870592.000000, IPT: 578119423.000000, BOH/LOH: 2.160015,8.089800, MAX:1
Coverage: 35, Tot. Cov: 223.000000, 14/54, STDB: 141837500.000000, IPB: 69516404.000000, STDT: 7461074183.000000, IPT: 1386070418.000000, BOH/LOH: 2.040346,5.382897, MAX:1
Coverage: 35, Tot. Cov: 485.000000, 15/54, STDB: 535150000.000000, IPB: 201010736.000000, STDT: 36897863177.000000, IPT: 2250538983.000000, BOH/LOH: 2.662296,16.395123, MAX:1
Coverage: 35, Tot. Cov: 120.000000, 16/54, STDB: 72990000.000000, IPB: 39150624.000000, STDT: 4298691772.000000, IPT: 482962675.000000, BOH/LOH: 1.864338,8.900671, MAX:1
Coverage: 35, Tot. Cov: 84.000000, 17/54, STDB: 68010000.000000, IPB: 31192956.000000, STDT: 3754659270.000000, IPT: 381345810.000000, BOH/LOH: 2.180300,9.845812, MAX:1
Coverage: 35, Tot. Cov: 85.000000, 18/54, STDB: 59170000.000000, IPB: 28406068.000000, STDT: 1982062538.000000, IPT: 355599882.000000, BOH/LOH: 2.083006,5.573856, MAX:1
Coverage: 35, Tot. Cov: 40.000000, 19/54, STDB: 29607500.000000, IPB: 13332348.000000, STDT: 1141464801.000000, IPT: 181446845.000000, BOH/LOH: 2.220727,6.290905, MAX:1
Coverage: 35, Tot. Cov: 310.000000, 20/54, STDB: 298340000.000000, IPB: 134686496.000000, STDT: 10907152589.000000, IPT: 1535776878.000000, BOH/LOH: 2.215070,7.102042, MAX:1
Coverage: 35, Tot. Cov: 1735.000000, 21/54, STDB: 2705587500.000000, IPB: 938210940.000000, STDT: 142649571598.000000, IPT: 8362973386.000000, BOH/LOH: 2.883773,17.057279, MAX:1
Coverage: 35, Tot. Cov: 211.000000, 22/54, STDB: 289150000.000000, IPB: 119428460.000000, STDT: 14185972278.000000, IPT: 1173556609.000000, BOH/LOH: 2.421115,12.088017, MAX:1
Coverage: 35, Tot. Cov: 122.000000, 23/54, STDB: 31440000.000000, IPB: 15203608.000000, STDT: 3250775068.000000, IPT: 842313115.000000, BOH/LOH: 2.067930,3.859343, MAX:1
Coverage: 35, Tot. Cov: 140.000000, 24/54, STDB: 41257500.000000, IPB: 15318048.000000, STDT: 1820001314.000000, IPT: 598990243.000000, BOH/LOH: 2.693391,3.038449, MAX:1
Coverage: 35, Tot. Cov: 173.000000, 25/54, STDB: 105800000.000000, IPB: 34140320.000000, STDT: 3291884776.000000, IPT: 1007979779.000000, BOH/LOH: 3.098975,3.265824, MAX:1
Coverage: 35, Tot. Cov: 429.000000, 26/54, STDB: 117270000.000000, IPB: 38976416.000000, STDT: 14259964288.000000, IPT: 1991677678.000000, BOH/LOH: 3.008743,7.159775, MAX:1
Coverage: 35, Tot. Cov: 1539.000000, 27/54, STDB: 891947500.000000, IPB: 261729128.000000, STDT: 43133987239.000000, IPT: 6909403438.000000, BOH/LOH: 3.407903,6.242795, MAX:1
Coverage: 35, Tot. Cov: 74.000000, 28/54, STDB: 38780000.000000, IPB: 17043844.000000, STDT: 1347848135.000000, IPT: 272770012.000000, BOH/LOH: 2.275308,4.941335, MAX:1
Coverage: 35, Tot. Cov: 76.000000, 29/54, STDB: 29220000.000000, IPB: 12959608.000000, STDT: 1675709167.000000, IPT: 290344331.000000, BOH/LOH: 2.254698,5.771455, MAX:1
Coverage: 35, Tot. Cov: 38.000000, 30/54, STDB: 21892500.000000, IPB: 10074524.000000, STDT: 897618665.000000, IPT: 173898285.000000, BOH/LOH: 2.173056,5.161745, MAX:1
Coverage: 35, Tot. Cov: 35.000000, 31/54, STDB: 22060000.000000, IPB: 8896364.000000, STDT: 1013137656.000000, IPT: 132932564.000000, BOH/LOH: 2.479665,7.621441, MAX:1
Coverage: 35, Tot. Cov: 35.000000, 32/54, STDB: 9707500.000000, IPB: 4936900.000000, STDT: 399922915.000000, IPT: 124938315.000000, BOH/LOH: 1.966315,3.200963, MAX:1
Coverage: 35, Tot. Cov: 1168.000000, 33/54, STDB: 478200000.000000, IPB: 157827960.000000, STDT: 27202104488.000000, IPT: 4994541995.000000, BOH/LOH: 3.029881,5.446366, MAX:1
Coverage: 35, Tot. Cov: 37.000000, 34/54, STDB: 10315000.000000, IPB: 5775792.000000, STDT: 839432644.000000, IPT: 290910537.000000, BOH/LOH: 1.785902,2.885535, MAX:1
Coverage: 35, Tot. Cov: 1364.000000, 35/54, STDB: 981890000.000000, IPB: 340641596.000000, STDT: 50787593857.000000, IPT: 6573954464.000000, BOH/LOH: 2.882472,7.725577, MAX:1
Coverage: 35, Tot. Cov: 1662.000000, 36/54, STDB: 1392130000.000000, IPB: 482882796.000000, STDT: 94491970184.000000, IPT: 7019312550.000000, BOH/LOH: 2.882956,13.461713, MAX:1
Coverage: 35, Tot. Cov: 36.000000, 37/54, STDB: 36387500.000000, IPB: 16864964.000000, STDT: 1258172078.000000, IPT: 157274973.000000, BOH/LOH: 2.157579,7.999824, MAX:1
Coverage: 35, Tot. Cov: 135.000000, 38/54, STDB: 177187500.000000, IPB: 72933140.000000, STDT: 10139665273.000000, IPT: 1108207028.000000, BOH/LOH: 2.429451,9.149613, MAX:1
Coverage: 35, Tot. Cov: 123.000000, 39/54, STDB: 484515000.000000, IPB: 199376260.000000, STDT: 9154057502.000000, IPT: 783146225.000000, BOH/LOH: 2.430154,11.688823, MAX:1
Coverage: 35, Tot. Cov: 773.000000, 40/54, STDB: 2477040000.000000, IPB: 627528488.000000, STDT: 72067124780.000000, IPT: 5261336551.000000, BOH/LOH: 3.947295,13.697494, MAX:1
Coverage: 35, Tot. Cov: 602.000000, 41/54, STDB: 1397045000.000000, IPB: 745220508.000000, STDT: 45358042119.000000, IPT: 3259778949.000000, BOH/LOH: 1.874673,13.914453, MAX:1
Coverage: 35, Tot. Cov: 133.000000, 42/54, STDB: 383865000.000000, IPB: 196032736.000000, STDT: 10832668675.000000, IPT: 914561640.000000, BOH/LOH: 1.958168,11.844657, MAX:1
Coverage: 35, Tot. Cov: 73.000000, 43/54, STDB: 214535000.000000, IPB: 96960280.000000, STDT: 4039392681.000000, IPT: 372648333.000000, BOH/LOH: 2.212607,10.839691, MAX:1
Coverage: 35, Tot. Cov: 73.000000, 44/54, STDB: 225870000.000000, IPB: 98865468.000000, STDT: 3270640993.000000, IPT: 348884653.000000, BOH/LOH: 2.284620,9.374563, MAX:1
Coverage: 35, Tot. Cov: 185.000000, 45/54, STDB: 513920000.000000, IPB: 295143124.000000, STDT: 6270557207.000000, IPT: 825358934.000000, BOH/LOH: 1.741257,7.597370, MAX:1
Coverage: 35, Tot. Cov: 43.000000, 46/54, STDB: 131187500.000000, IPB: 86596108.000000, STDT: 1703218145.000000, IPT: 205260739.000000, BOH/LOH: 1.514935,8.297827, MAX:1
Coverage: 35, Tot. Cov: 585.000000, 47/54, STDB: 2850780000.000000, IPB: 1615868016.000000, STDT: 26198508797.000000, IPT: 3323963928.000000, BOH/LOH: 1.764241,7.881707, MAX:1
Coverage: 35, Tot. Cov: 140.000000, 48/54, STDB: 523350000.000000, IPB: 269809056.000000, STDT: 7813792691.000000, IPT: 816801372.000000, BOH/LOH: 1.939705,9.566331, MAX:1
Coverage: 35, Tot. Cov: 322.000000, 49/54, STDB: 1172325000.000000, IPB: 374426032.000000, STDT: 22646329418.000000, IPT: 2786452939.000000, BOH/LOH: 3.130992,8.127297, MAX:1
Coverage: 35, Tot. Cov: 276.000000, 50/54, STDB: 646965000.000000, IPB: 232222628.000000, STDT: 11893308553.000000, IPT: 2383391866.000000, BOH/LOH: 2.785969,4.990077, MAX:1
Coverage: 35, Tot. Cov: 278.000000, 51/54, STDB: 660240000.000000, IPB: 319381404.000000, STDT: 24728438565.000000, IPT: 2262469840.000000, BOH/LOH: 2.067246,10.929842, MAX:1
Coverage: 35, Tot. Cov: 186.000000, 52/54, STDB: 565840000.000000, IPB: 274714176.000000, STDT: 16925286789.000000, IPT: 1049710780.000000, BOH/LOH: 2.059741,16.123762, MAX:1
Coverage: 35, Tot. Cov: 1536.000000, 53/54, STDB: 15954770000.000000, IPB: 3960492088.000000, STDT: 63269449203.000000, IPT: 12525754897.000000, BOH/LOH: 4.028482,5.051149, MAX:1
