Coverage: 20, Tot. Cov: 70.000000, 1/81, STDB: 957045000.000000, IPB: 470592200.000000, STDT: 3393803934.000000, IPT: 499115824.000000, BOH/LOH: 2.033703,6.799632, MAX:1
Coverage: 20, Tot. Cov: 95.000000, 2/81, STDB: 825382500.000000, IPB: 345160716.000000, STDT: 7071322585.000000, IPT: 767118016.000000, BOH/LOH: 2.391299,9.218037, MAX:1
Coverage: 20, Tot. Cov: 3174.000000, 3/81, STDB: 7834080000.000000, IPB: 210277716.000000, STDT: 103163457220.000000, IPT: 14003996194.000000, BOH/LOH: 37.255874,7.366716, MAX:1
Coverage: 20, Tot. Cov: 1204.000000, 4/81, STDB: 832715000.000000, IPB: 322918696.000000, STDT: 25429399153.000000, IPT: 4937890788.000000, BOH/LOH: 2.578714,5.149850, MAX:1
Coverage: 20, Tot. Cov: 139.000000, 5/81, STDB: 125930000.000000, IPB: 48316428.000000, STDT: 2789853751.000000, IPT: 580186295.000000, BOH/LOH: 2.606360,4.808548, MAX:1
Coverage: 20, Tot. Cov: 337.000000, 6/81, STDB: 197840000.000000, IPB: 82007848.000000, STDT: 9016584946.000000, IPT: 1691972764.000000, BOH/LOH: 2.412452,5.329037, MAX:1
Coverage: 20, Tot. Cov: 71.000000, 7/81, STDB: 54005000.000000, IPB: 19057888.000000, STDT: 996231907.000000, IPT: 288249160.000000, BOH/LOH: 2.833735,3.456149, MAX:1
Coverage: 20, Tot. Cov: 45.000000, 8/81, STDB: 44730000.000000, IPB: 14234368.000000, STDT: 671174848.000000, IPT: 177730675.000000, BOH/LOH: 3.142395,3.776359, MAX:1
Coverage: 20, Tot. Cov: 69.000000, 9/81, STDB: 82210000.000000, IPB: 24993764.000000, STDT: 1942963652.000000, IPT: 296833690.000000, BOH/LOH: 3.289220,6.545630, MAX:1
Coverage: 20, Tot. Cov: 61.000000, 10/81, STDB: 27460000.000000, IPB: 13040400.000000, STDT: 588832316.000000, IPT: 195284011.000000, BOH/LOH: 2.105764,3.015261, MAX:1
Coverage: 20, Tot. Cov: 21.000000, 11/81, STDB: 32575000.000000, IPB: 9824932.000000, STDT: 578544048.000000, IPT: 91607564.000000, BOH/LOH: 3.315545,6.315462, MAX:1
Coverage: 20, Tot. Cov: 450.000000, 12/81, STDB: 317075000.000000, IPB: 124904728.000000, STDT: 11213025044.000000, IPT: 2392636291.000000, BOH/LOH: 2.538535,4.686473, MAX:1
Coverage: 20, Tot. Cov: 875.000000, 13/81, STDB: 959600000.000000, IPB: 348539304.000000, STDT: 19703667466.000000, IPT: 4143794292.000000, BOH/LOH: 2.753205,4.754982, MAX:1
Coverage: 20, Tot. Cov: 50.000000, 14/81, STDB: 109665000.000000, IPB: 25760676.000000, STDT: 1249734309.000000, IPT: 307205262.000000, BOH/LOH: 4.257070,4.068076, MAX:1
Coverage: 20, Tot. Cov: 1345.000000, 15/81, STDB: 1332622500.000000, IPB: 627705852.000000, STDT: 59374115095.000000, IPT: 6489814918.000000, BOH/LOH: 2.123005,9.148815, MAX:1
Coverage: 20, Tot. Cov: 86.000000, 16/81, STDB: 162105000.000000, IPB: 49826392.000000, STDT: 3348660224.000000, IPT: 421704420.000000, BOH/LOH: 3.253396,7.940776, MAX:1
Coverage: 20, Tot. Cov: 126.000000, 17/81, STDB: 176890000.000000, IPB: 64689836.000000, STDT: 3591303107.000000, IPT: 522462820.000000, BOH/LOH: 2.734433,6.873797, MAX:1
Coverage: 20, Tot. Cov: 58.000000, 18/81, STDB: 104385000.000000, IPB: 36679296.000000, STDT: 3059894395.000000, IPT: 256262391.000000, BOH/LOH: 2.845883,11.940474, MAX:1
Coverage: 20, Tot. Cov: 395.000000, 19/81, STDB: 563832500.000000, IPB: 221711360.000000, STDT: 14787347293.000000, IPT: 1970570233.000000, BOH/LOH: 2.543093,7.504096, MAX:1
Coverage: 20, Tot. Cov: 294.000000, 20/81, STDB: 434735000.000000, IPB: 204764984.000000, STDT: 8156196657.000000, IPT: 1263793461.000000, BOH/LOH: 2.123092,6.453742, MAX:1
Coverage: 20, Tot. Cov: 241.000000, 21/81, STDB: 207435000.000000, IPB: 89919324.000000, STDT: 7812550428.000000, IPT: 1772891150.000000, BOH/LOH: 2.306901,4.406672, MAX:1
Coverage: 20, Tot. Cov: 47.000000, 22/81, STDB: 45960000.000000, IPB: 12297456.000000, STDT: 1432282483.000000, IPT: 273481682.000000, BOH/LOH: 3.737358,5.237215, MAX:1
Coverage: 20, Tot. Cov: 103.000000, 23/81, STDB: 79050000.000000, IPB: 31555560.000000, STDT: 2465084717.000000, IPT: 551474451.000000, BOH/LOH: 2.505105,4.469989, MAX:1
Coverage: 20, Tot. Cov: 126.000000, 24/81, STDB: 27105000.000000, IPB: 10569356.000000, STDT: 2730141071.000000, IPT: 509879878.000000, BOH/LOH: 2.564489,5.354479, MAX:1
Coverage: 20, Tot. Cov: 118.000000, 25/81, STDB: 34110000.000000, IPB: 11060888.000000, STDT: 930335178.000000, IPT: 430432129.000000, BOH/LOH: 3.083839,2.161398, MAX:1
Coverage: 20, Tot. Cov: 120.000000, 26/81, STDB: 20085000.000000, IPB: 8802684.000000, STDT: 1840286200.000000, IPT: 453708731.000000, BOH/LOH: 2.281690,4.056096, MAX:1
Coverage: 20, Tot. Cov: 69.000000, 27/81, STDB: 27095000.000000, IPB: 9299568.000000, STDT: 742978857.000000, IPT: 250347385.000000, BOH/LOH: 2.913576,2.967792, MAX:1
Coverage: 20, Tot. Cov: 73.000000, 28/81, STDB: 34110000.000000, IPB: 11254996.000000, STDT: 1187359912.000000, IPT: 393699893.000000, BOH/LOH: 3.030654,3.015901, MAX:1
Coverage: 20, Tot. Cov: 65.000000, 29/81, STDB: 25895000.000000, IPB: 8565880.000000, STDT: 1085268943.000000, IPT: 280991617.000000, BOH/LOH: 3.023040,3.862282, MAX:1
Coverage: 20, Tot. Cov: 59.000000, 30/81, STDB: 22405000.000000, IPB: 8631852.000000, STDT: 1405105588.000000, IPT: 272138534.000000, BOH/LOH: 2.595619,5.163200, MAX:1
Coverage: 20, Tot. Cov: 55.000000, 31/81, STDB: 13985000.000000, IPB: 4629372.000000, STDT: 744896291.000000, IPT: 196850939.000000, BOH/LOH: 3.020928,3.784063, MAX:1
Coverage: 20, Tot. Cov: 155.000000, 32/81, STDB: 41220000.000000, IPB: 16789540.000000, STDT: 2076485677.000000, IPT: 614210418.000000, BOH/LOH: 2.455100,3.380740, MAX:1
Coverage: 20, Tot. Cov: 21.000000, 33/81, STDB: 10450000.000000, IPB: 2615048.000000, STDT: 312027377.000000, IPT: 97136900.000000, BOH/LOH: 3.996103,3.212244, MAX:1
Coverage: 20, Tot. Cov: 20.000000, 34/81, STDB: 14947500.000000, IPB: 3303268.000000, STDT: 378292654.000000, IPT: 88642142.000000, BOH/LOH: 4.525064,4.267639, MAX:1
Coverage: 20, Tot. Cov: 23.000000, 35/81, STDB: 9332500.000000, IPB: 2488640.000000, STDT: 335818969.000000, IPT: 99393933.000000, BOH/LOH: 3.750040,3.378667, MAX:1
Coverage: 20, Tot. Cov: 865.000000, 36/81, STDB: 462195000.000000, IPB: 150744444.000000, STDT: 15749838496.000000, IPT: 4440116711.000000, BOH/LOH: 3.066083,3.547168, MAX:1
Coverage: 20, Tot. Cov: 100.000000, 37/81, STDB: 71047500.000000, IPB: 18939176.000000, STDT: 3085856754.000000, IPT: 851073093.000000, BOH/LOH: 3.751351,3.625842, MAX:1
Coverage: 20, Tot. Cov: 62.000000, 38/81, STDB: 42360000.000000, IPB: 14153728.000000, STDT: 1625750338.000000, IPT: 330255787.000000, BOH/LOH: 2.992851,4.922701, MAX:1
Coverage: 20, Tot. Cov: 158.000000, 39/81, STDB: 100350000.000000, IPB: 41120792.000000, STDT: 4669483235.000000, IPT: 725645636.000000, BOH/LOH: 2.440371,6.434936, MAX:1
Coverage: 20, Tot. Cov: 51.000000, 40/81, STDB: 37185000.000000, IPB: 10779852.000000, STDT: 976389076.000000, IPT: 211578883.000000, BOH/LOH: 3.449491,4.614776, MAX:1
Coverage: 20, Tot. Cov: 34.000000, 41/81, STDB: 19597500.000000, IPB: 8316164.000000, STDT: 778598875.000000, IPT: 201024514.000000, BOH/LOH: 2.356555,3.873154, MAX:1
Coverage: 20, Tot. Cov: 23.000000, 42/81, STDB: 19390000.000000, IPB: 5918024.000000, STDT: 488805410.000000, IPT: 109446276.000000, BOH/LOH: 3.276431,4.466168, MAX:1
Coverage: 20, Tot. Cov: 27.000000, 43/81, STDB: 16215000.000000, IPB: 6065760.000000, STDT: 392318204.000000, IPT: 174242208.000000, BOH/LOH: 2.673202,2.251568, MAX:1
Coverage: 20, Tot. Cov: 360.000000, 44/81, STDB: 107900000.000000, IPB: 46161960.000000, STDT: 12302246084.000000, IPT: 1640454441.000000, BOH/LOH: 2.337422,7.499292, MAX:1
Coverage: 20, Tot. Cov: 59.000000, 45/81, STDB: 43550000.000000, IPB: 14536056.000000, STDT: 1493298828.000000, IPT: 214736318.000000, BOH/LOH: 2.995998,6.954105, MAX:1
Coverage: 20, Tot. Cov: 209.000000, 46/81, STDB: 83162500.000000, IPB: 34837492.000000, STDT: 2407421393.000000, IPT: 789591437.000000, BOH/LOH: 2.387155,3.048946, MAX:1
Coverage: 20, Tot. Cov: 1116.000000, 47/81, STDB: 537480000.000000, IPB: 196503224.000000, STDT: 19100135069.000000, IPT: 4642212644.000000, BOH/LOH: 2.735222,4.114446, MAX:1
Coverage: 20, Tot. Cov: 68.000000, 48/81, STDB: 120850000.000000, IPB: 40053096.000000, STDT: 1563174770.000000, IPT: 560644903.000000, BOH/LOH: 3.017245,2.788173, MAX:1
Coverage: 20, Tot. Cov: 49.000000, 49/81, STDB: 127960000.000000, IPB: 29800320.000000, STDT: 1347863989.000000, IPT: 366808316.000000, BOH/LOH: 4.293914,3.674573, MAX:1
Coverage: 20, Tot. Cov: 59.000000, 50/81, STDB: 162455000.000000, IPB: 43836068.000000, STDT: 1830515962.000000, IPT: 506096479.000000, BOH/LOH: 3.705967,3.616931, MAX:1
Coverage: 20, Tot. Cov: 114.000000, 51/81, STDB: 215220000.000000, IPB: 109490320.000000, STDT: 4839142938.000000, IPT: 656976440.000000, BOH/LOH: 1.965653,7.365779, MAX:1
Coverage: 20, Tot. Cov: 29.000000, 52/81, STDB: 89817500.000000, IPB: 29489096.000000, STDT: 1062824455.000000, IPT: 157755082.000000, BOH/LOH: 3.045787,6.737180, MAX:1
Coverage: 20, Tot. Cov: 314.000000, 53/81, STDB: 382620000.000000, IPB: 170512280.000000, STDT: 11801479524.000000, IPT: 2221889664.000000, BOH/LOH: 2.243944,5.311461, MAX:1
Coverage: 20, Tot. Cov: 112.000000, 54/81, STDB: 151882500.000000, IPB: 66870464.000000, STDT: 4433007780.000000, IPT: 585712830.000000, BOH/LOH: 2.271294,7.568569, MAX:1
Coverage: 20, Tot. Cov: 60.000000, 55/81, STDB: 76785000.000000, IPB: 20760228.000000, STDT: 1503706104.000000, IPT: 561115041.000000, BOH/LOH: 3.698659,2.679853, MAX:1
Coverage: 20, Tot. Cov: 105.000000, 56/81, STDB: 136410000.000000, IPB: 51013048.000000, STDT: 5631613002.000000, IPT: 738847667.000000, BOH/LOH: 2.674022,7.622157, MAX:1
Coverage: 20, Tot. Cov: 71.000000, 57/81, STDB: 97170000.000000, IPB: 34883760.000000, STDT: 2614741585.000000, IPT: 355545782.000000, BOH/LOH: 2.785537,7.354163, MAX:1
Coverage: 20, Tot. Cov: 40.000000, 58/81, STDB: 180000000.000000, IPB: 46268740.000000, STDT: 1954542297.000000, IPT: 207747486.000000, BOH/LOH: 3.890316,9.408260, MAX:1
Coverage: 20, Tot. Cov: 276.000000, 59/81, STDB: 638872500.000000, IPB: 276792564.000000, STDT: 10948208310.000000, IPT: 1376834655.000000, BOH/LOH: 2.308127,7.951723, MAX:1
Coverage: 20, Tot. Cov: 866.000000, 60/81, STDB: 1306202500.000000, IPB: 575311080.000000, STDT: 34862809156.000000, IPT: 4360317065.000000, BOH/LOH: 2.270428,7.995476, MAX:1
Coverage: 20, Tot. Cov: 73.000000, 61/81, STDB: 164615000.000000, IPB: 60362044.000000, STDT: 2750802988.000000, IPT: 601810725.000000, BOH/LOH: 2.727128,4.570877, MAX:1
Coverage: 20, Tot. Cov: 110.000000, 62/81, STDB: 243300000.000000, IPB: 90910108.000000, STDT: 5252794119.000000, IPT: 727950087.000000, BOH/LOH: 2.676270,7.215871, MAX:1
Coverage: 20, Tot. Cov: 1439.000000, 63/81, STDB: 2507667500.000000, IPB: 1264355016.000000, STDT: 72843988575.000000, IPT: 7096731280.000000, BOH/LOH: 1.983357,10.264442, MAX:1
Coverage: 20, Tot. Cov: 601.000000, 64/81, STDB: 1562025000.000000, IPB: 773886164.000000, STDT: 30611164144.000000, IPT: 3017357990.000000, BOH/LOH: 2.018417,10.145022, MAX:1
Coverage: 20, Tot. Cov: 122.000000, 65/81, STDB: 439425000.000000, IPB: 166377628.000000, STDT: 8693666597.000000, IPT: 892173137.000000, BOH/LOH: 2.641130,9.744372, MAX:1
Coverage: 20, Tot. Cov: 63.000000, 66/81, STDB: 346612500.000000, IPB: 64776780.000000, STDT: 1358592724.000000, IPT: 303292699.000000, BOH/LOH: 5.350876,4.479477, MAX:1
Coverage: 20, Tot. Cov: 124.000000, 67/81, STDB: 355470000.000000, IPB: 203238372.000000, STDT: 3551414124.000000, IPT: 552156252.000000, BOH/LOH: 1.749030,6.431901, MAX:1
Coverage: 20, Tot. Cov: 58.000000, 68/81, STDB: 268615000.000000, IPB: 95291596.000000, STDT: 1709696341.000000, IPT: 323652528.000000, BOH/LOH: 2.818874,5.282506, MAX:1
Coverage: 20, Tot. Cov: 33.000000, 69/81, STDB: 136280000.000000, IPB: 66330596.000000, STDT: 1229942567.000000, IPT: 158190952.000000, BOH/LOH: 2.054557,7.775050, MAX:1
Coverage: 20, Tot. Cov: 70.000000, 70/81, STDB: 152130000.000000, IPB: 25995680.000000, STDT: 1821285465.000000, IPT: 599880763.000000, BOH/LOH: 5.852126,3.036079, MAX:1
Coverage: 20, Tot. Cov: 134.000000, 71/81, STDB: 206842500.000000, IPB: 97258500.000000, STDT: 4641681237.000000, IPT: 954413772.000000, BOH/LOH: 2.126729,4.863385, MAX:1
Coverage: 20, Tot. Cov: 70.000000, 72/81, STDB: 131545000.000000, IPB: 52581296.000000, STDT: 1972216121.000000, IPT: 323122189.000000, BOH/LOH: 2.501745,6.103623, MAX:1
Coverage: 20, Tot. Cov: 68.000000, 73/81, STDB: 138430000.000000, IPB: 56532028.000000, STDT: 3504638307.000000, IPT: 637687297.000000, BOH/LOH: 2.448700,5.495857, MAX:1
Coverage: 20, Tot. Cov: 71.000000, 74/81, STDB: 167975000.000000, IPB: 63992656.000000, STDT: 1908477623.000000, IPT: 494601499.000000, BOH/LOH: 2.624911,3.858617, MAX:1
Coverage: 20, Tot. Cov: 77.000000, 75/81, STDB: 144525000.000000, IPB: 42444216.000000, STDT: 2588260933.000000, IPT: 745051233.000000, BOH/LOH: 3.405058,3.473937, MAX:1
Coverage: 20, Tot. Cov: 250.000000, 76/81, STDB: 790680000.000000, IPB: 289130596.000000, STDT: 8791877852.000000, IPT: 2086735539.000000, BOH/LOH: 2.734681,4.213221, MAX:1
Coverage: 20, Tot. Cov: 199.000000, 77/81, STDB: 818275000.000000, IPB: 343370396.000000, STDT: 6709040164.000000, IPT: 1267333092.000000, BOH/LOH: 2.383068,5.293825, MAX:1
Coverage: 20, Tot. Cov: 383.000000, 78/81, STDB: 901552500.000000, IPB: 382866680.000000, STDT: 22904816591.000000, IPT: 3269966111.000000, BOH/LOH: 2.354743,7.004604, MAX:1
Coverage: 20, Tot. Cov: 123.000000, 79/81, STDB: 500420000.000000, IPB: 177386684.000000, STDT: 6165618531.000000, IPT: 689413206.000000, BOH/LOH: 2.821069,8.943285, MAX:1
Coverage: 20, Tot. Cov: 1456.000000, 80/81, STDB: 8377750000.000000, IPB: 3820022200.000000, STDT: 70956719477.000000, IPT: 10378948025.000000, BOH/LOH: 2.193116,6.836600, MAX:1
