Coverage: 10, Tot. Cov: 19.000000, 1/250, STDB: 33995000.000000, IPB: 7788032.000000, STDT: 339960431.000000, IPT: 88811028.000000, BOH/LOH: 4.365031,3.827908, MAX:1
Coverage: 10, Tot. Cov: 36.000000, 2/250, STDB: 47395000.000000, IPB: 12524544.000000, STDT: 604260086.000000, IPT: 130969275.000000, BOH/LOH: 3.784170,4.613755, MAX:1
Coverage: 10, Tot. Cov: 18.000000, 3/250, STDB: 25487500.000000, IPB: 4485908.000000, STDT: 252971602.000000, IPT: 74187104.000000, BOH/LOH: 5.681681,3.409913, MAX:1
Coverage: 10, Tot. Cov: 10.000000, 4/250, STDB: 71035000.000000, IPB: 9517464.000000, STDT: 230135019.000000, IPT: 51169332.000000, BOH/LOH: 7.463648,4.497519, MAX:1
Coverage: 10, Tot. Cov: 65.000000, 5/250, STDB: 183555000.000000, IPB: 58025108.000000, STDT: 2210322059.000000, IPT: 301815435.000000, BOH/LOH: 3.163372,7.323423, MAX:1
Coverage: 10, Tot. Cov: 66.000000, 6/250, STDB: 803790000.000000, IPB: 165908796.000000, STDT: 2919603087.000000, IPT: 540001618.000000, BOH/LOH: 4.844770,5.406656, MAX:1
Coverage: 10, Tot. Cov: 12.000000, 7/250, STDB: 18337500.000000, IPB: 2913860.000000, STDT: 170534820.000000, IPT: 43230510.000000, BOH/LOH: 6.293199,3.944779, MAX:1
Coverage: 10, Tot. Cov: 12.000000, 8/250, STDB: 3070000.000000, IPB: 564872.000000, STDT: 181716323.000000, IPT: 71041882.000000, BOH/LOH: 5.434860,2.557876, MAX:1
Coverage: 10, Tot. Cov: 53.000000, 9/250, STDB: 42825000.000000, IPB: 14693860.000000, STDT: 989090377.000000, IPT: 224793954.000000, BOH/LOH: 2.914483,4.399987, MAX:1
Coverage: 10, Tot. Cov: 95.000000, 10/250, STDB: 72120000.000000, IPB: 18879420.000000, STDT: 1394618065.000000, IPT: 402281187.000000, BOH/LOH: 3.820033,3.466774, MAX:1
Coverage: 10, Tot. Cov: 34.000000, 11/250, STDB: 79460000.000000, IPB: 17581892.000000, STDT: 292211183.000000, IPT: 112157572.000000, BOH/LOH: 4.519423,2.605363, MAX:1
Coverage: 10, Tot. Cov: 32.000000, 12/250, STDB: 38200000.000000, IPB: 7555356.000000, STDT: 506202958.000000, IPT: 126352435.000000, BOH/LOH: 5.056016,4.006278, MAX:1
Coverage: 10, Tot. Cov: 10.000000, 13/250, STDB: 43337500.000000, IPB: 5048052.000000, STDT: 199440771.000000, IPT: 50232546.000000, BOH/LOH: 8.584995,3.970350, MAX:1
Coverage: 10, Tot. Cov: 36.000000, 14/250, STDB: 106042500.000000, IPB: 16869064.000000, STDT: 702305766.000000, IPT: 165073708.000000, BOH/LOH: 6.286211,4.254498, MAX:1
Coverage: 10, Tot. Cov: 16.000000, 15/250, STDB: 24450000.000000, IPB: 4344836.000000, STDT: 196644723.000000, IPT: 59151242.000000, BOH/LOH: 5.627370,3.324439, MAX:1
Coverage: 10, Tot. Cov: 36.000000, 16/250, STDB: 57930000.000000, IPB: 14766448.000000, STDT: 877993224.000000, IPT: 174819657.000000, BOH/LOH: 3.923083,5.022280, MAX:1
Coverage: 10, Tot. Cov: 131.000000, 17/250, STDB: 31212500.000000, IPB: 7716560.000000, STDT: 928297661.000000, IPT: 456453623.000000, BOH/LOH: 4.044872,2.033717, MAX:1
Coverage: 10, Tot. Cov: 10.000000, 18/250, STDB: 43275000.000000, IPB: 5793980.000000, STDT: 154349792.000000, IPT: 40965041.000000, BOH/LOH: 7.468959,3.767842, MAX:1
Coverage: 10, Tot. Cov: 57.000000, 19/250, STDB: 158420000.000000, IPB: 44927380.000000, STDT: 1727659719.000000, IPT: 486800086.000000, BOH/LOH: 3.526135,3.549013, MAX:1
Coverage: 10, Tot. Cov: 141.000000, 20/250, STDB: 515850000.000000, IPB: 155977912.000000, STDT: 3936131368.000000, IPT: 1149825224.000000, BOH/LOH: 3.307199,3.423243, MAX:1
Coverage: 10, Tot. Cov: 25.000000, 21/250, STDB: 77075000.000000, IPB: 12315044.000000, STDT: 444524093.000000, IPT: 103916603.000000, BOH/LOH: 6.258605,4.277700, MAX:1
Coverage: 10, Tot. Cov: 77.000000, 22/250, STDB: 107460000.000000, IPB: 33154164.000000, STDT: 1510700459.000000, IPT: 437712549.000000, BOH/LOH: 3.241222,3.451353, MAX:1
Coverage: 10, Tot. Cov: 76.000000, 23/250, STDB: 34462500.000000, IPB: 9159504.000000, STDT: 1172437585.000000, IPT: 296526597.000000, BOH/LOH: 3.762485,3.953904, MAX:1
Coverage: 10, Tot. Cov: 11.000000, 24/250, STDB: 216835000.000000, IPB: 36660196.000000, STDT: 315048632.000000, IPT: 64962063.000000, BOH/LOH: 5.914726,4.849733, MAX:1
Coverage: 10, Tot. Cov: 91.000000, 25/250, STDB: 180067500.000000, IPB: 69904288.000000, STDT: 2816010013.000000, IPT: 400561892.000000, BOH/LOH: 2.575915,7.030150, MAX:1
Coverage: 10, Tot. Cov: 25.000000, 26/250, STDB: 151925000.000000, IPB: 26471260.000000, STDT: 842110910.000000, IPT: 125795594.000000, BOH/LOH: 5.739243,6.694280, MAX:1
Coverage: 10, Tot. Cov: 24.000000, 27/250, STDB: 77410000.000000, IPB: 10767816.000000, STDT: 729352084.000000, IPT: 169976404.000000, BOH/LOH: 7.189016,4.290902, MAX:1
Coverage: 10, Tot. Cov: 23.000000, 28/250, STDB: 350325000.000000, IPB: 60304292.000000, STDT: 617433202.000000, IPT: 104039145.000000, BOH/LOH: 5.809288,5.934624, MAX:1
Coverage: 10, Tot. Cov: 77.000000, 29/250, STDB: 145905000.000000, IPB: 46974656.000000, STDT: 2333999488.000000, IPT: 336258779.000000, BOH/LOH: 3.106037,6.941081, MAX:1
Coverage: 10, Tot. Cov: 11.000000, 30/250, STDB: 124787500.000000, IPB: 22624544.000000, STDT: 211910419.000000, IPT: 50055386.000000, BOH/LOH: 5.515581,4.233519, MAX:1
Coverage: 10, Tot. Cov: 14.000000, 31/250, STDB: 72682500.000000, IPB: 14826064.000000, STDT: 540030891.000000, IPT: 99816512.000000, BOH/LOH: 4.902346,5.410236, MAX:1
Coverage: 10, Tot. Cov: 10.000000, 32/250, STDB: 46780000.000000, IPB: 6664528.000000, STDT: 384656244.000000, IPT: 81725259.000000, BOH/LOH: 7.019252,4.706700, MAX:1
Coverage: 10, Tot. Cov: 65.000000, 33/250, STDB: 46415000.000000, IPB: 16868040.000000, STDT: 952351586.000000, IPT: 248675997.000000, BOH/LOH: 2.751653,3.829688, MAX:1
Coverage: 10, Tot. Cov: 34.000000, 34/250, STDB: 154765000.000000, IPB: 35184852.000000, STDT: 1164568588.000000, IPT: 168220497.000000, BOH/LOH: 4.398626,6.922870, MAX:1
Coverage: 10, Tot. Cov: 13.000000, 35/250, STDB: 58740000.000000, IPB: 11149820.000000, STDT: 420936375.000000, IPT: 94584054.000000, BOH/LOH: 5.268246,4.450395, MAX:1
Coverage: 10, Tot. Cov: 56.000000, 36/250, STDB: 275992500.000000, IPB: 63628412.000000, STDT: 1399036863.000000, IPT: 280690810.000000, BOH/LOH: 4.337567,4.984263, MAX:1
Coverage: 10, Tot. Cov: 55.000000, 37/250, STDB: 53095000.000000, IPB: 18026260.000000, STDT: 738142533.000000, IPT: 226477770.000000, BOH/LOH: 2.945425,3.259227, MAX:1
Coverage: 10, Tot. Cov: 34.000000, 38/250, STDB: 83835000.000000, IPB: 13052904.000000, STDT: 908766118.000000, IPT: 214839387.000000, BOH/LOH: 6.422709,4.229979, MAX:1
Coverage: 10, Tot. Cov: 23.000000, 39/250, STDB: 90630000.000000, IPB: 12357324.000000, STDT: 440865570.000000, IPT: 107325205.000000, BOH/LOH: 7.334112,4.107754, MAX:1
Coverage: 10, Tot. Cov: 15.000000, 40/250, STDB: 27395000.000000, IPB: 5523260.000000, STDT: 219178426.000000, IPT: 62025247.000000, BOH/LOH: 4.959933,3.533697, MAX:1
Coverage: 10, Tot. Cov: 10.000000, 41/250, STDB: 22555000.000000, IPB: 2673772.000000, STDT: 106175457.000000, IPT: 37643211.000000, BOH/LOH: 8.435648,2.820574, MAX:1
Coverage: 10, Tot. Cov: 35.000000, 42/250, STDB: 95045000.000000, IPB: 8646840.000000, STDT: 496790829.000000, IPT: 342821545.000000, BOH/LOH: 10.991877,1.449124, MAX:1
Coverage: 10, Tot. Cov: 56.000000, 43/250, STDB: 84645000.000000, IPB: 17190816.000000, STDT: 1489652449.000000, IPT: 530841278.000000, BOH/LOH: 4.923850,2.806211, MAX:1
Coverage: 10, Tot. Cov: 53.000000, 44/250, STDB: 29125000.000000, IPB: 8334336.000000, STDT: 843260451.000000, IPT: 228376173.000000, BOH/LOH: 3.494580,3.692419, MAX:1
Coverage: 10, Tot. Cov: 29.000000, 45/250, STDB: 129845000.000000, IPB: 21331900.000000, STDT: 921006366.000000, IPT: 188224223.000000, BOH/LOH: 6.086893,4.893134, MAX:1
Coverage: 10, Tot. Cov: 58.000000, 46/250, STDB: 32190000.000000, IPB: 9814268.000000, STDT: 798775762.000000, IPT: 241581054.000000, BOH/LOH: 3.279919,3.306450, MAX:1
Coverage: 10, Tot. Cov: 28.000000, 47/250, STDB: 26725000.000000, IPB: 4704244.000000, STDT: 376325306.000000, IPT: 105494703.000000, BOH/LOH: 5.681040,3.567244, MAX:1
Coverage: 10, Tot. Cov: 12.000000, 48/250, STDB: 79995000.000000, IPB: 14864652.000000, STDT: 302555296.000000, IPT: 63983391.000000, BOH/LOH: 5.381559,4.728654, MAX:1
Coverage: 10, Tot. Cov: 79.000000, 49/250, STDB: 469980000.000000, IPB: 71487528.000000, STDT: 1884406976.000000, IPT: 765884983.000000, BOH/LOH: 6.574294,2.460431, MAX:1
Coverage: 10, Tot. Cov: 10.000000, 50/250, STDB: 217100000.000000, IPB: 31508844.000000, STDT: 262779769.000000, IPT: 63246798.000000, BOH/LOH: 6.890129,4.154831, MAX:1
Coverage: 10, Tot. Cov: 280.000000, 51/250, STDB: 366682500.000000, IPB: 123910828.000000, STDT: 9310286218.000000, IPT: 1346285589.000000, BOH/LOH: 2.959245,6.915536, MAX:1
Coverage: 10, Tot. Cov: 74.000000, 52/250, STDB: 266257500.000000, IPB: 76021400.000000, STDT: 2296145439.000000, IPT: 400840917.000000, BOH/LOH: 3.502402,5.728321, MAX:1
Coverage: 10, Tot. Cov: 13.000000, 53/250, STDB: 52102500.000000, IPB: 7642692.000000, STDT: 339559573.000000, IPT: 73653068.000000, BOH/LOH: 6.817297,4.610257, MAX:1
Coverage: 10, Tot. Cov: 17.000000, 54/250, STDB: 16300000.000000, IPB: 3136920.000000, STDT: 340101832.000000, IPT: 95154229.000000, BOH/LOH: 5.196180,3.574217, MAX:1
Coverage: 10, Tot. Cov: 115.000000, 55/250, STDB: 32550000.000000, IPB: 14163092.000000, STDT: 1841990696.000000, IPT: 545765591.000000, BOH/LOH: 2.298227,3.375058, MAX:1
Coverage: 10, Tot. Cov: 10.000000, 56/250, STDB: 146165000.000000, IPB: 19479104.000000, STDT: 318802965.000000, IPT: 76936557.000000, BOH/LOH: 7.503682,4.143712, MAX:1
Coverage: 10, Tot. Cov: 42.000000, 57/250, STDB: 12660000.000000, IPB: 2114488.000000, STDT: 652228807.000000, IPT: 272801495.000000, BOH/LOH: 5.987265,2.390855, MAX:1
Coverage: 10, Tot. Cov: 11.000000, 58/250, STDB: 194427500.000000, IPB: 36059624.000000, STDT: 211965045.000000, IPT: 48499380.000000, BOH/LOH: 5.391834,4.370469, MAX:1
Coverage: 10, Tot. Cov: 17.000000, 59/250, STDB: 7462500.000000, IPB: 1466192.000000, STDT: 221489856.000000, IPT: 91236152.000000, BOH/LOH: 5.089715,2.427655, MAX:1
Coverage: 10, Tot. Cov: 11.000000, 60/250, STDB: 39895000.000000, IPB: 6366420.000000, STDT: 224589241.000000, IPT: 44353560.000000, BOH/LOH: 6.266473,5.063613, MAX:1
Coverage: 10, Tot. Cov: 11.000000, 61/250, STDB: 84642500.000000, IPB: 13766492.000000, STDT: 285377858.000000, IPT: 55388872.000000, BOH/LOH: 6.148444,5.152260, MAX:1
Coverage: 10, Tot. Cov: 13.000000, 62/250, STDB: 3767500.000000, IPB: 653464.000000, STDT: 73383473.000000, IPT: 48516837.000000, BOH/LOH: 5.765429,1.512536, MAX:1
Coverage: 10, Tot. Cov: 385.000000, 63/250, STDB: 99315000.000000, IPB: 34664588.000000, STDT: 4725492794.000000, IPT: 1483581421.000000, BOH/LOH: 2.865028,3.185193, MAX:1
Coverage: 10, Tot. Cov: 26.000000, 64/250, STDB: 131070000.000000, IPB: 20959376.000000, STDT: 912115110.000000, IPT: 121226198.000000, BOH/LOH: 6.253526,7.524076, MAX:1
Coverage: 10, Tot. Cov: 49.000000, 65/250, STDB: 82945000.000000, IPB: 26730176.000000, STDT: 825616233.000000, IPT: 225842749.000000, BOH/LOH: 3.103047,3.655713, MAX:1
Coverage: 10, Tot. Cov: 30.000000, 66/250, STDB: 40675000.000000, IPB: 7560072.000000, STDT: 748831146.000000, IPT: 149753164.000000, BOH/LOH: 5.380240,5.000436, MAX:1
Coverage: 10, Tot. Cov: 107.000000, 67/250, STDB: 356827500.000000, IPB: 177134476.000000, STDT: 2930213641.000000, IPT: 471804338.000000, BOH/LOH: 2.014444,6.210654, MAX:1
Coverage: 10, Tot. Cov: 112.000000, 68/250, STDB: 65562500.000000, IPB: 18021012.000000, STDT: 1561377854.000000, IPT: 441369036.000000, BOH/LOH: 3.638114,3.537579, MAX:1
Coverage: 10, Tot. Cov: 20.000000, 69/250, STDB: 14947500.000000, IPB: 3303268.000000, STDT: 378292654.000000, IPT: 88642142.000000, BOH/LOH: 4.525064,4.267639, MAX:1
Coverage: 10, Tot. Cov: 12.000000, 70/250, STDB: 15442500.000000, IPB: 2696468.000000, STDT: 167220931.000000, IPT: 77180709.000000, BOH/LOH: 5.726936,2.166616, MAX:1
Coverage: 10, Tot. Cov: 56.000000, 71/250, STDB: 127855000.000000, IPB: 41599136.000000, STDT: 1174746437.000000, IPT: 237450043.000000, BOH/LOH: 3.073501,4.947341, MAX:1
Coverage: 10, Tot. Cov: 116.000000, 72/250, STDB: 70640000.000000, IPB: 21476716.000000, STDT: 1918816364.000000, IPT: 539663766.000000, BOH/LOH: 3.289143,3.555578, MAX:1
Coverage: 10, Tot. Cov: 12.000000, 73/250, STDB: 7985000.000000, IPB: 1136088.000000, STDT: 288040540.000000, IPT: 80007902.000000, BOH/LOH: 7.028505,3.600151, MAX:1
Coverage: 10, Tot. Cov: 34.000000, 74/250, STDB: 56510000.000000, IPB: 12120104.000000, STDT: 1219115375.000000, IPT: 177060617.000000, BOH/LOH: 4.662501,6.885299, MAX:1
Coverage: 10, Tot. Cov: 12.000000, 75/250, STDB: 9375000.000000, IPB: 1752272.000000, STDT: 125844314.000000, IPT: 49661097.000000, BOH/LOH: 5.350197,2.534062, MAX:1
Coverage: 10, Tot. Cov: 10.000000, 76/250, STDB: 85297500.000000, IPB: 13437516.000000, STDT: 231475431.000000, IPT: 45274684.000000, BOH/LOH: 6.347713,5.112690, MAX:1
Coverage: 10, Tot. Cov: 24.000000, 77/250, STDB: 128960000.000000, IPB: 20652840.000000, STDT: 929949078.000000, IPT: 115494429.000000, BOH/LOH: 6.244178,8.051896, MAX:1
Coverage: 10, Tot. Cov: 92.000000, 78/250, STDB: 289215000.000000, IPB: 100871480.000000, STDT: 4690680334.000000, IPT: 759741166.000000, BOH/LOH: 2.867163,6.174051, MAX:1
Coverage: 10, Tot. Cov: 108.000000, 79/250, STDB: 480420000.000000, IPB: 202035204.000000, STDT: 3662156282.000000, IPT: 615975654.000000, BOH/LOH: 2.377902,5.945294, MAX:1
Coverage: 10, Tot. Cov: 64.000000, 80/250, STDB: 7340000.000000, IPB: 2393572.000000, STDT: 694003195.000000, IPT: 134779076.000000, BOH/LOH: 3.066547,5.149191, MAX:1
Coverage: 10, Tot. Cov: 59.000000, 81/250, STDB: 16125000.000000, IPB: 3869776.000000, STDT: 413740857.000000, IPT: 165149055.000000, BOH/LOH: 4.166908,2.505257, MAX:1
Coverage: 10, Tot. Cov: 12.000000, 82/250, STDB: 7877500.000000, IPB: 1511640.000000, STDT: 76456314.000000, IPT: 41986670.000000, BOH/LOH: 5.211228,1.820966, MAX:1
Coverage: 10, Tot. Cov: 58.000000, 83/250, STDB: 141802500.000000, IPB: 29610044.000000, STDT: 1293124003.000000, IPT: 271023165.000000, BOH/LOH: 4.789000,4.771267, MAX:1
Coverage: 10, Tot. Cov: 44.000000, 84/250, STDB: 408955000.000000, IPB: 135141060.000000, STDT: 2326301762.000000, IPT: 293458178.000000, BOH/LOH: 3.026134,7.927200, MAX:1
Coverage: 10, Tot. Cov: 25.000000, 85/250, STDB: 284645000.000000, IPB: 50757288.000000, STDT: 757202132.000000, IPT: 130062041.000000, BOH/LOH: 5.607963,5.821853, MAX:1
Coverage: 10, Tot. Cov: 23.000000, 86/250, STDB: 139375000.000000, IPB: 21014356.000000, STDT: 613208057.000000, IPT: 110886874.000000, BOH/LOH: 6.632371,5.530033, MAX:1
Coverage: 10, Tot. Cov: 10.000000, 87/250, STDB: 29305000.000000, IPB: 5107840.000000, STDT: 70745119.000000, IPT: 36313952.000000, BOH/LOH: 5.737259,1.948153, MAX:1
Coverage: 10, Tot. Cov: 68.000000, 88/250, STDB: 12330000.000000, IPB: 4325296.000000, STDT: 658157859.000000, IPT: 250080504.000000, BOH/LOH: 2.850672,2.631784, MAX:1
Coverage: 10, Tot. Cov: 13.000000, 89/250, STDB: 66607500.000000, IPB: 4726808.000000, STDT: 273269925.000000, IPT: 119043374.000000, BOH/LOH: 14.091433,2.295549, MAX:1
Coverage: 10, Tot. Cov: 26.000000, 90/250, STDB: 23890000.000000, IPB: 3731452.000000, STDT: 553319119.000000, IPT: 127874385.000000, BOH/LOH: 6.402333,4.327052, MAX:1
Coverage: 10, Tot. Cov: 36.000000, 91/250, STDB: 35510000.000000, IPB: 8542740.000000, STDT: 465054596.000000, IPT: 131251519.000000, BOH/LOH: 4.156746,3.543232, MAX:1
Coverage: 10, Tot. Cov: 14.000000, 92/250, STDB: 129570000.000000, IPB: 17607508.000000, STDT: 374146520.000000, IPT: 129232753.000000, BOH/LOH: 7.358793,2.895137, MAX:1
Coverage: 10, Tot. Cov: 26.000000, 93/250, STDB: 62550000.000000, IPB: 10299012.000000, STDT: 474092162.000000, IPT: 107629043.000000, BOH/LOH: 6.073398,4.404872, MAX:1
Coverage: 10, Tot. Cov: 102.000000, 94/250, STDB: 96937500.000000, IPB: 33964108.000000, STDT: 2062765333.000000, IPT: 580023292.000000, BOH/LOH: 2.854116,3.556349, MAX:1
Coverage: 10, Tot. Cov: 33.000000, 95/250, STDB: 85145000.000000, IPB: 17119676.000000, STDT: 794353857.000000, IPT: 157723819.000000, BOH/LOH: 4.973517,5.036360, MAX:1
Coverage: 10, Tot. Cov: 28.000000, 96/250, STDB: 33605000.000000, IPB: 5247424.000000, STDT: 267468143.000000, IPT: 109497801.000000, BOH/LOH: 6.404095,2.442680, MAX:1
Coverage: 10, Tot. Cov: 50.000000, 97/250, STDB: 56945000.000000, IPB: 17728832.000000, STDT: 1321828487.000000, IPT: 244824824.000000, BOH/LOH: 3.212000,5.399079, MAX:1
Coverage: 10, Tot. Cov: 10.000000, 98/250, STDB: 20115000.000000, IPB: 1165668.000000, STDT: 103934363.000000, IPT: 54241537.000000, BOH/LOH: 17.256200,1.916140, MAX:1
Coverage: 10, Tot. Cov: 11.000000, 99/250, STDB: 39370000.000000, IPB: 4802632.000000, STDT: 397222822.000000, IPT: 102235255.000000, BOH/LOH: 8.197588,3.885380, MAX:1
Coverage: 10, Tot. Cov: 124.000000, 100/250, STDB: 312812500.000000, IPB: 93845180.000000, STDT: 4827208962.000000, IPT: 696855224.000000, BOH/LOH: 3.333283,6.927133, MAX:1
Coverage: 10, Tot. Cov: 11.000000, 101/250, STDB: 31002500.000000, IPB: 4498548.000000, STDT: 162954831.000000, IPT: 44781603.000000, BOH/LOH: 6.891668,3.638879, MAX:1
Coverage: 10, Tot. Cov: 134.000000, 102/250, STDB: 16012500.000000, IPB: 3669588.000000, STDT: 1000657437.000000, IPT: 427003559.000000, BOH/LOH: 4.363569,2.343441, MAX:1
Coverage: 10, Tot. Cov: 12.000000, 103/250, STDB: 53627500.000000, IPB: 9189228.000000, STDT: 264606100.000000, IPT: 57805906.000000, BOH/LOH: 5.835909,4.577492, MAX:1
Coverage: 10, Tot. Cov: 76.000000, 104/250, STDB: 345675000.000000, IPB: 105447636.000000, STDT: 2631170118.000000, IPT: 419936596.000000, BOH/LOH: 3.278167,6.265637, MAX:1
Coverage: 10, Tot. Cov: 15.000000, 105/250, STDB: 59325000.000000, IPB: 9573620.000000, STDT: 463879160.000000, IPT: 137531208.000000, BOH/LOH: 6.196716,3.372901, MAX:1
Coverage: 10, Tot. Cov: 37.000000, 106/250, STDB: 27535000.000000, IPB: 4778080.000000, STDT: 657936417.000000, IPT: 168923672.000000, BOH/LOH: 5.762775,3.894874, MAX:1
Coverage: 10, Tot. Cov: 11.000000, 107/250, STDB: 53262500.000000, IPB: 8279384.000000, STDT: 237338941.000000, IPT: 51686556.000000, BOH/LOH: 6.433148,4.591889, MAX:1
Coverage: 10, Tot. Cov: 36.000000, 108/250, STDB: 139695000.000000, IPB: 28270916.000000, STDT: 1435869041.000000, IPT: 340473928.000000, BOH/LOH: 4.941297,4.217266, MAX:1
Coverage: 10, Tot. Cov: 53.000000, 109/250, STDB: 177472500.000000, IPB: 43097660.000000, STDT: 1577423516.000000, IPT: 234693919.000000, BOH/LOH: 4.117915,6.721195, MAX:1
Coverage: 10, Tot. Cov: 12.000000, 110/250, STDB: 145170000.000000, IPB: 28288828.000000, STDT: 295861716.000000, IPT: 57916483.000000, BOH/LOH: 5.131708,5.108420, MAX:1
Coverage: 10, Tot. Cov: 13.000000, 111/250, STDB: 18477500.000000, IPB: 3001180.000000, STDT: 231568704.000000, IPT: 59193312.000000, BOH/LOH: 6.156745,3.912075, MAX:1
Coverage: 10, Tot. Cov: 12.000000, 112/250, STDB: 84212500.000000, IPB: 12702164.000000, STDT: 319017375.000000, IPT: 63523271.000000, BOH/LOH: 6.629776,5.022055, MAX:1
Coverage: 10, Tot. Cov: 60.000000, 113/250, STDB: 8185000.000000, IPB: 2377128.000000, STDT: 374503480.000000, IPT: 198178103.000000, BOH/LOH: 3.443231,1.889732, MAX:1
Coverage: 10, Tot. Cov: 108.000000, 114/250, STDB: 88920000.000000, IPB: 20563632.000000, STDT: 3335615113.000000, IPT: 862595927.000000, BOH/LOH: 4.324139,3.866950, MAX:1
Coverage: 10, Tot. Cov: 11.000000, 115/250, STDB: 8745000.000000, IPB: 1358768.000000, STDT: 105982426.000000, IPT: 51944620.000000, BOH/LOH: 6.435977,2.040296, MAX:1
Coverage: 10, Tot. Cov: 23.000000, 116/250, STDB: 78375000.000000, IPB: 11283512.000000, STDT: 582910469.000000, IPT: 93898168.000000, BOH/LOH: 6.945976,6.207900, MAX:1
Coverage: 10, Tot. Cov: 57.000000, 117/250, STDB: 76990000.000000, IPB: 11962716.000000, STDT: 872225099.000000, IPT: 252607865.000000, BOH/LOH: 6.435829,3.452882, MAX:1
Coverage: 10, Tot. Cov: 210.000000, 118/250, STDB: 18775000.000000, IPB: 6989836.000000, STDT: 1998120540.000000, IPT: 755076736.000000, BOH/LOH: 2.686043,2.646248, MAX:1
Coverage: 10, Tot. Cov: 55.000000, 119/250, STDB: 130035000.000000, IPB: 54369936.000000, STDT: 1508859305.000000, IPT: 268390037.000000, BOH/LOH: 2.391671,5.621890, MAX:1
Coverage: 10, Tot. Cov: 30.000000, 120/250, STDB: 49890000.000000, IPB: 8838656.000000, STDT: 1019921469.000000, IPT: 147716743.000000, BOH/LOH: 5.644523,6.904576, MAX:1
Coverage: 10, Tot. Cov: 71.000000, 121/250, STDB: 28835000.000000, IPB: 7207328.000000, STDT: 991373648.000000, IPT: 514250483.000000, BOH/LOH: 4.000789,1.927803, MAX:1
Coverage: 10, Tot. Cov: 108.000000, 122/250, STDB: 191467500.000000, IPB: 83107196.000000, STDT: 3431485538.000000, IPT: 485827612.000000, BOH/LOH: 2.303862,7.063175, MAX:1
Coverage: 10, Tot. Cov: 32.000000, 123/250, STDB: 11865000.000000, IPB: 2710068.000000, STDT: 208179955.000000, IPT: 103573225.000000, BOH/LOH: 4.378119,2.009978, MAX:1
Coverage: 10, Tot. Cov: 19.000000, 124/250, STDB: 35100000.000000, IPB: 6821872.000000, STDT: 561720297.000000, IPT: 147401622.000000, BOH/LOH: 5.145215,3.810815, MAX:1
Coverage: 10, Tot. Cov: 24.000000, 125/250, STDB: 67385000.000000, IPB: 9594820.000000, STDT: 367062962.000000, IPT: 90294259.000000, BOH/LOH: 7.023060,4.065186, MAX:1
Coverage: 10, Tot. Cov: 26.000000, 126/250, STDB: 39395000.000000, IPB: 6166980.000000, STDT: 401308604.000000, IPT: 101862171.000000, BOH/LOH: 6.388054,3.939722, MAX:1
Coverage: 10, Tot. Cov: 29.000000, 127/250, STDB: 81980000.000000, IPB: 13784684.000000, STDT: 1193538043.000000, IPT: 219712161.000000, BOH/LOH: 5.947180,5.432280, MAX:1
Coverage: 10, Tot. Cov: 26.000000, 128/250, STDB: 168705000.000000, IPB: 31363740.000000, STDT: 684654703.000000, IPT: 113653772.000000, BOH/LOH: 5.378982,6.024039, MAX:1
Coverage: 10, Tot. Cov: 13.000000, 129/250, STDB: 147822500.000000, IPB: 20601728.000000, STDT: 197451319.000000, IPT: 71286892.000000, BOH/LOH: 7.175248,2.769812, MAX:1
Coverage: 10, Tot. Cov: 55.000000, 130/250, STDB: 288365000.000000, IPB: 101153288.000000, STDT: 3250259229.000000, IPT: 417291737.000000, BOH/LOH: 2.850772,7.788937, MAX:1
Coverage: 10, Tot. Cov: 30.000000, 131/250, STDB: 194790000.000000, IPB: 32656168.000000, STDT: 488269786.000000, IPT: 146773027.000000, BOH/LOH: 5.964876,3.326700, MAX:1
Coverage: 10, Tot. Cov: 10.000000, 132/250, STDB: 11282500.000000, IPB: 1877480.000000, STDT: 183825672.000000, IPT: 70129223.000000, BOH/LOH: 6.009385,2.621242, MAX:1
Coverage: 10, Tot. Cov: 115.000000, 133/250, STDB: 38730000.000000, IPB: 14773276.000000, STDT: 1970524104.000000, IPT: 480733617.000000, BOH/LOH: 2.621626,4.098994, MAX:1
Coverage: 10, Tot. Cov: 10.000000, 134/250, STDB: 11077500.000000, IPB: 1491060.000000, STDT: 258610540.000000, IPT: 84893150.000000, BOH/LOH: 7.429278,3.046306, MAX:1
Coverage: 10, Tot. Cov: 11.000000, 135/250, STDB: 30072500.000000, IPB: 4735140.000000, STDT: 183661102.000000, IPT: 43023789.000000, BOH/LOH: 6.350921,4.268827, MAX:1
Coverage: 10, Tot. Cov: 83.000000, 136/250, STDB: 8272500.000000, IPB: 2484540.000000, STDT: 631943086.000000, IPT: 254819045.000000, BOH/LOH: 3.329590,2.479968, MAX:1
Coverage: 10, Tot. Cov: 12.000000, 137/250, STDB: 5282500.000000, IPB: 997384.000000, STDT: 101417447.000000, IPT: 40890299.000000, BOH/LOH: 5.296355,2.480232, MAX:1
Coverage: 10, Tot. Cov: 12.000000, 138/250, STDB: 62220000.000000, IPB: 11634532.000000, STDT: 167828749.000000, IPT: 45949489.000000, BOH/LOH: 5.347873,3.652462, MAX:1
Coverage: 10, Tot. Cov: 60.000000, 139/250, STDB: 29355000.000000, IPB: 9413712.000000, STDT: 1017125791.000000, IPT: 489656768.000000, BOH/LOH: 3.118324,2.077222, MAX:1
Coverage: 10, Tot. Cov: 11.000000, 140/250, STDB: 24542500.000000, IPB: 3019884.000000, STDT: 194382274.000000, IPT: 47304600.000000, BOH/LOH: 8.126968,4.109162, MAX:1
Coverage: 10, Tot. Cov: 25.000000, 141/250, STDB: 36330000.000000, IPB: 6195904.000000, STDT: 420115420.000000, IPT: 108302517.000000, BOH/LOH: 5.863551,3.879092, MAX:1
Coverage: 10, Tot. Cov: 10.000000, 142/250, STDB: 52225000.000000, IPB: 7062284.000000, STDT: 252067324.000000, IPT: 51212068.000000, BOH/LOH: 7.394916,4.922030, MAX:1
Coverage: 10, Tot. Cov: 10.000000, 143/250, STDB: 40990000.000000, IPB: 5258712.000000, STDT: 194995970.000000, IPT: 58222999.000000, BOH/LOH: 7.794684,3.349123, MAX:1
Coverage: 10, Tot. Cov: 39.000000, 144/250, STDB: 21790000.000000, IPB: 4843284.000000, STDT: 646962630.000000, IPT: 229498427.000000, BOH/LOH: 4.499013,2.819029, MAX:1
Coverage: 10, Tot. Cov: 68.000000, 145/250, STDB: 49530000.000000, IPB: 8976328.000000, STDT: 1034866174.000000, IPT: 237147418.000000, BOH/LOH: 5.517846,4.363810, MAX:1
Coverage: 10, Tot. Cov: 82.000000, 146/250, STDB: 235665000.000000, IPB: 72067664.000000, STDT: 2294266346.000000, IPT: 621362765.000000, BOH/LOH: 3.270052,3.692314, MAX:1
Coverage: 10, Tot. Cov: 56.000000, 147/250, STDB: 109715000.000000, IPB: 35842788.000000, STDT: 2223804606.000000, IPT: 315830697.000000, BOH/LOH: 3.061006,7.041129, MAX:1
Coverage: 10, Tot. Cov: 11.000000, 148/250, STDB: 10070000.000000, IPB: 1150684.000000, STDT: 203575496.000000, IPT: 64087525.000000, BOH/LOH: 8.751317,3.176523, MAX:1
Coverage: 10, Tot. Cov: 17.000000, 149/250, STDB: 2950000.000000, IPB: 591520.000000, STDT: 249325966.000000, IPT: 119753896.000000, BOH/LOH: 4.987152,2.081986, MAX:1
Coverage: 10, Tot. Cov: 49.000000, 150/250, STDB: 783405000.000000, IPB: 169599916.000000, STDT: 2550536471.000000, IPT: 392420227.000000, BOH/LOH: 4.619136,6.499503, MAX:1
Coverage: 10, Tot. Cov: 84.000000, 151/250, STDB: 89475000.000000, IPB: 26635540.000000, STDT: 1203460463.000000, IPT: 374408084.000000, BOH/LOH: 3.359234,3.214301, MAX:1
Coverage: 10, Tot. Cov: 47.000000, 152/250, STDB: 149355000.000000, IPB: 30568036.000000, STDT: 970776563.000000, IPT: 190639152.000000, BOH/LOH: 4.885986,5.092220, MAX:1
Coverage: 10, Tot. Cov: 11.000000, 153/250, STDB: 8777500.000000, IPB: 1228464.000000, STDT: 241571956.000000, IPT: 93421815.000000, BOH/LOH: 7.145102,2.585820, MAX:1
Coverage: 10, Tot. Cov: 91.000000, 154/250, STDB: 64740000.000000, IPB: 21345252.000000, STDT: 2616222655.000000, IPT: 485864790.000000, BOH/LOH: 3.032993,5.384672, MAX:1
Coverage: 10, Tot. Cov: 11.000000, 155/250, STDB: 88082500.000000, IPB: 13083944.000000, STDT: 503707131.000000, IPT: 101686101.000000, BOH/LOH: 6.732106,4.953549, MAX:1
Coverage: 10, Tot. Cov: 63.000000, 156/250, STDB: 929480000.000000, IPB: 421142104.000000, STDT: 2864316365.000000, IPT: 437889668.000000, BOH/LOH: 2.207046,6.541183, MAX:1
Coverage: 10, Tot. Cov: 13.000000, 157/250, STDB: 67865000.000000, IPB: 11454068.000000, STDT: 268589612.000000, IPT: 71744940.000000, BOH/LOH: 5.924969,3.743673, MAX:1
Coverage: 10, Tot. Cov: 14.000000, 158/250, STDB: 7840000.000000, IPB: 1501764.000000, STDT: 258586074.000000, IPT: 102826421.000000, BOH/LOH: 5.220527,2.514782, MAX:1
Coverage: 10, Tot. Cov: 59.000000, 159/250, STDB: 45900000.000000, IPB: 11464632.000000, STDT: 908385107.000000, IPT: 216122932.000000, BOH/LOH: 4.003617,4.203095, MAX:1
Coverage: 10, Tot. Cov: 60.000000, 160/250, STDB: 98430000.000000, IPB: 37753188.000000, STDT: 1847902426.000000, IPT: 263120094.000000, BOH/LOH: 2.607197,7.023038, MAX:1
Coverage: 10, Tot. Cov: 10.000000, 161/250, STDB: 20607500.000000, IPB: 2789268.000000, STDT: 159516500.000000, IPT: 42068371.000000, BOH/LOH: 7.388139,3.791839, MAX:1
Coverage: 10, Tot. Cov: 14.000000, 162/250, STDB: 13717500.000000, IPB: 2281648.000000, STDT: 248231566.000000, IPT: 57346979.000000, BOH/LOH: 6.012102,4.328590, MAX:1
Coverage: 10, Tot. Cov: 21.000000, 163/250, STDB: 110265000.000000, IPB: 16608936.000000, STDT: 532778175.000000, IPT: 87214537.000000, BOH/LOH: 6.638896,6.108823, MAX:1
Coverage: 10, Tot. Cov: 11.000000, 164/250, STDB: 40265000.000000, IPB: 5488468.000000, STDT: 272512871.000000, IPT: 63580123.000000, BOH/LOH: 7.336291,4.286133, MAX:1
Coverage: 10, Tot. Cov: 22.000000, 165/250, STDB: 188640000.000000, IPB: 29080544.000000, STDT: 701377648.000000, IPT: 107071296.000000, BOH/LOH: 6.486811,6.550567, MAX:1
Coverage: 10, Tot. Cov: 29.000000, 166/250, STDB: 117680000.000000, IPB: 15443668.000000, STDT: 608898956.000000, IPT: 200404958.000000, BOH/LOH: 7.619951,3.038343, MAX:1
Coverage: 10, Tot. Cov: 53.000000, 167/250, STDB: 44520000.000000, IPB: 9753168.000000, STDT: 715785004.000000, IPT: 415511021.000000, BOH/LOH: 4.564671,1.722662, MAX:1
Coverage: 10, Tot. Cov: 13.000000, 168/250, STDB: 81280000.000000, IPB: 12344992.000000, STDT: 430912695.000000, IPT: 91093298.000000, BOH/LOH: 6.584046,4.730454, MAX:1
Coverage: 10, Tot. Cov: 27.000000, 169/250, STDB: 158210000.000000, IPB: 30229304.000000, STDT: 699156248.000000, IPT: 121296158.000000, BOH/LOH: 5.233663,5.764043, MAX:1
Coverage: 10, Tot. Cov: 186.000000, 170/250, STDB: 319215000.000000, IPB: 107711720.000000, STDT: 4652074369.000000, IPT: 912544525.000000, BOH/LOH: 2.963605,5.097915, MAX:1
Coverage: 10, Tot. Cov: 110.000000, 171/250, STDB: 35480000.000000, IPB: 11623140.000000, STDT: 1687773007.000000, IPT: 512625998.000000, BOH/LOH: 3.052531,3.292406, MAX:1
Coverage: 10, Tot. Cov: 10.000000, 172/250, STDB: 96090000.000000, IPB: 12215076.000000, STDT: 320942306.000000, IPT: 76223018.000000, BOH/LOH: 7.866509,4.210569, MAX:1
Coverage: 10, Tot. Cov: 107.000000, 173/250, STDB: 738280000.000000, IPB: 249555752.000000, STDT: 6211570652.000000, IPT: 913772591.000000, BOH/LOH: 2.958377,6.797720, MAX:1
Coverage: 10, Tot. Cov: 10.000000, 174/250, STDB: 17902500.000000, IPB: 1976172.000000, STDT: 186279278.000000, IPT: 44810046.000000, BOH/LOH: 9.059181,4.157087, MAX:1
Coverage: 10, Tot. Cov: 20.000000, 175/250, STDB: 4717500.000000, IPB: 676476.000000, STDT: 304565333.000000, IPT: 175556726.000000, BOH/LOH: 6.973640,1.734854, MAX:1
Coverage: 10, Tot. Cov: 27.000000, 176/250, STDB: 20545000.000000, IPB: 3883272.000000, STDT: 308475160.000000, IPT: 97015775.000000, BOH/LOH: 5.290642,3.179639, MAX:1
Coverage: 10, Tot. Cov: 33.000000, 177/250, STDB: 42205000.000000, IPB: 7426268.000000, STDT: 605718775.000000, IPT: 140935063.000000, BOH/LOH: 5.683205,4.297857, MAX:1
Coverage: 10, Tot. Cov: 40.000000, 178/250, STDB: 2237500.000000, IPB: 1460484.000000, STDT: 174911644.000000, IPT: 128580562.000000, BOH/LOH: 1.532026,1.360327, MAX:1
Coverage: 10, Tot. Cov: 26.000000, 179/250, STDB: 4155000.000000, IPB: 1829472.000000, STDT: 125701420.000000, IPT: 79200991.000000, BOH/LOH: 2.271147,1.587119, MAX:1
Coverage: 10, Tot. Cov: 50.000000, 180/250, STDB: 104110000.000000, IPB: 34601908.000000, STDT: 1213319883.000000, IPT: 206360368.000000, BOH/LOH: 3.008794,5.879617, MAX:1
Coverage: 10, Tot. Cov: 15.000000, 181/250, STDB: 19085000.000000, IPB: 3326824.000000, STDT: 229373197.000000, IPT: 53153636.000000, BOH/LOH: 5.736703,4.315287, MAX:1
Coverage: 10, Tot. Cov: 14.000000, 182/250, STDB: 18130000.000000, IPB: 3475268.000000, STDT: 154236805.000000, IPT: 53291759.000000, BOH/LOH: 5.216864,2.894196, MAX:1
Coverage: 10, Tot. Cov: 10.000000, 183/250, STDB: 45195000.000000, IPB: 5985996.000000, STDT: 244011857.000000, IPT: 48043740.000000, BOH/LOH: 7.550122,5.078952, MAX:1
Coverage: 10, Tot. Cov: 107.000000, 184/250, STDB: 67387500.000000, IPB: 23312508.000000, STDT: 1051909149.000000, IPT: 418269669.000000, BOH/LOH: 2.890616,2.514907, MAX:1
Coverage: 10, Tot. Cov: 10.000000, 185/250, STDB: 60070000.000000, IPB: 8818468.000000, STDT: 204189359.000000, IPT: 45010147.000000, BOH/LOH: 6.811841,4.536518, MAX:1
Coverage: 10, Tot. Cov: 31.000000, 186/250, STDB: 64895000.000000, IPB: 12719576.000000, STDT: 811883872.000000, IPT: 184424917.000000, BOH/LOH: 5.101978,4.402246, MAX:1
Coverage: 10, Tot. Cov: 42.000000, 187/250, STDB: 59550000.000000, IPB: 13576484.000000, STDT: 765759073.000000, IPT: 200535974.000000, BOH/LOH: 4.386261,3.818562, MAX:1
Coverage: 10, Tot. Cov: 13.000000, 188/250, STDB: 4282500.000000, IPB: 617548.000000, STDT: 161524723.000000, IPT: 56050995.000000, BOH/LOH: 6.934684,2.881746, MAX:1
Coverage: 10, Tot. Cov: 10.000000, 189/250, STDB: 910000.000000, IPB: 136424.000000, STDT: 33652481.000000, IPT: 28694003.000000, BOH/LOH: 6.670381,1.172805, MAX:1
Coverage: 10, Tot. Cov: 12.000000, 190/250, STDB: 62052500.000000, IPB: 10985324.000000, STDT: 297306263.000000, IPT: 65271520.000000, BOH/LOH: 5.648673,4.554916, MAX:1
Coverage: 10, Tot. Cov: 107.000000, 191/250, STDB: 4777500.000000, IPB: 1772336.000000, STDT: 1098603214.000000, IPT: 377230492.000000, BOH/LOH: 2.695595,2.912286, MAX:1
Coverage: 10, Tot. Cov: 12.000000, 192/250, STDB: 14812500.000000, IPB: 2970096.000000, STDT: 144243376.000000, IPT: 46377542.000000, BOH/LOH: 4.987213,3.110199, MAX:1
Coverage: 10, Tot. Cov: 33.000000, 193/250, STDB: 41160000.000000, IPB: 7520116.000000, STDT: 699096594.000000, IPT: 143519328.000000, BOH/LOH: 5.473320,4.871097, MAX:1
Coverage: 10, Tot. Cov: 128.000000, 194/250, STDB: 504960000.000000, IPB: 175022872.000000, STDT: 8466121400.000000, IPT: 900245790.000000, BOH/LOH: 2.885109,9.404233, MAX:1
Coverage: 10, Tot. Cov: 153.000000, 195/250, STDB: 153770000.000000, IPB: 53104740.000000, STDT: 3155844685.000000, IPT: 630006452.000000, BOH/LOH: 2.895598,5.009226, MAX:1
Coverage: 10, Tot. Cov: 11.000000, 196/250, STDB: 3382500.000000, IPB: 472268.000000, STDT: 109229352.000000, IPT: 45773703.000000, BOH/LOH: 7.162247,2.386290, MAX:1
Coverage: 10, Tot. Cov: 135.000000, 197/250, STDB: 523620000.000000, IPB: 202356376.000000, STDT: 2699116079.000000, IPT: 682485323.000000, BOH/LOH: 2.587613,3.954834, MAX:1
Coverage: 10, Tot. Cov: 32.000000, 198/250, STDB: 22615000.000000, IPB: 4515576.000000, STDT: 399914920.000000, IPT: 123400373.000000, BOH/LOH: 5.008220,3.240792, MAX:1
Coverage: 10, Tot. Cov: 12.000000, 199/250, STDB: 37780000.000000, IPB: 5251196.000000, STDT: 263033430.000000, IPT: 68612713.000000, BOH/LOH: 7.194551,3.833596, MAX:1
Coverage: 10, Tot. Cov: 110.000000, 200/250, STDB: 188782500.000000, IPB: 77850484.000000, STDT: 3159501248.000000, IPT: 822087638.000000, BOH/LOH: 2.424937,3.843266, MAX:1
Coverage: 10, Tot. Cov: 72.000000, 201/250, STDB: 233317500.000000, IPB: 50102124.000000, STDT: 2249509963.000000, IPT: 619822416.000000, BOH/LOH: 4.656839,3.629281, MAX:1
Coverage: 10, Tot. Cov: 21.000000, 202/250, STDB: 382520000.000000, IPB: 52653136.000000, STDT: 1000411173.000000, IPT: 167398104.000000, BOH/LOH: 7.264904,5.976240, MAX:1
Coverage: 10, Tot. Cov: 16.000000, 203/250, STDB: 16280000.000000, IPB: 4269616.000000, STDT: 162309485.000000, IPT: 59577575.000000, BOH/LOH: 3.812989,2.724339, MAX:1
Coverage: 10, Tot. Cov: 31.000000, 204/250, STDB: 483110000.000000, IPB: 99686104.000000, STDT: 1877887244.000000, IPT: 224805455.000000, BOH/LOH: 4.846312,8.353388, MAX:1
Coverage: 10, Tot. Cov: 41.000000, 205/250, STDB: 36015000.000000, IPB: 9477500.000000, STDT: 527642586.000000, IPT: 149759943.000000, BOH/LOH: 3.800053,3.523256, MAX:1
Coverage: 10, Tot. Cov: 113.000000, 206/250, STDB: 126320000.000000, IPB: 42053188.000000, STDT: 2200583572.000000, IPT: 508611139.000000, BOH/LOH: 3.003815,4.326652, MAX:1
Coverage: 10, Tot. Cov: 10.000000, 207/250, STDB: 26910000.000000, IPB: 3200928.000000, STDT: 141086578.000000, IPT: 41757313.000000, BOH/LOH: 8.406937,3.378727, MAX:1
Coverage: 10, Tot. Cov: 13.000000, 208/250, STDB: 98592500.000000, IPB: 18241196.000000, STDT: 274051252.000000, IPT: 71668474.000000, BOH/LOH: 5.404936,3.823875, MAX:1
Coverage: 10, Tot. Cov: 38.000000, 209/250, STDB: 53300000.000000, IPB: 12079196.000000, STDT: 644722565.000000, IPT: 153650148.000000, BOH/LOH: 4.412545,4.196043, MAX:1
Coverage: 10, Tot. Cov: 11.000000, 210/250, STDB: 4842500.000000, IPB: 918920.000000, STDT: 59381179.000000, IPT: 33980464.000000, BOH/LOH: 5.269773,1.747509, MAX:1
Coverage: 10, Tot. Cov: 41.000000, 211/250, STDB: 8960000.000000, IPB: 2029388.000000, STDT: 334458259.000000, IPT: 144496002.000000, BOH/LOH: 4.415124,2.314654, MAX:1
Coverage: 10, Tot. Cov: 60.000000, 212/250, STDB: 152020000.000000, IPB: 2842972.000000, STDT: 723663644.000000, IPT: 109444341.000000, BOH/LOH: 53.472211,6.612161, MAX:1
Coverage: 10, Tot. Cov: 11.000000, 213/250, STDB: 288625000.000000, IPB: 49793536.000000, STDT: 341524550.000000, IPT: 65927419.000000, BOH/LOH: 5.796435,5.180311, MAX:1
Coverage: 10, Tot. Cov: 82.000000, 214/250, STDB: 92820000.000000, IPB: 27209156.000000, STDT: 2253712851.000000, IPT: 682540325.000000, BOH/LOH: 3.411352,3.301948, MAX:1
Coverage: 10, Tot. Cov: 10.000000, 215/250, STDB: 56052500.000000, IPB: 8047704.000000, STDT: 197342574.000000, IPT: 46943934.000000, BOH/LOH: 6.965030,4.203793, MAX:1
Coverage: 10, Tot. Cov: 71.000000, 216/250, STDB: 135840000.000000, IPB: 34368084.000000, STDT: 1834446425.000000, IPT: 369173468.000000, BOH/LOH: 3.952504,4.969064, MAX:1
Coverage: 10, Tot. Cov: 61.000000, 217/250, STDB: 180360000.000000, IPB: 49608464.000000, STDT: 1622309354.000000, IPT: 244328601.000000, BOH/LOH: 3.635670,6.639867, MAX:1
Coverage: 10, Tot. Cov: 41.000000, 218/250, STDB: 2715000.000000, IPB: 864060.000000, STDT: 232272845.000000, IPT: 123347872.000000, BOH/LOH: 3.142143,1.883071, MAX:1
Coverage: 10, Tot. Cov: 10.000000, 219/250, STDB: 200865000.000000, IPB: 27323528.000000, STDT: 293010543.000000, IPT: 61458489.000000, BOH/LOH: 7.351357,4.767617, MAX:1
Coverage: 10, Tot. Cov: 95.000000, 220/250, STDB: 173730000.000000, IPB: 48572488.000000, STDT: 3004881308.000000, IPT: 447453427.000000, BOH/LOH: 3.576716,6.715517, MAX:1
Coverage: 10, Tot. Cov: 75.000000, 221/250, STDB: 46807500.000000, IPB: 12616308.000000, STDT: 1133741856.000000, IPT: 293536535.000000, BOH/LOH: 3.710079,3.862353, MAX:1
Coverage: 10, Tot. Cov: 29.000000, 222/250, STDB: 42210000.000000, IPB: 7401892.000000, STDT: 422475237.000000, IPT: 156895076.000000, BOH/LOH: 5.702596,2.692725, MAX:1
Coverage: 10, Tot. Cov: 17.000000, 223/250, STDB: 19940000.000000, IPB: 1643432.000000, STDT: 281832576.000000, IPT: 150098048.000000, BOH/LOH: 12.133146,1.877657, MAX:1
Coverage: 10, Tot. Cov: 13.000000, 224/250, STDB: 77397500.000000, IPB: 11477696.000000, STDT: 178964985.000000, IPT: 75369740.000000, BOH/LOH: 6.743296,2.374494, MAX:1
Coverage: 10, Tot. Cov: 10.000000, 225/250, STDB: 5912500.000000, IPB: 215108.000000, STDT: 60223271.000000, IPT: 31417427.000000, BOH/LOH: 27.486193,1.916875, MAX:1
Coverage: 10, Tot. Cov: 13.000000, 226/250, STDB: 35427500.000000, IPB: 6647928.000000, STDT: 227658704.000000, IPT: 56019246.000000, BOH/LOH: 5.329104,4.063937, MAX:1
Coverage: 10, Tot. Cov: 62.000000, 227/250, STDB: 146280000.000000, IPB: 35638152.000000, STDT: 2123566180.000000, IPT: 325473436.000000, BOH/LOH: 4.104590,6.524545, MAX:1
Coverage: 10, Tot. Cov: 12.000000, 228/250, STDB: 39682500.000000, IPB: 6684080.000000, STDT: 287175646.000000, IPT: 68665104.000000, BOH/LOH: 5.936868,4.182265, MAX:1
Coverage: 10, Tot. Cov: 15.000000, 229/250, STDB: 20705000.000000, IPB: 4365092.000000, STDT: 184713020.000000, IPT: 55282980.000000, BOH/LOH: 4.743314,3.341228, MAX:1
Coverage: 10, Tot. Cov: 23.000000, 230/250, STDB: 21280000.000000, IPB: 3380576.000000, STDT: 311525385.000000, IPT: 75920275.000000, BOH/LOH: 6.294785,4.103323, MAX:1
Coverage: 10, Tot. Cov: 25.000000, 231/250, STDB: 2657500.000000, IPB: 816368.000000, STDT: 224479846.000000, IPT: 76695930.000000, BOH/LOH: 3.255272,2.926881, MAX:1
Coverage: 10, Tot. Cov: 25.000000, 232/250, STDB: 11722500.000000, IPB: 2740296.000000, STDT: 749294726.000000, IPT: 225524528.000000, BOH/LOH: 4.277823,3.322453, MAX:1
Coverage: 10, Tot. Cov: 18.000000, 233/250, STDB: 21390000.000000, IPB: 5442660.000000, STDT: 220932999.000000, IPT: 71606719.000000, BOH/LOH: 3.930064,3.085367, MAX:1
Coverage: 10, Tot. Cov: 12.000000, 234/250, STDB: 32982500.000000, IPB: 761064.000000, STDT: 18021872.000000, IPT: 15263822.000000, BOH/LOH: 43.337354,1.180692, MAX:1
Coverage: 10, Tot. Cov: 10.000000, 235/250, STDB: 61272500.000000, IPB: 6775040.000000, STDT: 213125565.000000, IPT: 97632795.000000, BOH/LOH: 9.043858,2.182930, MAX:1
Coverage: 10, Tot. Cov: 82.000000, 236/250, STDB: 50580000.000000, IPB: 11779696.000000, STDT: 1410056006.000000, IPT: 311147066.000000, BOH/LOH: 4.293829,4.531799, MAX:1
Coverage: 10, Tot. Cov: 27.000000, 237/250, STDB: 61410000.000000, IPB: 10320216.000000, STDT: 638709377.000000, IPT: 146387356.000000, BOH/LOH: 5.950457,4.363146, MAX:1
Coverage: 10, Tot. Cov: 55.000000, 238/250, STDB: 93070000.000000, IPB: 29018352.000000, STDT: 1012570064.000000, IPT: 481217186.000000, BOH/LOH: 3.207281,2.104185, MAX:1
Coverage: 10, Tot. Cov: 10.000000, 239/250, STDB: 91070000.000000, IPB: 13403604.000000, STDT: 240659197.000000, IPT: 55640308.000000, BOH/LOH: 6.794441,4.325267, MAX:1
Coverage: 10, Tot. Cov: 11.000000, 240/250, STDB: 34762500.000000, IPB: 5512260.000000, STDT: 296434293.000000, IPT: 90534403.000000, BOH/LOH: 6.306397,3.274272, MAX:1
Coverage: 10, Tot. Cov: 52.000000, 241/250, STDB: 221580000.000000, IPB: 48171524.000000, STDT: 1974615072.000000, IPT: 265006480.000000, BOH/LOH: 4.599813,7.451195, MAX:1
Coverage: 10, Tot. Cov: 12.000000, 242/250, STDB: 95157500.000000, IPB: 14500620.000000, STDT: 376949012.000000, IPT: 75484644.000000, BOH/LOH: 6.562306,4.993718, MAX:1
Coverage: 10, Tot. Cov: 35.000000, 243/250, STDB: 227265000.000000, IPB: 25273528.000000, STDT: 739826889.000000, IPT: 300632612.000000, BOH/LOH: 8.992215,2.460900, MAX:1
Coverage: 10, Tot. Cov: 11.000000, 244/250, STDB: 16952500.000000, IPB: 2662308.000000, STDT: 156518640.000000, IPT: 52784142.000000, BOH/LOH: 6.367595,2.965259, MAX:1
Coverage: 10, Tot. Cov: 10.000000, 245/250, STDB: 12952500.000000, IPB: 2333260.000000, STDT: 58203875.000000, IPT: 30589511.000000, BOH/LOH: 5.551246,1.902740, MAX:1
Coverage: 10, Tot. Cov: 28.000000, 246/250, STDB: 45835000.000000, IPB: 8095096.000000, STDT: 414843814.000000, IPT: 120994084.000000, BOH/LOH: 5.662070,3.428629, MAX:1
Coverage: 10, Tot. Cov: 157.000000, 247/250, STDB: 29870000.000000, IPB: 9422448.000000, STDT: 1560781659.000000, IPT: 587973555.000000, BOH/LOH: 3.170089,2.654510, MAX:1
Coverage: 10, Tot. Cov: 12.000000, 248/250, STDB: 36350000.000000, IPB: 2944924.000000, STDT: 211207293.000000, IPT: 118682145.000000, BOH/LOH: 12.343273,1.779605, MAX:1
Coverage: 10, Tot. Cov: 36.000000, 249/250, STDB: 87090000.000000, IPB: 17993604.000000, STDT: 1119164672.000000, IPT: 213966768.000000, BOH/LOH: 4.840053,5.230554, MAX:1
