Coverage: 15, Tot. Cov: 422.000000, 1/172, STDB: 35375000.000000, IPB: 12383320.000000, STDT: 3027326698.000000, IPT: 1329184483.000000, BOH/LOH: 2.856665,2.277582, MAX:1
Coverage: 15, Tot. Cov: 417.000000, 2/172, STDB: 1056397500.000000, IPB: 21731208.000000, STDT: 11667985807.000000, IPT: 1921122746.000000, BOH/LOH: 48.612001,6.073524, MAX:1
Coverage: 15, Tot. Cov: 252.000000, 3/172, STDB: 38490000.000000, IPB: 10929560.000000, STDT: 2467063589.000000, IPT: 999093474.000000, BOH/LOH: 3.521642,2.469302, MAX:1
Coverage: 15, Tot. Cov: 153.000000, 4/172, STDB: 25220000.000000, IPB: 8023752.000000, STDT: 1757944358.000000, IPT: 653476182.000000, BOH/LOH: 3.143168,2.690143, MAX:1
Coverage: 15, Tot. Cov: 38.000000, 5/172, STDB: 9225000.000000, IPB: 2208556.000000, STDT: 523901344.000000, IPT: 141168888.000000, BOH/LOH: 4.176937,3.711167, MAX:1
Coverage: 15, Tot. Cov: 70.000000, 6/172, STDB: 8845000.000000, IPB: 3201956.000000, STDT: 1319039915.000000, IPT: 283029128.000000, BOH/LOH: 2.762374,4.660439, MAX:1
Coverage: 15, Tot. Cov: 107.000000, 7/172, STDB: 14850000.000000, IPB: 5193268.000000, STDT: 1104737162.000000, IPT: 373546610.000000, BOH/LOH: 2.859471,2.957428, MAX:1
Coverage: 15, Tot. Cov: 163.000000, 8/172, STDB: 10590000.000000, IPB: 5162776.000000, STDT: 1143362996.000000, IPT: 514329099.000000, BOH/LOH: 2.051222,2.223018, MAX:1
Coverage: 15, Tot. Cov: 51.000000, 9/172, STDB: 7275000.000000, IPB: 2042476.000000, STDT: 849980822.000000, IPT: 230477740.000000, BOH/LOH: 3.561853,3.687909, MAX:1
Coverage: 15, Tot. Cov: 154.000000, 10/172, STDB: 27980000.000000, IPB: 9671472.000000, STDT: 1299166784.000000, IPT: 493983193.000000, BOH/LOH: 2.893045,2.629982, MAX:1
Coverage: 15, Tot. Cov: 122.000000, 11/172, STDB: 44857500.000000, IPB: 10588192.000000, STDT: 1122637180.000000, IPT: 553110478.000000, BOH/LOH: 4.236559,2.029680, MAX:1
Coverage: 15, Tot. Cov: 149.000000, 12/172, STDB: 33350000.000000, IPB: 11088764.000000, STDT: 2134992276.000000, IPT: 559797178.000000, BOH/LOH: 3.007549,3.813868, MAX:1
Coverage: 15, Tot. Cov: 91.000000, 13/172, STDB: 50002500.000000, IPB: 12249936.000000, STDT: 1546365223.000000, IPT: 671619268.000000, BOH/LOH: 4.081858,2.302443, MAX:1
Coverage: 15, Tot. Cov: 63.000000, 14/172, STDB: 20455000.000000, IPB: 6185028.000000, STDT: 1307831818.000000, IPT: 380597518.000000, BOH/LOH: 3.307180,3.436259, MAX:1
Coverage: 15, Tot. Cov: 37.000000, 15/172, STDB: 27535000.000000, IPB: 4778080.000000, STDT: 657936417.000000, IPT: 168923672.000000, BOH/LOH: 5.762775,3.894874, MAX:1
Coverage: 15, Tot. Cov: 54.000000, 16/172, STDB: 28822500.000000, IPB: 3467860.000000, STDT: 1097099911.000000, IPT: 423379654.000000, BOH/LOH: 8.311322,2.591291, MAX:1
Coverage: 15, Tot. Cov: 96.000000, 17/172, STDB: 76440000.000000, IPB: 29538984.000000, STDT: 2264303655.000000, IPT: 506605812.000000, BOH/LOH: 2.587767,4.469557, MAX:1
Coverage: 15, Tot. Cov: 40.000000, 18/172, STDB: 45245000.000000, IPB: 10456984.000000, STDT: 1130544863.000000, IPT: 233793447.000000, BOH/LOH: 4.326773,4.835657, MAX:1
Coverage: 15, Tot. Cov: 89.000000, 19/172, STDB: 112710000.000000, IPB: 38252416.000000, STDT: 3229276874.000000, IPT: 595802143.000000, BOH/LOH: 2.946481,5.420049, MAX:1
Coverage: 15, Tot. Cov: 69.000000, 20/172, STDB: 58390000.000000, IPB: 22380524.000000, STDT: 2523914341.000000, IPT: 586591195.000000, BOH/LOH: 2.608965,4.302680, MAX:1
Coverage: 15, Tot. Cov: 35.000000, 21/172, STDB: 67760000.000000, IPB: 13552328.000000, STDT: 1183091624.000000, IPT: 242730382.000000, BOH/LOH: 4.999879,4.874098, MAX:1
Coverage: 15, Tot. Cov: 259.000000, 22/172, STDB: 67065000.000000, IPB: 22550412.000000, STDT: 2989960047.000000, IPT: 898721863.000000, BOH/LOH: 2.974003,3.326903, MAX:1
Coverage: 15, Tot. Cov: 157.000000, 23/172, STDB: 44570000.000000, IPB: 19981832.000000, STDT: 2954909517.000000, IPT: 731061451.000000, BOH/LOH: 2.230526,4.041944, MAX:1
Coverage: 15, Tot. Cov: 115.000000, 24/172, STDB: 38730000.000000, IPB: 14773276.000000, STDT: 1970524104.000000, IPT: 480733617.000000, BOH/LOH: 2.621626,4.098994, MAX:1
Coverage: 15, Tot. Cov: 63.000000, 25/172, STDB: 11490000.000000, IPB: 3935604.000000, STDT: 607737880.000000, IPT: 225307305.000000, BOH/LOH: 2.919501,2.697373, MAX:1
Coverage: 15, Tot. Cov: 108.000000, 26/172, STDB: 30570000.000000, IPB: 9933576.000000, STDT: 855149615.000000, IPT: 416662865.000000, BOH/LOH: 3.077442,2.052378, MAX:1
Coverage: 15, Tot. Cov: 96.000000, 27/172, STDB: 29812500.000000, IPB: 10584768.000000, STDT: 1823925012.000000, IPT: 366991498.000000, BOH/LOH: 2.816547,4.969938, MAX:1
Coverage: 15, Tot. Cov: 70.000000, 28/172, STDB: 26805000.000000, IPB: 8686124.000000, STDT: 995094732.000000, IPT: 301891825.000000, BOH/LOH: 3.085956,3.296196, MAX:1
Coverage: 15, Tot. Cov: 161.000000, 29/172, STDB: 70490000.000000, IPB: 27844364.000000, STDT: 2891994846.000000, IPT: 664651018.000000, BOH/LOH: 2.531572,4.351148, MAX:1
Coverage: 15, Tot. Cov: 134.000000, 30/172, STDB: 76150000.000000, IPB: 24156404.000000, STDT: 2259606332.000000, IPT: 555113402.000000, BOH/LOH: 3.152373,4.070531, MAX:1
Coverage: 15, Tot. Cov: 70.000000, 31/172, STDB: 51430000.000000, IPB: 14775408.000000, STDT: 1165445991.000000, IPT: 386905120.000000, BOH/LOH: 3.480784,3.012227, MAX:1
Coverage: 15, Tot. Cov: 44.000000, 32/172, STDB: 17985000.000000, IPB: 5072000.000000, STDT: 549667332.000000, IPT: 152003249.000000, BOH/LOH: 3.545938,3.616155, MAX:1
Coverage: 15, Tot. Cov: 64.000000, 33/172, STDB: 30075000.000000, IPB: 10177152.000000, STDT: 1163532466.000000, IPT: 273463757.000000, BOH/LOH: 2.955149,4.254796, MAX:1
Coverage: 15, Tot. Cov: 76.000000, 34/172, STDB: 32995000.000000, IPB: 10392632.000000, STDT: 1548140747.000000, IPT: 587058122.000000, BOH/LOH: 3.174845,2.637117, MAX:1
Coverage: 15, Tot. Cov: 159.000000, 35/172, STDB: 64860000.000000, IPB: 21316596.000000, STDT: 2157047667.000000, IPT: 868336409.000000, BOH/LOH: 3.042700,2.484115, MAX:1
Coverage: 15, Tot. Cov: 82.000000, 36/172, STDB: 69840000.000000, IPB: 14711728.000000, STDT: 1978288096.000000, IPT: 712958664.000000, BOH/LOH: 4.747233,2.774758, MAX:1
Coverage: 15, Tot. Cov: 52.000000, 37/172, STDB: 41545000.000000, IPB: 11582020.000000, STDT: 1181537527.000000, IPT: 277082101.000000, BOH/LOH: 3.587025,4.264215, MAX:1
Coverage: 15, Tot. Cov: 36.000000, 38/172, STDB: 22700000.000000, IPB: 5187596.000000, STDT: 1004216825.000000, IPT: 304748899.000000, BOH/LOH: 4.375823,3.295227, MAX:1
Coverage: 15, Tot. Cov: 307.000000, 39/172, STDB: 177555000.000000, IPB: 76279244.000000, STDT: 8268519207.000000, IPT: 1452277359.000000, BOH/LOH: 2.327697,5.693485, MAX:1
Coverage: 15, Tot. Cov: 108.000000, 40/172, STDB: 67515000.000000, IPB: 26570676.000000, STDT: 2887261825.000000, IPT: 608999782.000000, BOH/LOH: 2.540959,4.740990, MAX:1
Coverage: 15, Tot. Cov: 116.000000, 41/172, STDB: 174880000.000000, IPB: 64340328.000000, STDT: 4286114769.000000, IPT: 534305810.000000, BOH/LOH: 2.718046,8.021838, MAX:1
Coverage: 15, Tot. Cov: 79.000000, 42/172, STDB: 112207500.000000, IPB: 36905208.000000, STDT: 2621295693.000000, IPT: 354292930.000000, BOH/LOH: 3.040425,7.398668, MAX:1
Coverage: 15, Tot. Cov: 89.000000, 43/172, STDB: 125870000.000000, IPB: 33764748.000000, STDT: 3346562101.000000, IPT: 438556196.000000, BOH/LOH: 3.727852,7.630863, MAX:1
Coverage: 15, Tot. Cov: 73.000000, 44/172, STDB: 95745000.000000, IPB: 30162896.000000, STDT: 1631814315.000000, IPT: 305371815.000000, BOH/LOH: 3.174264,5.343697, MAX:1
Coverage: 15, Tot. Cov: 81.000000, 45/172, STDB: 136485000.000000, IPB: 31688028.000000, STDT: 2098290416.000000, IPT: 402624991.000000, BOH/LOH: 4.307147,5.211526, MAX:1
Coverage: 15, Tot. Cov: 71.000000, 46/172, STDB: 122595000.000000, IPB: 33216692.000000, STDT: 2126532742.000000, IPT: 343822069.000000, BOH/LOH: 3.690765,6.184980, MAX:1
Coverage: 15, Tot. Cov: 216.000000, 47/172, STDB: 274190000.000000, IPB: 97421920.000000, STDT: 6246960985.000000, IPT: 991735585.000000, BOH/LOH: 2.814459,6.299019, MAX:1
Coverage: 15, Tot. Cov: 98.000000, 48/172, STDB: 109237500.000000, IPB: 43255152.000000, STDT: 2141192017.000000, IPT: 532058729.000000, BOH/LOH: 2.525422,4.024353, MAX:1
Coverage: 15, Tot. Cov: 118.000000, 49/172, STDB: 174240000.000000, IPB: 60379144.000000, STDT: 2974755405.000000, IPT: 485080061.000000, BOH/LOH: 2.885765,6.132504, MAX:1
Coverage: 15, Tot. Cov: 143.000000, 50/172, STDB: 187470000.000000, IPB: 81834904.000000, STDT: 2798665337.000000, IPT: 484294698.000000, BOH/LOH: 2.290832,5.778848, MAX:1
Coverage: 15, Tot. Cov: 33.000000, 51/172, STDB: 83540000.000000, IPB: 10500252.000000, STDT: 1242634227.000000, IPT: 265850751.000000, BOH/LOH: 7.956000,4.674180, MAX:1
Coverage: 15, Tot. Cov: 83.000000, 52/172, STDB: 139200000.000000, IPB: 40346728.000000, STDT: 2495782551.000000, IPT: 430509664.000000, BOH/LOH: 3.450094,5.797274, MAX:1
Coverage: 15, Tot. Cov: 61.000000, 53/172, STDB: 110370000.000000, IPB: 39470072.000000, STDT: 2560593239.000000, IPT: 341500022.000000, BOH/LOH: 2.796296,7.498076, MAX:1
Coverage: 15, Tot. Cov: 86.000000, 54/172, STDB: 80730000.000000, IPB: 18023124.000000, STDT: 1541373213.000000, IPT: 718492433.000000, BOH/LOH: 4.479246,2.145288, MAX:1
Coverage: 15, Tot. Cov: 36.000000, 55/172, STDB: 47395000.000000, IPB: 12524544.000000, STDT: 604260086.000000, IPT: 130969275.000000, BOH/LOH: 3.784170,4.613755, MAX:1
Coverage: 15, Tot. Cov: 42.000000, 56/172, STDB: 77040000.000000, IPB: 17169668.000000, STDT: 1337207626.000000, IPT: 257846414.000000, BOH/LOH: 4.486983,5.186063, MAX:1
Coverage: 15, Tot. Cov: 163.000000, 57/172, STDB: 150287500.000000, IPB: 63488672.000000, STDT: 4903036476.000000, IPT: 819776163.000000, BOH/LOH: 2.367155,5.980945, MAX:1
Coverage: 15, Tot. Cov: 74.000000, 58/172, STDB: 40177500.000000, IPB: 11714744.000000, STDT: 859164104.000000, IPT: 302246121.000000, BOH/LOH: 3.429652,2.842598, MAX:1
Coverage: 15, Tot. Cov: 48.000000, 59/172, STDB: 21345000.000000, IPB: 7328028.000000, STDT: 666847623.000000, IPT: 157820468.000000, BOH/LOH: 2.912789,4.225356, MAX:1
Coverage: 15, Tot. Cov: 64.000000, 60/172, STDB: 38610000.000000, IPB: 10198664.000000, STDT: 1156457830.000000, IPT: 257880779.000000, BOH/LOH: 3.785790,4.484467, MAX:1
Coverage: 15, Tot. Cov: 65.000000, 61/172, STDB: 33585000.000000, IPB: 9982840.000000, STDT: 534208852.000000, IPT: 239175569.000000, BOH/LOH: 3.364273,2.233543, MAX:1
Coverage: 15, Tot. Cov: 33.000000, 62/172, STDB: 41160000.000000, IPB: 7520116.000000, STDT: 699096594.000000, IPT: 143519328.000000, BOH/LOH: 5.473320,4.871097, MAX:1
Coverage: 15, Tot. Cov: 225.000000, 63/172, STDB: 93825000.000000, IPB: 37965828.000000, STDT: 3872656997.000000, IPT: 944645620.000000, BOH/LOH: 2.471301,4.099587, MAX:1
Coverage: 15, Tot. Cov: 164.000000, 64/172, STDB: 53350000.000000, IPB: 21242772.000000, STDT: 3747044933.000000, IPT: 867800655.000000, BOH/LOH: 2.511442,4.317864, MAX:1
Coverage: 15, Tot. Cov: 66.000000, 65/172, STDB: 23315000.000000, IPB: 8695008.000000, STDT: 900527907.000000, IPT: 247197676.000000, BOH/LOH: 2.681424,3.642946, MAX:1
Coverage: 15, Tot. Cov: 52.000000, 66/172, STDB: 18255000.000000, IPB: 5412352.000000, STDT: 372630955.000000, IPT: 184402366.000000, BOH/LOH: 3.372840,2.020749, MAX:1
Coverage: 15, Tot. Cov: 139.000000, 67/172, STDB: 82170000.000000, IPB: 31851108.000000, STDT: 1504512014.000000, IPT: 562594720.000000, BOH/LOH: 2.579816,2.674238, MAX:1
Coverage: 15, Tot. Cov: 65.000000, 68/172, STDB: 47495000.000000, IPB: 16255524.000000, STDT: 878245753.000000, IPT: 291585749.000000, BOH/LOH: 2.921776,3.011964, MAX:1
Coverage: 15, Tot. Cov: 53.000000, 69/172, STDB: 34915000.000000, IPB: 10732644.000000, STDT: 642390382.000000, IPT: 202804355.000000, BOH/LOH: 3.253159,3.167537, MAX:1
Coverage: 15, Tot. Cov: 40.000000, 70/172, STDB: 38670000.000000, IPB: 9509156.000000, STDT: 728726772.000000, IPT: 161319868.000000, BOH/LOH: 4.066607,4.517279, MAX:1
Coverage: 15, Tot. Cov: 43.000000, 71/172, STDB: 35865000.000000, IPB: 9888864.000000, STDT: 735375358.000000, IPT: 155223218.000000, BOH/LOH: 3.626807,4.737535, MAX:1
Coverage: 15, Tot. Cov: 171.000000, 72/172, STDB: 70150000.000000, IPB: 27655824.000000, STDT: 3741046853.000000, IPT: 669653814.000000, BOH/LOH: 2.536536,5.586539, MAX:1
Coverage: 15, Tot. Cov: 22.000000, 73/172, STDB: 9025000.000000, IPB: 3038436.000000, STDT: 202526892.000000, IPT: 76784165.000000, BOH/LOH: 2.970278,2.637613, MAX:1
Coverage: 15, Tot. Cov: 38.000000, 74/172, STDB: 53965000.000000, IPB: 12721492.000000, STDT: 806785247.000000, IPT: 159832856.000000, BOH/LOH: 4.242034,5.047681, MAX:1
Coverage: 15, Tot. Cov: 41.000000, 75/172, STDB: 50510000.000000, IPB: 12005980.000000, STDT: 873215175.000000, IPT: 162778026.000000, BOH/LOH: 4.207070,5.364454, MAX:1
Coverage: 15, Tot. Cov: 128.000000, 76/172, STDB: 101580000.000000, IPB: 33661464.000000, STDT: 3546818646.000000, IPT: 759052914.000000, BOH/LOH: 3.017694,4.672690, MAX:1
Coverage: 15, Tot. Cov: 105.000000, 77/172, STDB: 61140000.000000, IPB: 26237932.000000, STDT: 2488475007.000000, IPT: 482296808.000000, BOH/LOH: 2.330214,5.159634, MAX:1
Coverage: 15, Tot. Cov: 83.000000, 78/172, STDB: 46350000.000000, IPB: 16838112.000000, STDT: 1621131069.000000, IPT: 314067656.000000, BOH/LOH: 2.752684,5.161726, MAX:1
Coverage: 15, Tot. Cov: 86.000000, 79/172, STDB: 54240000.000000, IPB: 16798180.000000, STDT: 1776008179.000000, IPT: 363065346.000000, BOH/LOH: 3.228921,4.891704, MAX:1
Coverage: 15, Tot. Cov: 40.000000, 80/172, STDB: 41875000.000000, IPB: 9200644.000000, STDT: 828536509.000000, IPT: 172882911.000000, BOH/LOH: 4.551312,4.792472, MAX:1
Coverage: 15, Tot. Cov: 193.000000, 81/172, STDB: 144225000.000000, IPB: 54402068.000000, STDT: 2949772651.000000, IPT: 731641092.000000, BOH/LOH: 2.651094,4.031721, MAX:1
Coverage: 15, Tot. Cov: 42.000000, 82/172, STDB: 57355000.000000, IPB: 14753000.000000, STDT: 840066545.000000, IPT: 162573211.000000, BOH/LOH: 3.887684,5.167312, MAX:1
Coverage: 15, Tot. Cov: 38.000000, 83/172, STDB: 32340000.000000, IPB: 9177628.000000, STDT: 603446788.000000, IPT: 150197292.000000, BOH/LOH: 3.523786,4.017694, MAX:1
Coverage: 15, Tot. Cov: 114.000000, 84/172, STDB: 75922500.000000, IPB: 30994048.000000, STDT: 1631438118.000000, IPT: 439751785.000000, BOH/LOH: 2.449583,3.709907, MAX:1
Coverage: 15, Tot. Cov: 18.000000, 85/172, STDB: 17882500.000000, IPB: 4304456.000000, STDT: 246269686.000000, IPT: 67831489.000000, BOH/LOH: 4.154416,3.630610, MAX:1
Coverage: 15, Tot. Cov: 115.000000, 86/172, STDB: 70215000.000000, IPB: 30347976.000000, STDT: 2234799149.000000, IPT: 464350701.000000, BOH/LOH: 2.313663,4.812740, MAX:1
Coverage: 15, Tot. Cov: 45.000000, 87/172, STDB: 35860000.000000, IPB: 10589088.000000, STDT: 676316411.000000, IPT: 163592197.000000, BOH/LOH: 3.386505,4.134161, MAX:1
Coverage: 15, Tot. Cov: 25.000000, 88/172, STDB: 13167500.000000, IPB: 5824856.000000, STDT: 147045665.000000, IPT: 78702079.000000, BOH/LOH: 2.260571,1.868383, MAX:1
Coverage: 15, Tot. Cov: 45.000000, 89/172, STDB: 44730000.000000, IPB: 14234368.000000, STDT: 671174848.000000, IPT: 177730675.000000, BOH/LOH: 3.142395,3.776359, MAX:1
Coverage: 15, Tot. Cov: 113.000000, 90/172, STDB: 119175000.000000, IPB: 41725280.000000, STDT: 3318947455.000000, IPT: 470490796.000000, BOH/LOH: 2.856182,7.054224, MAX:1
Coverage: 15, Tot. Cov: 49.000000, 91/172, STDB: 43975000.000000, IPB: 13493024.000000, STDT: 1178736772.000000, IPT: 216721150.000000, BOH/LOH: 3.259092,5.438956, MAX:1
Coverage: 15, Tot. Cov: 139.000000, 92/172, STDB: 136460000.000000, IPB: 53501000.000000, STDT: 4205921917.000000, IPT: 612122932.000000, BOH/LOH: 2.550607,6.871041, MAX:1
Coverage: 15, Tot. Cov: 62.000000, 93/172, STDB: 58520000.000000, IPB: 20762680.000000, STDT: 1987490218.000000, IPT: 287472110.000000, BOH/LOH: 2.818519,6.913680, MAX:1
Coverage: 15, Tot. Cov: 114.000000, 94/172, STDB: 94147500.000000, IPB: 39151220.000000, STDT: 2205206446.000000, IPT: 476622317.000000, BOH/LOH: 2.404714,4.626738, MAX:1
Coverage: 15, Tot. Cov: 43.000000, 95/172, STDB: 85475000.000000, IPB: 20863836.000000, STDT: 1889525328.000000, IPT: 290108368.000000, BOH/LOH: 4.096802,6.513171, MAX:1
Coverage: 15, Tot. Cov: 80.000000, 96/172, STDB: 164130000.000000, IPB: 37923400.000000, STDT: 3855613548.000000, IPT: 586772080.000000, BOH/LOH: 4.327935,6.570888, MAX:1
Coverage: 15, Tot. Cov: 150.000000, 97/172, STDB: 205200000.000000, IPB: 88436952.000000, STDT: 6401694866.000000, IPT: 806340284.000000, BOH/LOH: 2.320297,7.939198, MAX:1
Coverage: 15, Tot. Cov: 114.000000, 98/172, STDB: 142522500.000000, IPB: 42968456.000000, STDT: 3829031992.000000, IPT: 944621193.000000, BOH/LOH: 3.316910,4.053511, MAX:1
Coverage: 15, Tot. Cov: 43.000000, 99/172, STDB: 103220000.000000, IPB: 29865384.000000, STDT: 996582334.000000, IPT: 174782976.000000, BOH/LOH: 3.456175,5.701827, MAX:1
Coverage: 15, Tot. Cov: 47.000000, 100/172, STDB: 101855000.000000, IPB: 36370496.000000, STDT: 1297092687.000000, IPT: 194905639.000000, BOH/LOH: 2.800484,6.654978, MAX:1
Coverage: 15, Tot. Cov: 41.000000, 101/172, STDB: 92430000.000000, IPB: 19623864.000000, STDT: 662380184.000000, IPT: 222972412.000000, BOH/LOH: 4.710082,2.970682, MAX:1
Coverage: 15, Tot. Cov: 34.000000, 102/172, STDB: 95960000.000000, IPB: 19427720.000000, STDT: 1020284179.000000, IPT: 186238379.000000, BOH/LOH: 4.939334,5.478378, MAX:1
Coverage: 15, Tot. Cov: 154.000000, 103/172, STDB: 278120000.000000, IPB: 105589928.000000, STDT: 6188895501.000000, IPT: 899964010.000000, BOH/LOH: 2.633963,6.876826, MAX:1
Coverage: 15, Tot. Cov: 68.000000, 104/172, STDB: 120850000.000000, IPB: 40053096.000000, STDT: 1563174770.000000, IPT: 560644903.000000, BOH/LOH: 3.017245,2.788173, MAX:1
Coverage: 15, Tot. Cov: 162.000000, 105/172, STDB: 318340000.000000, IPB: 130218968.000000, STDT: 6378373148.000000, IPT: 1178986875.000000, BOH/LOH: 2.444652,5.410046, MAX:1
Coverage: 15, Tot. Cov: 80.000000, 106/172, STDB: 262297500.000000, IPB: 98786640.000000, STDT: 2698186876.000000, IPT: 367725889.000000, BOH/LOH: 2.655192,7.337495, MAX:1
Coverage: 15, Tot. Cov: 56.000000, 107/172, STDB: 127285000.000000, IPB: 50119200.000000, STDT: 1681567759.000000, IPT: 294229914.000000, BOH/LOH: 2.539645,5.715149, MAX:1
Coverage: 15, Tot. Cov: 51.000000, 108/172, STDB: 135710000.000000, IPB: 49000296.000000, STDT: 2262616166.000000, IPT: 258718214.000000, BOH/LOH: 2.769575,8.745485, MAX:1
Coverage: 15, Tot. Cov: 40.000000, 109/172, STDB: 128590000.000000, IPB: 35497688.000000, STDT: 1285636277.000000, IPT: 154454153.000000, BOH/LOH: 3.622489,8.323740, MAX:1
Coverage: 15, Tot. Cov: 16.000000, 110/172, STDB: 70542500.000000, IPB: 16670464.000000, STDT: 394333493.000000, IPT: 71860173.000000, BOH/LOH: 4.231586,5.487511, MAX:1
Coverage: 15, Tot. Cov: 15.000000, 111/172, STDB: 66392500.000000, IPB: 13356772.000000, STDT: 225121877.000000, IPT: 70307971.000000, BOH/LOH: 4.970700,3.201940, MAX:1
Coverage: 15, Tot. Cov: 64.000000, 112/172, STDB: 250402500.000000, IPB: 63452680.000000, STDT: 3664597010.000000, IPT: 377594661.000000, BOH/LOH: 3.946287,9.705108, MAX:1
Coverage: 15, Tot. Cov: 92.000000, 113/172, STDB: 247867500.000000, IPB: 97893008.000000, STDT: 3815372598.000000, IPT: 456998408.000000, BOH/LOH: 2.532025,8.348766, MAX:1
Coverage: 15, Tot. Cov: 69.000000, 114/172, STDB: 181335000.000000, IPB: 59260320.000000, STDT: 2806895578.000000, IPT: 334021168.000000, BOH/LOH: 3.059973,8.403346, MAX:1
Coverage: 15, Tot. Cov: 30.000000, 115/172, STDB: 175870000.000000, IPB: 34415144.000000, STDT: 1196680012.000000, IPT: 153412508.000000, BOH/LOH: 5.110250,7.800407, MAX:1
Coverage: 15, Tot. Cov: 45.000000, 116/172, STDB: 120080000.000000, IPB: 39080136.000000, STDT: 1895723876.000000, IPT: 201401674.000000, BOH/LOH: 3.072661,9.412652, MAX:1
Coverage: 15, Tot. Cov: 33.000000, 117/172, STDB: 124210000.000000, IPB: 26531672.000000, STDT: 1184683107.000000, IPT: 157197297.000000, BOH/LOH: 4.681575,7.536282, MAX:1
Coverage: 15, Tot. Cov: 30.000000, 118/172, STDB: 122775000.000000, IPB: 23727188.000000, STDT: 1143908551.000000, IPT: 129470609.000000, BOH/LOH: 5.174444,8.835276, MAX:1
Coverage: 15, Tot. Cov: 33.000000, 119/172, STDB: 114575000.000000, IPB: 23128404.000000, STDT: 1118351317.000000, IPT: 155233191.000000, BOH/LOH: 4.953865,7.204331, MAX:1
Coverage: 15, Tot. Cov: 70.000000, 120/172, STDB: 120545000.000000, IPB: 56748392.000000, STDT: 1817093223.000000, IPT: 303654902.000000, BOH/LOH: 2.124201,5.984073, MAX:1
Coverage: 15, Tot. Cov: 80.000000, 121/172, STDB: 173820000.000000, IPB: 54536688.000000, STDT: 3586203616.000000, IPT: 588482772.000000, BOH/LOH: 3.187212,6.093982, MAX:1
Coverage: 15, Tot. Cov: 72.000000, 122/172, STDB: 204322500.000000, IPB: 58061580.000000, STDT: 3068205602.000000, IPT: 343211669.000000, BOH/LOH: 3.519065,8.939689, MAX:1
Coverage: 15, Tot. Cov: 60.000000, 123/172, STDB: 160350000.000000, IPB: 45124108.000000, STDT: 1289647939.000000, IPT: 244163461.000000, BOH/LOH: 3.553533,5.281904, MAX:1
Coverage: 15, Tot. Cov: 87.000000, 124/172, STDB: 203950000.000000, IPB: 56106004.000000, STDT: 1867752780.000000, IPT: 368519692.000000, BOH/LOH: 3.635083,5.068258, MAX:1
Coverage: 15, Tot. Cov: 73.000000, 125/172, STDB: 164235000.000000, IPB: 55590656.000000, STDT: 2179851266.000000, IPT: 311892805.000000, BOH/LOH: 2.954363,6.989104, MAX:1
Coverage: 15, Tot. Cov: 113.000000, 126/172, STDB: 201450000.000000, IPB: 66361900.000000, STDT: 4477313078.000000, IPT: 569298020.000000, BOH/LOH: 3.035627,7.864621, MAX:1
Coverage: 15, Tot. Cov: 117.000000, 127/172, STDB: 139897500.000000, IPB: 60905336.000000, STDT: 3878386111.000000, IPT: 619436996.000000, BOH/LOH: 2.296966,6.261147, MAX:1
Coverage: 15, Tot. Cov: 87.000000, 128/172, STDB: 169820000.000000, IPB: 48412072.000000, STDT: 2632948638.000000, IPT: 387895649.000000, BOH/LOH: 3.507803,6.787776, MAX:1
Coverage: 15, Tot. Cov: 185.000000, 129/172, STDB: 360412500.000000, IPB: 107720536.000000, STDT: 5745339494.000000, IPT: 805890344.000000, BOH/LOH: 3.345810,7.129183, MAX:1
Coverage: 15, Tot. Cov: 67.000000, 130/172, STDB: 953005000.000000, IPB: 449590104.000000, STDT: 3060657752.000000, IPT: 473688572.000000, BOH/LOH: 2.119720,6.461329, MAX:1
Coverage: 15, Tot. Cov: 52.000000, 131/172, STDB: 787665000.000000, IPB: 178176424.000000, STDT: 3143357268.000000, IPT: 428469859.000000, BOH/LOH: 4.420703,7.336239, MAX:1
Coverage: 15, Tot. Cov: 62.000000, 132/172, STDB: 685522500.000000, IPB: 158068384.000000, STDT: 2644912584.000000, IPT: 530889874.000000, BOH/LOH: 4.336873,4.982036, MAX:1
Coverage: 15, Tot. Cov: 67.000000, 133/172, STDB: 351190000.000000, IPB: 157469704.000000, STDT: 3708898786.000000, IPT: 570091046.000000, BOH/LOH: 2.230207,6.505801, MAX:1
Coverage: 15, Tot. Cov: 54.000000, 134/172, STDB: 411130000.000000, IPB: 131113700.000000, STDT: 2504967773.000000, IPT: 445069386.000000, BOH/LOH: 3.135675,5.628263, MAX:1
Coverage: 15, Tot. Cov: 179.000000, 135/172, STDB: 679150000.000000, IPB: 257574792.000000, STDT: 8285657818.000000, IPT: 1202764574.000000, BOH/LOH: 2.636710,6.888844, MAX:1
Coverage: 15, Tot. Cov: 99.000000, 136/172, STDB: 445550000.000000, IPB: 119048820.000000, STDT: 3414300932.000000, IPT: 486386434.000000, BOH/LOH: 3.742582,7.019729, MAX:1
Coverage: 15, Tot. Cov: 147.000000, 137/172, STDB: 503020000.000000, IPB: 247794740.000000, STDT: 2908728338.000000, IPT: 652064195.000000, BOH/LOH: 2.029987,4.460801, MAX:1
Coverage: 15, Tot. Cov: 41.000000, 138/172, STDB: 119915000.000000, IPB: 23256716.000000, STDT: 993684251.000000, IPT: 297770229.000000, BOH/LOH: 5.156145,3.337084, MAX:1
Coverage: 15, Tot. Cov: 60.000000, 139/172, STDB: 156400000.000000, IPB: 55625952.000000, STDT: 1866012420.000000, IPT: 463726998.000000, BOH/LOH: 2.811637,4.023946, MAX:1
Coverage: 15, Tot. Cov: 77.000000, 140/172, STDB: 136270000.000000, IPB: 76382488.000000, STDT: 2232910946.000000, IPT: 374175803.000000, BOH/LOH: 1.784048,5.967545, MAX:1
Coverage: 15, Tot. Cov: 43.000000, 141/172, STDB: 131505000.000000, IPB: 28682028.000000, STDT: 1042209994.000000, IPT: 357815352.000000, BOH/LOH: 4.584927,2.912703, MAX:1
Coverage: 15, Tot. Cov: 79.000000, 142/172, STDB: 269220000.000000, IPB: 81948760.000000, STDT: 2560488467.000000, IPT: 429718808.000000, BOH/LOH: 3.285224,5.958521, MAX:1
Coverage: 15, Tot. Cov: 153.000000, 143/172, STDB: 295770000.000000, IPB: 136047028.000000, STDT: 4999728729.000000, IPT: 722045030.000000, BOH/LOH: 2.174028,6.924400, MAX:1
Coverage: 15, Tot. Cov: 60.000000, 144/172, STDB: 286545000.000000, IPB: 77165140.000000, STDT: 2388083473.000000, IPT: 299826515.000000, BOH/LOH: 3.713400,7.964884, MAX:1
Coverage: 15, Tot. Cov: 91.000000, 145/172, STDB: 305100000.000000, IPB: 123549716.000000, STDT: 4250838293.000000, IPT: 484498250.000000, BOH/LOH: 2.469451,8.773692, MAX:1
Coverage: 15, Tot. Cov: 165.000000, 146/172, STDB: 497325000.000000, IPB: 191165208.000000, STDT: 6652662938.000000, IPT: 860940639.000000, BOH/LOH: 2.601546,7.727203, MAX:1
Coverage: 15, Tot. Cov: 37.000000, 147/172, STDB: 131875000.000000, IPB: 27544704.000000, STDT: 1372433032.000000, IPT: 357994593.000000, BOH/LOH: 4.787672,3.833670, MAX:1
Coverage: 15, Tot. Cov: 67.000000, 148/172, STDB: 140935000.000000, IPB: 34095164.000000, STDT: 1868850051.000000, IPT: 650817413.000000, BOH/LOH: 4.133577,2.871543, MAX:1
Coverage: 15, Tot. Cov: 65.000000, 149/172, STDB: 159545000.000000, IPB: 57946272.000000, STDT: 1530708357.000000, IPT: 453002905.000000, BOH/LOH: 2.753326,3.379025, MAX:1
Coverage: 15, Tot. Cov: 16.000000, 150/172, STDB: 46967500.000000, IPB: 4556444.000000, STDT: 342683994.000000, IPT: 156559913.000000, BOH/LOH: 10.307929,2.188836, MAX:1
Coverage: 15, Tot. Cov: 33.000000, 151/172, STDB: 78605000.000000, IPB: 11570052.000000, STDT: 739623496.000000, IPT: 253554757.000000, BOH/LOH: 6.793833,2.917017, MAX:1
Coverage: 15, Tot. Cov: 70.000000, 152/172, STDB: 131545000.000000, IPB: 52581296.000000, STDT: 1972216121.000000, IPT: 323122189.000000, BOH/LOH: 2.501745,6.103623, MAX:1
Coverage: 15, Tot. Cov: 117.000000, 153/172, STDB: 199477500.000000, IPB: 83426528.000000, STDT: 3553457142.000000, IPT: 863406704.000000, BOH/LOH: 2.391056,4.115624, MAX:1
Coverage: 15, Tot. Cov: 72.000000, 154/172, STDB: 233317500.000000, IPB: 50102124.000000, STDT: 2249509963.000000, IPT: 619822416.000000, BOH/LOH: 4.656839,3.629281, MAX:1
Coverage: 15, Tot. Cov: 144.000000, 155/172, STDB: 365860000.000000, IPB: 143643440.000000, STDT: 7781800752.000000, IPT: 1176756141.000000, BOH/LOH: 2.547001,6.612926, MAX:1
Coverage: 15, Tot. Cov: 51.000000, 156/172, STDB: 199175000.000000, IPB: 53361468.000000, STDT: 2658329757.000000, IPT: 490193245.000000, BOH/LOH: 3.732562,5.423024, MAX:1
Coverage: 15, Tot. Cov: 63.000000, 157/172, STDB: 318810000.000000, IPB: 121873168.000000, STDT: 2031291160.000000, IPT: 344077551.000000, BOH/LOH: 2.615916,5.903585, MAX:1
Coverage: 15, Tot. Cov: 66.000000, 158/172, STDB: 281710000.000000, IPB: 106852424.000000, STDT: 1617953493.000000, IPT: 386692231.000000, BOH/LOH: 2.636440,4.184086, MAX:1
Coverage: 15, Tot. Cov: 101.000000, 159/172, STDB: 483100000.000000, IPB: 143972756.000000, STDT: 4429657038.000000, IPT: 568058243.000000, BOH/LOH: 3.355496,7.797892, MAX:1
Coverage: 15, Tot. Cov: 62.000000, 160/172, STDB: 282305000.000000, IPB: 47752720.000000, STDT: 1195921642.000000, IPT: 602157799.000000, BOH/LOH: 5.911810,1.986060, MAX:1
Coverage: 15, Tot. Cov: 36.000000, 161/172, STDB: 380135000.000000, IPB: 78450276.000000, STDT: 2181998249.000000, IPT: 292137860.000000, BOH/LOH: 4.845553,7.469070, MAX:1
Coverage: 15, Tot. Cov: 60.000000, 162/172, STDB: 288400000.000000, IPB: 110836916.000000, STDT: 3925512870.000000, IPT: 459589414.000000, BOH/LOH: 2.602021,8.541347, MAX:1
Coverage: 15, Tot. Cov: 145.000000, 163/172, STDB: 529370000.000000, IPB: 178350284.000000, STDT: 4258480099.000000, IPT: 1187867797.000000, BOH/LOH: 2.968148,3.584978, MAX:1
Coverage: 15, Tot. Cov: 115.000000, 164/172, STDB: 387030000.000000, IPB: 121871560.000000, STDT: 3132902270.000000, IPT: 993274321.000000, BOH/LOH: 3.175720,3.154116, MAX:1
Coverage: 15, Tot. Cov: 90.000000, 165/172, STDB: 610720000.000000, IPB: 191805900.000000, STDT: 5862496845.000000, IPT: 506847758.000000, BOH/LOH: 3.184052,11.566583, MAX:1
Coverage: 15, Tot. Cov: 35.000000, 166/172, STDB: 335100000.000000, IPB: 75187404.000000, STDT: 994984429.000000, IPT: 174387488.000000, BOH/LOH: 4.456864,5.705595, MAX:1
Coverage: 15, Tot. Cov: 83.000000, 167/172, STDB: 624015000.000000, IPB: 257272004.000000, STDT: 3387714236.000000, IPT: 407328004.000000, BOH/LOH: 2.425507,8.316920, MAX:1
Coverage: 15, Tot. Cov: 66.000000, 168/172, STDB: 431125000.000000, IPB: 203078692.000000, STDT: 2193579698.000000, IPT: 447197102.000000, BOH/LOH: 2.122946,4.905174, MAX:1
Coverage: 15, Tot. Cov: 72.000000, 169/172, STDB: 569680000.000000, IPB: 269624576.000000, STDT: 2554062235.000000, IPT: 435427048.000000, BOH/LOH: 2.112864,5.865649, MAX:1
Coverage: 15, Tot. Cov: 46.000000, 170/172, STDB: 493430000.000000, IPB: 148628040.000000, STDT: 3072168201.000000, IPT: 333254515.000000, BOH/LOH: 3.319898,9.218684, MAX:1
Coverage: 15, Tot. Cov: 78.000000, 171/172, STDB: 619042500.000000, IPB: 209225760.000000, STDT: 4082540959.000000, IPT: 591219128.000000, BOH/LOH: 2.958730,6.905292, MAX:1
