Coverage: 30, Tot. Cov: 190.000000, Cluster: 1/54, ESBytes W CSB: 42165484.000000, STDBytes W CSB: 55507784.000000, IP Bytes W CSB: 21133108.000000, IS_MAX: 0, Tot. Cov: 170.000000, ESBytes WO CSB: 43932248.000000, STDBytes WO CSB: 58475048.000000, IP Bytes WO CSB: 21133108.000000, IS_MAX: 1
Coverage: 30, Tot. Cov: 1147.000000, Cluster: 2/54, ESBytes W CSB: 123038964.000000, STDBytes W CSB: 188137164.000000, IP Bytes W CSB: 55780504.000000, IS_MAX: 0, Tot. Cov: 1126.000000, ESBytes WO CSB: 116868740.000000, STDBytes WO CSB: 176061240.000000, IP Bytes WO CSB: 55780504.000000, IS_MAX: 1
Coverage: 30, Tot. Cov: 725.000000, Cluster: 3/54, ESBytes W CSB: 163685400.000000, STDBytes W CSB: 320701800.000000, IP Bytes W CSB: 69495728.000000, IS_MAX: 0, Tot. Cov: 721.000000, ESBytes WO CSB: 146452172.000000, STDBytes WO CSB: 274278972.000000, IP Bytes WO CSB: 69495728.000000, IS_MAX: 1
Coverage: 30, Tot. Cov: 779.000000, Cluster: 4/54, ESBytes W CSB: 46580336.000000, STDBytes W CSB: 106390936.000000, IP Bytes W CSB: 21560868.000000, IS_MAX: 0, Tot. Cov: 781.000000, ESBytes WO CSB: 46441912.000000, STDBytes WO CSB: 121552112.000000, IP Bytes WO CSB: 21560868.000000, IS_MAX: 1
Coverage: 30, Tot. Cov: 2060.000000, Cluster: 5/54, ESBytes W CSB: 2626594576.000000, STDBytes W CSB: 4097091876.000000, IP Bytes W CSB: 1364130892.000000, IS_MAX: 0, Tot. Cov: 2042.000000, ESBytes WO CSB: 2404263372.000000, STDBytes WO CSB: 3812787672.000000, IP Bytes WO CSB: 1364130892.000000, IS_MAX: 1
Coverage: 30, Tot. Cov: 262.000000, Cluster: 6/54, ESBytes W CSB: 424062296.000000, STDBytes W CSB: 514108596.000000, IP Bytes W CSB: 245742048.000000, IS_MAX: 0, Tot. Cov: 259.000000, ESBytes WO CSB: 424482868.000000, STDBytes WO CSB: 510806868.000000, IP Bytes WO CSB: 245742048.000000, IS_MAX: 1
Coverage: 30, Tot. Cov: 1527.000000, Cluster: 7/54, ESBytes W CSB: 2297662236.000000, STDBytes W CSB: 3043877536.000000, IP Bytes W CSB: 1364328900.000000, IS_MAX: 0, Tot. Cov: 1497.000000, ESBytes WO CSB: 2278207776.000000, STDBytes WO CSB: 2846843576.000000, IP Bytes WO CSB: 1364328900.000000, IS_MAX: 1
Coverage: 30, Tot. Cov: 81.000000, Cluster: 8/54, ESBytes W CSB: 216371724.000000, STDBytes W CSB: 267940324.000000, IP Bytes W CSB: 111160596.000000, IS_MAX: 0, Tot. Cov: 81.000000, ESBytes WO CSB: 212843364.000000, STDBytes WO CSB: 259733964.000000, IP Bytes WO CSB: 111160596.000000, IS_MAX: 1
Coverage: 30, Tot. Cov: 130.000000, Cluster: 9/54, ESBytes W CSB: 290225760.000000, STDBytes W CSB: 360348060.000000, IP Bytes W CSB: 169705108.000000, IS_MAX: 0, Tot. Cov: 128.000000, ESBytes WO CSB: 298245764.000000, STDBytes WO CSB: 368193864.000000, IP Bytes WO CSB: 169705108.000000, IS_MAX: 1
Coverage: 30, Tot. Cov: 202.000000, Cluster: 10/54, ESBytes W CSB: 530198988.000000, STDBytes W CSB: 680095488.000000, IP Bytes W CSB: 296444084.000000, IS_MAX: 0, Tot. Cov: 192.000000, ESBytes WO CSB: 556100768.000000, STDBytes WO CSB: 698894868.000000, IP Bytes WO CSB: 296444084.000000, IS_MAX: 1
Coverage: 30, Tot. Cov: 32.000000, Cluster: 11/54, ESBytes W CSB: 115282208.000000, STDBytes W CSB: 144910408.000000, IP Bytes W CSB: 62080572.000000, IS_MAX: 0, Tot. Cov: 32.000000, ESBytes WO CSB: 119351020.000000, STDBytes WO CSB: 154030020.000000, IP Bytes WO CSB: 62080572.000000, IS_MAX: 1
Coverage: 30, Tot. Cov: 752.000000, Cluster: 12/54, ESBytes W CSB: 475141608.000000, STDBytes W CSB: 645722408.000000, IP Bytes W CSB: 252048700.000000, IS_MAX: 0, Tot. Cov: 732.000000, ESBytes WO CSB: 480735216.000000, STDBytes WO CSB: 659089116.000000, IP Bytes WO CSB: 252048700.000000, IS_MAX: 1
Coverage: 30, Tot. Cov: 128.000000, Cluster: 13/54, ESBytes W CSB: 131593872.000000, STDBytes W CSB: 165517272.000000, IP Bytes W CSB: 70457748.000000, IS_MAX: 0, Tot. Cov: 122.000000, ESBytes WO CSB: 140095440.000000, STDBytes WO CSB: 179275740.000000, IP Bytes WO CSB: 70457748.000000, IS_MAX: 1
Coverage: 30, Tot. Cov: 199.000000, Cluster: 14/54, ESBytes W CSB: 161266464.000000, STDBytes W CSB: 201025664.000000, IP Bytes W CSB: 85306196.000000, IS_MAX: 0, Tot. Cov: 195.000000, ESBytes WO CSB: 162909568.000000, STDBytes WO CSB: 210812168.000000, IP Bytes WO CSB: 85306196.000000, IS_MAX: 1
Coverage: 30, Tot. Cov: 453.000000, Cluster: 15/54, ESBytes W CSB: 477811744.000000, STDBytes W CSB: 670969444.000000, IP Bytes W CSB: 214544492.000000, IS_MAX: 0, Tot. Cov: 456.000000, ESBytes WO CSB: 401312260.000000, STDBytes WO CSB: 565591060.000000, IP Bytes WO CSB: 214544492.000000, IS_MAX: 1
Coverage: 30, Tot. Cov: 102.000000, Cluster: 16/54, ESBytes W CSB: 93845112.000000, STDBytes W CSB: 119064612.000000, IP Bytes W CSB: 49159680.000000, IS_MAX: 0, Tot. Cov: 127.000000, ESBytes WO CSB: 83042560.000000, STDBytes WO CSB: 101526060.000000, IP Bytes WO CSB: 49159680.000000, IS_MAX: 1
Coverage: 30, Tot. Cov: 77.000000, Cluster: 17/54, ESBytes W CSB: 77844612.000000, STDBytes W CSB: 96554312.000000, IP Bytes W CSB: 37205788.000000, IS_MAX: 0, Tot. Cov: 70.000000, ESBytes WO CSB: 77587104.000000, STDBytes WO CSB: 99358304.000000, IP Bytes WO CSB: 37205788.000000, IS_MAX: 1
Coverage: 30, Tot. Cov: 86.000000, Cluster: 18/54, ESBytes W CSB: 60623360.000000, STDBytes W CSB: 73443160.000000, IP Bytes W CSB: 33555352.000000, IS_MAX: 0, Tot. Cov: 84.000000, ESBytes WO CSB: 60009608.000000, STDBytes WO CSB: 77553308.000000, IP Bytes WO CSB: 33555352.000000, IS_MAX: 1
Coverage: 30, Tot. Cov: 33.000000, Cluster: 19/54, ESBytes W CSB: 35164404.000000, STDBytes W CSB: 45166104.000000, IP Bytes W CSB: 17067752.000000, IS_MAX: 0, Tot. Cov: 37.000000, ESBytes WO CSB: 33745160.000000, STDBytes WO CSB: 43529860.000000, IP Bytes WO CSB: 17067752.000000, IS_MAX: 1
Coverage: 30, Tot. Cov: 331.000000, Cluster: 20/54, ESBytes W CSB: 292268064.000000, STDBytes W CSB: 369431264.000000, IP Bytes W CSB: 157329632.000000, IS_MAX: 0, Tot. Cov: 305.000000, ESBytes WO CSB: 293181676.000000, STDBytes WO CSB: 366742876.000000, IP Bytes WO CSB: 157329632.000000, IS_MAX: 1
Coverage: 30, Tot. Cov: 1727.000000, Cluster: 21/54, ESBytes W CSB: 1958831372.000000, STDBytes W CSB: 3249065872.000000, IP Bytes W CSB: 960597208.000000, IS_MAX: 0, Tot. Cov: 1725.000000, ESBytes WO CSB: 1561110724.000000, STDBytes WO CSB: 2644072624.000000, IP Bytes WO CSB: 960597208.000000, IS_MAX: 1
Coverage: 30, Tot. Cov: 209.000000, Cluster: 22/54, ESBytes W CSB: 354839612.000000, STDBytes W CSB: 459876912.000000, IP Bytes W CSB: 168923060.000000, IS_MAX: 0, Tot. Cov: 201.000000, ESBytes WO CSB: 345386504.000000, STDBytes WO CSB: 444658504.000000, IP Bytes WO CSB: 168923060.000000, IS_MAX: 1
Coverage: 30, Tot. Cov: 104.000000, Cluster: 23/54, ESBytes W CSB: 38230944.000000, STDBytes W CSB: 48855744.000000, IP Bytes W CSB: 18785104.000000, IS_MAX: 0, Tot. Cov: 125.000000, ESBytes WO CSB: 35395496.000000, STDBytes WO CSB: 44901696.000000, IP Bytes WO CSB: 18785104.000000, IS_MAX: 1
Coverage: 30, Tot. Cov: 142.000000, Cluster: 24/54, ESBytes W CSB: 37370688.000000, STDBytes W CSB: 47441388.000000, IP Bytes W CSB: 16663712.000000, IS_MAX: 0, Tot. Cov: 135.000000, ESBytes WO CSB: 36146588.000000, STDBytes WO CSB: 46676388.000000, IP Bytes WO CSB: 16663712.000000, IS_MAX: 1
Coverage: 30, Tot. Cov: 174.000000, Cluster: 25/54, ESBytes W CSB: 103827712.000000, STDBytes W CSB: 140224912.000000, IP Bytes W CSB: 41598472.000000, IS_MAX: 0, Tot. Cov: 169.000000, ESBytes WO CSB: 95287160.000000, STDBytes WO CSB: 126148360.000000, IP Bytes WO CSB: 41598472.000000, IS_MAX: 1
Coverage: 30, Tot. Cov: 423.000000, Cluster: 26/54, ESBytes W CSB: 81259916.000000, STDBytes W CSB: 130028616.000000, IP Bytes W CSB: 42751000.000000, IS_MAX: 0, Tot. Cov: 423.000000, ESBytes WO CSB: 93266800.000000, STDBytes WO CSB: 133046700.000000, IP Bytes WO CSB: 42751000.000000, IS_MAX: 1
Coverage: 30, Tot. Cov: 1575.000000, Cluster: 27/54, ESBytes W CSB: 741001788.000000, STDBytes W CSB: 1112463388.000000, IP Bytes W CSB: 275471240.000000, IS_MAX: 0, Tot. Cov: 1573.000000, ESBytes WO CSB: 539701596.000000, STDBytes WO CSB: 853746696.000000, IP Bytes WO CSB: 275471240.000000, IS_MAX: 1
Coverage: 30, Tot. Cov: 67.000000, Cluster: 28/54, ESBytes W CSB: 44544184.000000, STDBytes W CSB: 56422584.000000, IP Bytes W CSB: 22971284.000000, IS_MAX: 0, Tot. Cov: 76.000000, ESBytes WO CSB: 42866424.000000, STDBytes WO CSB: 58400824.000000, IP Bytes WO CSB: 22971284.000000, IS_MAX: 1
Coverage: 30, Tot. Cov: 76.000000, Cluster: 29/54, ESBytes W CSB: 32581220.000000, STDBytes W CSB: 42969920.000000, IP Bytes W CSB: 17183912.000000, IS_MAX: 0, Tot. Cov: 83.000000, ESBytes WO CSB: 33363232.000000, STDBytes WO CSB: 47800432.000000, IP Bytes WO CSB: 17183912.000000, IS_MAX: 1
Coverage: 30, Tot. Cov: 30.000000, Cluster: 30/54, ESBytes W CSB: 27187664.000000, STDBytes W CSB: 35001464.000000, IP Bytes W CSB: 13587204.000000, IS_MAX: 0, Tot. Cov: 32.000000, ESBytes WO CSB: 26987548.000000, STDBytes WO CSB: 37263548.000000, IP Bytes WO CSB: 13587204.000000, IS_MAX: 1
Coverage: 30, Tot. Cov: 31.000000, Cluster: 31/54, ESBytes W CSB: 27929476.000000, STDBytes W CSB: 37203876.000000, IP Bytes W CSB: 12782944.000000, IS_MAX: 0, Tot. Cov: 31.000000, ESBytes WO CSB: 27373496.000000, STDBytes WO CSB: 38121996.000000, IP Bytes WO CSB: 12782944.000000, IS_MAX: 1
Coverage: 30, Tot. Cov: 31.000000, Cluster: 32/54, ESBytes W CSB: 13856932.000000, STDBytes W CSB: 17860432.000000, IP Bytes W CSB: 7089528.000000, IS_MAX: 0, Tot. Cov: 30.000000, ESBytes WO CSB: 14392388.000000, STDBytes WO CSB: 20325988.000000, IP Bytes WO CSB: 7089528.000000, IS_MAX: 1
Coverage: 30, Tot. Cov: 1171.000000, Cluster: 33/54, ESBytes W CSB: 335779756.000000, STDBytes W CSB: 540061356.000000, IP Bytes W CSB: 165817880.000000, IS_MAX: 0, Tot. Cov: 1164.000000, ESBytes WO CSB: 321483404.000000, STDBytes WO CSB: 495695304.000000, IP Bytes WO CSB: 165817880.000000, IS_MAX: 1
Coverage: 30, Tot. Cov: 36.000000, Cluster: 34/54, ESBytes W CSB: 14292496.000000, STDBytes W CSB: 17473496.000000, IP Bytes W CSB: 8173620.000000, IS_MAX: 0, Tot. Cov: 31.000000, ESBytes WO CSB: 15899616.000000, STDBytes WO CSB: 23798616.000000, IP Bytes WO CSB: 8173620.000000, IS_MAX: 1
Coverage: 30, Tot. Cov: 1341.000000, Cluster: 35/54, ESBytes W CSB: 706974620.000000, STDBytes W CSB: 1035791820.000000, IP Bytes W CSB: 363462628.000000, IS_MAX: 0, Tot. Cov: 1336.000000, ESBytes WO CSB: 676364028.000000, STDBytes WO CSB: 923537028.000000, IP Bytes WO CSB: 363462628.000000, IS_MAX: 1
Coverage: 30, Tot. Cov: 1633.000000, Cluster: 36/54, ESBytes W CSB: 960421624.000000, STDBytes W CSB: 1511607324.000000, IP Bytes W CSB: 508971204.000000, IS_MAX: 0, Tot. Cov: 1625.000000, ESBytes WO CSB: 926960168.000000, STDBytes WO CSB: 1356782168.000000, IP Bytes WO CSB: 508971204.000000, IS_MAX: 1
Coverage: 30, Tot. Cov: 32.000000, Cluster: 37/54, ESBytes W CSB: 45561492.000000, STDBytes W CSB: 58505192.000000, IP Bytes W CSB: 23468756.000000, IS_MAX: 0, Tot. Cov: 33.000000, ESBytes WO CSB: 45915116.000000, STDBytes WO CSB: 61041516.000000, IP Bytes WO CSB: 23468756.000000, IS_MAX: 1
Coverage: 30, Tot. Cov: 109.000000, Cluster: 38/54, ESBytes W CSB: 195084376.000000, STDBytes W CSB: 259901376.000000, IP Bytes W CSB: 91481860.000000, IS_MAX: 0, Tot. Cov: 119.000000, ESBytes WO CSB: 185339160.000000, STDBytes WO CSB: 240762960.000000, IP Bytes WO CSB: 91481860.000000, IS_MAX: 1
Coverage: 30, Tot. Cov: 116.000000, Cluster: 39/54, ESBytes W CSB: 526857428.000000, STDBytes W CSB: 715835928.000000, IP Bytes W CSB: 269562720.000000, IS_MAX: 0, Tot. Cov: 110.000000, ESBytes WO CSB: 542595644.000000, STDBytes WO CSB: 730591344.000000, IP Bytes WO CSB: 269562720.000000, IS_MAX: 1
Coverage: 30, Tot. Cov: 761.000000, Cluster: 40/54, ESBytes W CSB: 1454022688.000000, STDBytes W CSB: 2532500088.000000, IP Bytes W CSB: 734390072.000000, IS_MAX: 0, Tot. Cov: 763.000000, ESBytes WO CSB: 1284819080.000000, STDBytes WO CSB: 2250714780.000000, IP Bytes WO CSB: 734390072.000000, IS_MAX: 1
Coverage: 30, Tot. Cov: 584.000000, Cluster: 41/54, ESBytes W CSB: 1465840272.000000, STDBytes W CSB: 1791090172.000000, IP Bytes W CSB: 823994016.000000, IS_MAX: 0, Tot. Cov: 579.000000, ESBytes WO CSB: 1405506400.000000, STDBytes WO CSB: 1718328900.000000, IP Bytes WO CSB: 823994016.000000, IS_MAX: 1
Coverage: 30, Tot. Cov: 114.000000, Cluster: 42/54, ESBytes W CSB: 457002936.000000, STDBytes W CSB: 568600236.000000, IP Bytes W CSB: 236191896.000000, IS_MAX: 0, Tot. Cov: 112.000000, ESBytes WO CSB: 457463084.000000, STDBytes WO CSB: 569947584.000000, IP Bytes WO CSB: 236191896.000000, IS_MAX: 1
Coverage: 30, Tot. Cov: 65.000000, Cluster: 43/54, ESBytes W CSB: 280981908.000000, STDBytes W CSB: 376983208.000000, IP Bytes W CSB: 138018848.000000, IS_MAX: 0, Tot. Cov: 76.000000, ESBytes WO CSB: 254234312.000000, STDBytes WO CSB: 329485612.000000, IP Bytes WO CSB: 138018848.000000, IS_MAX: 1
Coverage: 30, Tot. Cov: 67.000000, Cluster: 44/54, ESBytes W CSB: 288006432.000000, STDBytes W CSB: 393965132.000000, IP Bytes W CSB: 145790332.000000, IS_MAX: 0, Tot. Cov: 67.000000, ESBytes WO CSB: 299592228.000000, STDBytes WO CSB: 405688128.000000, IP Bytes WO CSB: 145790332.000000, IS_MAX: 1
Coverage: 30, Tot. Cov: 182.000000, Cluster: 45/54, ESBytes W CSB: 508996948.000000, STDBytes W CSB: 612075448.000000, IP Bytes W CSB: 331004556.000000, IS_MAX: 0, Tot. Cov: 182.000000, ESBytes WO CSB: 528309564.000000, STDBytes WO CSB: 641342464.000000, IP Bytes WO CSB: 331004556.000000, IS_MAX: 1
Coverage: 30, Tot. Cov: 32.000000, Cluster: 46/54, ESBytes W CSB: 189903680.000000, STDBytes W CSB: 236488580.000000, IP Bytes W CSB: 103037172.000000, IS_MAX: 0, Tot. Cov: 31.000000, ESBytes WO CSB: 199367600.000000, STDBytes WO CSB: 265008400.000000, IP Bytes WO CSB: 103037172.000000, IS_MAX: 1
Coverage: 30, Tot. Cov: 567.000000, Cluster: 47/54, ESBytes W CSB: 2434044792.000000, STDBytes W CSB: 3128912292.000000, IP Bytes W CSB: 1680317448.000000, IS_MAX: 0, Tot. Cov: 562.000000, ESBytes WO CSB: 2604109548.000000, STDBytes WO CSB: 3258681948.000000, IP Bytes WO CSB: 1680317448.000000, IS_MAX: 1
Coverage: 30, Tot. Cov: 134.000000, Cluster: 48/54, ESBytes W CSB: 522199492.000000, STDBytes W CSB: 650839992.000000, IP Bytes W CSB: 293134016.000000, IS_MAX: 0, Tot. Cov: 130.000000, ESBytes WO CSB: 516097296.000000, STDBytes WO CSB: 646993896.000000, IP Bytes WO CSB: 293134016.000000, IS_MAX: 1
Coverage: 30, Tot. Cov: 287.000000, Cluster: 49/54, ESBytes W CSB: 1059446776.000000, STDBytes W CSB: 1486242276.000000, IP Bytes W CSB: 535325796.000000, IS_MAX: 0, Tot. Cov: 290.000000, ESBytes WO CSB: 1022168540.000000, STDBytes WO CSB: 1507955940.000000, IP Bytes WO CSB: 535325796.000000, IS_MAX: 1
Coverage: 30, Tot. Cov: 263.000000, Cluster: 50/54, ESBytes W CSB: 569870744.000000, STDBytes W CSB: 772531344.000000, IP Bytes W CSB: 287534220.000000, IS_MAX: 0, Tot. Cov: 266.000000, ESBytes WO CSB: 538682652.000000, STDBytes WO CSB: 733734552.000000, IP Bytes WO CSB: 287534220.000000, IS_MAX: 1
Coverage: 30, Tot. Cov: 273.000000, Cluster: 51/54, ESBytes W CSB: 659213828.000000, STDBytes W CSB: 845387028.000000, IP Bytes W CSB: 355621208.000000, IS_MAX: 0, Tot. Cov: 267.000000, ESBytes WO CSB: 614733660.000000, STDBytes WO CSB: 797377860.000000, IP Bytes WO CSB: 355621208.000000, IS_MAX: 1
Coverage: 30, Tot. Cov: 152.000000, Cluster: 52/54, ESBytes W CSB: 627371924.000000, STDBytes W CSB: 787680924.000000, IP Bytes W CSB: 307066040.000000, IS_MAX: 0, Tot. Cov: 148.000000, ESBytes WO CSB: 608894808.000000, STDBytes WO CSB: 761713508.000000, IP Bytes WO CSB: 307066040.000000, IS_MAX: 1
Coverage: 30, Tot. Cov: 1480.000000, Cluster: 53/54, ESBytes W CSB: 7647614456.000000, STDBytes W CSB: 15890682156.000000, IP Bytes W CSB: 4574251128.000000, IS_MAX: 0, Tot. Cov: 1479.000000, ESBytes WO CSB: 7863145648.000000, STDBytes WO CSB: 15787251648.000000, IP Bytes WO CSB: 4574251128.000000, IS_MAX: 1
