Coverage: 30, Tot. Cov: 190.000000, Cluster: 1/54, ESBytes WO CSB: 38457700.000000, STDBytes WO CSB: 51800000.000000, IP Bytes WO CSB: 19897180.000000, IS_MAX: 0, Tot. Cov: 170.000000, ESBytes WO CSB: 33177200.000000, STDBytes WO CSB: 47720000.000000, IP Bytes WO CSB: 17548092.000000, IS_MAX: 1
Coverage: 30, Tot. Cov: 1147.000000, Cluster: 2/54, ESBytes WO CSB: 108901800.000000, STDBytes WO CSB: 174000000.000000, IP Bytes WO CSB: 51068116.000000, IS_MAX: 0, Tot. Cov: 1126.000000, ESBytes WO CSB: 98967500.000000, STDBytes WO CSB: 158160000.000000, IP Bytes WO CSB: 49813424.000000, IS_MAX: 1
Coverage: 30, Tot. Cov: 725.000000, Cluster: 3/54, ESBytes WO CSB: 147858600.000000, STDBytes WO CSB: 304875000.000000, IP Bytes WO CSB: 64220128.000000, IS_MAX: 0, Tot. Cov: 721.000000, ESBytes WO CSB: 128523200.000000, STDBytes WO CSB: 256350000.000000, IP Bytes WO CSB: 63519404.000000, IS_MAX: 1
Coverage: 30, Tot. Cov: 779.000000, Cluster: 4/54, ESBytes WO CSB: 42589400.000000, STDBytes WO CSB: 102400000.000000, IP Bytes WO CSB: 20230556.000000, IS_MAX: 0, Tot. Cov: 781.000000, ESBytes WO CSB: 42809800.000000, STDBytes WO CSB: 117920000.000000, IP Bytes WO CSB: 20350164.000000, IS_MAX: 1
Coverage: 30, Tot. Cov: 2060.000000, Cluster: 5/54, ESBytes WO CSB: 2510892700.000000, STDBytes WO CSB: 3981390000.000000, IP Bytes WO CSB: 1325563600.000000, IS_MAX: 0, Tot. Cov: 2042.000000, ESBytes WO CSB: 2242325700.000000, STDBytes WO CSB: 3650850000.000000, IP Bytes WO CSB: 1310151668.000000, IS_MAX: 1
Coverage: 30, Tot. Cov: 262.000000, Cluster: 6/54, ESBytes WO CSB: 316303700.000000, STDBytes WO CSB: 406350000.000000, IP Bytes WO CSB: 209822516.000000, IS_MAX: 0, Tot. Cov: 259.000000, ESBytes WO CSB: 308836000.000000, STDBytes WO CSB: 395160000.000000, IP Bytes WO CSB: 207193092.000000, IS_MAX: 1
Coverage: 30, Tot. Cov: 1527.000000, Cluster: 7/54, ESBytes WO CSB: 2018264700.000000, STDBytes WO CSB: 2764480000.000000, IP Bytes WO CSB: 1271196388.000000, IS_MAX: 0, Tot. Cov: 1497.000000, ESBytes WO CSB: 1911364200.000000, STDBytes WO CSB: 2480000000.000000, IP Bytes WO CSB: 1242047708.000000, IS_MAX: 1
Coverage: 30, Tot. Cov: 81.000000, Cluster: 8/54, ESBytes WO CSB: 143081400.000000, STDBytes WO CSB: 194650000.000000, IP Bytes WO CSB: 86730488.000000, IS_MAX: 0, Tot. Cov: 81.000000, ESBytes WO CSB: 140429400.000000, STDBytes WO CSB: 187320000.000000, IP Bytes WO CSB: 87022608.000000, IS_MAX: 1
Coverage: 30, Tot. Cov: 130.000000, Cluster: 9/54, ESBytes WO CSB: 210752700.000000, STDBytes WO CSB: 280875000.000000, IP Bytes WO CSB: 143214088.000000, IS_MAX: 0, Tot. Cov: 128.000000, ESBytes WO CSB: 213746900.000000, STDBytes WO CSB: 283695000.000000, IP Bytes WO CSB: 141538820.000000, IS_MAX: 1
Coverage: 30, Tot. Cov: 202.000000, Cluster: 10/54, ESBytes WO CSB: 327028500.000000, STDBytes WO CSB: 476925000.000000, IP Bytes WO CSB: 228720588.000000, IS_MAX: 0, Tot. Cov: 192.000000, ESBytes WO CSB: 319130900.000000, STDBytes WO CSB: 461925000.000000, IP Bytes WO CSB: 217454128.000000, IS_MAX: 1
Coverage: 30, Tot. Cov: 32.000000, Cluster: 11/54, ESBytes WO CSB: 47901800.000000, STDBytes WO CSB: 77530000.000000, IP Bytes WO CSB: 39620436.000000, IS_MAX: 0, Tot. Cov: 32.000000, ESBytes WO CSB: 52156000.000000, STDBytes WO CSB: 86835000.000000, IP Bytes WO CSB: 39682232.000000, IS_MAX: 1
Coverage: 30, Tot. Cov: 752.000000, Cluster: 12/54, ESBytes WO CSB: 420139200.000000, STDBytes WO CSB: 590720000.000000, IP Bytes WO CSB: 233714564.000000, IS_MAX: 0, Tot. Cov: 732.000000, ESBytes WO CSB: 398846100.000000, STDBytes WO CSB: 577200000.000000, IP Bytes WO CSB: 224752328.000000, IS_MAX: 1
Coverage: 30, Tot. Cov: 128.000000, Cluster: 13/54, ESBytes WO CSB: 83676600.000000, STDBytes WO CSB: 117600000.000000, IP Bytes WO CSB: 54485324.000000, IS_MAX: 0, Tot. Cov: 122.000000, ESBytes WO CSB: 85079700.000000, STDBytes WO CSB: 124260000.000000, IP Bytes WO CSB: 52119168.000000, IS_MAX: 1
Coverage: 30, Tot. Cov: 199.000000, Cluster: 14/54, ESBytes WO CSB: 107965800.000000, STDBytes WO CSB: 147725000.000000, IP Bytes WO CSB: 67539308.000000, IS_MAX: 0, Tot. Cov: 195.000000, ESBytes WO CSB: 105297400.000000, STDBytes WO CSB: 153200000.000000, IP Bytes WO CSB: 66102140.000000, IS_MAX: 1
Coverage: 30, Tot. Cov: 453.000000, Cluster: 15/54, ESBytes WO CSB: 388192300.000000, STDBytes WO CSB: 581350000.000000, IP Bytes WO CSB: 184671344.000000, IS_MAX: 0, Tot. Cov: 456.000000, ESBytes WO CSB: 318071200.000000, STDBytes WO CSB: 482350000.000000, IP Bytes WO CSB: 186797472.000000, IS_MAX: 1
Coverage: 30, Tot. Cov: 102.000000, Cluster: 16/54, ESBytes WO CSB: 46150500.000000, STDBytes WO CSB: 71370000.000000, IP Bytes WO CSB: 33261476.000000, IS_MAX: 0, Tot. Cov: 127.000000, ESBytes WO CSB: 60311500.000000, STDBytes WO CSB: 78795000.000000, IP Bytes WO CSB: 41582660.000000, IS_MAX: 1
Coverage: 30, Tot. Cov: 77.000000, Cluster: 17/54, ESBytes WO CSB: 51750300.000000, STDBytes WO CSB: 70460000.000000, IP Bytes WO CSB: 28507684.000000, IS_MAX: 0, Tot. Cov: 70.000000, ESBytes WO CSB: 43828800.000000, STDBytes WO CSB: 65600000.000000, IP Bytes WO CSB: 25953020.000000, IS_MAX: 1
Coverage: 30, Tot. Cov: 86.000000, Cluster: 18/54, ESBytes WO CSB: 46110200.000000, STDBytes WO CSB: 58930000.000000, IP Bytes WO CSB: 28717632.000000, IS_MAX: 0, Tot. Cov: 84.000000, ESBytes WO CSB: 43406300.000000, STDBytes WO CSB: 60950000.000000, IP Bytes WO CSB: 28020916.000000, IS_MAX: 1
Coverage: 30, Tot. Cov: 33.000000, Cluster: 19/54, ESBytes WO CSB: 17673300.000000, STDBytes WO CSB: 27675000.000000, IP Bytes WO CSB: 11237384.000000, IS_MAX: 0, Tot. Cov: 37.000000, ESBytes WO CSB: 20390300.000000, STDBytes WO CSB: 30175000.000000, IP Bytes WO CSB: 12616132.000000, IS_MAX: 1
Coverage: 30, Tot. Cov: 331.000000, Cluster: 20/54, ESBytes WO CSB: 260551800.000000, STDBytes WO CSB: 337715000.000000, IP Bytes WO CSB: 146757544.000000, IS_MAX: 0, Tot. Cov: 305.000000, ESBytes WO CSB: 224708800.000000, STDBytes WO CSB: 298270000.000000, IP Bytes WO CSB: 134505340.000000, IS_MAX: 1
Coverage: 30, Tot. Cov: 1727.000000, Cluster: 21/54, ESBytes WO CSB: 1886715500.000000, STDBytes WO CSB: 3176950000.000000, IP Bytes WO CSB: 936558584.000000, IS_MAX: 0, Tot. Cov: 1725.000000, ESBytes WO CSB: 1484988100.000000, STDBytes WO CSB: 2567950000.000000, IP Bytes WO CSB: 935223000.000000, IS_MAX: 1
Coverage: 30, Tot. Cov: 209.000000, Cluster: 22/54, ESBytes WO CSB: 209812700.000000, STDBytes WO CSB: 314850000.000000, IP Bytes WO CSB: 120580756.000000, IS_MAX: 0, Tot. Cov: 201.000000, ESBytes WO CSB: 185228000.000000, STDBytes WO CSB: 284500000.000000, IP Bytes WO CSB: 115536892.000000, IS_MAX: 1
Coverage: 30, Tot. Cov: 104.000000, Cluster: 23/54, ESBytes WO CSB: 20470200.000000, STDBytes WO CSB: 31095000.000000, IP Bytes WO CSB: 12864856.000000, IS_MAX: 0, Tot. Cov: 125.000000, ESBytes WO CSB: 26103800.000000, STDBytes WO CSB: 35610000.000000, IP Bytes WO CSB: 15687872.000000, IS_MAX: 1
Coverage: 30, Tot. Cov: 142.000000, Cluster: 24/54, ESBytes WO CSB: 33939300.000000, STDBytes WO CSB: 44010000.000000, IP Bytes WO CSB: 15519916.000000, IS_MAX: 0, Tot. Cov: 135.000000, ESBytes WO CSB: 29820200.000000, STDBytes WO CSB: 40350000.000000, IP Bytes WO CSB: 14554916.000000, IS_MAX: 1
Coverage: 30, Tot. Cov: 174.000000, Cluster: 25/54, ESBytes WO CSB: 84302800.000000, STDBytes WO CSB: 120700000.000000, IP Bytes WO CSB: 35090168.000000, IS_MAX: 0, Tot. Cov: 169.000000, ESBytes WO CSB: 72738800.000000, STDBytes WO CSB: 103600000.000000, IP Bytes WO CSB: 34082352.000000, IS_MAX: 1
Coverage: 30, Tot. Cov: 423.000000, Cluster: 26/54, ESBytes WO CSB: 67061300.000000, STDBytes WO CSB: 115830000.000000, IP Bytes WO CSB: 38018128.000000, IS_MAX: 0, Tot. Cov: 423.000000, ESBytes WO CSB: 78705100.000000, STDBytes WO CSB: 118485000.000000, IP Bytes WO CSB: 37897100.000000, IS_MAX: 1
Coverage: 30, Tot. Cov: 1575.000000, Cluster: 27/54, ESBytes WO CSB: 719738400.000000, STDBytes WO CSB: 1091200000.000000, IP Bytes WO CSB: 268383444.000000, IS_MAX: 0, Tot. Cov: 1573.000000, ESBytes WO CSB: 517314900.000000, STDBytes WO CSB: 831360000.000000, IP Bytes WO CSB: 268009008.000000, IS_MAX: 1
Coverage: 30, Tot. Cov: 67.000000, Cluster: 28/54, ESBytes WO CSB: 21781600.000000, STDBytes WO CSB: 33660000.000000, IP Bytes WO CSB: 15383756.000000, IS_MAX: 0, Tot. Cov: 76.000000, ESBytes WO CSB: 26235600.000000, STDBytes WO CSB: 41770000.000000, IP Bytes WO CSB: 17427676.000000, IS_MAX: 1
Coverage: 30, Tot. Cov: 76.000000, Cluster: 29/54, ESBytes WO CSB: 19781300.000000, STDBytes WO CSB: 30170000.000000, IP Bytes WO CSB: 12917272.000000, IS_MAX: 0, Tot. Cov: 83.000000, ESBytes WO CSB: 23072800.000000, STDBytes WO CSB: 37510000.000000, IP Bytes WO CSB: 13753768.000000, IS_MAX: 1
Coverage: 30, Tot. Cov: 30.000000, Cluster: 30/54, ESBytes WO CSB: 10866200.000000, STDBytes WO CSB: 18680000.000000, IP Bytes WO CSB: 8146716.000000, IS_MAX: 0, Tot. Cov: 32.000000, ESBytes WO CSB: 12304000.000000, STDBytes WO CSB: 22580000.000000, IP Bytes WO CSB: 8692688.000000, IS_MAX: 1
Coverage: 30, Tot. Cov: 31.000000, Cluster: 31/54, ESBytes WO CSB: 13135600.000000, STDBytes WO CSB: 22410000.000000, IP Bytes WO CSB: 7851652.000000, IS_MAX: 0, Tot. Cov: 31.000000, ESBytes WO CSB: 12621500.000000, STDBytes WO CSB: 23370000.000000, IP Bytes WO CSB: 7865612.000000, IS_MAX: 1
Coverage: 30, Tot. Cov: 31.000000, Cluster: 32/54, ESBytes WO CSB: 5651500.000000, STDBytes WO CSB: 9655000.000000, IP Bytes WO CSB: 4354384.000000, IS_MAX: 0, Tot. Cov: 30.000000, ESBytes WO CSB: 5731400.000000, STDBytes WO CSB: 11665000.000000, IP Bytes WO CSB: 4202532.000000, IS_MAX: 1
Coverage: 30, Tot. Cov: 1171.000000, Cluster: 33/54, ESBytes WO CSB: 315198400.000000, STDBytes WO CSB: 519480000.000000, IP Bytes WO CSB: 158957428.000000, IS_MAX: 0, Tot. Cov: 1164.000000, ESBytes WO CSB: 296788100.000000, STDBytes WO CSB: 471000000.000000, IP Bytes WO CSB: 157586112.000000, IS_MAX: 1
Coverage: 30, Tot. Cov: 36.000000, Cluster: 34/54, ESBytes WO CSB: 7414000.000000, STDBytes WO CSB: 10595000.000000, IP Bytes WO CSB: 5880788.000000, IS_MAX: 0, Tot. Cov: 31.000000, ESBytes WO CSB: 6561000.000000, STDBytes WO CSB: 14460000.000000, IP Bytes WO CSB: 5060748.000000, IS_MAX: 1
Coverage: 30, Tot. Cov: 1341.000000, Cluster: 35/54, ESBytes WO CSB: 630042800.000000, STDBytes WO CSB: 958860000.000000, IP Bytes WO CSB: 337818688.000000, IS_MAX: 0, Tot. Cov: 1336.000000, ESBytes WO CSB: 589467000.000000, STDBytes WO CSB: 836640000.000000, IP Bytes WO CSB: 334496952.000000, IS_MAX: 1
Coverage: 30, Tot. Cov: 1633.000000, Cluster: 36/54, ESBytes WO CSB: 844684300.000000, STDBytes WO CSB: 1395870000.000000, IP Bytes WO CSB: 470392096.000000, IS_MAX: 0, Tot. Cov: 1625.000000, ESBytes WO CSB: 801488000.000000, STDBytes WO CSB: 1231310000.000000, IP Bytes WO CSB: 467147148.000000, IS_MAX: 1
Coverage: 30, Tot. Cov: 32.000000, Cluster: 37/54, ESBytes WO CSB: 20106300.000000, STDBytes WO CSB: 33050000.000000, IP Bytes WO CSB: 14983692.000000, IS_MAX: 0, Tot. Cov: 33.000000, ESBytes WO CSB: 21863600.000000, STDBytes WO CSB: 36990000.000000, IP Bytes WO CSB: 15451584.000000, IS_MAX: 1
Coverage: 30, Tot. Cov: 109.000000, Cluster: 38/54, ESBytes WO CSB: 102118000.000000, STDBytes WO CSB: 166935000.000000, IP Bytes WO CSB: 60493068.000000, IS_MAX: 0, Tot. Cov: 119.000000, ESBytes WO CSB: 112501200.000000, STDBytes WO CSB: 167925000.000000, IP Bytes WO CSB: 67202540.000000, IS_MAX: 1
Coverage: 30, Tot. Cov: 116.000000, Cluster: 39/54, ESBytes WO CSB: 281466500.000000, STDBytes WO CSB: 470445000.000000, IP Bytes WO CSB: 187765744.000000, IS_MAX: 0, Tot. Cov: 110.000000, ESBytes WO CSB: 263564300.000000, STDBytes WO CSB: 451560000.000000, IP Bytes WO CSB: 176552272.000000, IS_MAX: 1
Coverage: 30, Tot. Cov: 761.000000, Cluster: 40/54, ESBytes WO CSB: 1187602600.000000, STDBytes WO CSB: 2266080000.000000, IP Bytes WO CSB: 645583376.000000, IS_MAX: 0, Tot. Cov: 763.000000, ESBytes WO CSB: 1029224300.000000, STDBytes WO CSB: 1995120000.000000, IP Bytes WO CSB: 649191812.000000, IS_MAX: 1
Coverage: 30, Tot. Cov: 584.000000, Cluster: 41/54, ESBytes WO CSB: 1173845100.000000, STDBytes WO CSB: 1499095000.000000, IP Bytes WO CSB: 726662292.000000, IS_MAX: 0, Tot. Cov: 579.000000, ESBytes WO CSB: 1092737500.000000, STDBytes WO CSB: 1405560000.000000, IP Bytes WO CSB: 719737716.000000, IS_MAX: 1
Coverage: 30, Tot. Cov: 114.000000, Cluster: 42/54, ESBytes WO CSB: 267287700.000000, STDBytes WO CSB: 378885000.000000, IP Bytes WO CSB: 172953484.000000, IS_MAX: 0, Tot. Cov: 112.000000, ESBytes WO CSB: 259455500.000000, STDBytes WO CSB: 371940000.000000, IP Bytes WO CSB: 170189368.000000, IS_MAX: 1
Coverage: 30, Tot. Cov: 65.000000, Cluster: 43/54, ESBytes WO CSB: 120608700.000000, STDBytes WO CSB: 216610000.000000, IP Bytes WO CSB: 84561112.000000, IS_MAX: 0, Tot. Cov: 76.000000, ESBytes WO CSB: 144628700.000000, STDBytes WO CSB: 219880000.000000, IP Bytes WO CSB: 101483644.000000, IS_MAX: 1
Coverage: 30, Tot. Cov: 67.000000, Cluster: 44/54, ESBytes WO CSB: 116721300.000000, STDBytes WO CSB: 222680000.000000, IP Bytes WO CSB: 88695288.000000, IS_MAX: 0, Tot. Cov: 67.000000, ESBytes WO CSB: 127934100.000000, STDBytes WO CSB: 234030000.000000, IP Bytes WO CSB: 88570956.000000, IS_MAX: 1
Coverage: 30, Tot. Cov: 182.000000, Cluster: 45/54, ESBytes WO CSB: 381941500.000000, STDBytes WO CSB: 485020000.000000, IP Bytes WO CSB: 288652740.000000, IS_MAX: 0, Tot. Cov: 182.000000, ESBytes WO CSB: 402467100.000000, STDBytes WO CSB: 515500000.000000, IP Bytes WO CSB: 289057068.000000, IS_MAX: 1
Coverage: 30, Tot. Cov: 32.000000, Cluster: 46/54, ESBytes WO CSB: 78310100.000000, STDBytes WO CSB: 124895000.000000, IP Bytes WO CSB: 65839312.000000, IS_MAX: 0, Tot. Cov: 31.000000, ESBytes WO CSB: 81879200.000000, STDBytes WO CSB: 147520000.000000, IP Bytes WO CSB: 63874372.000000, IS_MAX: 1
Coverage: 30, Tot. Cov: 567.000000, Cluster: 47/54, ESBytes WO CSB: 2074792500.000000, STDBytes WO CSB: 2769660000.000000, IP Bytes WO CSB: 1560566684.000000, IS_MAX: 0, Tot. Cov: 562.000000, ESBytes WO CSB: 2193987600.000000, STDBytes WO CSB: 2848560000.000000, IP Bytes WO CSB: 1543610132.000000, IS_MAX: 1
Coverage: 30, Tot. Cov: 134.000000, Cluster: 48/54, ESBytes WO CSB: 413834500.000000, STDBytes WO CSB: 542475000.000000, IP Bytes WO CSB: 257012352.000000, IS_MAX: 0, Tot. Cov: 130.000000, ESBytes WO CSB: 381683400.000000, STDBytes WO CSB: 512580000.000000, IP Bytes WO CSB: 248329384.000000, IS_MAX: 1
Coverage: 30, Tot. Cov: 287.000000, Cluster: 49/54, ESBytes WO CSB: 658064500.000000, STDBytes WO CSB: 1084860000.000000, IP Bytes WO CSB: 401531704.000000, IS_MAX: 0, Tot. Cov: 290.000000, ESBytes WO CSB: 637607600.000000, STDBytes WO CSB: 1123395000.000000, IP Bytes WO CSB: 407138816.000000, IS_MAX: 1
Coverage: 30, Tot. Cov: 263.000000, Cluster: 50/54, ESBytes WO CSB: 418399400.000000, STDBytes WO CSB: 621060000.000000, IP Bytes WO CSB: 237043772.000000, IS_MAX: 0, Tot. Cov: 266.000000, ESBytes WO CSB: 398678100.000000, STDBytes WO CSB: 593730000.000000, IP Bytes WO CSB: 240866036.000000, IS_MAX: 1
Coverage: 30, Tot. Cov: 273.000000, Cluster: 51/54, ESBytes WO CSB: 541416800.000000, STDBytes WO CSB: 727590000.000000, IP Bytes WO CSB: 316355532.000000, IS_MAX: 0, Tot. Cov: 267.000000, ESBytes WO CSB: 473005800.000000, STDBytes WO CSB: 655650000.000000, IP Bytes WO CSB: 308378588.000000, IS_MAX: 1
Coverage: 30, Tot. Cov: 152.000000, Cluster: 52/54, ESBytes WO CSB: 372851000.000000, STDBytes WO CSB: 533160000.000000, IP Bytes WO CSB: 222225732.000000, IS_MAX: 0, Tot. Cov: 148.000000, ESBytes WO CSB: 336921300.000000, STDBytes WO CSB: 489740000.000000, IP Bytes WO CSB: 216408204.000000, IS_MAX: 1
Coverage: 30, Tot. Cov: 1480.000000, Cluster: 53/54, ESBytes WO CSB: 7204982300.000000, STDBytes WO CSB: 15448050000.000000, IP Bytes WO CSB: 4426707076.000000, IS_MAX: 0, Tot. Cov: 1479.000000, ESBytes WO CSB: 7400344000.000000, STDBytes WO CSB: 15324450000.000000, IP Bytes WO CSB: 4419983912.000000, IS_MAX: 1
