Coverage: 40, Tot. Cov: 92.000000, 1/131, STDB: 1058520000.000000, IPB: 629534764.000000, STDT: 7551118128.000000, IPT: 697868821.000000, BOH/LOH: 1.681432,10.820254, MAX:1
Coverage: 40, Tot. Cov: 131.000000, 2/131, STDB: 901132500.000000, IPB: 487542676.000000, STDT: 13857628109.000000, IPT: 1069759864.000000, BOH/LOH: 1.848315,12.953962, MAX:1
Coverage: 40, Tot. Cov: 740.000000, 3/131, STDB: 1866825000.000000, IPB: 64893608.000000, STDT: 22801062237.000000, IPT: 3123421323.000000, BOH/LOH: 28.767471,7.300028, MAX:1
Coverage: 40, Tot. Cov: 439.000000, 4/131, STDB: 100485000.000000, IPB: 18684092.000000, STDT: 19170580762.000000, IPT: 1797663449.000000, BOH/LOH: 5.378105,10.664166, MAX:1
Coverage: 40, Tot. Cov: 87.000000, 5/131, STDB: 5045000.000000, IPB: 2896068.000000, STDT: 646306981.000000, IPT: 273229037.000000, BOH/LOH: 1.742017,2.365440, MAX:1
Coverage: 40, Tot. Cov: 89.000000, 6/131, STDB: 5690000.000000, IPB: 2780012.000000, STDT: 942956400.000000, IPT: 274217603.000000, BOH/LOH: 2.046754,3.438716, MAX:1
Coverage: 40, Tot. Cov: 138.000000, 7/131, STDB: 20625000.000000, IPB: 7872196.000000, STDT: 1540332637.000000, IPT: 485730340.000000, BOH/LOH: 2.619980,3.171168, MAX:1
Coverage: 40, Tot. Cov: 279.000000, 8/131, STDB: 30045000.000000, IPB: 12939084.000000, STDT: 3522339935.000000, IPT: 920091815.000000, BOH/LOH: 2.322035,3.828248, MAX:1
Coverage: 40, Tot. Cov: 41.000000, 9/131, STDB: 5535000.000000, IPB: 2614284.000000, STDT: 395505081.000000, IPT: 151841699.000000, BOH/LOH: 2.117215,2.604720, MAX:1
Coverage: 40, Tot. Cov: 42.000000, 10/131, STDB: 4297500.000000, IPB: 1677556.000000, STDT: 1078854109.000000, IPT: 240815914.000000, BOH/LOH: 2.561762,4.479995, MAX:1
Coverage: 40, Tot. Cov: 43.000000, 11/131, STDB: 2880000.000000, IPB: 1434900.000000, STDT: 287803858.000000, IPT: 147897018.000000, BOH/LOH: 2.007109,1.945975, MAX:1
Coverage: 40, Tot. Cov: 431.000000, 12/131, STDB: 160200000.000000, IPB: 38634288.000000, STDT: 7802094765.000000, IPT: 1881530778.000000, BOH/LOH: 4.146576,4.146674, MAX:1
Coverage: 40, Tot. Cov: 635.000000, 13/131, STDB: 188662500.000000, IPB: 53730636.000000, STDT: 15011605184.000000, IPT: 3304919418.000000, BOH/LOH: 3.511265,4.542200, MAX:1
Coverage: 40, Tot. Cov: 191.000000, 14/131, STDB: 201480000.000000, IPB: 95399880.000000, STDT: 23694725599.000000, IPT: 1373144735.000000, BOH/LOH: 2.111952,17.255811, MAX:1
Coverage: 40, Tot. Cov: 86.000000, 15/131, STDB: 119240000.000000, IPB: 59291720.000000, STDT: 5191268020.000000, IPT: 483666056.000000, BOH/LOH: 2.011073,10.733166, MAX:1
Coverage: 40, Tot. Cov: 93.000000, 16/131, STDB: 105330000.000000, IPB: 58302068.000000, STDT: 3174650177.000000, IPT: 264828922.000000, BOH/LOH: 1.806625,11.987551, MAX:1
Coverage: 40, Tot. Cov: 281.000000, 17/131, STDB: 325875000.000000, IPB: 161298156.000000, STDT: 16003460500.000000, IPT: 1541563968.000000, BOH/LOH: 2.020327,10.381315, MAX:1
Coverage: 40, Tot. Cov: 336.000000, 18/131, STDB: 424602500.000000, IPB: 193546744.000000, STDT: 18424761773.000000, IPT: 1957762907.000000, BOH/LOH: 2.193798,9.411130, MAX:1
Coverage: 40, Tot. Cov: 41.000000, 19/131, STDB: 46977500.000000, IPB: 21200228.000000, STDT: 1476366260.000000, IPT: 178657090.000000, BOH/LOH: 2.215896,8.263687, MAX:1
Coverage: 40, Tot. Cov: 86.000000, 20/131, STDB: 81560000.000000, IPB: 37278156.000000, STDT: 4752517985.000000, IPT: 511421505.000000, BOH/LOH: 2.187876,9.292761, MAX:1
Coverage: 40, Tot. Cov: 179.000000, 21/131, STDB: 123990000.000000, IPB: 70445964.000000, STDT: 6751018302.000000, IPT: 880330359.000000, BOH/LOH: 1.760072,7.668733, MAX:1
Coverage: 40, Tot. Cov: 443.000000, 22/131, STDB: 376875000.000000, IPB: 159605600.000000, STDT: 16722588535.000000, IPT: 1963252848.000000, BOH/LOH: 2.361289,8.517797, MAX:1
Coverage: 40, Tot. Cov: 139.000000, 23/131, STDB: 82290000.000000, IPB: 39299652.000000, STDT: 3261911669.000000, IPT: 613220187.000000, BOH/LOH: 2.093912,5.319316, MAX:1
Coverage: 40, Tot. Cov: 142.000000, 24/131, STDB: 130837500.000000, IPB: 38119312.000000, STDT: 10066629475.000000, IPT: 1037325991.000000, BOH/LOH: 3.432315,9.704403, MAX:1
Coverage: 40, Tot. Cov: 44.000000, 25/131, STDB: 26830000.000000, IPB: 8825972.000000, STDT: 1705290401.000000, IPT: 372536872.000000, BOH/LOH: 3.039892,4.577508, MAX:1
Coverage: 40, Tot. Cov: 131.000000, 26/131, STDB: 175710000.000000, IPB: 80219804.000000, STDT: 10703689957.000000, IPT: 652334777.000000, BOH/LOH: 2.190357,16.408277, MAX:1
Coverage: 40, Tot. Cov: 442.000000, 27/131, STDB: 672997500.000000, IPB: 273545036.000000, STDT: 42146220136.000000, IPT: 2152493647.000000, BOH/LOH: 2.460280,19.580183, MAX:1
Coverage: 40, Tot. Cov: 224.000000, 28/131, STDB: 307862500.000000, IPB: 141242852.000000, STDT: 16875044653.000000, IPT: 1136655877.000000, BOH/LOH: 2.179668,14.846221, MAX:1
Coverage: 40, Tot. Cov: 242.000000, 29/131, STDB: 301637500.000000, IPB: 168229384.000000, STDT: 18664279784.000000, IPT: 1035470970.000000, BOH/LOH: 1.793013,18.024918, MAX:1
Coverage: 40, Tot. Cov: 272.000000, 30/131, STDB: 253485000.000000, IPB: 145893568.000000, STDT: 14022080701.000000, IPT: 1254063175.000000, BOH/LOH: 1.737465,11.181319, MAX:1
Coverage: 40, Tot. Cov: 239.000000, 31/131, STDB: 199375000.000000, IPB: 94816704.000000, STDT: 17421355236.000000, IPT: 1137049940.000000, BOH/LOH: 2.102741,15.321539, MAX:1
Coverage: 40, Tot. Cov: 190.000000, 32/131, STDB: 200010000.000000, IPB: 82784064.000000, STDT: 10998984463.000000, IPT: 859102252.000000, BOH/LOH: 2.416045,12.802882, MAX:1
Coverage: 40, Tot. Cov: 125.000000, 33/131, STDB: 136882500.000000, IPB: 65680168.000000, STDT: 5568934849.000000, IPT: 587777325.000000, BOH/LOH: 2.084077,9.474566, MAX:1
Coverage: 40, Tot. Cov: 136.000000, 34/131, STDB: 144255000.000000, IPB: 62365820.000000, STDT: 5930424005.000000, IPT: 683352443.000000, BOH/LOH: 2.313046,8.678427, MAX:1
Coverage: 40, Tot. Cov: 190.000000, 35/131, STDB: 194480000.000000, IPB: 100127776.000000, STDT: 11482900598.000000, IPT: 828503926.000000, BOH/LOH: 1.942318,13.859802, MAX:1
Coverage: 40, Tot. Cov: 408.000000, 36/131, STDB: 405292500.000000, IPB: 186725700.000000, STDT: 25459949363.000000, IPT: 2047017950.000000, BOH/LOH: 2.170523,12.437580, MAX:1
Coverage: 40, Tot. Cov: 83.000000, 37/131, STDB: 197650000.000000, IPB: 100479028.000000, STDT: 6265919203.000000, IPT: 438781720.000000, BOH/LOH: 1.967077,14.280265, MAX:1
Coverage: 40, Tot. Cov: 132.000000, 38/131, STDB: 206025000.000000, IPB: 95592020.000000, STDT: 11673830314.000000, IPT: 759521622.000000, BOH/LOH: 2.155253,15.369978, MAX:1
Coverage: 40, Tot. Cov: 332.000000, 39/131, STDB: 597450000.000000, IPB: 319416692.000000, STDT: 26942990897.000000, IPT: 1622393579.000000, BOH/LOH: 1.870441,16.606939, MAX:1
Coverage: 40, Tot. Cov: 221.000000, 40/131, STDB: 462362500.000000, IPB: 229990880.000000, STDT: 18147180587.000000, IPT: 1246777634.000000, BOH/LOH: 2.010351,14.555266, MAX:1
Coverage: 40, Tot. Cov: 135.000000, 41/131, STDB: 203542500.000000, IPB: 116490724.000000, STDT: 6841232135.000000, IPT: 611339012.000000, BOH/LOH: 1.747285,11.190570, MAX:1
Coverage: 40, Tot. Cov: 131.000000, 42/131, STDB: 183480000.000000, IPB: 98863932.000000, STDT: 7996018018.000000, IPT: 752480600.000000, BOH/LOH: 1.855884,10.626212, MAX:1
Coverage: 40, Tot. Cov: 288.000000, 43/131, STDB: 526725000.000000, IPB: 228313952.000000, STDT: 29666356520.000000, IPT: 1310847649.000000, BOH/LOH: 2.307021,22.631430, MAX:1
Coverage: 40, Tot. Cov: 221.000000, 44/131, STDB: 340837500.000000, IPB: 185265128.000000, STDT: 15658552280.000000, IPT: 1045162541.000000, BOH/LOH: 1.839728,14.981930, MAX:1
Coverage: 40, Tot. Cov: 227.000000, 45/131, STDB: 367725000.000000, IPB: 185046212.000000, STDT: 19639139531.000000, IPT: 1260744073.000000, BOH/LOH: 1.987206,15.577420, MAX:1
Coverage: 40, Tot. Cov: 91.000000, 46/131, STDB: 153650000.000000, IPB: 72339652.000000, STDT: 6068930398.000000, IPT: 587754193.000000, BOH/LOH: 2.124008,10.325627, MAX:1
Coverage: 40, Tot. Cov: 287.000000, 47/131, STDB: 428010000.000000, IPB: 213714940.000000, STDT: 14790278594.000000, IPT: 1331672069.000000, BOH/LOH: 2.002714,11.106547, MAX:1
Coverage: 40, Tot. Cov: 124.000000, 48/131, STDB: 207705000.000000, IPB: 109145124.000000, STDT: 8572186383.000000, IPT: 588695281.000000, BOH/LOH: 1.903017,14.561330, MAX:1
Coverage: 40, Tot. Cov: 85.000000, 49/131, STDB: 157850000.000000, IPB: 81946008.000000, STDT: 5964098053.000000, IPT: 441319822.000000, BOH/LOH: 1.926268,13.514231, MAX:1
Coverage: 40, Tot. Cov: 93.000000, 50/131, STDB: 174645000.000000, IPB: 81184116.000000, STDT: 5605969545.000000, IPT: 746218802.000000, BOH/LOH: 2.151221,7.512501, MAX:1
Coverage: 40, Tot. Cov: 93.000000, 51/131, STDB: 47060000.000000, IPB: 23149800.000000, STDT: 3630955475.000000, IPT: 377684944.000000, BOH/LOH: 2.032847,9.613715, MAX:1
Coverage: 40, Tot. Cov: 385.000000, 52/131, STDB: 111180000.000000, IPB: 50702320.000000, STDT: 14616832921.000000, IPT: 1816944116.000000, BOH/LOH: 2.192799,8.044734, MAX:1
Coverage: 40, Tot. Cov: 92.000000, 53/131, STDB: 56240000.000000, IPB: 21351680.000000, STDT: 4580575441.000000, IPT: 540958721.000000, BOH/LOH: 2.633985,8.467514, MAX:1
Coverage: 40, Tot. Cov: 237.000000, 54/131, STDB: 91775000.000000, IPB: 40739196.000000, STDT: 4830935893.000000, IPT: 894579525.000000, BOH/LOH: 2.252745,5.400231, MAX:1
Coverage: 40, Tot. Cov: 773.000000, 55/131, STDB: 289440000.000000, IPB: 125499796.000000, STDT: 15180032376.000000, IPT: 3115412924.000000, BOH/LOH: 2.306299,4.872559, MAX:1
Coverage: 40, Tot. Cov: 388.000000, 56/131, STDB: 201820000.000000, IPB: 83306972.000000, STDT: 24364564655.000000, IPT: 1796451193.000000, BOH/LOH: 2.422606,13.562609, MAX:1
Coverage: 40, Tot. Cov: 80.000000, 57/131, STDB: 64055000.000000, IPB: 30290172.000000, STDT: 2296180146.000000, IPT: 323215958.000000, BOH/LOH: 2.114712,7.104167, MAX:1
Coverage: 40, Tot. Cov: 92.000000, 58/131, STDB: 61490000.000000, IPB: 30854684.000000, STDT: 2134441296.000000, IPT: 386414301.000000, BOH/LOH: 1.992890,5.523712, MAX:1
Coverage: 40, Tot. Cov: 90.000000, 59/131, STDB: 62275000.000000, IPB: 30156608.000000, STDT: 2908401104.000000, IPT: 423420247.000000, BOH/LOH: 2.065053,6.868829, MAX:1
Coverage: 40, Tot. Cov: 93.000000, 60/131, STDB: 52425000.000000, IPB: 24777044.000000, STDT: 2004418853.000000, IPT: 413144634.000000, BOH/LOH: 2.115870,4.851615, MAX:1
Coverage: 40, Tot. Cov: 140.000000, 61/131, STDB: 114990000.000000, IPB: 36800348.000000, STDT: 4897154255.000000, IPT: 626252571.000000, BOH/LOH: 3.124699,7.819775, MAX:1
Coverage: 40, Tot. Cov: 240.000000, 62/131, STDB: 246337500.000000, IPB: 88150412.000000, STDT: 8287726697.000000, IPT: 1110318102.000000, BOH/LOH: 2.794513,7.464281, MAX:1
Coverage: 40, Tot. Cov: 125.000000, 63/131, STDB: 71287500.000000, IPB: 32566780.000000, STDT: 3334666745.000000, IPT: 508694347.000000, BOH/LOH: 2.188964,6.555345, MAX:1
Coverage: 40, Tot. Cov: 88.000000, 64/131, STDB: 35830000.000000, IPB: 18289368.000000, STDT: 1549553053.000000, IPT: 340836454.000000, BOH/LOH: 1.959062,4.546324, MAX:1
Coverage: 40, Tot. Cov: 238.000000, 65/131, STDB: 111837500.000000, IPB: 58871040.000000, STDT: 3699933442.000000, IPT: 943586865.000000, BOH/LOH: 1.899703,3.921137, MAX:1
Coverage: 40, Tot. Cov: 684.000000, 66/131, STDB: 576905000.000000, IPB: 193037568.000000, STDT: 29800242228.000000, IPT: 2762602188.000000, BOH/LOH: 2.988563,10.787019, MAX:1
Coverage: 40, Tot. Cov: 128.000000, 67/131, STDB: 47325000.000000, IPB: 26115380.000000, STDT: 3720558421.000000, IPT: 459051469.000000, BOH/LOH: 1.812151,8.104883, MAX:1
Coverage: 40, Tot. Cov: 40.000000, 68/131, STDB: 34430000.000000, IPB: 18760344.000000, STDT: 1471764049.000000, IPT: 174905962.000000, BOH/LOH: 1.835254,8.414602, MAX:1
Coverage: 40, Tot. Cov: 137.000000, 69/131, STDB: 89190000.000000, IPB: 46485780.000000, STDT: 5325800065.000000, IPT: 744914120.000000, BOH/LOH: 1.918651,7.149549, MAX:1
Coverage: 40, Tot. Cov: 140.000000, 70/131, STDB: 74662500.000000, IPB: 29431636.000000, STDT: 7196745888.000000, IPT: 1171826774.000000, BOH/LOH: 2.536811,6.141476, MAX:1
Coverage: 40, Tot. Cov: 90.000000, 71/131, STDB: 50900000.000000, IPB: 21668728.000000, STDT: 5283863817.000000, IPT: 474137608.000000, BOH/LOH: 2.349007,11.144157, MAX:1
Coverage: 40, Tot. Cov: 478.000000, 72/131, STDB: 280625000.000000, IPB: 126379652.000000, STDT: 15681058046.000000, IPT: 2213094108.000000, BOH/LOH: 2.220492,7.085581, MAX:1
Coverage: 40, Tot. Cov: 90.000000, 73/131, STDB: 33105000.000000, IPB: 12485576.000000, STDT: 3568325237.000000, IPT: 757260155.000000, BOH/LOH: 2.651460,4.712152, MAX:1
Coverage: 40, Tot. Cov: 531.000000, 74/131, STDB: 212300000.000000, IPB: 82385500.000000, STDT: 17791259792.000000, IPT: 2391204444.000000, BOH/LOH: 2.576910,7.440292, MAX:1
Coverage: 40, Tot. Cov: 96.000000, 75/131, STDB: 36000000.000000, IPB: 15460472.000000, STDT: 2022479893.000000, IPT: 539602619.000000, BOH/LOH: 2.328519,3.748091, MAX:1
Coverage: 40, Tot. Cov: 185.000000, 76/131, STDB: 81030000.000000, IPB: 37046072.000000, STDT: 5138831768.000000, IPT: 787944442.000000, BOH/LOH: 2.187276,6.521820, MAX:1
Coverage: 40, Tot. Cov: 141.000000, 77/131, STDB: 50977500.000000, IPB: 23409016.000000, STDT: 4222856402.000000, IPT: 1174748159.000000, BOH/LOH: 2.177687,3.594691, MAX:1
Coverage: 40, Tot. Cov: 40.000000, 78/131, STDB: 27907500.000000, IPB: 11168364.000000, STDT: 1289193485.000000, IPT: 179580971.000000, BOH/LOH: 2.498799,7.178898, MAX:1
Coverage: 40, Tot. Cov: 139.000000, 79/131, STDB: 37732500.000000, IPB: 13911136.000000, STDT: 1723942631.000000, IPT: 528832172.000000, BOH/LOH: 2.712395,3.259905, MAX:1
Coverage: 40, Tot. Cov: 141.000000, 80/131, STDB: 30817500.000000, IPB: 12291012.000000, STDT: 4241925015.000000, IPT: 621313324.000000, BOH/LOH: 2.507320,6.827352, MAX:1
Coverage: 40, Tot. Cov: 132.000000, 81/131, STDB: 22507500.000000, IPB: 9872632.000000, STDT: 1993866798.000000, IPT: 504693758.000000, BOH/LOH: 2.279787,3.950647, MAX:1
Coverage: 40, Tot. Cov: 89.000000, 82/131, STDB: 27770000.000000, IPB: 11947712.000000, STDT: 1809792761.000000, IPT: 381112066.000000, BOH/LOH: 2.324294,4.748715, MAX:1
Coverage: 40, Tot. Cov: 86.000000, 83/131, STDB: 22500000.000000, IPB: 12551320.000000, STDT: 2404742022.000000, IPT: 395077190.000000, BOH/LOH: 1.792640,6.086765, MAX:1
Coverage: 40, Tot. Cov: 84.000000, 84/131, STDB: 16035000.000000, IPB: 7115156.000000, STDT: 1493615397.000000, IPT: 308807426.000000, BOH/LOH: 2.253640,4.836721, MAX:1
Coverage: 40, Tot. Cov: 183.000000, 85/131, STDB: 44010000.000000, IPB: 20096816.000000, STDT: 3679232839.000000, IPT: 736820204.000000, BOH/LOH: 2.189899,4.993393, MAX:1
Coverage: 40, Tot. Cov: 42.000000, 86/131, STDB: 12285000.000000, IPB: 5406316.000000, STDT: 1466776523.000000, IPT: 201007521.000000, BOH/LOH: 2.272342,7.297123, MAX:1
Coverage: 40, Tot. Cov: 42.000000, 87/131, STDB: 14582500.000000, IPB: 6874272.000000, STDT: 762568403.000000, IPT: 172048313.000000, BOH/LOH: 2.121316,4.432292, MAX:1
Coverage: 40, Tot. Cov: 41.000000, 88/131, STDB: 19762500.000000, IPB: 6932324.000000, STDT: 1090174011.000000, IPT: 183307489.000000, BOH/LOH: 2.850776,5.947242, MAX:1
Coverage: 40, Tot. Cov: 43.000000, 89/131, STDB: 10237500.000000, IPB: 4655204.000000, STDT: 752567656.000000, IPT: 188112528.000000, BOH/LOH: 2.199152,4.000625, MAX:1
Coverage: 40, Tot. Cov: 94.000000, 90/131, STDB: 66420000.000000, IPB: 38737180.000000, STDT: 3193821845.000000, IPT: 564496129.000000, BOH/LOH: 1.714632,5.657828, MAX:1
Coverage: 40, Tot. Cov: 91.000000, 91/131, STDB: 72055000.000000, IPB: 36366512.000000, STDT: 4912747744.000000, IPT: 637915050.000000, BOH/LOH: 1.981356,7.701257, MAX:1
Coverage: 40, Tot. Cov: 93.000000, 92/131, STDB: 59370000.000000, IPB: 30870580.000000, STDT: 4030842298.000000, IPT: 791938695.000000, BOH/LOH: 1.923190,5.089841, MAX:1
Coverage: 40, Tot. Cov: 85.000000, 93/131, STDB: 51205000.000000, IPB: 22938104.000000, STDT: 3578868295.000000, IPT: 504826084.000000, BOH/LOH: 2.232312,7.089309, MAX:1
Coverage: 40, Tot. Cov: 133.000000, 94/131, STDB: 87352500.000000, IPB: 41687016.000000, STDT: 6526323429.000000, IPT: 731082583.000000, BOH/LOH: 2.095437,8.926931, MAX:1
Coverage: 40, Tot. Cov: 84.000000, 95/131, STDB: 92500000.000000, IPB: 33301104.000000, STDT: 2891051967.000000, IPT: 757980331.000000, BOH/LOH: 2.777686,3.814152, MAX:1
Coverage: 40, Tot. Cov: 89.000000, 96/131, STDB: 100650000.000000, IPB: 46389644.000000, STDT: 4266637965.000000, IPT: 471433143.000000, BOH/LOH: 2.169665,9.050356, MAX:1
Coverage: 40, Tot. Cov: 139.000000, 97/131, STDB: 140475000.000000, IPB: 69432456.000000, STDT: 8664409359.000000, IPT: 1007578451.000000, BOH/LOH: 2.023189,8.599240, MAX:1
Coverage: 40, Tot. Cov: 186.000000, 98/131, STDB: 207690000.000000, IPB: 108595152.000000, STDT: 8926923796.000000, IPT: 1186255378.000000, BOH/LOH: 1.912516,7.525297, MAX:1
Coverage: 40, Tot. Cov: 88.000000, 99/131, STDB: 328560000.000000, IPB: 154929600.000000, STDT: 6316019662.000000, IPT: 503644658.000000, BOH/LOH: 2.120705,12.540627, MAX:1
Coverage: 40, Tot. Cov: 140.000000, 100/131, STDB: 482887500.000000, IPB: 200387200.000000, STDT: 12427690892.000000, IPT: 1046369980.000000, BOH/LOH: 2.409772,11.876957, MAX:1
Coverage: 40, Tot. Cov: 126.000000, 101/131, STDB: 343380000.000000, IPB: 169566888.000000, STDT: 7733850592.000000, IPT: 641360167.000000, BOH/LOH: 2.025042,12.058514, MAX:1
Coverage: 40, Tot. Cov: 140.000000, 102/131, STDB: 410625000.000000, IPB: 232155348.000000, STDT: 5715702374.000000, IPT: 635022453.000000, BOH/LOH: 1.768751,9.000788, MAX:1
Coverage: 40, Tot. Cov: 43.000000, 103/131, STDB: 131187500.000000, IPB: 86596108.000000, STDT: 1703218145.000000, IPT: 205260739.000000, BOH/LOH: 1.514935,8.297827, MAX:1
Coverage: 40, Tot. Cov: 92.000000, 104/131, STDB: 310895000.000000, IPB: 91750884.000000, STDT: 7123642228.000000, IPT: 778446719.000000, BOH/LOH: 3.388469,9.151098, MAX:1
Coverage: 40, Tot. Cov: 141.000000, 105/131, STDB: 218460000.000000, IPB: 136174220.000000, STDT: 11176955856.000000, IPT: 852603233.000000, BOH/LOH: 1.604268,13.109211, MAX:1
Coverage: 40, Tot. Cov: 135.000000, 106/131, STDB: 225480000.000000, IPB: 100919012.000000, STDT: 9673971679.000000, IPT: 953588808.000000, BOH/LOH: 2.234267,10.144804, MAX:1
Coverage: 40, Tot. Cov: 42.000000, 107/131, STDB: 150905000.000000, IPB: 51904184.000000, STDT: 2807110086.000000, IPT: 224881665.000000, BOH/LOH: 2.907376,12.482610, MAX:1
Coverage: 40, Tot. Cov: 87.000000, 108/131, STDB: 201835000.000000, IPB: 115231752.000000, STDT: 5843388238.000000, IPT: 378765453.000000, BOH/LOH: 1.751557,15.427458, MAX:1
Coverage: 40, Tot. Cov: 84.000000, 109/131, STDB: 194690000.000000, IPB: 99667936.000000, STDT: 4584774753.000000, IPT: 407783782.000000, BOH/LOH: 1.953386,11.243151, MAX:1
Coverage: 40, Tot. Cov: 40.000000, 110/131, STDB: 83957500.000000, IPB: 49612720.000000, STDT: 2061694902.000000, IPT: 199815320.000000, BOH/LOH: 1.692258,10.318002, MAX:1
Coverage: 40, Tot. Cov: 88.000000, 111/131, STDB: 216105000.000000, IPB: 120040452.000000, STDT: 5109583376.000000, IPT: 436554349.000000, BOH/LOH: 1.800268,11.704347, MAX:1
Coverage: 40, Tot. Cov: 232.000000, 112/131, STDB: 505337500.000000, IPB: 274630508.000000, STDT: 17583798420.000000, IPT: 1238449746.000000, BOH/LOH: 1.840063,14.198233, MAX:1
Coverage: 40, Tot. Cov: 229.000000, 113/131, STDB: 543200000.000000, IPB: 318783296.000000, STDT: 19821212732.000000, IPT: 1225475386.000000, BOH/LOH: 1.703979,16.174305, MAX:1
Coverage: 40, Tot. Cov: 42.000000, 114/131, STDB: 106947500.000000, IPB: 53828792.000000, STDT: 2118386358.000000, IPT: 256151503.000000, BOH/LOH: 1.986808,8.270052, MAX:1
Coverage: 40, Tot. Cov: 143.000000, 115/131, STDB: 193755000.000000, IPB: 71161868.000000, STDT: 9408763895.000000, IPT: 1232645149.000000, BOH/LOH: 2.722736,7.632987, MAX:1
Coverage: 40, Tot. Cov: 141.000000, 116/131, STDB: 210907500.000000, IPB: 102903336.000000, STDT: 5484489434.000000, IPT: 992340496.000000, BOH/LOH: 2.049569,5.526822, MAX:1
Coverage: 40, Tot. Cov: 89.000000, 117/131, STDB: 136595000.000000, IPB: 68084428.000000, STDT: 3384924133.000000, IPT: 439429122.000000, BOH/LOH: 2.006259,7.703004, MAX:1
Coverage: 40, Tot. Cov: 288.000000, 118/131, STDB: 715350000.000000, IPB: 243031796.000000, STDT: 14891670907.000000, IPT: 2491757737.000000, BOH/LOH: 2.943442,5.976372, MAX:1
Coverage: 40, Tot. Cov: 335.000000, 119/131, STDB: 1277342500.000000, IPB: 540659152.000000, STDT: 24825358329.000000, IPT: 2376903048.000000, BOH/LOH: 2.362565,10.444414, MAX:1
Coverage: 40, Tot. Cov: 427.000000, 120/131, STDB: 1001475000.000000, IPB: 441821028.000000, STDT: 35597016782.000000, IPT: 3691006432.000000, BOH/LOH: 2.266698,9.644258, MAX:1
Coverage: 40, Tot. Cov: 190.000000, 121/131, STDB: 572870000.000000, IPB: 285848092.000000, STDT: 19622144100.000000, IPT: 1076165642.000000, BOH/LOH: 2.004106,18.233387, MAX:1
Coverage: 40, Tot. Cov: 86.000000, 122/131, STDB: 590110000.000000, IPB: 291037468.000000, STDT: 9024076962.000000, IPT: 627140616.000000, BOH/LOH: 2.027608,14.389240, MAX:1
Coverage: 40, Tot. Cov: 135.000000, 123/131, STDB: 654682500.000000, IPB: 380762268.000000, STDT: 12287694992.000000, IPT: 1004797347.000000, BOH/LOH: 1.719400,12.229028, MAX:1
Coverage: 40, Tot. Cov: 132.000000, 124/131, STDB: 733402500.000000, IPB: 374495972.000000, STDT: 12748548202.000000, IPT: 1124686532.000000, BOH/LOH: 1.958372,11.335201, MAX:1
Coverage: 40, Tot. Cov: 132.000000, 125/131, STDB: 588735000.000000, IPB: 334960560.000000, STDT: 12642612129.000000, IPT: 1037703673.000000, BOH/LOH: 1.757625,12.183259, MAX:1
Coverage: 40, Tot. Cov: 91.000000, 126/131, STDB: 494255000.000000, IPB: 239993016.000000, STDT: 7015376040.000000, IPT: 745609847.000000, BOH/LOH: 2.059456,9.408910, MAX:1
Coverage: 40, Tot. Cov: 144.000000, 127/131, STDB: 568350000.000000, IPB: 216238784.000000, STDT: 10369105790.000000, IPT: 1386038992.000000, BOH/LOH: 2.628344,7.481107, MAX:1
Coverage: 40, Tot. Cov: 191.000000, 128/131, STDB: 687120000.000000, IPB: 247273800.000000, STDT: 15306461236.000000, IPT: 1559172442.000000, BOH/LOH: 2.778782,9.817042, MAX:1
Coverage: 40, Tot. Cov: 90.000000, 129/131, STDB: 308270000.000000, IPB: 171935204.000000, STDT: 6971000599.000000, IPT: 684350492.000000, BOH/LOH: 1.792943,10.186302, MAX:1
Coverage: 40, Tot. Cov: 641.000000, 130/131, STDB: 4027172500.000000, IPB: 1858538208.000000, STDT: 18575605784.000000, IPT: 3667276873.000000, BOH/LOH: 2.166849,5.065231, MAX:1
