Coverage: 15, Tot. Cov: 52.000000, 1/153, STDB: 787665000.000000, IPB: 178176424.000000, STDT: 3143357268.000000, IPT: 428469859.000000, BOH/LOH: 4.420703,7.336239, MAX:1
Coverage: 15, Tot. Cov: 67.000000, 2/153, STDB: 953005000.000000, IPB: 449590104.000000, STDT: 3060657752.000000, IPT: 473688572.000000, BOH/LOH: 2.119720,6.461329, MAX:1
Coverage: 15, Tot. Cov: 81.000000, 3/153, STDB: 7935000.000000, IPB: 2369292.000000, STDT: 618020973.000000, IPT: 249277791.000000, BOH/LOH: 3.349102,2.479246, MAX:1
Coverage: 15, Tot. Cov: 62.000000, 4/153, STDB: 7000000.000000, IPB: 2055908.000000, STDT: 454302648.000000, IPT: 185101342.000000, BOH/LOH: 3.404822,2.454346, MAX:1
Coverage: 15, Tot. Cov: 86.000000, 5/153, STDB: 5945000.000000, IPB: 2354988.000000, STDT: 682581957.000000, IPT: 293381638.000000, BOH/LOH: 2.524429,2.326601, MAX:1
Coverage: 15, Tot. Cov: 16.000000, 6/153, STDB: 1290000.000000, IPB: 332164.000000, STDT: 87067854.000000, IPT: 46321814.000000, BOH/LOH: 3.883624,1.879630, MAX:1
Coverage: 15, Tot. Cov: 25.000000, 7/153, STDB: 2657500.000000, IPB: 816368.000000, STDT: 224479846.000000, IPT: 76695930.000000, BOH/LOH: 3.255272,2.926881, MAX:1
Coverage: 15, Tot. Cov: 417.000000, 8/153, STDB: 1056397500.000000, IPB: 21731208.000000, STDT: 11667985807.000000, IPT: 1921122746.000000, BOH/LOH: 48.612001,6.073524, MAX:1
Coverage: 15, Tot. Cov: 51.000000, 9/153, STDB: 7275000.000000, IPB: 2042476.000000, STDT: 849980822.000000, IPT: 230477740.000000, BOH/LOH: 3.561853,3.687909, MAX:1
Coverage: 15, Tot. Cov: 203.000000, 10/153, STDB: 31637500.000000, IPB: 9101144.000000, STDT: 2626180305.000000, IPT: 922100365.000000, BOH/LOH: 3.476211,2.848042, MAX:1
Coverage: 15, Tot. Cov: 66.000000, 11/153, STDB: 4770000.000000, IPB: 1886304.000000, STDT: 369826649.000000, IPT: 201309255.000000, BOH/LOH: 2.528755,1.837107, MAX:1
Coverage: 15, Tot. Cov: 38.000000, 12/153, STDB: 9225000.000000, IPB: 2208556.000000, STDT: 523901344.000000, IPT: 141168888.000000, BOH/LOH: 4.176937,3.711167, MAX:1
Coverage: 15, Tot. Cov: 70.000000, 13/153, STDB: 8845000.000000, IPB: 3201956.000000, STDT: 1319039915.000000, IPT: 283029128.000000, BOH/LOH: 2.762374,4.660439, MAX:1
Coverage: 15, Tot. Cov: 113.000000, 14/153, STDB: 17992500.000000, IPB: 5547420.000000, STDT: 1210615146.000000, IPT: 508301004.000000, BOH/LOH: 3.243400,2.381689, MAX:1
Coverage: 15, Tot. Cov: 24.000000, 15/153, STDB: 2077500.000000, IPB: 859204.000000, STDT: 52205856.000000, IPT: 32023888.000000, BOH/LOH: 2.417936,1.630216, MAX:1
Coverage: 15, Tot. Cov: 107.000000, 16/153, STDB: 14850000.000000, IPB: 5193268.000000, STDT: 1104737162.000000, IPT: 373546610.000000, BOH/LOH: 2.859471,2.957428, MAX:1
Coverage: 15, Tot. Cov: 24.000000, 17/153, STDB: 5292500.000000, IPB: 1568652.000000, STDT: 185250263.000000, IPT: 91282389.000000, BOH/LOH: 3.373916,2.029420, MAX:1
Coverage: 15, Tot. Cov: 40.000000, 18/153, STDB: 2237500.000000, IPB: 1460484.000000, STDT: 174911644.000000, IPT: 128580562.000000, BOH/LOH: 1.532026,1.360327, MAX:1
Coverage: 15, Tot. Cov: 16.000000, 19/153, STDB: 2077500.000000, IPB: 484844.000000, STDT: 86795489.000000, IPT: 48806317.000000, BOH/LOH: 4.284883,1.778366, MAX:1
Coverage: 15, Tot. Cov: 25.000000, 20/153, STDB: 2612500.000000, IPB: 909940.000000, STDT: 161607806.000000, IPT: 81977073.000000, BOH/LOH: 2.871068,1.971378, MAX:1
Coverage: 15, Tot. Cov: 63.000000, 21/153, STDB: 20455000.000000, IPB: 6185028.000000, STDT: 1307831818.000000, IPT: 380597518.000000, BOH/LOH: 3.307180,3.436259, MAX:1
Coverage: 15, Tot. Cov: 37.000000, 22/153, STDB: 27535000.000000, IPB: 4778080.000000, STDT: 657936417.000000, IPT: 168923672.000000, BOH/LOH: 5.762775,3.894874, MAX:1
Coverage: 15, Tot. Cov: 54.000000, 23/153, STDB: 28822500.000000, IPB: 3467860.000000, STDT: 1097099911.000000, IPT: 423379654.000000, BOH/LOH: 8.311322,2.591291, MAX:1
Coverage: 15, Tot. Cov: 289.000000, 24/153, STDB: 55492500.000000, IPB: 20174644.000000, STDT: 3719525804.000000, IPT: 1048614625.000000, BOH/LOH: 2.750606,3.547086, MAX:1
Coverage: 15, Tot. Cov: 88.000000, 25/153, STDB: 18172500.000000, IPB: 6173500.000000, STDT: 756589982.000000, IPT: 326194039.000000, BOH/LOH: 2.943630,2.319448, MAX:1
Coverage: 15, Tot. Cov: 18.000000, 26/153, STDB: 14747500.000000, IPB: 2379516.000000, STDT: 221898398.000000, IPT: 72810275.000000, BOH/LOH: 6.197689,3.047625, MAX:1
Coverage: 15, Tot. Cov: 24.000000, 27/153, STDB: 6667500.000000, IPB: 1885336.000000, STDT: 233033305.000000, IPT: 90174381.000000, BOH/LOH: 3.536505,2.584252, MAX:1
Coverage: 15, Tot. Cov: 35.000000, 28/153, STDB: 67760000.000000, IPB: 13552328.000000, STDT: 1183091624.000000, IPT: 242730382.000000, BOH/LOH: 4.999879,4.874098, MAX:1
Coverage: 15, Tot. Cov: 31.000000, 29/153, STDB: 64895000.000000, IPB: 12719576.000000, STDT: 811883872.000000, IPT: 184424917.000000, BOH/LOH: 5.101978,4.402246, MAX:1
Coverage: 15, Tot. Cov: 300.000000, 30/153, STDB: 208530000.000000, IPB: 90924768.000000, STDT: 11993424154.000000, IPT: 1924252623.000000, BOH/LOH: 2.293435,6.232770, MAX:1
Coverage: 15, Tot. Cov: 60.000000, 31/153, STDB: 76785000.000000, IPB: 20760228.000000, STDT: 1503706104.000000, IPT: 561115041.000000, BOH/LOH: 3.698659,2.679853, MAX:1
Coverage: 15, Tot. Cov: 200.000000, 32/153, STDB: 259485000.000000, IPB: 97233848.000000, STDT: 9527117395.000000, IPT: 1408307667.000000, BOH/LOH: 2.668669,6.764940, MAX:1
Coverage: 15, Tot. Cov: 65.000000, 33/153, STDB: 94600000.000000, IPB: 27904384.000000, STDT: 2277251822.000000, IPT: 460747967.000000, BOH/LOH: 3.390148,4.942511, MAX:1
Coverage: 15, Tot. Cov: 150.000000, 34/153, STDB: 205200000.000000, IPB: 88436952.000000, STDT: 6401694866.000000, IPT: 806340284.000000, BOH/LOH: 2.320297,7.939198, MAX:1
Coverage: 15, Tot. Cov: 91.000000, 35/153, STDB: 50002500.000000, IPB: 12249936.000000, STDT: 1546365223.000000, IPT: 671619268.000000, BOH/LOH: 4.081858,2.302443, MAX:1
Coverage: 15, Tot. Cov: 190.000000, 36/153, STDB: 54275000.000000, IPB: 17431920.000000, STDT: 2567742465.000000, IPT: 767791432.000000, BOH/LOH: 3.113541,3.344323, MAX:1
Coverage: 15, Tot. Cov: 46.000000, 37/153, STDB: 11930000.000000, IPB: 3950452.000000, STDT: 340369685.000000, IPT: 152841161.000000, BOH/LOH: 3.019908,2.226950, MAX:1
Coverage: 15, Tot. Cov: 63.000000, 38/153, STDB: 11490000.000000, IPB: 3935604.000000, STDT: 607737880.000000, IPT: 225307305.000000, BOH/LOH: 2.919501,2.697373, MAX:1
Coverage: 15, Tot. Cov: 196.000000, 39/153, STDB: 60915000.000000, IPB: 19116456.000000, STDT: 2560645212.000000, IPT: 765732792.000000, BOH/LOH: 3.186522,3.344045, MAX:1
Coverage: 15, Tot. Cov: 196.000000, 40/153, STDB: 67162500.000000, IPB: 24835484.000000, STDT: 3674225493.000000, IPT: 876447120.000000, BOH/LOH: 2.704296,4.192182, MAX:1
Coverage: 15, Tot. Cov: 15.000000, 41/153, STDB: 9187500.000000, IPB: 2079628.000000, STDT: 145468443.000000, IPT: 78955118.000000, BOH/LOH: 4.417857,1.842419, MAX:1
Coverage: 15, Tot. Cov: 20.000000, 42/153, STDB: 13877500.000000, IPB: 3268700.000000, STDT: 396514687.000000, IPT: 81615151.000000, BOH/LOH: 4.245572,4.858347, MAX:1
Coverage: 15, Tot. Cov: 16.000000, 43/153, STDB: 8982500.000000, IPB: 1734432.000000, STDT: 215076294.000000, IPT: 69606601.000000, BOH/LOH: 5.178929,3.089884, MAX:1
Coverage: 15, Tot. Cov: 16.000000, 44/153, STDB: 8955000.000000, IPB: 1976832.000000, STDT: 157347807.000000, IPT: 60130875.000000, BOH/LOH: 4.529975,2.616756, MAX:1
Coverage: 15, Tot. Cov: 120.000000, 45/153, STDB: 49305000.000000, IPB: 19037104.000000, STDT: 3325963357.000000, IPT: 1008364473.000000, BOH/LOH: 2.589942,3.298374, MAX:1
Coverage: 15, Tot. Cov: 605.000000, 46/153, STDB: 254940000.000000, IPB: 93848992.000000, STDT: 9196085574.000000, IPT: 2707290225.000000, BOH/LOH: 2.716492,3.396786, MAX:1
Coverage: 15, Tot. Cov: 113.000000, 47/153, STDB: 74737500.000000, IPB: 23585904.000000, STDT: 1523252903.000000, IPT: 556579236.000000, BOH/LOH: 3.168736,2.736812, MAX:1
Coverage: 15, Tot. Cov: 692.000000, 48/153, STDB: 394012500.000000, IPB: 163039284.000000, STDT: 28038950810.000000, IPT: 3873230319.000000, BOH/LOH: 2.416672,7.239164, MAX:1
Coverage: 15, Tot. Cov: 176.000000, 49/153, STDB: 91260000.000000, IPB: 46548412.000000, STDT: 6382838129.000000, IPT: 896984371.000000, BOH/LOH: 1.960539,7.115886, MAX:1
Coverage: 15, Tot. Cov: 38.000000, 50/153, STDB: 53965000.000000, IPB: 12721492.000000, STDT: 806785247.000000, IPT: 159832856.000000, BOH/LOH: 4.242034,5.047681, MAX:1
Coverage: 15, Tot. Cov: 41.000000, 51/153, STDB: 50510000.000000, IPB: 12005980.000000, STDT: 873215175.000000, IPT: 162778026.000000, BOH/LOH: 4.207070,5.364454, MAX:1
Coverage: 15, Tot. Cov: 107.000000, 52/153, STDB: 82455000.000000, IPB: 28675088.000000, STDT: 2637321252.000000, IPT: 749732852.000000, BOH/LOH: 2.875492,3.517681, MAX:1
Coverage: 15, Tot. Cov: 100.000000, 53/153, STDB: 92497500.000000, IPB: 28183832.000000, STDT: 2931618516.000000, IPT: 607947979.000000, BOH/LOH: 3.281935,4.822154, MAX:1
Coverage: 15, Tot. Cov: 52.000000, 54/153, STDB: 27910000.000000, IPB: 9569600.000000, STDT: 657110824.000000, IPT: 189333019.000000, BOH/LOH: 2.916527,3.470662, MAX:1
Coverage: 15, Tot. Cov: 114.000000, 55/153, STDB: 94147500.000000, IPB: 39151220.000000, STDT: 2205206446.000000, IPT: 476622317.000000, BOH/LOH: 2.404714,4.626738, MAX:1
Coverage: 15, Tot. Cov: 580.000000, 56/153, STDB: 532252500.000000, IPB: 199667884.000000, STDT: 15178454893.000000, IPT: 2588988081.000000, BOH/LOH: 2.665689,5.862698, MAX:1
Coverage: 15, Tot. Cov: 36.000000, 57/153, STDB: 45430000.000000, IPB: 10517132.000000, STDT: 605076567.000000, IPT: 143871271.000000, BOH/LOH: 4.319619,4.205680, MAX:1
Coverage: 15, Tot. Cov: 65.000000, 58/153, STDB: 55565000.000000, IPB: 20958248.000000, STDT: 1465493013.000000, IPT: 249825750.000000, BOH/LOH: 2.651224,5.866061, MAX:1
Coverage: 15, Tot. Cov: 16.000000, 59/153, STDB: 18415000.000000, IPB: 3983396.000000, STDT: 135398765.000000, IPT: 57000971.000000, BOH/LOH: 4.622940,2.375376, MAX:1
Coverage: 15, Tot. Cov: 15.000000, 60/153, STDB: 27395000.000000, IPB: 5523260.000000, STDT: 219178426.000000, IPT: 62025247.000000, BOH/LOH: 4.959933,3.533697, MAX:1
Coverage: 15, Tot. Cov: 15.000000, 61/153, STDB: 25535000.000000, IPB: 5023992.000000, STDT: 172056873.000000, IPT: 54700843.000000, BOH/LOH: 5.082612,3.145415, MAX:1
Coverage: 15, Tot. Cov: 40.000000, 62/153, STDB: 38670000.000000, IPB: 9509156.000000, STDT: 728726772.000000, IPT: 161319868.000000, BOH/LOH: 4.066607,4.517279, MAX:1
Coverage: 15, Tot. Cov: 35.000000, 63/153, STDB: 33305000.000000, IPB: 8142456.000000, STDT: 645626124.000000, IPT: 140937276.000000, BOH/LOH: 4.090289,4.580947, MAX:1
Coverage: 15, Tot. Cov: 65.000000, 64/153, STDB: 47495000.000000, IPB: 16255524.000000, STDT: 878245753.000000, IPT: 291585749.000000, BOH/LOH: 2.921776,3.011964, MAX:1
Coverage: 15, Tot. Cov: 385.000000, 65/153, STDB: 228060000.000000, IPB: 100272460.000000, STDT: 7503322265.000000, IPT: 1518932904.000000, BOH/LOH: 2.274403,4.939864, MAX:1
Coverage: 15, Tot. Cov: 18.000000, 66/153, STDB: 17882500.000000, IPB: 4304456.000000, STDT: 246269686.000000, IPT: 67831489.000000, BOH/LOH: 4.154416,3.630610, MAX:1
Coverage: 15, Tot. Cov: 25.000000, 67/153, STDB: 13167500.000000, IPB: 5824856.000000, STDT: 147045665.000000, IPT: 78702079.000000, BOH/LOH: 2.260571,1.868383, MAX:1
Coverage: 15, Tot. Cov: 65.000000, 68/153, STDB: 33585000.000000, IPB: 9982840.000000, STDT: 534208852.000000, IPT: 239175569.000000, BOH/LOH: 3.364273,2.233543, MAX:1
Coverage: 15, Tot. Cov: 34.000000, 69/153, STDB: 21680000.000000, IPB: 4154196.000000, STDT: 325862057.000000, IPT: 114737191.000000, BOH/LOH: 5.218820,2.840074, MAX:1
Coverage: 15, Tot. Cov: 48.000000, 70/153, STDB: 30390000.000000, IPB: 8050756.000000, STDT: 850040086.000000, IPT: 203570610.000000, BOH/LOH: 3.774801,4.175652, MAX:1
Coverage: 15, Tot. Cov: 64.000000, 71/153, STDB: 38610000.000000, IPB: 10198664.000000, STDT: 1156457830.000000, IPT: 257880779.000000, BOH/LOH: 3.785790,4.484467, MAX:1
Coverage: 15, Tot. Cov: 74.000000, 72/153, STDB: 40177500.000000, IPB: 11714744.000000, STDT: 859164104.000000, IPT: 302246121.000000, BOH/LOH: 3.429652,2.842598, MAX:1
Coverage: 15, Tot. Cov: 15.000000, 73/153, STDB: 9507500.000000, IPB: 2538164.000000, STDT: 91023430.000000, IPT: 49236879.000000, BOH/LOH: 3.745818,1.848684, MAX:1
Coverage: 15, Tot. Cov: 171.000000, 74/153, STDB: 70150000.000000, IPB: 27655824.000000, STDT: 3741046853.000000, IPT: 669653814.000000, BOH/LOH: 2.536536,5.586539, MAX:1
Coverage: 15, Tot. Cov: 226.000000, 75/153, STDB: 144410000.000000, IPB: 49023940.000000, STDT: 4366501023.000000, IPT: 1038132549.000000, BOH/LOH: 2.945704,4.206111, MAX:1
Coverage: 15, Tot. Cov: 33.000000, 76/153, STDB: 41160000.000000, IPB: 7520116.000000, STDT: 699096594.000000, IPT: 143519328.000000, BOH/LOH: 5.473320,4.871097, MAX:1
Coverage: 15, Tot. Cov: 179.000000, 77/153, STDB: 54612500.000000, IPB: 21725600.000000, STDT: 3456743231.000000, IPT: 642904762.000000, BOH/LOH: 2.513740,5.376758, MAX:1
Coverage: 15, Tot. Cov: 53.000000, 78/153, STDB: 34915000.000000, IPB: 10732644.000000, STDT: 642390382.000000, IPT: 202804355.000000, BOH/LOH: 3.253159,3.167537, MAX:1
Coverage: 15, Tot. Cov: 139.000000, 79/153, STDB: 82170000.000000, IPB: 31851108.000000, STDT: 1504512014.000000, IPT: 562594720.000000, BOH/LOH: 2.579816,2.674238, MAX:1
Coverage: 15, Tot. Cov: 164.000000, 80/153, STDB: 53350000.000000, IPB: 21242772.000000, STDT: 3747044933.000000, IPT: 867800655.000000, BOH/LOH: 2.511442,4.317864, MAX:1
Coverage: 15, Tot. Cov: 43.000000, 81/153, STDB: 35865000.000000, IPB: 9888864.000000, STDT: 735375358.000000, IPT: 155223218.000000, BOH/LOH: 3.626807,4.737535, MAX:1
Coverage: 15, Tot. Cov: 22.000000, 82/153, STDB: 9025000.000000, IPB: 3038436.000000, STDT: 202526892.000000, IPT: 76784165.000000, BOH/LOH: 2.970278,2.637613, MAX:1
Coverage: 15, Tot. Cov: 17.000000, 83/153, STDB: 33045000.000000, IPB: 7938304.000000, STDT: 381820564.000000, IPT: 75716845.000000, BOH/LOH: 4.162728,5.042743, MAX:1
Coverage: 15, Tot. Cov: 144.000000, 84/153, STDB: 158310000.000000, IPB: 54078292.000000, STDT: 2765595277.000000, IPT: 573279215.000000, BOH/LOH: 2.927422,4.824168, MAX:1
Coverage: 15, Tot. Cov: 83.000000, 85/153, STDB: 139200000.000000, IPB: 40346728.000000, STDT: 2495782551.000000, IPT: 430509664.000000, BOH/LOH: 3.450094,5.797274, MAX:1
Coverage: 15, Tot. Cov: 42.000000, 86/153, STDB: 77040000.000000, IPB: 17169668.000000, STDT: 1337207626.000000, IPT: 257846414.000000, BOH/LOH: 4.486983,5.186063, MAX:1
Coverage: 15, Tot. Cov: 119.000000, 87/153, STDB: 119210000.000000, IPB: 46420084.000000, STDT: 3716814605.000000, IPT: 590347533.000000, BOH/LOH: 2.568069,6.295977, MAX:1
Coverage: 15, Tot. Cov: 16.000000, 88/153, STDB: 42285000.000000, IPB: 9066244.000000, STDT: 290004877.000000, IPT: 58739617.000000, BOH/LOH: 4.664004,4.937126, MAX:1
Coverage: 15, Tot. Cov: 180.000000, 89/153, STDB: 243420000.000000, IPB: 94189692.000000, STDT: 6059742494.000000, IPT: 815909302.000000, BOH/LOH: 2.584359,7.426981, MAX:1
Coverage: 15, Tot. Cov: 71.000000, 90/153, STDB: 122595000.000000, IPB: 33216692.000000, STDT: 2126532742.000000, IPT: 343822069.000000, BOH/LOH: 3.690765,6.184980, MAX:1
Coverage: 15, Tot. Cov: 89.000000, 91/153, STDB: 125870000.000000, IPB: 33764748.000000, STDT: 3346562101.000000, IPT: 438556196.000000, BOH/LOH: 3.727852,7.630863, MAX:1
Coverage: 15, Tot. Cov: 73.000000, 92/153, STDB: 95745000.000000, IPB: 30162896.000000, STDT: 1631814315.000000, IPT: 305371815.000000, BOH/LOH: 3.174264,5.343697, MAX:1
Coverage: 15, Tot. Cov: 190.000000, 93/153, STDB: 235020000.000000, IPB: 86491400.000000, STDT: 5495652170.000000, IPT: 856041657.000000, BOH/LOH: 2.717264,6.419842, MAX:1
Coverage: 15, Tot. Cov: 98.000000, 94/153, STDB: 109237500.000000, IPB: 43255152.000000, STDT: 2141192017.000000, IPT: 532058729.000000, BOH/LOH: 2.525422,4.024353, MAX:1
Coverage: 15, Tot. Cov: 126.000000, 95/153, STDB: 181980000.000000, IPB: 51560872.000000, STDT: 3150761678.000000, IPT: 657120793.000000, BOH/LOH: 3.529421,4.794798, MAX:1
Coverage: 15, Tot. Cov: 112.000000, 96/153, STDB: 218840000.000000, IPB: 78189168.000000, STDT: 3794310091.000000, IPT: 460772532.000000, BOH/LOH: 2.798853,8.234671, MAX:1
Coverage: 15, Tot. Cov: 70.000000, 97/153, STDB: 153517500.000000, IPB: 38865784.000000, STDT: 2161984429.000000, IPT: 333282573.000000, BOH/LOH: 3.949940,6.486941, MAX:1
Coverage: 15, Tot. Cov: 113.000000, 98/153, STDB: 201450000.000000, IPB: 66361900.000000, STDT: 4477313078.000000, IPT: 569298020.000000, BOH/LOH: 3.035627,7.864621, MAX:1
Coverage: 15, Tot. Cov: 74.000000, 99/153, STDB: 129142500.000000, IPB: 41053404.000000, STDT: 2437541511.000000, IPT: 318432464.000000, BOH/LOH: 3.145720,7.654815, MAX:1
Coverage: 15, Tot. Cov: 117.000000, 100/153, STDB: 139897500.000000, IPB: 60905336.000000, STDT: 3878386111.000000, IPT: 619436996.000000, BOH/LOH: 2.296966,6.261147, MAX:1
Coverage: 15, Tot. Cov: 207.000000, 101/153, STDB: 295665000.000000, IPB: 111718148.000000, STDT: 4588734955.000000, IPT: 880743263.000000, BOH/LOH: 2.646526,5.210071, MAX:1
Coverage: 15, Tot. Cov: 48.000000, 102/153, STDB: 152655000.000000, IPB: 29797808.000000, STDT: 1159054873.000000, IPT: 207860064.000000, BOH/LOH: 5.123028,5.576131, MAX:1
Coverage: 15, Tot. Cov: 52.000000, 103/153, STDB: 101010000.000000, IPB: 32276340.000000, STDT: 1018214172.000000, IPT: 240655881.000000, BOH/LOH: 3.129537,4.230996, MAX:1
Coverage: 15, Tot. Cov: 140.000000, 104/153, STDB: 268000000.000000, IPB: 99127696.000000, STDT: 6174990909.000000, IPT: 767430898.000000, BOH/LOH: 2.703583,8.046315, MAX:1
Coverage: 15, Tot. Cov: 43.000000, 105/153, STDB: 103220000.000000, IPB: 29865384.000000, STDT: 996582334.000000, IPT: 174782976.000000, BOH/LOH: 3.456175,5.701827, MAX:1
Coverage: 15, Tot. Cov: 47.000000, 106/153, STDB: 101855000.000000, IPB: 36370496.000000, STDT: 1297092687.000000, IPT: 194905639.000000, BOH/LOH: 2.800484,6.654978, MAX:1
Coverage: 15, Tot. Cov: 154.000000, 107/153, STDB: 256600000.000000, IPB: 83550376.000000, STDT: 5660866321.000000, IPT: 853494779.000000, BOH/LOH: 3.071201,6.632573, MAX:1
Coverage: 15, Tot. Cov: 116.000000, 108/153, STDB: 143347500.000000, IPB: 69647960.000000, STDT: 2292976233.000000, IPT: 355644624.000000, BOH/LOH: 2.058172,6.447381, MAX:1
Coverage: 15, Tot. Cov: 128.000000, 109/153, STDB: 219450000.000000, IPB: 69413736.000000, STDT: 4141037122.000000, IPT: 896979072.000000, BOH/LOH: 3.161478,4.616649, MAX:1
Coverage: 15, Tot. Cov: 79.000000, 110/153, STDB: 269220000.000000, IPB: 81948760.000000, STDT: 2560488467.000000, IPT: 429718808.000000, BOH/LOH: 3.285224,5.958521, MAX:1
Coverage: 15, Tot. Cov: 153.000000, 111/153, STDB: 295770000.000000, IPB: 136047028.000000, STDT: 4999728729.000000, IPT: 722045030.000000, BOH/LOH: 2.174028,6.924400, MAX:1
Coverage: 15, Tot. Cov: 175.000000, 112/153, STDB: 409475000.000000, IPB: 142042308.000000, STDT: 7003034700.000000, IPT: 1275121119.000000, BOH/LOH: 2.882768,5.492055, MAX:1
Coverage: 15, Tot. Cov: 69.000000, 113/153, STDB: 181335000.000000, IPB: 59260320.000000, STDT: 2806895578.000000, IPT: 334021168.000000, BOH/LOH: 3.059973,8.403346, MAX:1
Coverage: 15, Tot. Cov: 714.000000, 114/153, STDB: 1294375000.000000, IPB: 561156304.000000, STDT: 36266107936.000000, IPT: 3597028722.000000, BOH/LOH: 2.306621,10.082240, MAX:1
Coverage: 15, Tot. Cov: 37.000000, 115/153, STDB: 151290000.000000, IPB: 37185644.000000, STDT: 1415345826.000000, IPT: 199954903.000000, BOH/LOH: 4.068506,7.078325, MAX:1
Coverage: 15, Tot. Cov: 45.000000, 116/153, STDB: 159180000.000000, IPB: 46802884.000000, STDT: 1730443149.000000, IPT: 224440917.000000, BOH/LOH: 3.401072,7.710016, MAX:1
Coverage: 15, Tot. Cov: 56.000000, 117/153, STDB: 127285000.000000, IPB: 50119200.000000, STDT: 1681567759.000000, IPT: 294229914.000000, BOH/LOH: 2.539645,5.715149, MAX:1
Coverage: 15, Tot. Cov: 124.000000, 118/153, STDB: 288920000.000000, IPB: 119867496.000000, STDT: 4786543774.000000, IPT: 574444890.000000, BOH/LOH: 2.410328,8.332468, MAX:1
Coverage: 15, Tot. Cov: 15.000000, 119/153, STDB: 66392500.000000, IPB: 13356772.000000, STDT: 225121877.000000, IPT: 70307971.000000, BOH/LOH: 4.970700,3.201940, MAX:1
Coverage: 15, Tot. Cov: 280.000000, 120/153, STDB: 1039560000.000000, IPB: 333029680.000000, STDT: 9732257133.000000, IPT: 2338609726.000000, BOH/LOH: 3.121524,4.161557, MAX:1
Coverage: 15, Tot. Cov: 72.000000, 121/153, STDB: 233317500.000000, IPB: 50102124.000000, STDT: 2249509963.000000, IPT: 619822416.000000, BOH/LOH: 4.656839,3.629281, MAX:1
Coverage: 15, Tot. Cov: 207.000000, 122/153, STDB: 582240000.000000, IPB: 210700200.000000, STDT: 9944961712.000000, IPT: 1747065369.000000, BOH/LOH: 2.763358,5.692381, MAX:1
Coverage: 15, Tot. Cov: 63.000000, 123/153, STDB: 318810000.000000, IPB: 121873168.000000, STDT: 2031291160.000000, IPT: 344077551.000000, BOH/LOH: 2.615916,5.903585, MAX:1
Coverage: 15, Tot. Cov: 66.000000, 124/153, STDB: 281710000.000000, IPB: 106852424.000000, STDT: 1617953493.000000, IPT: 386692231.000000, BOH/LOH: 2.636440,4.184086, MAX:1
Coverage: 15, Tot. Cov: 188.000000, 125/153, STDB: 648137500.000000, IPB: 270382064.000000, STDT: 9207759852.000000, IPT: 1087930869.000000, BOH/LOH: 2.397117,8.463552, MAX:1
Coverage: 15, Tot. Cov: 518.000000, 126/153, STDB: 1602630000.000000, IPB: 793550220.000000, STDT: 15968035960.000000, IPT: 2782421397.000000, BOH/LOH: 2.019570,5.738899, MAX:1
Coverage: 15, Tot. Cov: 30.000000, 127/153, STDB: 175870000.000000, IPB: 34415144.000000, STDT: 1196680012.000000, IPT: 153412508.000000, BOH/LOH: 5.110250,7.800407, MAX:1
Coverage: 15, Tot. Cov: 113.000000, 128/153, STDB: 344600000.000000, IPB: 137303540.000000, STDT: 3629291920.000000, IPT: 516847461.000000, BOH/LOH: 2.509768,7.021979, MAX:1
Coverage: 15, Tot. Cov: 60.000000, 129/153, STDB: 286545000.000000, IPB: 77165140.000000, STDT: 2388083473.000000, IPT: 299826515.000000, BOH/LOH: 3.713400,7.964884, MAX:1
Coverage: 15, Tot. Cov: 34.000000, 130/153, STDB: 159950000.000000, IPB: 37734748.000000, STDT: 991282133.000000, IPT: 151531495.000000, BOH/LOH: 4.238799,6.541756, MAX:1
Coverage: 15, Tot. Cov: 42.000000, 131/153, STDB: 191935000.000000, IPB: 56785448.000000, STDT: 1757292367.000000, IPT: 203233038.000000, BOH/LOH: 3.380003,8.646687, MAX:1
Coverage: 15, Tot. Cov: 89.000000, 132/153, STDB: 301837500.000000, IPB: 105446188.000000, STDT: 3785803945.000000, IPT: 527896597.000000, BOH/LOH: 2.862479,7.171488, MAX:1
Coverage: 15, Tot. Cov: 21.000000, 133/153, STDB: 98422500.000000, IPB: 25170656.000000, STDT: 768469150.000000, IPT: 128369092.000000, BOH/LOH: 3.910208,5.986403, MAX:1
Coverage: 15, Tot. Cov: 68.000000, 134/153, STDB: 120850000.000000, IPB: 40053096.000000, STDT: 1563174770.000000, IPT: 560644903.000000, BOH/LOH: 3.017245,2.788173, MAX:1
Coverage: 15, Tot. Cov: 41.000000, 135/153, STDB: 119915000.000000, IPB: 23256716.000000, STDT: 993684251.000000, IPT: 297770229.000000, BOH/LOH: 5.156145,3.337084, MAX:1
Coverage: 15, Tot. Cov: 60.000000, 136/153, STDB: 156400000.000000, IPB: 55625952.000000, STDT: 1866012420.000000, IPT: 463726998.000000, BOH/LOH: 2.811637,4.023946, MAX:1
Coverage: 15, Tot. Cov: 77.000000, 137/153, STDB: 136270000.000000, IPB: 76382488.000000, STDT: 2232910946.000000, IPT: 374175803.000000, BOH/LOH: 1.784048,5.967545, MAX:1
Coverage: 15, Tot. Cov: 43.000000, 138/153, STDB: 131505000.000000, IPB: 28682028.000000, STDT: 1042209994.000000, IPT: 357815352.000000, BOH/LOH: 4.584927,2.912703, MAX:1
Coverage: 15, Tot. Cov: 33.000000, 139/153, STDB: 78605000.000000, IPB: 11570052.000000, STDT: 739623496.000000, IPT: 253554757.000000, BOH/LOH: 6.793833,2.917017, MAX:1
Coverage: 15, Tot. Cov: 70.000000, 140/153, STDB: 131545000.000000, IPB: 52581296.000000, STDT: 1972216121.000000, IPT: 323122189.000000, BOH/LOH: 2.501745,6.103623, MAX:1
Coverage: 15, Tot. Cov: 117.000000, 141/153, STDB: 199477500.000000, IPB: 83426528.000000, STDT: 3553457142.000000, IPT: 863406704.000000, BOH/LOH: 2.391056,4.115624, MAX:1
Coverage: 15, Tot. Cov: 37.000000, 142/153, STDB: 131875000.000000, IPB: 27544704.000000, STDT: 1372433032.000000, IPT: 357994593.000000, BOH/LOH: 4.787672,3.833670, MAX:1
Coverage: 15, Tot. Cov: 67.000000, 143/153, STDB: 140935000.000000, IPB: 34095164.000000, STDT: 1868850051.000000, IPT: 650817413.000000, BOH/LOH: 4.133577,2.871543, MAX:1
Coverage: 15, Tot. Cov: 65.000000, 144/153, STDB: 159545000.000000, IPB: 57946272.000000, STDT: 1530708357.000000, IPT: 453002905.000000, BOH/LOH: 2.753326,3.379025, MAX:1
Coverage: 15, Tot. Cov: 16.000000, 145/153, STDB: 46967500.000000, IPB: 4556444.000000, STDT: 342683994.000000, IPT: 156559913.000000, BOH/LOH: 10.307929,2.188836, MAX:1
Coverage: 15, Tot. Cov: 62.000000, 146/153, STDB: 685522500.000000, IPB: 158068384.000000, STDT: 2644912584.000000, IPT: 530889874.000000, BOH/LOH: 4.336873,4.982036, MAX:1
Coverage: 15, Tot. Cov: 67.000000, 147/153, STDB: 351190000.000000, IPB: 157469704.000000, STDT: 3708898786.000000, IPT: 570091046.000000, BOH/LOH: 2.230207,6.505801, MAX:1
Coverage: 15, Tot. Cov: 54.000000, 148/153, STDB: 411130000.000000, IPB: 131113700.000000, STDT: 2504967773.000000, IPT: 445069386.000000, BOH/LOH: 3.135675,5.628263, MAX:1
Coverage: 15, Tot. Cov: 190.000000, 149/153, STDB: 950775000.000000, IPB: 316072348.000000, STDT: 10874639112.000000, IPT: 1684125248.000000, BOH/LOH: 3.008093,6.457144, MAX:1
Coverage: 15, Tot. Cov: 46.000000, 150/153, STDB: 493430000.000000, IPB: 148628040.000000, STDT: 3072168201.000000, IPT: 333254515.000000, BOH/LOH: 3.319898,9.218684, MAX:1
Coverage: 15, Tot. Cov: 78.000000, 151/153, STDB: 619042500.000000, IPB: 209225760.000000, STDT: 4082540959.000000, IPT: 591219128.000000, BOH/LOH: 2.958730,6.905292, MAX:1
Coverage: 15, Tot. Cov: 606.000000, 152/153, STDB: 3695835000.000000, IPB: 1705961632.000000, STDT: 15846166093.000000, IPT: 3450809356.000000, BOH/LOH: 2.166423,4.592014, MAX:1
