Coverage: 25, Tot. Cov: 101.000000, 1/153, STDB: 825112500.000000, IPB: 365980828.000000, STDT: 7581225407.000000, IPT: 821796716.000000, BOH/LOH: 2.254524,9.225183, MAX:1
Coverage: 25, Tot. Cov: 75.000000, 2/153, STDB: 959745000.000000, IPB: 505323696.000000, STDT: 3962535705.000000, IPT: 542552844.000000, BOH/LOH: 1.899268,7.303502, MAX:1
Coverage: 25, Tot. Cov: 122.000000, 3/153, STDB: 8670000.000000, IPB: 3606356.000000, STDT: 1125932949.000000, IPT: 382317512.000000, BOH/LOH: 2.404089,2.945021, MAX:1
Coverage: 25, Tot. Cov: 74.000000, 4/153, STDB: 7235000.000000, IPB: 2487508.000000, STDT: 514457203.000000, IPT: 220983083.000000, BOH/LOH: 2.908533,2.328039, MAX:1
Coverage: 25, Tot. Cov: 86.000000, 5/153, STDB: 5945000.000000, IPB: 2354988.000000, STDT: 682581957.000000, IPT: 293381638.000000, BOH/LOH: 2.524429,2.326601, MAX:1
Coverage: 25, Tot. Cov: 25.000000, 6/153, STDB: 1297500.000000, IPB: 520608.000000, STDT: 138391375.000000, IPT: 72681563.000000, BOH/LOH: 2.492278,1.904078, MAX:1
Coverage: 25, Tot. Cov: 25.000000, 7/153, STDB: 2657500.000000, IPB: 816368.000000, STDT: 224479846.000000, IPT: 76695930.000000, BOH/LOH: 3.255272,2.926881, MAX:1
Coverage: 25, Tot. Cov: 430.000000, 8/153, STDB: 1096425000.000000, IPB: 40600920.000000, STDT: 12887384498.000000, IPT: 2043293431.000000, BOH/LOH: 27.004930,6.307163, MAX:1
Coverage: 25, Tot. Cov: 51.000000, 9/153, STDB: 7275000.000000, IPB: 2042476.000000, STDT: 849980822.000000, IPT: 230477740.000000, BOH/LOH: 3.561853,3.687909, MAX:1
Coverage: 25, Tot. Cov: 203.000000, 10/153, STDB: 31637500.000000, IPB: 9101144.000000, STDT: 2626180305.000000, IPT: 922100365.000000, BOH/LOH: 3.476211,2.848042, MAX:1
Coverage: 25, Tot. Cov: 66.000000, 11/153, STDB: 4770000.000000, IPB: 1900460.000000, STDT: 407742138.000000, IPT: 202327915.000000, BOH/LOH: 2.509919,2.015254, MAX:1
Coverage: 25, Tot. Cov: 59.000000, 12/153, STDB: 9710000.000000, IPB: 3427272.000000, STDT: 942993957.000000, IPT: 219622953.000000, BOH/LOH: 2.833157,4.293695, MAX:1
Coverage: 25, Tot. Cov: 70.000000, 13/153, STDB: 8845000.000000, IPB: 3201956.000000, STDT: 1319039915.000000, IPT: 283029128.000000, BOH/LOH: 2.762374,4.660439, MAX:1
Coverage: 25, Tot. Cov: 137.000000, 14/153, STDB: 19650000.000000, IPB: 7113732.000000, STDT: 1507091052.000000, IPT: 593086900.000000, BOH/LOH: 2.762263,2.541097, MAX:1
Coverage: 25, Tot. Cov: 30.000000, 15/153, STDB: 2870000.000000, IPB: 1073868.000000, STDT: 94679240.000000, IPT: 39792412.000000, BOH/LOH: 2.672582,2.379329, MAX:1
Coverage: 25, Tot. Cov: 115.000000, 16/153, STDB: 14880000.000000, IPB: 5696376.000000, STDT: 1484073369.000000, IPT: 398259336.000000, BOH/LOH: 2.612187,3.726399, MAX:1
Coverage: 25, Tot. Cov: 41.000000, 17/153, STDB: 5535000.000000, IPB: 2614284.000000, STDT: 395505081.000000, IPT: 151841699.000000, BOH/LOH: 2.117215,2.604720, MAX:1
Coverage: 25, Tot. Cov: 40.000000, 18/153, STDB: 2237500.000000, IPB: 1460484.000000, STDT: 174911644.000000, IPT: 128580562.000000, BOH/LOH: 1.532026,1.360327, MAX:1
Coverage: 25, Tot. Cov: 32.000000, 19/153, STDB: 2077500.000000, IPB: 956672.000000, STDT: 175224702.000000, IPT: 96901565.000000, BOH/LOH: 2.171591,1.808275, MAX:1
Coverage: 25, Tot. Cov: 25.000000, 20/153, STDB: 2612500.000000, IPB: 909940.000000, STDT: 161607806.000000, IPT: 81977073.000000, BOH/LOH: 2.871068,1.971378, MAX:1
Coverage: 25, Tot. Cov: 77.000000, 21/153, STDB: 21170000.000000, IPB: 7639124.000000, STDT: 1755112348.000000, IPT: 463162005.000000, BOH/LOH: 2.771260,3.789413, MAX:1
Coverage: 25, Tot. Cov: 51.000000, 22/153, STDB: 28115000.000000, IPB: 6661600.000000, STDT: 958014923.000000, IPT: 232529931.000000, BOH/LOH: 4.220458,4.119964, MAX:1
Coverage: 25, Tot. Cov: 101.000000, 23/153, STDB: 30862500.000000, IPB: 8129160.000000, STDT: 3022608771.000000, IPT: 836614838.000000, BOH/LOH: 3.796518,3.612904, MAX:1
Coverage: 25, Tot. Cov: 311.000000, 24/153, STDB: 57995000.000000, IPB: 22065764.000000, STDT: 4728938168.000000, IPT: 1159056709.000000, BOH/LOH: 2.628280,4.079989, MAX:1
Coverage: 25, Tot. Cov: 96.000000, 25/153, STDB: 18622500.000000, IPB: 6937560.000000, STDT: 1168316444.000000, IPT: 354977095.000000, BOH/LOH: 2.684301,3.291245, MAX:1
Coverage: 25, Tot. Cov: 25.000000, 26/153, STDB: 15517500.000000, IPB: 3378924.000000, STDT: 407145962.000000, IPT: 104407657.000000, BOH/LOH: 4.592438,3.899580, MAX:1
Coverage: 25, Tot. Cov: 26.000000, 27/153, STDB: 6687500.000000, IPB: 2042984.000000, STDT: 272665957.000000, IPT: 98220193.000000, BOH/LOH: 3.273398,2.776068, MAX:1
Coverage: 25, Tot. Cov: 66.000000, 28/153, STDB: 68580000.000000, IPB: 25892816.000000, STDT: 2915062807.000000, IPT: 465782750.000000, BOH/LOH: 2.648611,6.258417, MAX:1
Coverage: 25, Tot. Cov: 74.000000, 29/153, STDB: 65225000.000000, IPB: 30486928.000000, STDT: 2555622968.000000, IPT: 444483766.000000, BOH/LOH: 2.139442,5.749643, MAX:1
Coverage: 25, Tot. Cov: 300.000000, 30/153, STDB: 208530000.000000, IPB: 90924768.000000, STDT: 11993424154.000000, IPT: 1924252623.000000, BOH/LOH: 2.293435,6.232770, MAX:1
Coverage: 25, Tot. Cov: 72.000000, 31/153, STDB: 90445000.000000, IPB: 27042408.000000, STDT: 2214291039.000000, IPT: 662936491.000000, BOH/LOH: 3.344562,3.340125, MAX:1
Coverage: 25, Tot. Cov: 200.000000, 32/153, STDB: 259485000.000000, IPB: 97233848.000000, STDT: 9527117395.000000, IPT: 1408307667.000000, BOH/LOH: 2.668669,6.764940, MAX:1
Coverage: 25, Tot. Cov: 76.000000, 33/153, STDB: 98180000.000000, IPB: 34814704.000000, STDT: 3104367423.000000, IPT: 534442270.000000, BOH/LOH: 2.820073,5.808611, MAX:1
Coverage: 25, Tot. Cov: 169.000000, 34/153, STDB: 206230000.000000, IPB: 100428336.000000, STDT: 7436458291.000000, IPT: 900158510.000000, BOH/LOH: 2.053504,8.261276, MAX:1
Coverage: 25, Tot. Cov: 121.000000, 35/153, STDB: 52447500.000000, IPB: 17428636.000000, STDT: 2792178428.000000, IPT: 861060610.000000, BOH/LOH: 3.009272,3.242720, MAX:1
Coverage: 25, Tot. Cov: 228.000000, 36/153, STDB: 58325000.000000, IPB: 22107824.000000, STDT: 4558602419.000000, IPT: 1005313772.000000, BOH/LOH: 2.638206,4.534507, MAX:1
Coverage: 25, Tot. Cov: 53.000000, 37/153, STDB: 16335000.000000, IPB: 4513156.000000, STDT: 584076416.000000, IPT: 176126502.000000, BOH/LOH: 3.619418,3.316232, MAX:1
Coverage: 25, Tot. Cov: 85.000000, 38/153, STDB: 12495000.000000, IPB: 5441584.000000, STDT: 1062277343.000000, IPT: 325052550.000000, BOH/LOH: 2.296206,3.268017, MAX:1
Coverage: 25, Tot. Cov: 255.000000, 39/153, STDB: 65610000.000000, IPB: 26372904.000000, STDT: 5324473735.000000, IPT: 1040551812.000000, BOH/LOH: 2.487781,5.116971, MAX:1
Coverage: 25, Tot. Cov: 232.000000, 40/153, STDB: 68512500.000000, IPB: 30313008.000000, STDT: 4570904003.000000, IPT: 1020893752.000000, BOH/LOH: 2.260168,4.477355, MAX:1
Coverage: 25, Tot. Cov: 26.000000, 41/153, STDB: 9482500.000000, IPB: 3613584.000000, STDT: 372078702.000000, IPT: 136780000.000000, BOH/LOH: 2.624126,2.720271, MAX:1
Coverage: 25, Tot. Cov: 26.000000, 42/153, STDB: 13715000.000000, IPB: 4247452.000000, STDT: 500093873.000000, IPT: 105656446.000000, BOH/LOH: 3.228995,4.733207, MAX:1
Coverage: 25, Tot. Cov: 34.000000, 43/153, STDB: 9620000.000000, IPB: 3681760.000000, STDT: 424866170.000000, IPT: 148751687.000000, BOH/LOH: 2.612881,2.856211, MAX:1
Coverage: 25, Tot. Cov: 26.000000, 44/153, STDB: 9297500.000000, IPB: 3188356.000000, STDT: 347458534.000000, IPT: 99372278.000000, BOH/LOH: 2.916080,3.496534, MAX:1
Coverage: 25, Tot. Cov: 129.000000, 45/153, STDB: 53205000.000000, IPB: 20954432.000000, STDT: 3755371765.000000, IPT: 1081038103.000000, BOH/LOH: 2.539081,3.473857, MAX:1
Coverage: 25, Tot. Cov: 631.000000, 46/153, STDB: 264880000.000000, IPB: 98665488.000000, STDT: 11101579371.000000, IPT: 2856187343.000000, BOH/LOH: 2.684627,3.886853, MAX:1
Coverage: 25, Tot. Cov: 127.000000, 47/153, STDB: 77085000.000000, IPB: 27367168.000000, STDT: 1939368608.000000, IPT: 625077962.000000, BOH/LOH: 2.816696,3.102603, MAX:1
Coverage: 25, Tot. Cov: 701.000000, 48/153, STDB: 385200000.000000, IPB: 165686468.000000, STDT: 30032105754.000000, IPT: 3902263248.000000, BOH/LOH: 2.324873,7.696074, MAX:1
Coverage: 25, Tot. Cov: 176.000000, 49/153, STDB: 91260000.000000, IPB: 46548412.000000, STDT: 6382838129.000000, IPT: 896984371.000000, BOH/LOH: 1.960539,7.115886, MAX:1
Coverage: 25, Tot. Cov: 60.000000, 50/153, STDB: 55490000.000000, IPB: 20379084.000000, STDT: 1722842836.000000, IPT: 255100135.000000, BOH/LOH: 2.722890,6.753594, MAX:1
Coverage: 25, Tot. Cov: 60.000000, 51/153, STDB: 51095000.000000, IPB: 18172348.000000, STDT: 2083366909.000000, IPT: 237967602.000000, BOH/LOH: 2.811689,8.754834, MAX:1
Coverage: 25, Tot. Cov: 115.000000, 52/153, STDB: 82155000.000000, IPB: 31567664.000000, STDT: 2878828134.000000, IPT: 807821621.000000, BOH/LOH: 2.602505,3.563693, MAX:1
Coverage: 25, Tot. Cov: 104.000000, 53/153, STDB: 93142500.000000, IPB: 29524720.000000, STDT: 3061549957.000000, IPT: 629263357.000000, BOH/LOH: 3.154729,4.865292, MAX:1
Coverage: 25, Tot. Cov: 56.000000, 54/153, STDB: 29410000.000000, IPB: 10324508.000000, STDT: 985973317.000000, IPT: 212279893.000000, BOH/LOH: 2.848562,4.644685, MAX:1
Coverage: 25, Tot. Cov: 128.000000, 55/153, STDB: 94860000.000000, IPB: 44375488.000000, STDT: 2635553438.000000, IPT: 538087118.000000, BOH/LOH: 2.137667,4.898005, MAX:1
Coverage: 25, Tot. Cov: 609.000000, 56/153, STDB: 597350000.000000, IPB: 213315396.000000, STDT: 22626994769.000000, IPT: 2753433647.000000, BOH/LOH: 2.800314,8.217737, MAX:1
Coverage: 25, Tot. Cov: 63.000000, 57/153, STDB: 47325000.000000, IPB: 18995032.000000, STDT: 1406868752.000000, IPT: 248422451.000000, BOH/LOH: 2.491441,5.663211, MAX:1
Coverage: 25, Tot. Cov: 79.000000, 58/153, STDB: 59490000.000000, IPB: 26005872.000000, STDT: 1859429557.000000, IPT: 306506591.000000, BOH/LOH: 2.287560,6.066524, MAX:1
Coverage: 25, Tot. Cov: 29.000000, 59/153, STDB: 18497500.000000, IPB: 5447244.000000, STDT: 272466437.000000, IPT: 103546475.000000, BOH/LOH: 3.395754,2.631344, MAX:1
Coverage: 25, Tot. Cov: 29.000000, 60/153, STDB: 34745000.000000, IPB: 11142024.000000, STDT: 836175923.000000, IPT: 122475091.000000, BOH/LOH: 3.118374,6.827314, MAX:1
Coverage: 25, Tot. Cov: 28.000000, 61/153, STDB: 27375000.000000, IPB: 9717876.000000, STDT: 409020937.000000, IPT: 101824895.000000, BOH/LOH: 2.816974,4.016905, MAX:1
Coverage: 25, Tot. Cov: 54.000000, 62/153, STDB: 40465000.000000, IPB: 12756352.000000, STDT: 1129313429.000000, IPT: 222102934.000000, BOH/LOH: 3.172145,5.084640, MAX:1
Coverage: 25, Tot. Cov: 52.000000, 63/153, STDB: 39085000.000000, IPB: 12135956.000000, STDT: 1353970906.000000, IPT: 211717818.000000, BOH/LOH: 3.220595,6.395167, MAX:1
Coverage: 25, Tot. Cov: 79.000000, 64/153, STDB: 49430000.000000, IPB: 20459064.000000, STDT: 1446108854.000000, IPT: 350130686.000000, BOH/LOH: 2.416044,4.130197, MAX:1
Coverage: 25, Tot. Cov: 400.000000, 65/153, STDB: 232402500.000000, IPB: 104936264.000000, STDT: 9890606204.000000, IPT: 1596200478.000000, BOH/LOH: 2.214701,6.196343, MAX:1
Coverage: 25, Tot. Cov: 25.000000, 66/153, STDB: 18962500.000000, IPB: 6005428.000000, STDT: 349876037.000000, IPT: 93271808.000000, BOH/LOH: 3.157560,3.751145, MAX:1
Coverage: 25, Tot. Cov: 25.000000, 67/153, STDB: 13167500.000000, IPB: 5824856.000000, STDT: 147045665.000000, IPT: 78702079.000000, BOH/LOH: 2.260571,1.868383, MAX:1
Coverage: 25, Tot. Cov: 75.000000, 68/153, STDB: 32755000.000000, IPB: 11893196.000000, STDT: 812986125.000000, IPT: 279039441.000000, BOH/LOH: 2.754096,2.913517, MAX:1
Coverage: 25, Tot. Cov: 62.000000, 69/153, STDB: 25625000.000000, IPB: 8452068.000000, STDT: 918473051.000000, IPT: 229233314.000000, BOH/LOH: 3.031802,4.006717, MAX:1
Coverage: 25, Tot. Cov: 65.000000, 70/153, STDB: 30930000.000000, IPB: 10904320.000000, STDT: 1176976613.000000, IPT: 278870805.000000, BOH/LOH: 2.836490,4.220509, MAX:1
Coverage: 25, Tot. Cov: 118.000000, 71/153, STDB: 44197500.000000, IPB: 19474944.000000, STDT: 3494870228.000000, IPT: 474971849.000000, BOH/LOH: 2.269455,7.358058, MAX:1
Coverage: 25, Tot. Cov: 104.000000, 72/153, STDB: 40732500.000000, IPB: 16639240.000000, STDT: 2158350203.000000, IPT: 423843593.000000, BOH/LOH: 2.447978,5.092327, MAX:1
Coverage: 25, Tot. Cov: 26.000000, 73/153, STDB: 10945000.000000, IPB: 4406696.000000, STDT: 206851755.000000, IPT: 85270471.000000, BOH/LOH: 2.483720,2.425831, MAX:1
Coverage: 25, Tot. Cov: 197.000000, 74/153, STDB: 72425000.000000, IPB: 32176052.000000, STDT: 4606461117.000000, IPT: 774324547.000000, BOH/LOH: 2.250898,5.949006, MAX:1
Coverage: 25, Tot. Cov: 245.000000, 75/153, STDB: 147770000.000000, IPB: 53447556.000000, STDT: 6090115256.000000, IPT: 1122305619.000000, BOH/LOH: 2.764766,5.426432, MAX:1
Coverage: 25, Tot. Cov: 59.000000, 76/153, STDB: 44380000.000000, IPB: 13616436.000000, STDT: 1982108124.000000, IPT: 265121372.000000, BOH/LOH: 3.259296,7.476229, MAX:1
Coverage: 25, Tot. Cov: 210.000000, 77/153, STDB: 56512500.000000, IPB: 26069864.000000, STDT: 4167180184.000000, IPT: 776597720.000000, BOH/LOH: 2.167733,5.365944, MAX:1
Coverage: 25, Tot. Cov: 69.000000, 78/153, STDB: 33610000.000000, IPB: 14160904.000000, STDT: 937881148.000000, IPT: 266628186.000000, BOH/LOH: 2.373436,3.517562, MAX:1
Coverage: 25, Tot. Cov: 168.000000, 79/153, STDB: 84520000.000000, IPB: 38707164.000000, STDT: 2414698079.000000, IPT: 677868548.000000, BOH/LOH: 2.183575,3.562192, MAX:1
Coverage: 25, Tot. Cov: 178.000000, 80/153, STDB: 52340000.000000, IPB: 23428072.000000, STDT: 4144217229.000000, IPT: 946402361.000000, BOH/LOH: 2.234072,4.378917, MAX:1
Coverage: 25, Tot. Cov: 67.000000, 81/153, STDB: 37025000.000000, IPB: 15438280.000000, STDT: 1170790070.000000, IPT: 244124918.000000, BOH/LOH: 2.398259,4.795865, MAX:1
Coverage: 25, Tot. Cov: 29.000000, 82/153, STDB: 9295000.000000, IPB: 4071404.000000, STDT: 291708724.000000, IPT: 102021077.000000, BOH/LOH: 2.282996,2.859299, MAX:1
Coverage: 25, Tot. Cov: 28.000000, 83/153, STDB: 34767500.000000, IPB: 13132912.000000, STDT: 775894451.000000, IPT: 122880204.000000, BOH/LOH: 2.647357,6.314235, MAX:1
Coverage: 25, Tot. Cov: 158.000000, 84/153, STDB: 158750000.000000, IPB: 60572840.000000, STDT: 3060087239.000000, IPT: 631985558.000000, BOH/LOH: 2.620812,4.842021, MAX:1
Coverage: 25, Tot. Cov: 123.000000, 85/153, STDB: 165427500.000000, IPB: 61858208.000000, STDT: 5049494405.000000, IPT: 649618944.000000, BOH/LOH: 2.674302,7.773010, MAX:1
Coverage: 25, Tot. Cov: 60.000000, 86/153, STDB: 79380000.000000, IPB: 25686896.000000, STDT: 1960525753.000000, IPT: 330074374.000000, BOH/LOH: 3.090292,5.939648, MAX:1
Coverage: 25, Tot. Cov: 136.000000, 87/153, STDB: 118360000.000000, IPB: 53155044.000000, STDT: 4443888917.000000, IPT: 673342667.000000, BOH/LOH: 2.226694,6.599744, MAX:1
Coverage: 25, Tot. Cov: 28.000000, 88/153, STDB: 44127500.000000, IPB: 16369668.000000, STDT: 810501979.000000, IPT: 105128205.000000, BOH/LOH: 2.695687,7.709653, MAX:1
Coverage: 25, Tot. Cov: 231.000000, 89/153, STDB: 249555000.000000, IPB: 122778400.000000, STDT: 10663873000.000000, IPT: 1055585721.000000, BOH/LOH: 2.032564,10.102328, MAX:1
Coverage: 25, Tot. Cov: 107.000000, 90/153, STDB: 126735000.000000, IPB: 51192368.000000, STDT: 3804911259.000000, IPT: 529880820.000000, BOH/LOH: 2.475662,7.180693, MAX:1
Coverage: 25, Tot. Cov: 142.000000, 91/153, STDB: 132560000.000000, IPB: 54844360.000000, STDT: 5627562602.000000, IPT: 690062084.000000, BOH/LOH: 2.417022,8.155154, MAX:1
Coverage: 25, Tot. Cov: 107.000000, 92/153, STDB: 103665000.000000, IPB: 44637864.000000, STDT: 3413981314.000000, IPT: 447373253.000000, BOH/LOH: 2.322356,7.631170, MAX:1
Coverage: 25, Tot. Cov: 230.000000, 93/153, STDB: 242970000.000000, IPB: 105368600.000000, STDT: 7603812303.000000, IPT: 1069488549.000000, BOH/LOH: 2.305905,7.109765, MAX:1
Coverage: 25, Tot. Cov: 100.000000, 94/153, STDB: 109207500.000000, IPB: 43840092.000000, STDT: 2412190598.000000, IPT: 554371546.000000, BOH/LOH: 2.491042,4.351216, MAX:1
Coverage: 25, Tot. Cov: 177.000000, 95/153, STDB: 189590000.000000, IPB: 79872976.000000, STDT: 6650359433.000000, IPT: 911710616.000000, BOH/LOH: 2.373644,7.294375, MAX:1
Coverage: 25, Tot. Cov: 124.000000, 96/153, STDB: 217290000.000000, IPB: 87840048.000000, STDT: 5395737266.000000, IPT: 521668760.000000, BOH/LOH: 2.473701,10.343225, MAX:1
Coverage: 25, Tot. Cov: 95.000000, 97/153, STDB: 158985000.000000, IPB: 55638692.000000, STDT: 4087004201.000000, IPT: 467903113.000000, BOH/LOH: 2.857454,8.734723, MAX:1
Coverage: 25, Tot. Cov: 139.000000, 98/153, STDB: 205160000.000000, IPB: 82650580.000000, STDT: 6162674153.000000, IPT: 707977400.000000, BOH/LOH: 2.482257,8.704620, MAX:1
Coverage: 25, Tot. Cov: 90.000000, 99/153, STDB: 128790000.000000, IPB: 50773820.000000, STDT: 3425400778.000000, IPT: 391043820.000000, BOH/LOH: 2.536543,8.759634, MAX:1
Coverage: 25, Tot. Cov: 122.000000, 100/153, STDB: 142867500.000000, IPB: 64280932.000000, STDT: 3973870329.000000, IPT: 641593664.000000, BOH/LOH: 2.222549,6.193749, MAX:1
Coverage: 25, Tot. Cov: 272.000000, 101/153, STDB: 367695000.000000, IPB: 153384852.000000, STDT: 12491204302.000000, IPT: 1196602509.000000, BOH/LOH: 2.397205,10.438892, MAX:1
Coverage: 25, Tot. Cov: 105.000000, 102/153, STDB: 161715000.000000, IPB: 71828736.000000, STDT: 4920845758.000000, IPT: 446703743.000000, BOH/LOH: 2.251397,11.015904, MAX:1
Coverage: 25, Tot. Cov: 63.000000, 103/153, STDB: 101350000.000000, IPB: 39880880.000000, STDT: 1665528843.000000, IPT: 285822495.000000, BOH/LOH: 2.541318,5.827144, MAX:1
Coverage: 25, Tot. Cov: 159.000000, 104/153, STDB: 277960000.000000, IPB: 113768956.000000, STDT: 8067858489.000000, IPT: 884770828.000000, BOH/LOH: 2.443197,9.118586, MAX:1
Coverage: 25, Tot. Cov: 61.000000, 105/153, STDB: 106610000.000000, IPB: 42536796.000000, STDT: 1511029107.000000, IPT: 234238610.000000, BOH/LOH: 2.506301,6.450811, MAX:1
Coverage: 25, Tot. Cov: 75.000000, 106/153, STDB: 102550000.000000, IPB: 58027880.000000, STDT: 2518678858.000000, IPT: 310193075.000000, BOH/LOH: 1.767254,8.119713, MAX:1
Coverage: 25, Tot. Cov: 196.000000, 107/153, STDB: 259425000.000000, IPB: 109097036.000000, STDT: 9567970116.000000, IPT: 1110403881.000000, BOH/LOH: 2.377929,8.616658, MAX:1
Coverage: 25, Tot. Cov: 130.000000, 108/153, STDB: 148170000.000000, IPB: 78642784.000000, STDT: 3460025584.000000, IPT: 410071522.000000, BOH/LOH: 1.884089,8.437615, MAX:1
Coverage: 25, Tot. Cov: 149.000000, 109/153, STDB: 223200000.000000, IPB: 83106480.000000, STDT: 6200875897.000000, IPT: 1037156549.000000, BOH/LOH: 2.685711,5.978727, MAX:1
Coverage: 25, Tot. Cov: 102.000000, 110/153, STDB: 278632500.000000, IPB: 109171112.000000, STDT: 4703855698.000000, IPT: 552822919.000000, BOH/LOH: 2.552255,8.508793, MAX:1
Coverage: 25, Tot. Cov: 174.000000, 111/153, STDB: 306530000.000000, IPB: 155429352.000000, STDT: 7627308548.000000, IPT: 858876464.000000, BOH/LOH: 1.972150,8.880565, MAX:1
Coverage: 25, Tot. Cov: 196.000000, 112/153, STDB: 424012500.000000, IPB: 163273360.000000, STDT: 9274301729.000000, IPT: 1420246491.000000, BOH/LOH: 2.596948,6.530065, MAX:1
Coverage: 25, Tot. Cov: 93.000000, 113/153, STDB: 186660000.000000, IPB: 79941436.000000, STDT: 4050824848.000000, IPT: 454700055.000000, BOH/LOH: 2.334959,8.908785, MAX:1
Coverage: 25, Tot. Cov: 844.000000, 114/153, STDB: 1323207500.000000, IPB: 671389704.000000, STDT: 47384478848.000000, IPT: 4324667223.000000, BOH/LOH: 1.970849,10.956792, MAX:1
Coverage: 25, Tot. Cov: 53.000000, 115/153, STDB: 154535000.000000, IPB: 54039872.000000, STDT: 3147629955.000000, IPT: 287771604.000000, BOH/LOH: 2.859648,10.937945, MAX:1
Coverage: 25, Tot. Cov: 68.000000, 116/153, STDB: 161710000.000000, IPB: 71133352.000000, STDT: 3067111576.000000, IPT: 339302018.000000, BOH/LOH: 2.273336,9.039473, MAX:1
Coverage: 25, Tot. Cov: 63.000000, 117/153, STDB: 129385000.000000, IPB: 55965092.000000, STDT: 2286930130.000000, IPT: 326078939.000000, BOH/LOH: 2.311888,7.013425, MAX:1
Coverage: 25, Tot. Cov: 157.000000, 118/153, STDB: 298060000.000000, IPB: 152724864.000000, STDT: 6992008675.000000, IPT: 729820300.000000, BOH/LOH: 1.951614,9.580452, MAX:1
Coverage: 25, Tot. Cov: 30.000000, 119/153, STDB: 75932500.000000, IPB: 29206780.000000, STDT: 935045778.000000, IPT: 135228121.000000, BOH/LOH: 2.599824,6.914581, MAX:1
Coverage: 25, Tot. Cov: 336.000000, 120/153, STDB: 1162660000.000000, IPB: 432409156.000000, STDT: 16558855062.000000, IPT: 2790356684.000000, BOH/LOH: 2.688796,5.934315, MAX:1
Coverage: 25, Tot. Cov: 103.000000, 121/153, STDB: 231007500.000000, IPB: 85500348.000000, STDT: 4330172508.000000, IPT: 865982753.000000, BOH/LOH: 2.701831,5.000299, MAX:1
Coverage: 25, Tot. Cov: 237.000000, 122/153, STDB: 603030000.000000, IPB: 247393928.000000, STDT: 15308003114.000000, IPT: 2021074730.000000, BOH/LOH: 2.437530,7.574190, MAX:1
Coverage: 25, Tot. Cov: 75.000000, 123/153, STDB: 327475000.000000, IPB: 147414972.000000, STDT: 2812814286.000000, IPT: 412005529.000000, BOH/LOH: 2.221450,6.827128, MAX:1
Coverage: 25, Tot. Cov: 78.000000, 124/153, STDB: 285575000.000000, IPB: 126574540.000000, STDT: 2293023791.000000, IPT: 459590800.000000, BOH/LOH: 2.256180,4.989273, MAX:1
Coverage: 25, Tot. Cov: 217.000000, 125/153, STDB: 736012500.000000, IPB: 319598316.000000, STDT: 11670951925.000000, IPT: 1289445989.000000, BOH/LOH: 2.302930,9.051137, MAX:1
Coverage: 25, Tot. Cov: 551.000000, 126/153, STDB: 1648200000.000000, IPB: 855135656.000000, STDT: 17414037098.000000, IPT: 2961678605.000000, BOH/LOH: 1.927413,5.879786, MAX:1
Coverage: 25, Tot. Cov: 52.000000, 127/153, STDB: 185580000.000000, IPB: 61003604.000000, STDT: 2925269783.000000, IPT: 277222996.000000, BOH/LOH: 3.042115,10.552046, MAX:1
Coverage: 25, Tot. Cov: 142.000000, 128/153, STDB: 362130000.000000, IPB: 175349456.000000, STDT: 6018254933.000000, IPT: 648443061.000000, BOH/LOH: 2.065190,9.281085, MAX:1
Coverage: 25, Tot. Cov: 87.000000, 129/153, STDB: 297600000.000000, IPB: 114791388.000000, STDT: 4308747458.000000, IPT: 433784054.000000, BOH/LOH: 2.592529,9.932932, MAX:1
Coverage: 25, Tot. Cov: 70.000000, 130/153, STDB: 166105000.000000, IPB: 81492452.000000, STDT: 2884968251.000000, IPT: 318738256.000000, BOH/LOH: 2.038287,9.051214, MAX:1
Coverage: 25, Tot. Cov: 68.000000, 131/153, STDB: 205915000.000000, IPB: 94222992.000000, STDT: 3431018119.000000, IPT: 330630359.000000, BOH/LOH: 2.185401,10.377202, MAX:1
Coverage: 25, Tot. Cov: 113.000000, 132/153, STDB: 313215000.000000, IPB: 137709428.000000, STDT: 5981501030.000000, IPT: 671075351.000000, BOH/LOH: 2.274463,8.913308, MAX:1
Coverage: 25, Tot. Cov: 25.000000, 133/153, STDB: 96800000.000000, IPB: 30237472.000000, STDT: 932085747.000000, IPT: 152334597.000000, BOH/LOH: 3.201326,6.118674, MAX:1
Coverage: 25, Tot. Cov: 75.000000, 134/153, STDB: 121720000.000000, IPB: 45597704.000000, STDT: 2011772938.000000, IPT: 608130928.000000, BOH/LOH: 2.669433,3.308125, MAX:1
Coverage: 25, Tot. Cov: 55.000000, 135/153, STDB: 125210000.000000, IPB: 34173956.000000, STDT: 1474461114.000000, IPT: 406251356.000000, BOH/LOH: 3.663901,3.629431, MAX:1
Coverage: 25, Tot. Cov: 79.000000, 136/153, STDB: 180700000.000000, IPB: 75803684.000000, STDT: 3177310042.000000, IPT: 585722401.000000, BOH/LOH: 2.383789,5.424601, MAX:1
Coverage: 25, Tot. Cov: 77.000000, 137/153, STDB: 136270000.000000, IPB: 76382488.000000, STDT: 2232910946.000000, IPT: 374175803.000000, BOH/LOH: 1.784048,5.967545, MAX:1
Coverage: 25, Tot. Cov: 76.000000, 138/153, STDB: 219035000.000000, IPB: 62247384.000000, STDT: 4723417999.000000, IPT: 653933362.000000, BOH/LOH: 3.518782,7.223088, MAX:1
Coverage: 25, Tot. Cov: 74.000000, 139/153, STDB: 108775000.000000, IPB: 32075620.000000, STDT: 3334151401.000000, IPT: 618613169.000000, BOH/LOH: 3.391205,5.389719, MAX:1
Coverage: 25, Tot. Cov: 78.000000, 140/153, STDB: 133800000.000000, IPB: 59034700.000000, STDT: 2480073819.000000, IPT: 373732973.000000, BOH/LOH: 2.266464,6.635951, MAX:1
Coverage: 25, Tot. Cov: 134.000000, 141/153, STDB: 206842500.000000, IPB: 97258500.000000, STDT: 4641681237.000000, IPT: 954413772.000000, BOH/LOH: 2.126729,4.863385, MAX:1
Coverage: 25, Tot. Cov: 68.000000, 142/153, STDB: 138430000.000000, IPB: 56532028.000000, STDT: 3504638307.000000, IPT: 637687297.000000, BOH/LOH: 2.448700,5.495857, MAX:1
Coverage: 25, Tot. Cov: 77.000000, 143/153, STDB: 144525000.000000, IPB: 42444216.000000, STDT: 2588260933.000000, IPT: 745051233.000000, BOH/LOH: 3.405058,3.473937, MAX:1
Coverage: 25, Tot. Cov: 75.000000, 144/153, STDB: 175005000.000000, IPB: 68356616.000000, STDT: 2175621670.000000, IPT: 520234404.000000, BOH/LOH: 2.560176,4.182003, MAX:1
Coverage: 25, Tot. Cov: 26.000000, 145/153, STDB: 49790000.000000, IPB: 10223868.000000, STDT: 884454909.000000, IPT: 255005101.000000, BOH/LOH: 4.869977,3.468381, MAX:1
Coverage: 25, Tot. Cov: 88.000000, 146/153, STDB: 698055000.000000, IPB: 235244832.000000, STDT: 4982138111.000000, IPT: 748145709.000000, BOH/LOH: 2.967355,6.659315, MAX:1
Coverage: 25, Tot. Cov: 75.000000, 147/153, STDB: 359650000.000000, IPB: 178034440.000000, STDT: 4319189085.000000, IPT: 632865526.000000, BOH/LOH: 2.020115,6.824813, MAX:1
Coverage: 25, Tot. Cov: 75.000000, 148/153, STDB: 422495000.000000, IPB: 189578180.000000, STDT: 4247212980.000000, IPT: 620574982.000000, BOH/LOH: 2.228606,6.843996, MAX:1
Coverage: 25, Tot. Cov: 210.000000, 149/153, STDB: 965200000.000000, IPB: 367589496.000000, STDT: 14825896071.000000, IPT: 1848847705.000000, BOH/LOH: 2.625755,8.018993, MAX:1
Coverage: 25, Tot. Cov: 67.000000, 150/153, STDB: 523655000.000000, IPB: 218727576.000000, STDT: 5182029186.000000, IPT: 485048624.000000, BOH/LOH: 2.394097,10.683525, MAX:1
Coverage: 25, Tot. Cov: 102.000000, 151/153, STDB: 637807500.000000, IPB: 280867516.000000, STDT: 6617446647.000000, IPT: 776181122.000000, BOH/LOH: 2.270848,8.525648, MAX:1
Coverage: 25, Tot. Cov: 629.000000, 152/153, STDB: 3778905000.000000, IPB: 1800872692.000000, STDT: 17244258201.000000, IPT: 3594786217.000000, BOH/LOH: 2.098374,4.797019, MAX:1
