Coverage: 40, Tot. Cov: 41.000000, 1/200, STDB: 5192500.000000, IPB: 2082948.000000, STDT: 636162494.000000, IPT: 153411500.000000, BOH/LOH: 2.492861,4.146772, MAX:1
Coverage: 40, Tot. Cov: 190.000000, 2/200, STDB: 19610000.000000, IPB: 8586608.000000, STDT: 3570049757.000000, IPT: 621797244.000000, BOH/LOH: 2.283789,5.741501, MAX:1
Coverage: 40, Tot. Cov: 190.000000, 3/200, STDB: 963180000.000000, IPB: 618039876.000000, STDT: 10954449017.000000, IPT: 1099072382.000000, BOH/LOH: 1.558443,9.966995, MAX:1
Coverage: 40, Tot. Cov: 89.000000, 4/200, STDB: 136595000.000000, IPB: 68084428.000000, STDT: 3384924133.000000, IPT: 439429122.000000, BOH/LOH: 2.006259,7.703004, MAX:1
Coverage: 40, Tot. Cov: 41.000000, 5/200, STDB: 50597500.000000, IPB: 21852304.000000, STDT: 3829850202.000000, IPT: 365230235.000000, BOH/LOH: 2.315431,10.486126, MAX:1
Coverage: 40, Tot. Cov: 238.000000, 6/200, STDB: 111837500.000000, IPB: 58871040.000000, STDT: 3699933442.000000, IPT: 943586865.000000, BOH/LOH: 1.899703,3.921137, MAX:1
Coverage: 40, Tot. Cov: 239.000000, 7/200, STDB: 103825000.000000, IPB: 36806976.000000, STDT: 7028019455.000000, IPT: 1345050835.000000, BOH/LOH: 2.820797,5.225096, MAX:1
Coverage: 40, Tot. Cov: 90.000000, 8/200, STDB: 33105000.000000, IPB: 12485576.000000, STDT: 3568325237.000000, IPT: 757260155.000000, BOH/LOH: 2.651460,4.712152, MAX:1
Coverage: 40, Tot. Cov: 87.000000, 9/200, STDB: 23595000.000000, IPB: 11423544.000000, STDT: 2463366281.000000, IPT: 417752813.000000, BOH/LOH: 2.065471,5.896708, MAX:1
Coverage: 40, Tot. Cov: 83.000000, 10/200, STDB: 197650000.000000, IPB: 100479028.000000, STDT: 6265919203.000000, IPT: 438781720.000000, BOH/LOH: 1.967077,14.280265, MAX:1
Coverage: 40, Tot. Cov: 331.000000, 11/200, STDB: 98892500.000000, IPB: 41140140.000000, STDT: 4856939218.000000, IPT: 1436114873.000000, BOH/LOH: 2.403796,3.381999, MAX:1
Coverage: 40, Tot. Cov: 42.000000, 12/200, STDB: 28600000.000000, IPB: 15320476.000000, STDT: 1316593134.000000, IPT: 293499942.000000, BOH/LOH: 1.866783,4.485838, MAX:1
Coverage: 40, Tot. Cov: 42.000000, 13/200, STDB: 20945000.000000, IPB: 10896312.000000, STDT: 1519647505.000000, IPT: 200673504.000000, BOH/LOH: 1.922210,7.572736, MAX:1
Coverage: 40, Tot. Cov: 290.000000, 14/200, STDB: 530940000.000000, IPB: 209675120.000000, STDT: 27951850778.000000, IPT: 1304670324.000000, BOH/LOH: 2.532203,21.424455, MAX:1
Coverage: 40, Tot. Cov: 85.000000, 15/200, STDB: 46925000.000000, IPB: 21916300.000000, STDT: 2810867473.000000, IPT: 358024253.000000, BOH/LOH: 2.141100,7.851053, MAX:1
Coverage: 40, Tot. Cov: 83.000000, 16/200, STDB: 118400000.000000, IPB: 49313480.000000, STDT: 5531808943.000000, IPT: 398934396.000000, BOH/LOH: 2.400966,13.866463, MAX:1
Coverage: 40, Tot. Cov: 141.000000, 17/200, STDB: 432202500.000000, IPB: 204992304.000000, STDT: 12168959429.000000, IPT: 788205800.000000, BOH/LOH: 2.108384,15.438810, MAX:1
Coverage: 40, Tot. Cov: 235.000000, 18/200, STDB: 998012500.000000, IPB: 567418052.000000, STDT: 24215418814.000000, IPT: 1990692013.000000, BOH/LOH: 1.758866,12.164322, MAX:1
Coverage: 40, Tot. Cov: 243.000000, 19/200, STDB: 242262500.000000, IPB: 98728136.000000, STDT: 11978600064.000000, IPT: 1051525773.000000, BOH/LOH: 2.453834,11.391637, MAX:1
Coverage: 40, Tot. Cov: 329.000000, 20/200, STDB: 289047500.000000, IPB: 118204268.000000, STDT: 22405849892.000000, IPT: 1355723098.000000, BOH/LOH: 2.445322,16.526863, MAX:1
Coverage: 40, Tot. Cov: 239.000000, 21/200, STDB: 416150000.000000, IPB: 229749472.000000, STDT: 14862059296.000000, IPT: 1139035647.000000, BOH/LOH: 1.811321,13.047932, MAX:1
Coverage: 40, Tot. Cov: 142.000000, 22/200, STDB: 126007500.000000, IPB: 60714472.000000, STDT: 5977922160.000000, IPT: 786227606.000000, BOH/LOH: 2.075411,7.603297, MAX:1
Coverage: 40, Tot. Cov: 82.000000, 23/200, STDB: 111480000.000000, IPB: 56747968.000000, STDT: 4708913510.000000, IPT: 624990244.000000, BOH/LOH: 1.964476,7.534379, MAX:1
Coverage: 40, Tot. Cov: 40.000000, 24/200, STDB: 71667500.000000, IPB: 32309748.000000, STDT: 2046911170.000000, IPT: 211209779.000000, BOH/LOH: 2.218139,9.691366, MAX:1
Coverage: 40, Tot. Cov: 236.000000, 25/200, STDB: 117800000.000000, IPB: 54958196.000000, STDT: 8344032335.000000, IPT: 1267889980.000000, BOH/LOH: 2.143447,6.581038, MAX:1
Coverage: 40, Tot. Cov: 85.000000, 26/200, STDB: 51205000.000000, IPB: 22938104.000000, STDT: 3578868295.000000, IPT: 504826084.000000, BOH/LOH: 2.232312,7.089309, MAX:1
Coverage: 40, Tot. Cov: 131.000000, 27/200, STDB: 289372500.000000, IPB: 149497908.000000, STDT: 6391819256.000000, IPT: 664987049.000000, BOH/LOH: 1.935629,9.611945, MAX:1
Coverage: 40, Tot. Cov: 90.000000, 28/200, STDB: 13910000.000000, IPB: 5819324.000000, STDT: 897292890.000000, IPT: 317141211.000000, BOH/LOH: 2.390312,2.829317, MAX:1
Coverage: 40, Tot. Cov: 86.000000, 29/200, STDB: 590110000.000000, IPB: 291037468.000000, STDT: 9024076962.000000, IPT: 627140616.000000, BOH/LOH: 2.027608,14.389240, MAX:1
Coverage: 40, Tot. Cov: 182.000000, 30/200, STDB: 212750000.000000, IPB: 105536448.000000, STDT: 11821548327.000000, IPT: 926792218.000000, BOH/LOH: 2.015891,12.755338, MAX:1
Coverage: 40, Tot. Cov: 135.000000, 31/200, STDB: 181110000.000000, IPB: 84858632.000000, STDT: 8265493909.000000, IPT: 815742207.000000, BOH/LOH: 2.134255,10.132483, MAX:1
Coverage: 40, Tot. Cov: 135.000000, 32/200, STDB: 654682500.000000, IPB: 380762268.000000, STDT: 12287694992.000000, IPT: 1004797347.000000, BOH/LOH: 1.719400,12.229028, MAX:1
Coverage: 40, Tot. Cov: 42.000000, 33/200, STDB: 36997500.000000, IPB: 24240272.000000, STDT: 1019700797.000000, IPT: 168364293.000000, BOH/LOH: 1.526282,6.056515, MAX:1
Coverage: 40, Tot. Cov: 142.000000, 34/200, STDB: 50797500.000000, IPB: 19166280.000000, STDT: 4028594524.000000, IPT: 622775731.000000, BOH/LOH: 2.650358,6.468773, MAX:1
Coverage: 40, Tot. Cov: 93.000000, 35/200, STDB: 138930000.000000, IPB: 57620096.000000, STDT: 5253459030.000000, IPT: 864148313.000000, BOH/LOH: 2.411138,6.079349, MAX:1
Coverage: 40, Tot. Cov: 90.000000, 36/200, STDB: 61415000.000000, IPB: 30012148.000000, STDT: 3491501676.000000, IPT: 376730454.000000, BOH/LOH: 2.046338,9.267904, MAX:1
Coverage: 40, Tot. Cov: 41.000000, 37/200, STDB: 1300000.000000, IPB: 801992.000000, STDT: 182276968.000000, IPT: 120505502.000000, BOH/LOH: 1.620964,1.512603, MAX:1
Coverage: 40, Tot. Cov: 40.000000, 38/200, STDB: 12277500.000000, IPB: 4941196.000000, STDT: 548901917.000000, IPT: 148959568.000000, BOH/LOH: 2.484722,3.684905, MAX:1
Coverage: 40, Tot. Cov: 90.000000, 39/200, STDB: 30745000.000000, IPB: 12852448.000000, STDT: 3584639102.000000, IPT: 597758443.000000, BOH/LOH: 2.392151,5.996802, MAX:1
Coverage: 40, Tot. Cov: 87.000000, 40/200, STDB: 10485000.000000, IPB: 4583560.000000, STDT: 1126212354.000000, IPT: 306261586.000000, BOH/LOH: 2.287523,3.677289, MAX:1
Coverage: 40, Tot. Cov: 42.000000, 41/200, STDB: 1157500.000000, IPB: 583732.000000, STDT: 225403069.000000, IPT: 128515367.000000, BOH/LOH: 1.982931,1.753900, MAX:1
Coverage: 40, Tot. Cov: 146.000000, 42/200, STDB: 21082500.000000, IPB: 10714872.000000, STDT: 2627568891.000000, IPT: 580958915.000000, BOH/LOH: 1.967592,4.522814, MAX:1
Coverage: 40, Tot. Cov: 42.000000, 43/200, STDB: 4297500.000000, IPB: 1677556.000000, STDT: 1078854109.000000, IPT: 240815914.000000, BOH/LOH: 2.561762,4.479995, MAX:1
Coverage: 40, Tot. Cov: 183.000000, 44/200, STDB: 168340000.000000, IPB: 58759056.000000, STDT: 15657036413.000000, IPT: 859485124.000000, BOH/LOH: 2.864920,18.216763, MAX:1
Coverage: 40, Tot. Cov: 234.000000, 45/200, STDB: 535475000.000000, IPB: 248985928.000000, STDT: 18470128162.000000, IPT: 2004633866.000000, BOH/LOH: 2.150624,9.213717, MAX:1
Coverage: 40, Tot. Cov: 81.000000, 46/200, STDB: 40415000.000000, IPB: 17485332.000000, STDT: 3999848981.000000, IPT: 382442197.000000, BOH/LOH: 2.311366,10.458702, MAX:1
Coverage: 40, Tot. Cov: 42.000000, 47/200, STDB: 8465000.000000, IPB: 3699980.000000, STDT: 1368899165.000000, IPT: 357204157.000000, BOH/LOH: 2.287850,3.832260, MAX:1
Coverage: 40, Tot. Cov: 41.000000, 48/200, STDB: 78920000.000000, IPB: 39133012.000000, STDT: 2094074351.000000, IPT: 211237382.000000, BOH/LOH: 2.016712,9.913370, MAX:1
Coverage: 40, Tot. Cov: 91.000000, 49/200, STDB: 51230000.000000, IPB: 23754680.000000, STDT: 1841101410.000000, IPT: 362721624.000000, BOH/LOH: 2.156628,5.075797, MAX:1
Coverage: 40, Tot. Cov: 90.000000, 50/200, STDB: 147070000.000000, IPB: 55798548.000000, STDT: 6286131314.000000, IPT: 398854171.000000, BOH/LOH: 2.635732,15.760475, MAX:1
Coverage: 40, Tot. Cov: 192.000000, 51/200, STDB: 439120000.000000, IPB: 191706696.000000, STDT: 10649495430.000000, IPT: 1674863296.000000, BOH/LOH: 2.290582,6.358427, MAX:1
Coverage: 40, Tot. Cov: 190.000000, 52/200, STDB: 216280000.000000, IPB: 95198032.000000, STDT: 7790363866.000000, IPT: 992661687.000000, BOH/LOH: 2.271896,7.847955, MAX:1
Coverage: 40, Tot. Cov: 41.000000, 53/200, STDB: 87022500.000000, IPB: 41536956.000000, STDT: 2917626533.000000, IPT: 293982825.000000, BOH/LOH: 2.095062,9.924480, MAX:1
Coverage: 40, Tot. Cov: 41.000000, 54/200, STDB: 52650000.000000, IPB: 26357952.000000, STDT: 1944003207.000000, IPT: 217843957.000000, BOH/LOH: 1.997500,8.923834, MAX:1
Coverage: 40, Tot. Cov: 134.000000, 55/200, STDB: 256260000.000000, IPB: 142547964.000000, STDT: 12174320567.000000, IPT: 715142968.000000, BOH/LOH: 1.797711,17.023618, MAX:1
Coverage: 40, Tot. Cov: 41.000000, 56/200, STDB: 6150000.000000, IPB: 2803308.000000, STDT: 759452652.000000, IPT: 177489527.000000, BOH/LOH: 2.193837,4.278859, MAX:1
Coverage: 40, Tot. Cov: 227.000000, 57/200, STDB: 343925000.000000, IPB: 177537836.000000, STDT: 13310433754.000000, IPT: 1472408053.000000, BOH/LOH: 1.937193,9.039908, MAX:1
Coverage: 40, Tot. Cov: 142.000000, 58/200, STDB: 150022500.000000, IPB: 63627316.000000, STDT: 8524194635.000000, IPT: 648011106.000000, BOH/LOH: 2.357832,13.154396, MAX:1
Coverage: 40, Tot. Cov: 91.000000, 59/200, STDB: 119375000.000000, IPB: 61458924.000000, STDT: 5516570258.000000, IPT: 542409286.000000, BOH/LOH: 1.942354,10.170494, MAX:1
Coverage: 40, Tot. Cov: 138.000000, 60/200, STDB: 301612500.000000, IPB: 178777592.000000, STDT: 9021559530.000000, IPT: 629114758.000000, BOH/LOH: 1.687082,14.340086, MAX:1
Coverage: 40, Tot. Cov: 90.000000, 61/200, STDB: 20945000.000000, IPB: 4075680.000000, STDT: 4044260268.000000, IPT: 527946871.000000, BOH/LOH: 5.139020,7.660355, MAX:1
Coverage: 40, Tot. Cov: 88.000000, 62/200, STDB: 138335000.000000, IPB: 79586336.000000, STDT: 6127509281.000000, IPT: 414293458.000000, BOH/LOH: 1.738175,14.790263, MAX:1
Coverage: 40, Tot. Cov: 130.000000, 63/200, STDB: 157792500.000000, IPB: 76744244.000000, STDT: 4252184996.000000, IPT: 425236308.000000, BOH/LOH: 2.056083,9.999581, MAX:1
Coverage: 40, Tot. Cov: 82.000000, 64/200, STDB: 2800000.000000, IPB: 1742812.000000, STDT: 458791682.000000, IPT: 259406385.000000, BOH/LOH: 1.606599,1.768621, MAX:1
Coverage: 40, Tot. Cov: 132.000000, 65/200, STDB: 228960000.000000, IPB: 122490520.000000, STDT: 7131604444.000000, IPT: 593649953.000000, BOH/LOH: 1.869206,12.013147, MAX:1
Coverage: 40, Tot. Cov: 81.000000, 66/200, STDB: 139990000.000000, IPB: 64714672.000000, STDT: 6871999888.000000, IPT: 460417176.000000, BOH/LOH: 2.163188,14.925594, MAX:1
Coverage: 40, Tot. Cov: 283.000000, 67/200, STDB: 951840000.000000, IPB: 286073312.000000, STDT: 29097947732.000000, IPT: 1919508617.000000, BOH/LOH: 3.327259,15.159061, MAX:1
Coverage: 40, Tot. Cov: 44.000000, 68/200, STDB: 7202500.000000, IPB: 3452788.000000, STDT: 729979673.000000, IPT: 176424342.000000, BOH/LOH: 2.085995,4.137636, MAX:1
Coverage: 40, Tot. Cov: 180.000000, 69/200, STDB: 428230000.000000, IPB: 243030236.000000, STDT: 10378557280.000000, IPT: 873910043.000000, BOH/LOH: 1.762044,11.876002, MAX:1
Coverage: 40, Tot. Cov: 141.000000, 70/200, STDB: 213412500.000000, IPB: 110464196.000000, STDT: 8347009100.000000, IPT: 704392484.000000, BOH/LOH: 1.931961,11.849941, MAX:1
Coverage: 40, Tot. Cov: 381.000000, 71/200, STDB: 156100000.000000, IPB: 66208784.000000, STDT: 10893995192.000000, IPT: 1655318464.000000, BOH/LOH: 2.357693,6.581208, MAX:1
Coverage: 40, Tot. Cov: 40.000000, 72/200, STDB: 15332500.000000, IPB: 5972620.000000, STDT: 970565425.000000, IPT: 183211879.000000, BOH/LOH: 2.567131,5.297503, MAX:1
Coverage: 40, Tot. Cov: 90.000000, 73/200, STDB: 619465000.000000, IPB: 354953608.000000, STDT: 3909553202.000000, IPT: 545434666.000000, BOH/LOH: 1.745200,7.167775, MAX:1
Coverage: 40, Tot. Cov: 40.000000, 74/200, STDB: 3162500.000000, IPB: 1257448.000000, STDT: 426627595.000000, IPT: 128622976.000000, BOH/LOH: 2.515015,3.316885, MAX:1
Coverage: 40, Tot. Cov: 89.000000, 75/200, STDB: 123505000.000000, IPB: 68787568.000000, STDT: 4230285582.000000, IPT: 387149339.000000, BOH/LOH: 1.795455,10.926754, MAX:1
Coverage: 40, Tot. Cov: 234.000000, 76/200, STDB: 169637500.000000, IPB: 74934412.000000, STDT: 6009184163.000000, IPT: 1045593981.000000, BOH/LOH: 2.263813,5.747149, MAX:1
Coverage: 40, Tot. Cov: 91.000000, 77/200, STDB: 135955000.000000, IPB: 84492724.000000, STDT: 5416244909.000000, IPT: 452379083.000000, BOH/LOH: 1.609073,11.972801, MAX:1
Coverage: 40, Tot. Cov: 184.000000, 78/200, STDB: 15270000.000000, IPB: 5527972.000000, STDT: 2060256935.000000, IPT: 584155762.000000, BOH/LOH: 2.762315,3.526897, MAX:1
Coverage: 40, Tot. Cov: 40.000000, 79/200, STDB: 114442500.000000, IPB: 60693340.000000, STDT: 1660042912.000000, IPT: 225582252.000000, BOH/LOH: 1.885586,7.358925, MAX:1
Coverage: 40, Tot. Cov: 91.000000, 80/200, STDB: 107555000.000000, IPB: 53314464.000000, STDT: 3980289045.000000, IPT: 443379901.000000, BOH/LOH: 2.017370,8.977153, MAX:1
Coverage: 40, Tot. Cov: 133.000000, 81/200, STDB: 64522500.000000, IPB: 27719492.000000, STDT: 4841087387.000000, IPT: 639800307.000000, BOH/LOH: 2.327694,7.566560, MAX:1
Coverage: 40, Tot. Cov: 276.000000, 82/200, STDB: 957705000.000000, IPB: 386611724.000000, STDT: 20884650084.000000, IPT: 2420083023.000000, BOH/LOH: 2.477175,8.629725, MAX:1
Coverage: 40, Tot. Cov: 233.000000, 83/200, STDB: 172475000.000000, IPB: 92148604.000000, STDT: 12632560308.000000, IPT: 1093139251.000000, BOH/LOH: 1.871705,11.556222, MAX:1
Coverage: 40, Tot. Cov: 85.000000, 84/200, STDB: 24760000.000000, IPB: 8109240.000000, STDT: 3794768169.000000, IPT: 713212636.000000, BOH/LOH: 3.053307,5.320669, MAX:1
Coverage: 40, Tot. Cov: 127.000000, 85/200, STDB: 43140000.000000, IPB: 19065784.000000, STDT: 3778082617.000000, IPT: 456049045.000000, BOH/LOH: 2.262692,8.284378, MAX:1
Coverage: 40, Tot. Cov: 233.000000, 86/200, STDB: 228175000.000000, IPB: 104502988.000000, STDT: 22385701579.000000, IPT: 1072954223.000000, BOH/LOH: 2.183430,20.863613, MAX:1
Coverage: 40, Tot. Cov: 41.000000, 87/200, STDB: 4682500.000000, IPB: 1763552.000000, STDT: 795604991.000000, IPT: 239654388.000000, BOH/LOH: 2.655153,3.319801, MAX:1
Coverage: 40, Tot. Cov: 187.000000, 88/200, STDB: 285980000.000000, IPB: 145897264.000000, STDT: 12871182454.000000, IPT: 905174586.000000, BOH/LOH: 1.960146,14.219558, MAX:1
Coverage: 40, Tot. Cov: 41.000000, 89/200, STDB: 71450000.000000, IPB: 31587048.000000, STDT: 2107149709.000000, IPT: 189894178.000000, BOH/LOH: 2.262003,11.096442, MAX:1
Coverage: 40, Tot. Cov: 40.000000, 90/200, STDB: 80667500.000000, IPB: 40991724.000000, STDT: 1573837032.000000, IPT: 179561031.000000, BOH/LOH: 1.967897,8.764914, MAX:1
Coverage: 40, Tot. Cov: 183.000000, 91/200, STDB: 59590000.000000, IPB: 29102492.000000, STDT: 5579651114.000000, IPT: 740939850.000000, BOH/LOH: 2.047591,7.530505, MAX:1
Coverage: 40, Tot. Cov: 41.000000, 92/200, STDB: 42170000.000000, IPB: 9921264.000000, STDT: 2059169700.000000, IPT: 386430484.000000, BOH/LOH: 4.250466,5.328694, MAX:1
Coverage: 40, Tot. Cov: 141.000000, 93/200, STDB: 416737500.000000, IPB: 241466708.000000, STDT: 6336537432.000000, IPT: 644170227.000000, BOH/LOH: 1.725859,9.836744, MAX:1
Coverage: 40, Tot. Cov: 40.000000, 94/200, STDB: 85397500.000000, IPB: 46687456.000000, STDT: 2134377261.000000, IPT: 204253858.000000, BOH/LOH: 1.829132,10.449630, MAX:1
Coverage: 40, Tot. Cov: 43.000000, 95/200, STDB: 63867500.000000, IPB: 34777704.000000, STDT: 2092993897.000000, IPT: 253965303.000000, BOH/LOH: 1.836450,8.241259, MAX:1
Coverage: 40, Tot. Cov: 179.000000, 96/200, STDB: 12290000.000000, IPB: 5539032.000000, STDT: 1874974761.000000, IPT: 561750444.000000, BOH/LOH: 2.218799,3.337736, MAX:1
Coverage: 40, Tot. Cov: 41.000000, 97/200, STDB: 63355000.000000, IPB: 22555296.000000, STDT: 2446344370.000000, IPT: 237182081.000000, BOH/LOH: 2.808875,10.314204, MAX:1
Coverage: 40, Tot. Cov: 93.000000, 98/200, STDB: 47060000.000000, IPB: 23149800.000000, STDT: 3630955475.000000, IPT: 377684944.000000, BOH/LOH: 2.032847,9.613715, MAX:1
Coverage: 40, Tot. Cov: 43.000000, 99/200, STDB: 15322500.000000, IPB: 8008544.000000, STDT: 652555638.000000, IPT: 176507594.000000, BOH/LOH: 1.913269,3.697040, MAX:1
Coverage: 40, Tot. Cov: 43.000000, 100/200, STDB: 752500.000000, IPB: 475636.000000, STDT: 62946834.000000, IPT: 18825538.000000, BOH/LOH: 1.582092,3.343694, MAX:1
Coverage: 40, Tot. Cov: 93.000000, 101/200, STDB: 59370000.000000, IPB: 30870580.000000, STDT: 4030842298.000000, IPT: 791938695.000000, BOH/LOH: 1.923190,5.089841, MAX:1
Coverage: 40, Tot. Cov: 126.000000, 102/200, STDB: 170985000.000000, IPB: 98436468.000000, STDT: 7527175912.000000, IPT: 522212517.000000, BOH/LOH: 1.737009,14.414009, MAX:1
Coverage: 40, Tot. Cov: 40.000000, 103/200, STDB: 22290000.000000, IPB: 9835616.000000, STDT: 781245425.000000, IPT: 150436508.000000, BOH/LOH: 2.266254,5.193190, MAX:1
Coverage: 40, Tot. Cov: 40.000000, 104/200, STDB: 29607500.000000, IPB: 13332348.000000, STDT: 1141464801.000000, IPT: 181446845.000000, BOH/LOH: 2.220727,6.290905, MAX:1
Coverage: 40, Tot. Cov: 185.000000, 105/200, STDB: 124010000.000000, IPB: 62961132.000000, STDT: 7195742006.000000, IPT: 1085492588.000000, BOH/LOH: 1.969628,6.629011, MAX:1
Coverage: 40, Tot. Cov: 140.000000, 106/200, STDB: 74662500.000000, IPB: 29431636.000000, STDT: 7196745888.000000, IPT: 1171826774.000000, BOH/LOH: 2.536811,6.141476, MAX:1
Coverage: 40, Tot. Cov: 40.000000, 107/200, STDB: 130445000.000000, IPB: 66655208.000000, STDT: 2708850748.000000, IPT: 228104556.000000, BOH/LOH: 1.957011,11.875478, MAX:1
Coverage: 40, Tot. Cov: 44.000000, 108/200, STDB: 10305000.000000, IPB: 5073920.000000, STDT: 1320131607.000000, IPT: 222300092.000000, BOH/LOH: 2.030974,5.938511, MAX:1
Coverage: 40, Tot. Cov: 91.000000, 109/200, STDB: 54465000.000000, IPB: 27999524.000000, STDT: 3607760939.000000, IPT: 375846905.000000, BOH/LOH: 1.945212,9.599017, MAX:1
Coverage: 40, Tot. Cov: 85.000000, 110/200, STDB: 130225000.000000, IPB: 71204828.000000, STDT: 4538362292.000000, IPT: 431831466.000000, BOH/LOH: 1.828879,10.509568, MAX:1
Coverage: 40, Tot. Cov: 137.000000, 111/200, STDB: 38122500.000000, IPB: 18722268.000000, STDT: 2933476009.000000, IPT: 518821701.000000, BOH/LOH: 2.036212,5.654112, MAX:1
Coverage: 40, Tot. Cov: 43.000000, 112/200, STDB: 17487500.000000, IPB: 8441112.000000, STDT: 631052621.000000, IPT: 166270846.000000, BOH/LOH: 2.071706,3.795329, MAX:1
Coverage: 40, Tot. Cov: 92.000000, 113/200, STDB: 56240000.000000, IPB: 21351680.000000, STDT: 4580575441.000000, IPT: 540958721.000000, BOH/LOH: 2.633985,8.467514, MAX:1
Coverage: 40, Tot. Cov: 89.000000, 114/200, STDB: 25455000.000000, IPB: 11949416.000000, STDT: 2171710068.000000, IPT: 372666977.000000, BOH/LOH: 2.130230,5.827482, MAX:1
Coverage: 40, Tot. Cov: 43.000000, 115/200, STDB: 131187500.000000, IPB: 86596108.000000, STDT: 1703218145.000000, IPT: 205260739.000000, BOH/LOH: 1.514935,8.297827, MAX:1
Coverage: 40, Tot. Cov: 184.000000, 116/200, STDB: 990660000.000000, IPB: 535903136.000000, STDT: 18421785864.000000, IPT: 1504292245.000000, BOH/LOH: 1.848580,12.246148, MAX:1
Coverage: 40, Tot. Cov: 179.000000, 117/200, STDB: 211630000.000000, IPB: 98482120.000000, STDT: 8021454395.000000, IPT: 887078668.000000, BOH/LOH: 2.148918,9.042551, MAX:1
Coverage: 40, Tot. Cov: 92.000000, 118/200, STDB: 82090000.000000, IPB: 35003652.000000, STDT: 2887311587.000000, IPT: 390077266.000000, BOH/LOH: 2.345184,7.401897, MAX:1
Coverage: 40, Tot. Cov: 42.000000, 119/200, STDB: 53695000.000000, IPB: 30032904.000000, STDT: 1151490107.000000, IPT: 135736085.000000, BOH/LOH: 1.787872,8.483301, MAX:1
Coverage: 40, Tot. Cov: 40.000000, 120/200, STDB: 68797500.000000, IPB: 33258168.000000, STDT: 1835613838.000000, IPT: 192843691.000000, BOH/LOH: 2.068590,9.518662, MAX:1
Coverage: 40, Tot. Cov: 49.000000, 121/200, STDB: 8237500.000000, IPB: 4018368.000000, STDT: 857973549.000000, IPT: 171370035.000000, BOH/LOH: 2.049962,5.006555, MAX:1
Coverage: 40, Tot. Cov: 40.000000, 122/200, STDB: 18222500.000000, IPB: 8887964.000000, STDT: 973791866.000000, IPT: 145666431.000000, BOH/LOH: 2.050245,6.685081, MAX:1
Coverage: 40, Tot. Cov: 43.000000, 123/200, STDB: 271220000.000000, IPB: 175865664.000000, STDT: 2956102719.000000, IPT: 303736914.000000, BOH/LOH: 1.542200,9.732445, MAX:1
Coverage: 40, Tot. Cov: 141.000000, 124/200, STDB: 30817500.000000, IPB: 12291012.000000, STDT: 4241925015.000000, IPT: 621313324.000000, BOH/LOH: 2.507320,6.827352, MAX:1
Coverage: 40, Tot. Cov: 44.000000, 125/200, STDB: 49992500.000000, IPB: 12947716.000000, STDT: 1143531484.000000, IPT: 435343554.000000, BOH/LOH: 3.861106,2.626733, MAX:1
Coverage: 40, Tot. Cov: 48.000000, 126/200, STDB: 1947500.000000, IPB: 784532.000000, STDT: 1060501804.000000, IPT: 268985958.000000, BOH/LOH: 2.482372,3.942592, MAX:1
Coverage: 40, Tot. Cov: 228.000000, 127/200, STDB: 75562500.000000, IPB: 36269028.000000, STDT: 5623134812.000000, IPT: 887008713.000000, BOH/LOH: 2.083389,6.339436, MAX:1
Coverage: 40, Tot. Cov: 190.000000, 128/200, STDB: 111350000.000000, IPB: 56487436.000000, STDT: 5243586801.000000, IPT: 807544319.000000, BOH/LOH: 1.971235,6.493250, MAX:1
Coverage: 40, Tot. Cov: 184.000000, 129/200, STDB: 213580000.000000, IPB: 112144580.000000, STDT: 8981082209.000000, IPT: 882569770.000000, BOH/LOH: 1.904506,10.176059, MAX:1
Coverage: 40, Tot. Cov: 87.000000, 130/200, STDB: 110510000.000000, IPB: 37114464.000000, STDT: 4160871992.000000, IPT: 857026363.000000, BOH/LOH: 2.977545,4.855011, MAX:1
Coverage: 40, Tot. Cov: 182.000000, 131/200, STDB: 107990000.000000, IPB: 48472500.000000, STDT: 7913947063.000000, IPT: 922573495.000000, BOH/LOH: 2.227861,8.578121, MAX:1
Coverage: 40, Tot. Cov: 90.000000, 132/200, STDB: 50900000.000000, IPB: 21668728.000000, STDT: 5283863817.000000, IPT: 474137608.000000, BOH/LOH: 2.349007,11.144157, MAX:1
Coverage: 40, Tot. Cov: 40.000000, 133/200, STDB: 20080000.000000, IPB: 9399528.000000, STDT: 1001557797.000000, IPT: 170065673.000000, BOH/LOH: 2.136277,5.889241, MAX:1
Coverage: 40, Tot. Cov: 184.000000, 134/200, STDB: 108280000.000000, IPB: 45831504.000000, STDT: 6278803716.000000, IPT: 783120340.000000, BOH/LOH: 2.362567,8.017674, MAX:1
Coverage: 40, Tot. Cov: 189.000000, 135/200, STDB: 698710000.000000, IPB: 373352648.000000, STDT: 12618106093.000000, IPT: 1098224608.000000, BOH/LOH: 1.871448,11.489550, MAX:1
Coverage: 40, Tot. Cov: 143.000000, 136/200, STDB: 11295000.000000, IPB: 4787792.000000, STDT: 1135471561.000000, IPT: 450877478.000000, BOH/LOH: 2.359125,2.518359, MAX:1
Coverage: 40, Tot. Cov: 40.000000, 137/200, STDB: 70722500.000000, IPB: 26073052.000000, STDT: 1630608243.000000, IPT: 233843454.000000, BOH/LOH: 2.712475,6.973076, MAX:1
Coverage: 40, Tot. Cov: 177.000000, 138/200, STDB: 165010000.000000, IPB: 83219056.000000, STDT: 7842154185.000000, IPT: 932841249.000000, BOH/LOH: 1.982839,8.406740, MAX:1
Coverage: 40, Tot. Cov: 91.000000, 139/200, STDB: 72055000.000000, IPB: 36366512.000000, STDT: 4912747744.000000, IPT: 637915050.000000, BOH/LOH: 1.981356,7.701257, MAX:1
Coverage: 40, Tot. Cov: 41.000000, 140/200, STDB: 62315000.000000, IPB: 35833292.000000, STDT: 2662635138.000000, IPT: 298182406.000000, BOH/LOH: 1.739025,8.929551, MAX:1
Coverage: 40, Tot. Cov: 180.000000, 141/200, STDB: 391750000.000000, IPB: 193073372.000000, STDT: 12385330892.000000, IPT: 1076549467.000000, BOH/LOH: 2.029021,11.504656, MAX:1
Coverage: 40, Tot. Cov: 90.000000, 142/200, STDB: 35685000.000000, IPB: 15556424.000000, STDT: 2225896294.000000, IPT: 733250930.000000, BOH/LOH: 2.293908,3.035654, MAX:1
Coverage: 40, Tot. Cov: 191.000000, 143/200, STDB: 201480000.000000, IPB: 95399880.000000, STDT: 23694725599.000000, IPT: 1373144735.000000, BOH/LOH: 2.111952,17.255811, MAX:1
Coverage: 40, Tot. Cov: 141.000000, 144/200, STDB: 62010000.000000, IPB: 28486076.000000, STDT: 4862575386.000000, IPT: 612860709.000000, BOH/LOH: 2.176853,7.934226, MAX:1
Coverage: 40, Tot. Cov: 92.000000, 145/200, STDB: 1058520000.000000, IPB: 629534764.000000, STDT: 7551118128.000000, IPT: 697868821.000000, BOH/LOH: 1.681432,10.820254, MAX:1
Coverage: 40, Tot. Cov: 180.000000, 146/200, STDB: 24390000.000000, IPB: 10294544.000000, STDT: 2539041040.000000, IPT: 580786266.000000, BOH/LOH: 2.369216,4.371731, MAX:1
Coverage: 40, Tot. Cov: 41.000000, 147/200, STDB: 2807500.000000, IPB: 1493728.000000, STDT: 292638621.000000, IPT: 134001800.000000, BOH/LOH: 1.879526,2.183841, MAX:1
Coverage: 40, Tot. Cov: 82.000000, 148/200, STDB: 330790000.000000, IPB: 164394392.000000, STDT: 6775746272.000000, IPT: 434138131.000000, BOH/LOH: 2.012173,15.607351, MAX:1
Coverage: 40, Tot. Cov: 90.000000, 149/200, STDB: 162335000.000000, IPB: 77651460.000000, STDT: 7827213132.000000, IPT: 834228215.000000, BOH/LOH: 2.090560,9.382580, MAX:1
Coverage: 40, Tot. Cov: 44.000000, 150/200, STDB: 2895000.000000, IPB: 1912708.000000, STDT: 277216931.000000, IPT: 127651767.000000, BOH/LOH: 1.513561,2.171665, MAX:1
Coverage: 40, Tot. Cov: 142.000000, 151/200, STDB: 33225000.000000, IPB: 12322496.000000, STDT: 3275140104.000000, IPT: 760256525.000000, BOH/LOH: 2.696288,4.307941, MAX:1
Coverage: 40, Tot. Cov: 146.000000, 152/200, STDB: 54915000.000000, IPB: 15867772.000000, STDT: 2314701201.000000, IPT: 633877641.000000, BOH/LOH: 3.460788,3.651653, MAX:1
Coverage: 40, Tot. Cov: 41.000000, 153/200, STDB: 25182500.000000, IPB: 12056808.000000, STDT: 1487515829.000000, IPT: 217716178.000000, BOH/LOH: 2.088654,6.832362, MAX:1
Coverage: 40, Tot. Cov: 40.000000, 154/200, STDB: 1377500.000000, IPB: 585164.000000, STDT: 175664300.000000, IPT: 119717936.000000, BOH/LOH: 2.354041,1.467318, MAX:1
Coverage: 40, Tot. Cov: 140.000000, 155/200, STDB: 482887500.000000, IPB: 200387200.000000, STDT: 12427690892.000000, IPT: 1046369980.000000, BOH/LOH: 2.409772,11.876957, MAX:1
Coverage: 40, Tot. Cov: 133.000000, 156/200, STDB: 87352500.000000, IPB: 41687016.000000, STDT: 6526323429.000000, IPT: 731082583.000000, BOH/LOH: 2.095437,8.926931, MAX:1
Coverage: 40, Tot. Cov: 45.000000, 157/200, STDB: 19552500.000000, IPB: 10487776.000000, STDT: 538360766.000000, IPT: 144788587.000000, BOH/LOH: 1.864313,3.718254, MAX:1
Coverage: 40, Tot. Cov: 93.000000, 158/200, STDB: 11700000.000000, IPB: 3717676.000000, STDT: 2050090352.000000, IPT: 750184754.000000, BOH/LOH: 3.147127,2.732781, MAX:1
Coverage: 40, Tot. Cov: 167.000000, 159/200, STDB: 167760000.000000, IPB: 87989740.000000, STDT: 13748824630.000000, IPT: 807039406.000000, BOH/LOH: 1.906586,17.036126, MAX:1
Coverage: 40, Tot. Cov: 186.000000, 160/200, STDB: 167630000.000000, IPB: 80706056.000000, STDT: 8732411058.000000, IPT: 1371909816.000000, BOH/LOH: 2.077044,6.365149, MAX:1
Coverage: 40, Tot. Cov: 89.000000, 161/200, STDB: 237205000.000000, IPB: 88803116.000000, STDT: 4695511853.000000, IPT: 710538159.000000, BOH/LOH: 2.671134,6.608388, MAX:1
Coverage: 40, Tot. Cov: 90.000000, 162/200, STDB: 396170000.000000, IPB: 249192728.000000, STDT: 6230698430.000000, IPT: 427553862.000000, BOH/LOH: 1.589814,14.572897, MAX:1
Coverage: 40, Tot. Cov: 40.000000, 163/200, STDB: 63462500.000000, IPB: 29630256.000000, STDT: 2381820887.000000, IPT: 369508841.000000, BOH/LOH: 2.141814,6.445910, MAX:1
Coverage: 40, Tot. Cov: 40.000000, 164/200, STDB: 9797500.000000, IPB: 4172616.000000, STDT: 423554108.000000, IPT: 138311251.000000, BOH/LOH: 2.348047,3.062326, MAX:1
Coverage: 40, Tot. Cov: 44.000000, 165/200, STDB: 75910000.000000, IPB: 35001900.000000, STDT: 2422389796.000000, IPT: 276282062.000000, BOH/LOH: 2.168739,8.767814, MAX:1
Coverage: 40, Tot. Cov: 290.000000, 166/200, STDB: 361425000.000000, IPB: 163772916.000000, STDT: 15883423783.000000, IPT: 1368675238.000000, BOH/LOH: 2.206867,11.604962, MAX:1
Coverage: 40, Tot. Cov: 40.000000, 167/200, STDB: 126175000.000000, IPB: 65611252.000000, STDT: 2988490016.000000, IPT: 236362328.000000, BOH/LOH: 1.923070,12.643682, MAX:1
Coverage: 40, Tot. Cov: 42.000000, 168/200, STDB: 12080000.000000, IPB: 6344372.000000, STDT: 1209508957.000000, IPT: 185031027.000000, BOH/LOH: 1.904050,6.536790, MAX:1
Coverage: 40, Tot. Cov: 43.000000, 169/200, STDB: 2880000.000000, IPB: 1434900.000000, STDT: 287803858.000000, IPT: 147897018.000000, BOH/LOH: 2.007109,1.945975, MAX:1
Coverage: 40, Tot. Cov: 85.000000, 170/200, STDB: 104785000.000000, IPB: 51812380.000000, STDT: 5396278812.000000, IPT: 391790214.000000, BOH/LOH: 2.022393,13.773388, MAX:1
Coverage: 40, Tot. Cov: 129.000000, 171/200, STDB: 319275000.000000, IPB: 174733992.000000, STDT: 7477534874.000000, IPT: 653384004.000000, BOH/LOH: 1.827206,11.444319, MAX:1
Coverage: 40, Tot. Cov: 83.000000, 172/200, STDB: 137520000.000000, IPB: 50764384.000000, STDT: 6208574201.000000, IPT: 525388480.000000, BOH/LOH: 2.708986,11.817111, MAX:1
Coverage: 40, Tot. Cov: 137.000000, 173/200, STDB: 21120000.000000, IPB: 7651068.000000, STDT: 1469457034.000000, IPT: 553022594.000000, BOH/LOH: 2.760399,2.657137, MAX:1
Coverage: 40, Tot. Cov: 334.000000, 174/200, STDB: 115360000.000000, IPB: 54453968.000000, STDT: 5737205728.000000, IPT: 1339385810.000000, BOH/LOH: 2.118487,4.283460, MAX:1
Coverage: 40, Tot. Cov: 140.000000, 175/200, STDB: 94312500.000000, IPB: 37192064.000000, STDT: 3607764230.000000, IPT: 605233306.000000, BOH/LOH: 2.535823,5.960948, MAX:1
Coverage: 40, Tot. Cov: 134.000000, 176/200, STDB: 22747500.000000, IPB: 10413400.000000, STDT: 1866403752.000000, IPT: 452054996.000000, BOH/LOH: 2.184445,4.128709, MAX:1
Coverage: 40, Tot. Cov: 40.000000, 177/200, STDB: 161855000.000000, IPB: 60838372.000000, STDT: 2299104407.000000, IPT: 376640432.000000, BOH/LOH: 2.660410,6.104242, MAX:1
Coverage: 40, Tot. Cov: 40.000000, 178/200, STDB: 27907500.000000, IPB: 11168364.000000, STDT: 1289193485.000000, IPT: 179580971.000000, BOH/LOH: 2.498799,7.178898, MAX:1
Coverage: 40, Tot. Cov: 136.000000, 179/200, STDB: 42097500.000000, IPB: 14454228.000000, STDT: 1596616270.000000, IPT: 554334185.000000, BOH/LOH: 2.912470,2.880241, MAX:1
Coverage: 40, Tot. Cov: 41.000000, 181/200, STDB: 48995000.000000, IPB: 28041516.000000, STDT: 1524143475.000000, IPT: 179459466.000000, BOH/LOH: 1.747231,8.492968, MAX:1
Coverage: 40, Tot. Cov: 44.000000, 182/200, STDB: 28352500.000000, IPB: 15486024.000000, STDT: 1210817361.000000, IPT: 177927382.000000, BOH/LOH: 1.830844,6.805121, MAX:1
Coverage: 40, Tot. Cov: 45.000000, 183/200, STDB: 51755000.000000, IPB: 25024064.000000, STDT: 2496667866.000000, IPT: 300842556.000000, BOH/LOH: 2.068209,8.298919, MAX:1
Coverage: 40, Tot. Cov: 232.000000, 184/200, STDB: 568350000.000000, IPB: 312799504.000000, STDT: 21985202075.000000, IPT: 1304536225.000000, BOH/LOH: 1.816979,16.852887, MAX:1
Coverage: 40, Tot. Cov: 40.000000, 185/200, STDB: 10445000.000000, IPB: 4902144.000000, STDT: 895513497.000000, IPT: 158557640.000000, BOH/LOH: 2.130700,5.647874, MAX:1
Coverage: 40, Tot. Cov: 40.000000, 186/200, STDB: 43160000.000000, IPB: 21795928.000000, STDT: 1322371437.000000, IPT: 192201978.000000, BOH/LOH: 1.980186,6.880114, MAX:1
Coverage: 40, Tot. Cov: 40.000000, 187/200, STDB: 127110000.000000, IPB: 47242800.000000, STDT: 3403194106.000000, IPT: 372231159.000000, BOH/LOH: 2.690569,9.142690, MAX:1
Coverage: 40, Tot. Cov: 91.000000, 188/200, STDB: 88040000.000000, IPB: 44160848.000000, STDT: 3533770542.000000, IPT: 408625638.000000, BOH/LOH: 1.993621,8.647941, MAX:1
Coverage: 40, Tot. Cov: 90.000000, 189/200, STDB: 323880000.000000, IPB: 206101800.000000, STDT: 8873635252.000000, IPT: 565445120.000000, BOH/LOH: 1.571456,15.693186, MAX:1
Coverage: 40, Tot. Cov: 40.000000, 190/200, STDB: 27817500.000000, IPB: 14034816.000000, STDT: 758710754.000000, IPT: 155133712.000000, BOH/LOH: 1.982035,4.890689, MAX:1
Coverage: 40, Tot. Cov: 139.000000, 191/200, STDB: 140475000.000000, IPB: 69432456.000000, STDT: 8664409359.000000, IPT: 1007578451.000000, BOH/LOH: 2.023189,8.599240, MAX:1
Coverage: 40, Tot. Cov: 91.000000, 192/200, STDB: 601800000.000000, IPB: 325298736.000000, STDT: 8985712778.000000, IPT: 787340541.000000, BOH/LOH: 1.849992,11.412740, MAX:1
Coverage: 40, Tot. Cov: 135.000000, 193/200, STDB: 65115000.000000, IPB: 34328704.000000, STDT: 4020772972.000000, IPT: 611349143.000000, BOH/LOH: 1.896809,6.576885, MAX:1
Coverage: 40, Tot. Cov: 179.000000, 194/200, STDB: 204360000.000000, IPB: 102761136.000000, STDT: 7631545625.000000, IPT: 976530035.000000, BOH/LOH: 1.988690,7.814963, MAX:1
Coverage: 40, Tot. Cov: 130.000000, 195/200, STDB: 192952500.000000, IPB: 104968880.000000, STDT: 5592081398.000000, IPT: 550122197.000000, BOH/LOH: 1.838188,10.165162, MAX:1
Coverage: 40, Tot. Cov: 41.000000, 196/200, STDB: 185627500.000000, IPB: 89531136.000000, STDT: 2205835618.000000, IPT: 246277519.000000, BOH/LOH: 2.073329,8.956707, MAX:1
Coverage: 40, Tot. Cov: 41.000000, 197/200, STDB: 21845000.000000, IPB: 9966040.000000, STDT: 1229032277.000000, IPT: 197093113.000000, BOH/LOH: 2.191944,6.235795, MAX:1
Coverage: 40, Tot. Cov: 90.000000, 198/200, STDB: 28385000.000000, IPB: 9252192.000000, STDT: 2399132928.000000, IPT: 385367415.000000, BOH/LOH: 3.067922,6.225573, MAX:1
Coverage: 40, Tot. Cov: 92.000000, 199/200, STDB: 91155000.000000, IPB: 46349068.000000, STDT: 5526020821.000000, IPT: 461259184.000000, BOH/LOH: 1.966706,11.980294, MAX:1
