Coverage: 30, Tot. Cov: 39.000000, 1/200, STDB: 5100000.000000, IPB: 1979588.000000, STDT: 480782778.000000, IPT: 146163309.000000, BOH/LOH: 2.576294,3.289353, MAX:1
Coverage: 30, Tot. Cov: 187.000000, 2/200, STDB: 19560000.000000, IPB: 8419892.000000, STDT: 3354997851.000000, IPT: 610804520.000000, BOH/LOH: 2.323070,5.492752, MAX:1
Coverage: 30, Tot. Cov: 182.000000, 3/200, STDB: 918390000.000000, IPB: 589433772.000000, STDT: 9438696386.000000, IPT: 1050876551.000000, BOH/LOH: 1.558089,8.981737, MAX:1
Coverage: 30, Tot. Cov: 78.000000, 4/200, STDB: 133800000.000000, IPB: 59034700.000000, STDT: 2480073819.000000, IPT: 373732973.000000, BOH/LOH: 2.266464,6.635951, MAX:1
Coverage: 30, Tot. Cov: 30.000000, 5/200, STDB: 41927500.000000, IPB: 15085668.000000, STDT: 1835973228.000000, IPT: 269977247.000000, BOH/LOH: 2.779294,6.800474, MAX:1
Coverage: 30, Tot. Cov: 219.000000, 6/200, STDB: 107212500.000000, IPB: 53215340.000000, STDT: 3584301254.000000, IPT: 871335947.000000, BOH/LOH: 2.014692,4.113570, MAX:1
Coverage: 30, Tot. Cov: 235.000000, 7/200, STDB: 90650000.000000, IPB: 36029772.000000, STDT: 5759686498.000000, IPT: 1317844571.000000, BOH/LOH: 2.515975,4.370536, MAX:1
Coverage: 30, Tot. Cov: 81.000000, 8/200, STDB: 31985000.000000, IPB: 10822580.000000, STDT: 2553141594.000000, IPT: 673794958.000000, BOH/LOH: 2.955395,3.789197, MAX:1
Coverage: 30, Tot. Cov: 73.000000, 9/200, STDB: 22930000.000000, IPB: 9572080.000000, STDT: 1602793451.000000, IPT: 347944818.000000, BOH/LOH: 2.395509,4.606459, MAX:1
Coverage: 30, Tot. Cov: 68.000000, 10/200, STDB: 188655000.000000, IPB: 81013860.000000, STDT: 3886180650.000000, IPT: 357774756.000000, BOH/LOH: 2.328676,10.862087, MAX:1
Coverage: 30, Tot. Cov: 324.000000, 11/200, STDB: 97335000.000000, IPB: 39955420.000000, STDT: 5033004692.000000, IPT: 1409300317.000000, BOH/LOH: 2.436090,3.571279, MAX:1
Coverage: 30, Tot. Cov: 42.000000, 12/200, STDB: 28600000.000000, IPB: 15320476.000000, STDT: 1316593134.000000, IPT: 293499942.000000, BOH/LOH: 1.866783,4.485838, MAX:1
Coverage: 30, Tot. Cov: 37.000000, 13/200, STDB: 21365000.000000, IPB: 9602048.000000, STDT: 1078676299.000000, IPT: 176984779.000000, BOH/LOH: 2.225046,6.094740, MAX:1
Coverage: 30, Tot. Cov: 231.000000, 14/200, STDB: 339345000.000000, IPB: 159633668.000000, STDT: 14533279799.000000, IPT: 995519307.000000, BOH/LOH: 2.125773,14.598692, MAX:1
Coverage: 30, Tot. Cov: 70.000000, 15/200, STDB: 47015000.000000, IPB: 18031580.000000, STDT: 2566384517.000000, IPT: 294437376.000000, BOH/LOH: 2.607370,8.716232, MAX:1
Coverage: 30, Tot. Cov: 63.000000, 16/200, STDB: 102150000.000000, IPB: 35131028.000000, STDT: 2313673840.000000, IPT: 298869077.000000, BOH/LOH: 2.907686,7.741429, MAX:1
Coverage: 30, Tot. Cov: 113.000000, 17/200, STDB: 367755000.000000, IPB: 161013680.000000, STDT: 6005529060.000000, IPT: 623865256.000000, BOH/LOH: 2.283998,9.626324, MAX:1
Coverage: 30, Tot. Cov: 207.000000, 18/200, STDB: 965450000.000000, IPB: 491485184.000000, STDT: 18175140433.000000, IPT: 1770074295.000000, BOH/LOH: 1.964352,10.268010, MAX:1
Coverage: 30, Tot. Cov: 231.000000, 19/200, STDB: 235325000.000000, IPB: 91882776.000000, STDT: 11793834164.000000, IPT: 990149085.000000, BOH/LOH: 2.561144,11.911170, MAX:1
Coverage: 30, Tot. Cov: 302.000000, 20/200, STDB: 276027500.000000, IPB: 104555436.000000, STDT: 12760737165.000000, IPT: 1215876001.000000, BOH/LOH: 2.640011,10.495097, MAX:1
Coverage: 30, Tot. Cov: 216.000000, 21/200, STDB: 374850000.000000, IPB: 205789560.000000, STDT: 9857771941.000000, IPT: 1004944116.000000, BOH/LOH: 1.821521,9.809274, MAX:1
Coverage: 30, Tot. Cov: 124.000000, 22/200, STDB: 119250000.000000, IPB: 52210320.000000, STDT: 5000474706.000000, IPT: 701304024.000000, BOH/LOH: 2.284031,7.130252, MAX:1
Coverage: 30, Tot. Cov: 71.000000, 23/200, STDB: 109325000.000000, IPB: 48804236.000000, STDT: 3686685757.000000, IPT: 542863483.000000, BOH/LOH: 2.240072,6.791184, MAX:1
Coverage: 30, Tot. Cov: 34.000000, 24/200, STDB: 69185000.000000, IPB: 27457692.000000, STDT: 1570450917.000000, IPT: 178154466.000000, BOH/LOH: 2.519695,8.815108, MAX:1
Coverage: 30, Tot. Cov: 222.000000, 25/200, STDB: 113512500.000000, IPB: 50687564.000000, STDT: 7016517511.000000, IPT: 1162393590.000000, BOH/LOH: 2.239455,6.036267, MAX:1
Coverage: 30, Tot. Cov: 72.000000, 26/200, STDB: 49005000.000000, IPB: 19143620.000000, STDT: 2591574183.000000, IPT: 417720988.000000, BOH/LOH: 2.559861,6.204079, MAX:1
Coverage: 30, Tot. Cov: 112.000000, 27/200, STDB: 274290000.000000, IPB: 124886216.000000, STDT: 3824997985.000000, IPT: 563983495.000000, BOH/LOH: 2.196319,6.782110, MAX:1
Coverage: 30, Tot. Cov: 87.000000, 28/200, STDB: 13715000.000000, IPB: 5614804.000000, STDT: 971130605.000000, IPT: 305731589.000000, BOH/LOH: 2.442650,3.176416, MAX:1
Coverage: 30, Tot. Cov: 73.000000, 29/200, STDB: 530070000.000000, IPB: 239991820.000000, STDT: 5838443147.000000, IPT: 528325213.000000, BOH/LOH: 2.208700,11.050851, MAX:1
Coverage: 30, Tot. Cov: 168.000000, 30/200, STDB: 212130000.000000, IPB: 95945056.000000, STDT: 10043999715.000000, IPT: 853372387.000000, BOH/LOH: 2.210953,11.769774, MAX:1
Coverage: 30, Tot. Cov: 117.000000, 31/200, STDB: 170010000.000000, IPB: 72160464.000000, STDT: 5781962502.000000, IPT: 705206764.000000, BOH/LOH: 2.355999,8.198961, MAX:1
Coverage: 30, Tot. Cov: 113.000000, 32/200, STDB: 646890000.000000, IPB: 313864272.000000, STDT: 8738371756.000000, IPT: 849801688.000000, BOH/LOH: 2.061050,10.282836, MAX:1
Coverage: 30, Tot. Cov: 33.000000, 33/200, STDB: 37575000.000000, IPB: 18993628.000000, STDT: 769989364.000000, IPT: 131310495.000000, BOH/LOH: 1.978295,5.863883, MAX:1
Coverage: 30, Tot. Cov: 129.000000, 34/200, STDB: 48277500.000000, IPB: 16008784.000000, STDT: 3632513573.000000, IPT: 565988734.000000, BOH/LOH: 3.015688,6.417996, MAX:1
Coverage: 30, Tot. Cov: 82.000000, 35/200, STDB: 131225000.000000, IPB: 47748732.000000, STDT: 4284621310.000000, IPT: 766166675.000000, BOH/LOH: 2.748241,5.592284, MAX:1
Coverage: 30, Tot. Cov: 76.000000, 36/200, STDB: 56415000.000000, IPB: 24737744.000000, STDT: 2472056272.000000, IPT: 313714758.000000, BOH/LOH: 2.280523,7.879949, MAX:1
Coverage: 30, Tot. Cov: 38.000000, 37/200, STDB: 1295000.000000, IPB: 743204.000000, STDT: 165520253.000000, IPT: 110820111.000000, BOH/LOH: 1.742456,1.493594, MAX:1
Coverage: 30, Tot. Cov: 33.000000, 38/200, STDB: 9977500.000000, IPB: 4019708.000000, STDT: 363908933.000000, IPT: 122736029.000000, BOH/LOH: 2.482145,2.964972, MAX:1
Coverage: 30, Tot. Cov: 83.000000, 39/200, STDB: 26510000.000000, IPB: 11531092.000000, STDT: 2472893638.000000, IPT: 545498044.000000, BOH/LOH: 2.299002,4.533277, MAX:1
Coverage: 30, Tot. Cov: 80.000000, 40/200, STDB: 10410000.000000, IPB: 4165880.000000, STDT: 850274424.000000, IPT: 279169964.000000, BOH/LOH: 2.498872,3.045723, MAX:1
Coverage: 30, Tot. Cov: 31.000000, 41/200, STDB: 945000.000000, IPB: 430824.000000, STDT: 179614555.000000, IPT: 93028779.000000, BOH/LOH: 2.193471,1.930742, MAX:1
Coverage: 30, Tot. Cov: 106.000000, 42/200, STDB: 19455000.000000, IPB: 7619120.000000, STDT: 1051532200.000000, IPT: 402848382.000000, BOH/LOH: 2.553444,2.610243, MAX:1
Coverage: 30, Tot. Cov: 30.000000, 43/200, STDB: 3592500.000000, IPB: 1157824.000000, STDT: 445593480.000000, IPT: 174054987.000000, BOH/LOH: 3.102803,2.560073, MAX:1
Coverage: 30, Tot. Cov: 143.000000, 44/200, STDB: 128140000.000000, IPB: 42827292.000000, STDT: 2702361045.000000, IPT: 650523103.000000, BOH/LOH: 2.992017,4.154135, MAX:1
Coverage: 30, Tot. Cov: 221.000000, 45/200, STDB: 526937500.000000, IPB: 230898860.000000, STDT: 15812489982.000000, IPT: 1877646294.000000, BOH/LOH: 2.282114,8.421442, MAX:1
Coverage: 30, Tot. Cov: 70.000000, 46/200, STDB: 39520000.000000, IPB: 15136532.000000, STDT: 3370513596.000000, IPT: 328186892.000000, BOH/LOH: 2.610902,10.270104, MAX:1
Coverage: 30, Tot. Cov: 42.000000, 47/200, STDB: 8465000.000000, IPB: 3699980.000000, STDT: 1368899165.000000, IPT: 357204157.000000, BOH/LOH: 2.287850,3.832260, MAX:1
Coverage: 30, Tot. Cov: 33.000000, 48/200, STDB: 78730000.000000, IPB: 31511464.000000, STDT: 1483220380.000000, IPT: 167174073.000000, BOH/LOH: 2.498456,8.872311, MAX:1
Coverage: 30, Tot. Cov: 83.000000, 49/200, STDB: 50060000.000000, IPB: 21208564.000000, STDT: 1522933229.000000, IPT: 329229309.000000, BOH/LOH: 2.360367,4.625752, MAX:1
Coverage: 30, Tot. Cov: 80.000000, 50/200, STDB: 137845000.000000, IPB: 44968396.000000, STDT: 5619285536.000000, IPT: 360710390.000000, BOH/LOH: 3.065375,15.578386, MAX:1
Coverage: 30, Tot. Cov: 185.000000, 51/200, STDB: 425300000.000000, IPB: 182576020.000000, STDT: 8787682214.000000, IPT: 1611124559.000000, BOH/LOH: 2.329441,5.454378, MAX:1
Coverage: 30, Tot. Cov: 179.000000, 52/200, STDB: 199010000.000000, IPB: 88987548.000000, STDT: 6359855486.000000, IPT: 916319442.000000, BOH/LOH: 2.236380,6.940653, MAX:1
Coverage: 30, Tot. Cov: 31.000000, 53/200, STDB: 88415000.000000, IPB: 30900436.000000, STDT: 1909354338.000000, IPT: 223869057.000000, BOH/LOH: 2.861286,8.528889, MAX:1
Coverage: 30, Tot. Cov: 32.000000, 54/200, STDB: 54597500.000000, IPB: 20547876.000000, STDT: 1327914864.000000, IPT: 171998831.000000, BOH/LOH: 2.657087,7.720488, MAX:1
Coverage: 30, Tot. Cov: 115.000000, 55/200, STDB: 247410000.000000, IPB: 121710664.000000, STDT: 8551589347.000000, IPT: 607885694.000000, BOH/LOH: 2.032772,14.067759, MAX:1
Coverage: 30, Tot. Cov: 38.000000, 56/200, STDB: 6130000.000000, IPB: 2598552.000000, STDT: 551086862.000000, IPT: 164901215.000000, BOH/LOH: 2.359006,3.341921, MAX:1
Coverage: 30, Tot. Cov: 203.000000, 57/200, STDB: 333825000.000000, IPB: 157842888.000000, STDT: 10459646671.000000, IPT: 1325842688.000000, BOH/LOH: 2.114919,7.889056, MAX:1
Coverage: 30, Tot. Cov: 110.000000, 58/200, STDB: 107790000.000000, IPB: 46197164.000000, STDT: 5221881620.000000, IPT: 491978665.000000, BOH/LOH: 2.333260,10.614041, MAX:1
Coverage: 30, Tot. Cov: 75.000000, 59/200, STDB: 112230000.000000, IPB: 49838020.000000, STDT: 3536300965.000000, IPT: 435003396.000000, BOH/LOH: 2.251895,8.129364, MAX:1
Coverage: 30, Tot. Cov: 111.000000, 60/200, STDB: 276562500.000000, IPB: 140501028.000000, STDT: 5335648850.000000, IPT: 503427980.000000, BOH/LOH: 1.968402,10.598634, MAX:1
Coverage: 30, Tot. Cov: 83.000000, 61/200, STDB: 8615000.000000, IPB: 3443324.000000, STDT: 2121703376.000000, IPT: 482285659.000000, BOH/LOH: 2.501943,4.399267, MAX:1
Coverage: 30, Tot. Cov: 71.000000, 62/200, STDB: 137830000.000000, IPB: 64297816.000000, STDT: 4028925286.000000, IPT: 338719335.000000, BOH/LOH: 2.143619,11.894583, MAX:1
Coverage: 30, Tot. Cov: 120.000000, 63/200, STDB: 149692500.000000, IPB: 70100020.000000, STDT: 3533443937.000000, IPT: 380892483.000000, BOH/LOH: 2.135413,9.276749, MAX:1
Coverage: 30, Tot. Cov: 70.000000, 64/200, STDB: 2710000.000000, IPB: 1485676.000000, STDT: 450856512.000000, IPT: 217565344.000000, BOH/LOH: 1.824085,2.072281, MAX:1
Coverage: 30, Tot. Cov: 114.000000, 65/200, STDB: 210817500.000000, IPB: 105189952.000000, STDT: 5228860315.000000, IPT: 507485314.000000, BOH/LOH: 2.004160,10.303471, MAX:1
Coverage: 30, Tot. Cov: 62.000000, 66/200, STDB: 133295000.000000, IPB: 48350084.000000, STDT: 2718226205.000000, IPT: 345296350.000000, BOH/LOH: 2.756872,7.872154, MAX:1
Coverage: 30, Tot. Cov: 263.000000, 67/200, STDB: 711105000.000000, IPB: 249219096.000000, STDT: 23570653825.000000, IPT: 1797374174.000000, BOH/LOH: 2.853333,13.113938, MAX:1
Coverage: 30, Tot. Cov: 39.000000, 68/200, STDB: 7150000.000000, IPB: 3062036.000000, STDT: 647527228.000000, IPT: 157050955.000000, BOH/LOH: 2.335048,4.123039, MAX:1
Coverage: 30, Tot. Cov: 165.000000, 69/200, STDB: 425240000.000000, IPB: 218192288.000000, STDT: 8747001099.000000, IPT: 790914355.000000, BOH/LOH: 1.948923,11.059353, MAX:1
Coverage: 30, Tot. Cov: 133.000000, 70/200, STDB: 206632500.000000, IPB: 103685316.000000, STDT: 5998789886.000000, IPT: 655647499.000000, BOH/LOH: 1.992881,9.149413, MAX:1
Coverage: 30, Tot. Cov: 325.000000, 71/200, STDB: 150140000.000000, IPB: 56130012.000000, STDT: 6400742667.000000, IPT: 1360470488.000000, BOH/LOH: 2.674861,4.704801, MAX:1
Coverage: 30, Tot. Cov: 32.000000, 72/200, STDB: 15362500.000000, IPB: 4773076.000000, STDT: 474578543.000000, IPT: 141298562.000000, BOH/LOH: 3.218574,3.358693, MAX:1
Coverage: 30, Tot. Cov: 80.000000, 73/200, STDB: 574285000.000000, IPB: 305258124.000000, STDT: 2978439401.000000, IPT: 483844221.000000, BOH/LOH: 1.881309,6.155782, MAX:1
Coverage: 30, Tot. Cov: 32.000000, 74/200, STDB: 2675000.000000, IPB: 1005448.000000, STDT: 369147322.000000, IPT: 102696626.000000, BOH/LOH: 2.660506,3.594542, MAX:1
Coverage: 30, Tot. Cov: 72.000000, 75/200, STDB: 114245000.000000, IPB: 55174276.000000, STDT: 2760122586.000000, IPT: 309163891.000000, BOH/LOH: 2.070621,8.927700, MAX:1
Coverage: 30, Tot. Cov: 213.000000, 76/200, STDB: 164462500.000000, IPB: 67056152.000000, STDT: 4822635585.000000, IPT: 948930437.000000, BOH/LOH: 2.452609,5.082180, MAX:1
Coverage: 30, Tot. Cov: 71.000000, 77/200, STDB: 127525000.000000, IPB: 65485472.000000, STDT: 2880607164.000000, IPT: 347560530.000000, BOH/LOH: 1.947378,8.288073, MAX:1
Coverage: 30, Tot. Cov: 166.000000, 78/200, STDB: 14920000.000000, IPB: 4883916.000000, STDT: 1651756909.000000, IPT: 522833862.000000, BOH/LOH: 3.054926,3.159239, MAX:1
Coverage: 30, Tot. Cov: 31.000000, 79/200, STDB: 108890000.000000, IPB: 45793356.000000, STDT: 965106861.000000, IPT: 170988104.000000, BOH/LOH: 2.377856,5.644292, MAX:1
Coverage: 30, Tot. Cov: 83.000000, 80/200, STDB: 103675000.000000, IPB: 48256292.000000, STDT: 3547575507.000000, IPT: 395948425.000000, BOH/LOH: 2.148424,8.959691, MAX:1
Coverage: 30, Tot. Cov: 114.000000, 81/200, STDB: 58837500.000000, IPB: 23115344.000000, STDT: 2492309650.000000, IPT: 546863112.000000, BOH/LOH: 2.545387,4.557465, MAX:1
Coverage: 30, Tot. Cov: 245.000000, 82/200, STDB: 944520000.000000, IPB: 324330804.000000, STDT: 15146788710.000000, IPT: 2148780789.000000, BOH/LOH: 2.912212,7.049015, MAX:1
Coverage: 30, Tot. Cov: 197.000000, 83/200, STDB: 166337500.000000, IPB: 77420276.000000, STDT: 7783086673.000000, IPT: 928620099.000000, BOH/LOH: 2.148500,8.381346, MAX:1
Coverage: 30, Tot. Cov: 72.000000, 84/200, STDB: 25905000.000000, IPB: 6569208.000000, STDT: 2719276918.000000, IPT: 597641123.000000, BOH/LOH: 3.943398,4.550016, MAX:1
Coverage: 30, Tot. Cov: 100.000000, 85/200, STDB: 35602500.000000, IPB: 14913400.000000, STDT: 1615905918.000000, IPT: 351781871.000000, BOH/LOH: 2.387283,4.593488, MAX:1
Coverage: 30, Tot. Cov: 189.000000, 86/200, STDB: 221300000.000000, IPB: 80527080.000000, STDT: 8561383568.000000, IPT: 868635236.000000, BOH/LOH: 2.748144,9.856132, MAX:1
Coverage: 30, Tot. Cov: 37.000000, 87/200, STDB: 5010000.000000, IPB: 1607672.000000, STDT: 595896735.000000, IPT: 222300657.000000, BOH/LOH: 3.116307,2.680589, MAX:1
Coverage: 30, Tot. Cov: 173.000000, 88/200, STDB: 267760000.000000, IPB: 132299332.000000, STDT: 9639612299.000000, IPT: 822109418.000000, BOH/LOH: 2.023895,11.725461, MAX:1
Coverage: 30, Tot. Cov: 32.000000, 89/200, STDB: 66827500.000000, IPB: 23924180.000000, STDT: 1300216503.000000, IPT: 149216411.000000, BOH/LOH: 2.793304,8.713629, MAX:1
Coverage: 30, Tot. Cov: 30.000000, 90/200, STDB: 75932500.000000, IPB: 29206780.000000, STDT: 935045778.000000, IPT: 135228121.000000, BOH/LOH: 2.599824,6.914581, MAX:1
Coverage: 30, Tot. Cov: 155.000000, 91/200, STDB: 57010000.000000, IPB: 24128212.000000, STDT: 4118040313.000000, IPT: 626310992.000000, BOH/LOH: 2.362794,6.575073, MAX:1
Coverage: 30, Tot. Cov: 30.000000, 92/200, STDB: 33052500.000000, IPB: 5091980.000000, STDT: 1083039976.000000, IPT: 278328599.000000, BOH/LOH: 6.491090,3.891228, MAX:1
Coverage: 30, Tot. Cov: 130.000000, 93/200, STDB: 370800000.000000, IPB: 219577236.000000, STDT: 4084447463.000000, IPT: 580311796.000000, BOH/LOH: 1.688700,7.038367, MAX:1
Coverage: 30, Tot. Cov: 30.000000, 94/200, STDB: 82575000.000000, IPB: 34592512.000000, STDT: 1360817720.000000, IPT: 156054736.000000, BOH/LOH: 2.387077,8.720131, MAX:1
Coverage: 30, Tot. Cov: 30.000000, 95/200, STDB: 61950000.000000, IPB: 23753360.000000, STDT: 1140332913.000000, IPT: 153117168.000000, BOH/LOH: 2.608052,7.447453, MAX:1
Coverage: 30, Tot. Cov: 163.000000, 96/200, STDB: 12340000.000000, IPB: 5019364.000000, STDT: 1710354681.000000, IPT: 510028632.000000, BOH/LOH: 2.458479,3.353448, MAX:1
Coverage: 30, Tot. Cov: 32.000000, 97/200, STDB: 56365000.000000, IPB: 15556964.000000, STDT: 1510666899.000000, IPT: 184988946.000000, BOH/LOH: 3.623136,8.166255, MAX:1
Coverage: 30, Tot. Cov: 69.000000, 98/200, STDB: 43095000.000000, IPB: 17086824.000000, STDT: 1760433773.000000, IPT: 257246680.000000, BOH/LOH: 2.522119,6.843368, MAX:1
Coverage: 30, Tot. Cov: 33.000000, 99/200, STDB: 15652500.000000, IPB: 6147784.000000, STDT: 584150303.000000, IPT: 135682729.000000, BOH/LOH: 2.546039,4.305266, MAX:1
Coverage: 30, Tot. Cov: 37.000000, 100/200, STDB: 610000.000000, IPB: 409076.000000, STDT: 40742021.000000, IPT: 15676708.000000, BOH/LOH: 1.491165,2.598889, MAX:1
Coverage: 30, Tot. Cov: 86.000000, 101/200, STDB: 59670000.000000, IPB: 28361388.000000, STDT: 3601271559.000000, IPT: 729080861.000000, BOH/LOH: 2.103917,4.939468, MAX:1
Coverage: 30, Tot. Cov: 112.000000, 102/200, STDB: 167272500.000000, IPB: 86689720.000000, STDT: 6724242768.000000, IPT: 461865801.000000, BOH/LOH: 1.929554,14.558867, MAX:1
Coverage: 30, Tot. Cov: 32.000000, 103/200, STDB: 20620000.000000, IPB: 7733184.000000, STDT: 566027113.000000, IPT: 120852513.000000, BOH/LOH: 2.666431,4.683619, MAX:1
Coverage: 30, Tot. Cov: 40.000000, 104/200, STDB: 29607500.000000, IPB: 13332348.000000, STDT: 1141464801.000000, IPT: 181446845.000000, BOH/LOH: 2.220727,6.290905, MAX:1
Coverage: 30, Tot. Cov: 161.000000, 105/200, STDB: 119540000.000000, IPB: 53410028.000000, STDT: 4959455478.000000, IPT: 966802074.000000, BOH/LOH: 2.238156,5.129753, MAX:1
Coverage: 30, Tot. Cov: 129.000000, 106/200, STDB: 72787500.000000, IPB: 26205624.000000, STDT: 5857626125.000000, IPT: 1065942425.000000, BOH/LOH: 2.777553,5.495256, MAX:1
Coverage: 30, Tot. Cov: 31.000000, 107/200, STDB: 124940000.000000, IPB: 50542540.000000, STDT: 1755313996.000000, IPT: 177632950.000000, BOH/LOH: 2.471977,9.881691, MAX:1
Coverage: 30, Tot. Cov: 31.000000, 108/200, STDB: 9585000.000000, IPB: 3559464.000000, STDT: 659957940.000000, IPT: 153934560.000000, BOH/LOH: 2.692821,4.287263, MAX:1
Coverage: 30, Tot. Cov: 68.000000, 109/200, STDB: 51935000.000000, IPB: 20674640.000000, STDT: 2539526587.000000, IPT: 273480733.000000, BOH/LOH: 2.512015,9.285943, MAX:1
Coverage: 30, Tot. Cov: 75.000000, 110/200, STDB: 127120000.000000, IPB: 63263764.000000, STDT: 3701394417.000000, IPT: 381884882.000000, BOH/LOH: 2.009365,9.692435, MAX:1
Coverage: 30, Tot. Cov: 129.000000, 111/200, STDB: 35482500.000000, IPB: 17579100.000000, STDT: 2298329864.000000, IPT: 482671368.000000, BOH/LOH: 2.018448,4.761687, MAX:1
Coverage: 30, Tot. Cov: 34.000000, 112/200, STDB: 13265000.000000, IPB: 6781960.000000, STDT: 394944730.000000, IPT: 128665601.000000, BOH/LOH: 1.955924,3.069544, MAX:1
Coverage: 30, Tot. Cov: 80.000000, 113/200, STDB: 50945000.000000, IPB: 17618572.000000, STDT: 3470638372.000000, IPT: 481500917.000000, BOH/LOH: 2.891551,7.207958, MAX:1
Coverage: 30, Tot. Cov: 74.000000, 114/200, STDB: 23895000.000000, IPB: 9889840.000000, STDT: 1966085383.000000, IPT: 308533318.000000, BOH/LOH: 2.416116,6.372360, MAX:1
Coverage: 30, Tot. Cov: 33.000000, 115/200, STDB: 136280000.000000, IPB: 66330596.000000, STDT: 1229942567.000000, IPT: 158190952.000000, BOH/LOH: 2.054557,7.775050, MAX:1
Coverage: 30, Tot. Cov: 157.000000, 116/200, STDB: 960710000.000000, IPB: 443642880.000000, STDT: 11991042579.000000, IPT: 1284677894.000000, BOH/LOH: 2.165503,9.333890, MAX:1
Coverage: 30, Tot. Cov: 179.000000, 117/200, STDB: 211630000.000000, IPB: 98482120.000000, STDT: 8021454395.000000, IPT: 887078668.000000, BOH/LOH: 2.148918,9.042551, MAX:1
Coverage: 30, Tot. Cov: 83.000000, 118/200, STDB: 66930000.000000, IPB: 30666696.000000, STDT: 2386396448.000000, IPT: 347112706.000000, BOH/LOH: 2.182498,6.874990, MAX:1
Coverage: 30, Tot. Cov: 30.000000, 119/200, STDB: 53040000.000000, IPB: 21440320.000000, STDT: 679697329.000000, IPT: 96952756.000000, BOH/LOH: 2.473844,7.010603, MAX:1
Coverage: 30, Tot. Cov: 33.000000, 120/200, STDB: 66752500.000000, IPB: 27198324.000000, STDT: 1306465312.000000, IPT: 159107342.000000, BOH/LOH: 2.454287,8.211220, MAX:1
Coverage: 30, Tot. Cov: 31.000000, 121/200, STDB: 6385000.000000, IPB: 2543788.000000, STDT: 263240781.000000, IPT: 96324106.000000, BOH/LOH: 2.510036,2.732865, MAX:1
Coverage: 30, Tot. Cov: 31.000000, 122/200, STDB: 16735000.000000, IPB: 6871876.000000, STDT: 605086057.000000, IPT: 113576179.000000, BOH/LOH: 2.435288,5.327579, MAX:1
Coverage: 30, Tot. Cov: 34.000000, 123/200, STDB: 260320000.000000, IPB: 136831000.000000, STDT: 1822465607.000000, IPT: 238528840.000000, BOH/LOH: 1.902493,7.640441, MAX:1
Coverage: 30, Tot. Cov: 131.000000, 124/200, STDB: 28357500.000000, IPB: 11142452.000000, STDT: 3633525878.000000, IPT: 546179937.000000, BOH/LOH: 2.544996,6.652617, MAX:1
Coverage: 30, Tot. Cov: 44.000000, 125/200, STDB: 49992500.000000, IPB: 12947716.000000, STDT: 1143531484.000000, IPT: 435343554.000000, BOH/LOH: 3.861106,2.626733, MAX:1
Coverage: 30, Tot. Cov: 31.000000, 126/200, STDB: 1687500.000000, IPB: 498548.000000, STDT: 522733321.000000, IPT: 190479819.000000, BOH/LOH: 3.384830,2.744298, MAX:1
Coverage: 30, Tot. Cov: 228.000000, 127/200, STDB: 75562500.000000, IPB: 36269028.000000, STDT: 5623134812.000000, IPT: 887008713.000000, BOH/LOH: 2.083389,6.339436, MAX:1
Coverage: 30, Tot. Cov: 164.000000, 128/200, STDB: 105760000.000000, IPB: 47558680.000000, STDT: 3569434943.000000, IPT: 677654445.000000, BOH/LOH: 2.223779,5.267338, MAX:1
Coverage: 30, Tot. Cov: 171.000000, 129/200, STDB: 207400000.000000, IPB: 103618440.000000, STDT: 7096195921.000000, IPT: 818047243.000000, BOH/LOH: 2.001574,8.674555, MAX:1
Coverage: 30, Tot. Cov: 72.000000, 130/200, STDB: 104080000.000000, IPB: 27461536.000000, STDT: 2163741072.000000, IPT: 708982871.000000, BOH/LOH: 3.790028,3.051895, MAX:1
Coverage: 30, Tot. Cov: 172.000000, 131/200, STDB: 103130000.000000, IPB: 44839344.000000, STDT: 5562407766.000000, IPT: 878588106.000000, BOH/LOH: 2.299989,6.331076, MAX:1
Coverage: 30, Tot. Cov: 69.000000, 132/200, STDB: 44455000.000000, IPB: 16080044.000000, STDT: 2085126966.000000, IPT: 363013088.000000, BOH/LOH: 2.764607,5.743944, MAX:1
Coverage: 30, Tot. Cov: 35.000000, 133/200, STDB: 18635000.000000, IPB: 8220020.000000, STDT: 762860793.000000, IPT: 149347006.000000, BOH/LOH: 2.267026,5.107975, MAX:1
Coverage: 30, Tot. Cov: 163.000000, 134/200, STDB: 97970000.000000, IPB: 39681488.000000, STDT: 3414074961.000000, IPT: 648732180.000000, BOH/LOH: 2.468909,5.262688, MAX:1
Coverage: 30, Tot. Cov: 179.000000, 135/200, STDB: 678530000.000000, IPB: 351132000.000000, STDT: 10205303374.000000, IPT: 1034211742.000000, BOH/LOH: 1.932407,9.867712, MAX:1
Coverage: 30, Tot. Cov: 135.000000, 136/200, STDB: 11040000.000000, IPB: 4416212.000000, STDT: 1063846022.000000, IPT: 423435622.000000, BOH/LOH: 2.499880,2.512415, MAX:1
Coverage: 30, Tot. Cov: 30.000000, 137/200, STDB: 64157500.000000, IPB: 17339368.000000, STDT: 600159058.000000, IPT: 170876606.000000, BOH/LOH: 3.700106,3.512237, MAX:1
Coverage: 30, Tot. Cov: 156.000000, 138/200, STDB: 154560000.000000, IPB: 72019708.000000, STDT: 3845881515.000000, IPT: 819701151.000000, BOH/LOH: 2.146079,4.691809, MAX:1
Coverage: 30, Tot. Cov: 83.000000, 139/200, STDB: 70250000.000000, IPB: 32869816.000000, STDT: 4399255204.000000, IPT: 585698320.000000, BOH/LOH: 2.137219,7.511128, MAX:1
Coverage: 30, Tot. Cov: 34.000000, 140/200, STDB: 60932500.000000, IPB: 29528072.000000, STDT: 1815992108.000000, IPT: 246433799.000000, BOH/LOH: 2.063545,7.369087, MAX:1
Coverage: 30, Tot. Cov: 163.000000, 141/200, STDB: 376210000.000000, IPB: 172215584.000000, STDT: 9841935128.000000, IPT: 974122146.000000, BOH/LOH: 2.184529,10.103389, MAX:1
Coverage: 30, Tot. Cov: 87.000000, 142/200, STDB: 35455000.000000, IPB: 14930324.000000, STDT: 2125406106.000000, IPT: 712198006.000000, BOH/LOH: 2.374697,2.984291, MAX:1
Coverage: 30, Tot. Cov: 139.000000, 143/200, STDB: 171150000.000000, IPB: 67775728.000000, STDT: 7780855388.000000, IPT: 1001307552.000000, BOH/LOH: 2.525240,7.770695, MAX:1
Coverage: 30, Tot. Cov: 107.000000, 144/200, STDB: 59527500.000000, IPB: 20985216.000000, STDT: 2618331656.000000, IPT: 461097557.000000, BOH/LOH: 2.836640,5.678477, MAX:1
Coverage: 30, Tot. Cov: 80.000000, 145/200, STDB: 977995000.000000, IPB: 540472904.000000, STDT: 4668675796.000000, IPT: 587600514.000000, BOH/LOH: 1.809517,7.945323, MAX:1
Coverage: 30, Tot. Cov: 167.000000, 146/200, STDB: 24320000.000000, IPB: 9422968.000000, STDT: 2260986828.000000, IPT: 527185944.000000, BOH/LOH: 2.580928,4.288784, MAX:1
Coverage: 30, Tot. Cov: 39.000000, 147/200, STDB: 2680000.000000, IPB: 1420768.000000, STDT: 237052490.000000, IPT: 127515170.000000, BOH/LOH: 1.886304,1.859014, MAX:1
Coverage: 30, Tot. Cov: 64.000000, 148/200, STDB: 302950000.000000, IPB: 122499640.000000, STDT: 2485751970.000000, IPT: 326501498.000000, BOH/LOH: 2.473068,7.613294, MAX:1
Coverage: 30, Tot. Cov: 72.000000, 149/200, STDB: 146480000.000000, IPB: 60522220.000000, STDT: 3791661025.000000, IPT: 666456721.000000, BOH/LOH: 2.420268,5.689283, MAX:1
Coverage: 30, Tot. Cov: 44.000000, 150/200, STDB: 2895000.000000, IPB: 1912708.000000, STDT: 277216931.000000, IPT: 127651767.000000, BOH/LOH: 1.513561,2.171665, MAX:1
Coverage: 30, Tot. Cov: 137.000000, 151/200, STDB: 33382500.000000, IPB: 11785584.000000, STDT: 2976876750.000000, IPT: 730873824.000000, BOH/LOH: 2.832486,4.073038, MAX:1
Coverage: 30, Tot. Cov: 131.000000, 152/200, STDB: 50805000.000000, IPB: 12978772.000000, STDT: 1414520127.000000, IPT: 571806908.000000, BOH/LOH: 3.914469,2.473772, MAX:1
Coverage: 30, Tot. Cov: 30.000000, 153/200, STDB: 24097500.000000, IPB: 8598460.000000, STDT: 1013892901.000000, IPT: 156540072.000000, BOH/LOH: 2.802537,6.476890, MAX:1
Coverage: 30, Tot. Cov: 37.000000, 154/200, STDB: 1040000.000000, IPB: 541064.000000, STDT: 177920253.000000, IPT: 110587023.000000, BOH/LOH: 1.922139,1.608871, MAX:1
Coverage: 30, Tot. Cov: 132.000000, 155/200, STDB: 438330000.000000, IPB: 184630272.000000, STDT: 10325872760.000000, IPT: 977938465.000000, BOH/LOH: 2.374096,10.558816, MAX:1
Coverage: 30, Tot. Cov: 121.000000, 156/200, STDB: 80992500.000000, IPB: 37431620.000000, STDT: 3635350786.000000, IPT: 656092669.000000, BOH/LOH: 2.163746,5.540911, MAX:1
Coverage: 30, Tot. Cov: 30.000000, 157/200, STDB: 13675000.000000, IPB: 6990688.000000, STDT: 207631232.000000, IPT: 94959801.000000, BOH/LOH: 1.956174,2.186517, MAX:1
Coverage: 30, Tot. Cov: 93.000000, 158/200, STDB: 11700000.000000, IPB: 3717676.000000, STDT: 2050090352.000000, IPT: 750184754.000000, BOH/LOH: 3.147127,2.732781, MAX:1
Coverage: 30, Tot. Cov: 134.000000, 159/200, STDB: 161740000.000000, IPB: 69631276.000000, STDT: 6071458980.000000, IPT: 631943191.000000, BOH/LOH: 2.322807,9.607602, MAX:1
Coverage: 30, Tot. Cov: 177.000000, 160/200, STDB: 167970000.000000, IPB: 76202328.000000, STDT: 7885147408.000000, IPT: 1282672457.000000, BOH/LOH: 2.204263,6.147436, MAX:1
Coverage: 30, Tot. Cov: 76.000000, 161/200, STDB: 199615000.000000, IPB: 71853704.000000, STDT: 2553323625.000000, IPT: 609641101.000000, BOH/LOH: 2.778075,4.188241, MAX:1
Coverage: 30, Tot. Cov: 63.000000, 162/200, STDB: 380075000.000000, IPB: 168937740.000000, STDT: 2907104576.000000, IPT: 292194039.000000, BOH/LOH: 2.249793,9.949226, MAX:1
Coverage: 30, Tot. Cov: 36.000000, 163/200, STDB: 62545000.000000, IPB: 26441284.000000, STDT: 1556513907.000000, IPT: 331793512.000000, BOH/LOH: 2.365430,4.691213, MAX:1
Coverage: 30, Tot. Cov: 30.000000, 164/200, STDB: 7080000.000000, IPB: 2845788.000000, STDT: 239144751.000000, IPT: 102643069.000000, BOH/LOH: 2.487887,2.329868, MAX:1
Coverage: 30, Tot. Cov: 30.000000, 165/200, STDB: 67192500.000000, IPB: 23325272.000000, STDT: 1278166798.000000, IPT: 186066997.000000, BOH/LOH: 2.880674,6.869390, MAX:1
Coverage: 30, Tot. Cov: 280.000000, 166/200, STDB: 360480000.000000, IPB: 156411828.000000, STDT: 14776116350.000000, IPT: 1309480151.000000, BOH/LOH: 2.304685,11.283956, MAX:1
Coverage: 30, Tot. Cov: 31.000000, 167/200, STDB: 123512500.000000, IPB: 50600488.000000, STDT: 2044073549.000000, IPT: 186671941.000000, BOH/LOH: 2.440935,10.950085, MAX:1
Coverage: 30, Tot. Cov: 34.000000, 168/200, STDB: 11672500.000000, IPB: 5135300.000000, STDT: 811581954.000000, IPT: 149880028.000000, BOH/LOH: 2.272993,5.414877, MAX:1
Coverage: 30, Tot. Cov: 30.000000, 169/200, STDB: 2325000.000000, IPB: 999440.000000, STDT: 220961844.000000, IPT: 102380515.000000, BOH/LOH: 2.326303,2.158241, MAX:1
Coverage: 30, Tot. Cov: 64.000000, 170/200, STDB: 100585000.000000, IPB: 38530832.000000, STDT: 3003045869.000000, IPT: 300182492.000000, BOH/LOH: 2.610507,10.004067, MAX:1
Coverage: 30, Tot. Cov: 104.000000, 171/200, STDB: 320475000.000000, IPB: 139228196.000000, STDT: 4878776752.000000, IPT: 529758816.000000, BOH/LOH: 2.301797,9.209430, MAX:1
Coverage: 30, Tot. Cov: 63.000000, 172/200, STDB: 113840000.000000, IPB: 34729452.000000, STDT: 2247530227.000000, IPT: 402539076.000000, BOH/LOH: 3.277909,5.583384, MAX:1
Coverage: 30, Tot. Cov: 137.000000, 173/200, STDB: 21120000.000000, IPB: 7651068.000000, STDT: 1469457034.000000, IPT: 553022594.000000, BOH/LOH: 2.760399,2.657137, MAX:1
Coverage: 30, Tot. Cov: 314.000000, 174/200, STDB: 109620000.000000, IPB: 50839620.000000, STDT: 4950610595.000000, IPT: 1254009162.000000, BOH/LOH: 2.156192,3.947826, MAX:1
Coverage: 30, Tot. Cov: 132.000000, 175/200, STDB: 90577500.000000, IPB: 34482764.000000, STDT: 2851734620.000000, IPT: 569870242.000000, BOH/LOH: 2.626747,5.004182, MAX:1
Coverage: 30, Tot. Cov: 125.000000, 176/200, STDB: 22417500.000000, IPB: 9651368.000000, STDT: 1319771906.000000, IPT: 420963892.000000, BOH/LOH: 2.322728,3.135119, MAX:1
Coverage: 30, Tot. Cov: 32.000000, 177/200, STDB: 156185000.000000, IPB: 45484820.000000, STDT: 1317018963.000000, IPT: 298759003.000000, BOH/LOH: 3.433783,4.408299, MAX:1
Coverage: 30, Tot. Cov: 30.000000, 178/200, STDB: 26587500.000000, IPB: 8372524.000000, STDT: 817314166.000000, IPT: 133389455.000000, BOH/LOH: 3.175566,6.127277, MAX:1
Coverage: 30, Tot. Cov: 131.000000, 179/200, STDB: 39990000.000000, IPB: 13741128.000000, STDT: 1557843385.000000, IPT: 533904089.000000, BOH/LOH: 2.910241,2.917834, MAX:1
Coverage: 30, Tot. Cov: 164.000000, 180/200, STDB: 464930000.000000, IPB: 198701416.000000, STDT: 9907124587.000000, IPT: 1308181727.000000, BOH/LOH: 2.339842,7.573202, MAX:1
Coverage: 30, Tot. Cov: 32.000000, 181/200, STDB: 47342500.000000, IPB: 21863420.000000, STDT: 1035280482.000000, IPT: 138925202.000000, BOH/LOH: 2.165375,7.452071, MAX:1
Coverage: 30, Tot. Cov: 33.000000, 182/200, STDB: 27177500.000000, IPB: 11601880.000000, STDT: 733049831.000000, IPT: 133720396.000000, BOH/LOH: 2.342508,5.481960, MAX:1
Coverage: 30, Tot. Cov: 31.000000, 183/200, STDB: 50270000.000000, IPB: 16558020.000000, STDT: 1414341871.000000, IPT: 190152938.000000, BOH/LOH: 3.035991,7.437918, MAX:1
Coverage: 30, Tot. Cov: 200.000000, 184/200, STDB: 523600000.000000, IPB: 266457172.000000, STDT: 13297717303.000000, IPT: 1106696239.000000, BOH/LOH: 1.965044,12.015689, MAX:1
Coverage: 30, Tot. Cov: 31.000000, 185/200, STDB: 9667500.000000, IPB: 3802272.000000, STDT: 548109077.000000, IPT: 119069899.000000, BOH/LOH: 2.542559,4.603255, MAX:1
Coverage: 30, Tot. Cov: 30.000000, 186/200, STDB: 43475000.000000, IPB: 16082424.000000, STDT: 856219047.000000, IPT: 145417128.000000, BOH/LOH: 2.703262,5.888021, MAX:1
Coverage: 30, Tot. Cov: 33.000000, 187/200, STDB: 121827500.000000, IPB: 36343484.000000, STDT: 2164186880.000000, IPT: 303329588.000000, BOH/LOH: 3.352114,7.134770, MAX:1
Coverage: 30, Tot. Cov: 79.000000, 188/200, STDB: 81265000.000000, IPB: 37404344.000000, STDT: 2754282723.000000, IPT: 351727108.000000, BOH/LOH: 2.172609,7.830738, MAX:1
Coverage: 30, Tot. Cov: 78.000000, 189/200, STDB: 320680000.000000, IPB: 177737076.000000, STDT: 7316452316.000000, IPT: 480896714.000000, BOH/LOH: 1.804238,15.214187, MAX:1
Coverage: 30, Tot. Cov: 32.000000, 190/200, STDB: 23765000.000000, IPB: 11223288.000000, STDT: 471769529.000000, IPT: 120680750.000000, BOH/LOH: 2.117472,3.909236, MAX:1
Coverage: 30, Tot. Cov: 117.000000, 191/200, STDB: 137715000.000000, IPB: 57843336.000000, STDT: 6763275511.000000, IPT: 844790137.000000, BOH/LOH: 2.380827,8.005865, MAX:1
Coverage: 30, Tot. Cov: 80.000000, 192/200, STDB: 572775000.000000, IPB: 281928544.000000, STDT: 6795667741.000000, IPT: 685997285.000000, BOH/LOH: 2.031632,9.906260, MAX:1
Coverage: 30, Tot. Cov: 104.000000, 193/200, STDB: 61207500.000000, IPB: 26426192.000000, STDT: 3117902705.000000, IPT: 471055010.000000, BOH/LOH: 2.316168,6.618978, MAX:1
Coverage: 30, Tot. Cov: 141.000000, 194/200, STDB: 194760000.000000, IPB: 80667340.000000, STDT: 5535421304.000000, IPT: 783411428.000000, BOH/LOH: 2.414360,7.065791, MAX:1
Coverage: 30, Tot. Cov: 115.000000, 195/200, STDB: 190185000.000000, IPB: 92271852.000000, STDT: 5046121479.000000, IPT: 479560615.000000, BOH/LOH: 2.061138,10.522385, MAX:1
Coverage: 30, Tot. Cov: 30.000000, 196/200, STDB: 171715000.000000, IPB: 61628892.000000, STDT: 1320253913.000000, IPT: 178082865.000000, BOH/LOH: 2.786274,7.413705, MAX:1
Coverage: 30, Tot. Cov: 30.000000, 197/200, STDB: 21235000.000000, IPB: 7276576.000000, STDT: 734743704.000000, IPT: 143929647.000000, BOH/LOH: 2.918268,5.104881, MAX:1
Coverage: 30, Tot. Cov: 83.000000, 198/200, STDB: 26225000.000000, IPB: 8329272.000000, STDT: 1997793519.000000, IPT: 347840325.000000, BOH/LOH: 3.148534,5.743421, MAX:1
Coverage: 30, Tot. Cov: 65.000000, 199/200, STDB: 89060000.000000, IPB: 32511252.000000, STDT: 3008634025.000000, IPT: 322709999.000000, BOH/LOH: 2.739359,9.323027, MAX:1
