Coverage: 30, Tot. Cov: 179.000000, 1/54, STDB: 94810000.000000, IPB: 16678380.000000, STDT: 1648019031.000000, IPT: 1226239330.000000, BOH/LOH: 5.684605,1.343962, MAX:1
Coverage: 30, Tot. Cov: 200.000000, 1/54, STDB: 71560000.000000, IPB: 18839040.000000, STDT: 2056207975.000000, IPT: 1421157703.000000, BOH/LOH: 3.798495,1.446854, MAX:1
Coverage: 30, Tot. Cov: 163.000000, 1/54, STDB: 43010000.000000, IPB: 14603544.000000, STDT: 3305519032.000000, IPT: 1149201568.000000, BOH/LOH: 2.945175,2.876361, MAX:1
Coverage: 30, Tot. Cov: 1169.000000, 2/54, STDB: 329820000.000000, IPB: 52764976.000000, STDT: 5779614008.000000, IPT: 4395239477.000000, BOH/LOH: 6.250737,1.314971, MAX:1
Coverage: 30, Tot. Cov: 1165.000000, 2/54, STDB: 212040000.000000, IPB: 52603048.000000, STDT: 7017581567.000000, IPT: 4366790396.000000, BOH/LOH: 4.030945,1.607034, MAX:1
Coverage: 30, Tot. Cov: 1148.000000, 2/54, STDB: 163980000.000000, IPB: 51370788.000000, STDT: 11946600114.000000, IPT: 4301949671.000000, BOH/LOH: 3.192087,2.777020, MAX:1
Coverage: 30, Tot. Cov: 713.000000, 3/54, STDB: 367837500.000000, IPB: 63055984.000000, STDT: 3934964547.000000, IPT: 2809877925.000000, BOH/LOH: 5.833507,1.400404, MAX:1
Coverage: 30, Tot. Cov: 730.000000, 3/54, STDB: 318562500.000000, IPB: 65555220.000000, STDT: 3881773311.000000, IPT: 2911901727.000000, BOH/LOH: 4.859453,1.333072, MAX:1
Coverage: 30, Tot. Cov: 725.000000, 3/54, STDB: 260625000.000000, IPB: 64126788.000000, STDT: 12037469075.000000, IPT: 2910323962.000000, BOH/LOH: 4.064214,4.136127, MAX:1
Coverage: 30, Tot. Cov: 777.000000, 4/54, STDB: 157840000.000000, IPB: 19816752.000000, STDT: 4296506836.000000, IPT: 2860663880.000000, BOH/LOH: 7.964978,1.501926, MAX:1
Coverage: 30, Tot. Cov: 755.000000, 4/54, STDB: 117520000.000000, IPB: 18784208.000000, STDT: 3715530807.000000, IPT: 2681109740.000000, BOH/LOH: 6.256319,1.385818, MAX:1
Coverage: 30, Tot. Cov: 787.000000, 4/54, STDB: 87560000.000000, IPB: 19992156.000000, STDT: 12897537693.000000, IPT: 2955079817.000000, BOH/LOH: 4.379718,4.364531, MAX:1
Coverage: 30, Tot. Cov: 1996.000000, 5/54, STDB: 4916520000.000000, IPB: 1272697164.000000, STDT: 15016866881.000000, IPT: 11285788306.000000, BOH/LOH: 3.863071,1.330600, MAX:1
Coverage: 30, Tot. Cov: 2051.000000, 5/54, STDB: 3556350000.000000, IPB: 1299978000.000000, STDT: 89973809494.000000, IPT: 11868264978.000000, BOH/LOH: 2.735700,7.581042, MAX:1
Coverage: 30, Tot. Cov: 255.000000, 6/54, STDB: 597045000.000000, IPB: 207996212.000000, STDT: 1133629460.000000, IPT: 1103244475.000000, BOH/LOH: 2.870461,1.027541, MAX:1
Coverage: 30, Tot. Cov: 279.000000, 6/54, STDB: 394455000.000000, IPB: 224831220.000000, STDT: 11598582459.000000, IPT: 1293134111.000000, BOH/LOH: 1.754449,8.969358, MAX:1
Coverage: 30, Tot. Cov: 1540.000000, 7/54, STDB: 4350480000.000000, IPB: 1292683936.000000, STDT: 13220934724.000000, IPT: 7506304693.000000, BOH/LOH: 3.365463,1.761311, MAX:1
Coverage: 30, Tot. Cov: 1516.000000, 7/54, STDB: 3262880000.000000, IPB: 1269465380.000000, STDT: 10226140250.000000, IPT: 7307111993.000000, BOH/LOH: 2.570279,1.399478, MAX:1
Coverage: 30, Tot. Cov: 1536.000000, 7/54, STDB: 2497120000.000000, IPB: 1270747928.000000, STDT: 79027555544.000000, IPT: 7625262362.000000, BOH/LOH: 1.965079,10.363913, MAX:1
Coverage: 30, Tot. Cov: 85.000000, 8/54, STDB: 278000000.000000, IPB: 94605548.000000, STDT: 589975403.000000, IPT: 486676823.000000, BOH/LOH: 2.938517,1.212253, MAX:1
Coverage: 30, Tot. Cov: 77.000000, 8/54, STDB: 182055000.000000, IPB: 80763016.000000, STDT: 4171517666.000000, IPT: 488958510.000000, BOH/LOH: 2.254188,8.531435, MAX:1
Coverage: 30, Tot. Cov: 125.000000, 9/54, STDB: 544065000.000000, IPB: 141054328.000000, STDT: 801934271.000000, IPT: 651462134.000000, BOH/LOH: 3.857131,1.230976, MAX:1
Coverage: 30, Tot. Cov: 117.000000, 9/54, STDB: 385830000.000000, IPB: 132191448.000000, STDT: 846916670.000000, IPT: 606836959.000000, BOH/LOH: 2.918721,1.395625, MAX:1
Coverage: 30, Tot. Cov: 129.000000, 9/54, STDB: 274710000.000000, IPB: 142171004.000000, STDT: 4667490873.000000, IPT: 707730547.000000, BOH/LOH: 1.932251,6.595011, MAX:1
Coverage: 30, Tot. Cov: 215.000000, 10/54, STDB: 940062500.000000, IPB: 246684820.000000, STDT: 1832690304.000000, IPT: 964804642.000000, BOH/LOH: 3.810784,1.899545, MAX:1
Coverage: 30, Tot. Cov: 230.000000, 10/54, STDB: 633725000.000000, IPB: 268579740.000000, STDT: 1412668106.000000, IPT: 1034484270.000000, BOH/LOH: 2.359541,1.365577, MAX:1
Coverage: 30, Tot. Cov: 199.000000, 10/54, STDB: 453687500.000000, IPB: 222556416.000000, STDT: 8336826467.000000, IPT: 914706427.000000, BOH/LOH: 2.038528,9.114210, MAX:1
Coverage: 30, Tot. Cov: 44.000000, 11/54, STDB: 167630000.000000, IPB: 54703068.000000, STDT: 258228071.000000, IPT: 204314263.000000, BOH/LOH: 3.064362,1.263877, MAX:1
Coverage: 30, Tot. Cov: 43.000000, 11/54, STDB: 111785000.000000, IPB: 53479816.000000, STDT: 221947091.000000, IPT: 199924100.000000, BOH/LOH: 2.090228,1.110157, MAX:1
Coverage: 30, Tot. Cov: 32.000000, 11/54, STDB: 79280000.000000, IPB: 39659436.000000, STDT: 1240028738.000000, IPT: 157719766.000000, BOH/LOH: 1.999020,7.862228, MAX:1
Coverage: 30, Tot. Cov: 785.000000, 12/54, STDB: 804600000.000000, IPB: 237537212.000000, STDT: 10187818499.000000, IPT: 5450230651.000000, BOH/LOH: 3.387259,1.869245, MAX:1
Coverage: 30, Tot. Cov: 744.000000, 12/54, STDB: 716360000.000000, IPB: 224387644.000000, STDT: 8924605231.000000, IPT: 5075663012.000000, BOH/LOH: 3.192511,1.758313, MAX:1
Coverage: 30, Tot. Cov: 750.000000, 12/54, STDB: 559880000.000000, IPB: 220391216.000000, STDT: 26421134948.000000, IPT: 5285975205.000000, BOH/LOH: 2.540392,4.998346, MAX:1
Coverage: 30, Tot. Cov: 123.000000, 13/54, STDB: 231982500.000000, IPB: 53502664.000000, STDT: 862412446.000000, IPT: 512421647.000000, BOH/LOH: 4.335906,1.683013, MAX:1
Coverage: 30, Tot. Cov: 109.000000, 13/54, STDB: 177682500.000000, IPB: 47524128.000000, STDT: 521612877.000000, IPT: 447338468.000000, BOH/LOH: 3.738785,1.166036, MAX:1
Coverage: 30, Tot. Cov: 127.000000, 13/54, STDB: 118215000.000000, IPB: 54109320.000000, STDT: 2908485643.000000, IPT: 537964725.000000, BOH/LOH: 2.184744,5.406462, MAX:1
Coverage: 30, Tot. Cov: 226.000000, 14/54, STDB: 332900000.000000, IPB: 70746752.000000, STDT: 2614202254.000000, IPT: 1377671503.000000, BOH/LOH: 4.705516,1.897551, MAX:1
Coverage: 30, Tot. Cov: 223.000000, 14/54, STDB: 141837500.000000, IPB: 69516404.000000, STDT: 7461074183.000000, IPT: 1386070418.000000, BOH/LOH: 2.040346,5.382897, MAX:1
Coverage: 30, Tot. Cov: 483.000000, 15/54, STDB: 957100000.000000, IPB: 202850016.000000, STDT: 5571517184.000000, IPT: 2209334515.000000, BOH/LOH: 4.718264,2.521808, MAX:1
Coverage: 30, Tot. Cov: 462.000000, 15/54, STDB: 617225000.000000, IPB: 193065940.000000, STDT: 3026770281.000000, IPT: 2072358873.000000, BOH/LOH: 3.196965,1.460543, MAX:1
Coverage: 30, Tot. Cov: 462.000000, 15/54, STDB: 491575000.000000, IPB: 186725528.000000, STDT: 24409388449.000000, IPT: 2141349798.000000, BOH/LOH: 2.632607,11.399066, MAX:1
Coverage: 30, Tot. Cov: 126.000000, 16/54, STDB: 161820000.000000, IPB: 41131136.000000, STDT: 607522865.000000, IPT: 504759358.000000, BOH/LOH: 3.934246,1.203589, MAX:1
Coverage: 30, Tot. Cov: 135.000000, 16/54, STDB: 92115000.000000, IPB: 44076496.000000, STDT: 655642201.000000, IPT: 542903821.000000, BOH/LOH: 2.089889,1.207658, MAX:1
Coverage: 30, Tot. Cov: 120.000000, 16/54, STDB: 72990000.000000, IPB: 39150624.000000, STDT: 4298691772.000000, IPT: 482962675.000000, BOH/LOH: 1.864338,8.900671, MAX:1
Coverage: 30, Tot. Cov: 96.000000, 17/54, STDB: 142290000.000000, IPB: 35811008.000000, STDT: 504822765.000000, IPT: 430865219.000000, BOH/LOH: 3.973359,1.171649, MAX:1
Coverage: 30, Tot. Cov: 83.000000, 17/54, STDB: 85740000.000000, IPB: 31002536.000000, STDT: 433904585.000000, IPT: 365307105.000000, BOH/LOH: 2.765580,1.187780, MAX:1
Coverage: 30, Tot. Cov: 78.000000, 17/54, STDB: 69495000.000000, IPB: 28882480.000000, STDT: 3487859337.000000, IPT: 356834536.000000, BOH/LOH: 2.406130,9.774444, MAX:1
Coverage: 30, Tot. Cov: 86.000000, 18/54, STDB: 115225000.000000, IPB: 28822988.000000, STDT: 670549230.000000, IPT: 354672033.000000, BOH/LOH: 3.997677,1.890618, MAX:1
Coverage: 30, Tot. Cov: 83.000000, 18/54, STDB: 70890000.000000, IPB: 27911136.000000, STDT: 418582171.000000, IPT: 340841432.000000, BOH/LOH: 2.539846,1.228085, MAX:1
Coverage: 30, Tot. Cov: 80.000000, 18/54, STDB: 58345000.000000, IPB: 26671172.000000, STDT: 1640032133.000000, IPT: 330770711.000000, BOH/LOH: 2.187568,4.958214, MAX:1
Coverage: 30, Tot. Cov: 45.000000, 19/54, STDB: 55262500.000000, IPB: 15216000.000000, STDT: 243266630.000000, IPT: 203537337.000000, BOH/LOH: 3.631868,1.195194, MAX:1
Coverage: 30, Tot. Cov: 32.000000, 19/54, STDB: 42330000.000000, IPB: 10728200.000000, STDT: 198919945.000000, IPT: 143257808.000000, BOH/LOH: 3.945676,1.388545, MAX:1
Coverage: 30, Tot. Cov: 40.000000, 19/54, STDB: 29607500.000000, IPB: 13332348.000000, STDT: 1141464801.000000, IPT: 181446845.000000, BOH/LOH: 2.220727,6.290905, MAX:1
Coverage: 30, Tot. Cov: 328.000000, 20/54, STDB: 391352500.000000, IPB: 147974288.000000, STDT: 1950367570.000000, IPT: 1544571821.000000, BOH/LOH: 2.644733,1.262724, MAX:1
Coverage: 30, Tot. Cov: 310.000000, 20/54, STDB: 298340000.000000, IPB: 134686496.000000, STDT: 10907152589.000000, IPT: 1535776878.000000, BOH/LOH: 2.215070,7.102042, MAX:1
Coverage: 30, Tot. Cov: 1699.000000, 21/54, STDB: 4010737500.000000, IPB: 912238456.000000, STDT: 16507938478.000000, IPT: 8095946574.000000, BOH/LOH: 4.396589,2.039037, MAX:1
Coverage: 30, Tot. Cov: 1655.000000, 21/54, STDB: 3047800000.000000, IPB: 897113136.000000, STDT: 10752789556.000000, IPT: 7697265782.000000, BOH/LOH: 3.397342,1.396962, MAX:1
Coverage: 30, Tot. Cov: 1726.000000, 21/54, STDB: 2627537500.000000, IPB: 928990180.000000, STDT: 145607021715.000000, IPT: 8323947200.000000, BOH/LOH: 2.828380,17.492545, MAX:1
Coverage: 30, Tot. Cov: 231.000000, 22/54, STDB: 801537500.000000, IPB: 141965616.000000, STDT: 1590926459.000000, IPT: 1249176542.000000, BOH/LOH: 5.645997,1.273580, MAX:1
Coverage: 30, Tot. Cov: 203.000000, 22/54, STDB: 282075000.000000, IPB: 113989136.000000, STDT: 11732786149.000000, IPT: 1122145344.000000, BOH/LOH: 2.474578,10.455674, MAX:1
Coverage: 30, Tot. Cov: 142.000000, 23/54, STDB: 64845000.000000, IPB: 17586408.000000, STDT: 1612126340.000000, IPT: 993647427.000000, BOH/LOH: 3.687223,1.622433, MAX:1
Coverage: 30, Tot. Cov: 120.000000, 23/54, STDB: 53782500.000000, IPB: 15005708.000000, STDT: 832893752.000000, IPT: 793720165.000000, BOH/LOH: 3.584136,1.049354, MAX:1
Coverage: 30, Tot. Cov: 122.000000, 23/54, STDB: 31440000.000000, IPB: 15203608.000000, STDT: 3250775068.000000, IPT: 842313115.000000, BOH/LOH: 2.067930,3.859343, MAX:1
Coverage: 30, Tot. Cov: 141.000000, 24/54, STDB: 78832500.000000, IPB: 15449268.000000, STDT: 1106925065.000000, IPT: 602410575.000000, BOH/LOH: 5.102669,1.837493, MAX:1
Coverage: 30, Tot. Cov: 142.000000, 24/54, STDB: 55170000.000000, IPB: 15844048.000000, STDT: 758363708.000000, IPT: 596331860.000000, BOH/LOH: 3.482065,1.271714, MAX:1
Coverage: 30, Tot. Cov: 130.000000, 24/54, STDB: 40950000.000000, IPB: 13893248.000000, STDT: 1253419452.000000, IPT: 556953783.000000, BOH/LOH: 2.947475,2.250491, MAX:1
Coverage: 30, Tot. Cov: 188.000000, 25/54, STDB: 178210000.000000, IPB: 38114280.000000, STDT: 1470410661.000000, IPT: 1090586024.000000, BOH/LOH: 4.675675,1.348276, MAX:1
Coverage: 30, Tot. Cov: 190.000000, 25/54, STDB: 139490000.000000, IPB: 38909776.000000, STDT: 1310759926.000000, IPT: 1088048658.000000, BOH/LOH: 3.584960,1.204689, MAX:1
Coverage: 30, Tot. Cov: 173.000000, 25/54, STDB: 105800000.000000, IPB: 34140320.000000, STDT: 3291884776.000000, IPT: 1007979779.000000, BOH/LOH: 3.098975,3.265824, MAX:1
Coverage: 30, Tot. Cov: 433.000000, 26/54, STDB: 227970000.000000, IPB: 39860516.000000, STDT: 3215073480.000000, IPT: 1966218230.000000, BOH/LOH: 5.719193,1.635156, MAX:1
Coverage: 30, Tot. Cov: 402.000000, 26/54, STDB: 218745000.000000, IPB: 36706496.000000, STDT: 1826915969.000000, IPT: 1697335183.000000, BOH/LOH: 5.959299,1.076344, MAX:1
Coverage: 30, Tot. Cov: 421.000000, 26/54, STDB: 118372500.000000, IPB: 37493152.000000, STDT: 14029009553.000000, IPT: 1932023929.000000, BOH/LOH: 3.157177,7.261302, MAX:1
Coverage: 30, Tot. Cov: 1514.000000, 27/54, STDB: 1758397500.000000, IPB: 258684896.000000, STDT: 8151820067.000000, IPT: 6651276184.000000, BOH/LOH: 6.797449,1.225602, MAX:1
Coverage: 30, Tot. Cov: 1492.000000, 27/54, STDB: 1120727500.000000, IPB: 255417364.000000, STDT: 7042732725.000000, IPT: 6465141839.000000, BOH/LOH: 4.387828,1.089339, MAX:1
Coverage: 30, Tot. Cov: 1529.000000, 27/54, STDB: 840720000.000000, IPB: 258619452.000000, STDT: 37575953236.000000, IPT: 6860257205.000000, BOH/LOH: 3.250800,5.477339, MAX:1
Coverage: 30, Tot. Cov: 65.000000, 28/54, STDB: 43650000.000000, IPB: 14978672.000000, STDT: 256802802.000000, IPT: 234808960.000000, BOH/LOH: 2.914144,1.093667, MAX:1
Coverage: 30, Tot. Cov: 68.000000, 28/54, STDB: 39140000.000000, IPB: 15701072.000000, STDT: 1274862909.000000, IPT: 248859954.000000, BOH/LOH: 2.492823,5.122813, MAX:1
Coverage: 30, Tot. Cov: 91.000000, 29/54, STDB: 68195000.000000, IPB: 15387516.000000, STDT: 763707889.000000, IPT: 347062520.000000, BOH/LOH: 4.431839,2.200491, MAX:1
Coverage: 30, Tot. Cov: 92.000000, 29/54, STDB: 47090000.000000, IPB: 15657392.000000, STDT: 368174724.000000, IPT: 350664118.000000, BOH/LOH: 3.007525,1.049936, MAX:1
Coverage: 30, Tot. Cov: 80.000000, 29/54, STDB: 29075000.000000, IPB: 13253096.000000, STDT: 1442922829.000000, IPT: 300671903.000000, BOH/LOH: 2.193827,4.798995, MAX:1
Coverage: 30, Tot. Cov: 48.000000, 30/54, STDB: 35292500.000000, IPB: 13053784.000000, STDT: 274358213.000000, IPT: 216669760.000000, BOH/LOH: 2.703622,1.266251, MAX:1
Coverage: 30, Tot. Cov: 31.000000, 30/54, STDB: 19772500.000000, IPB: 8184780.000000, STDT: 487696178.000000, IPT: 142528421.000000, BOH/LOH: 2.415764,3.421747, MAX:1
Coverage: 30, Tot. Cov: 30.000000, 31/54, STDB: 40270000.000000, IPB: 7626440.000000, STDT: 234638629.000000, IPT: 111586423.000000, BOH/LOH: 5.280314,2.102752, MAX:1
Coverage: 30, Tot. Cov: 44.000000, 31/54, STDB: 39477500.000000, IPB: 11252804.000000, STDT: 189906616.000000, IPT: 179580195.000000, BOH/LOH: 3.508237,1.057503, MAX:1
Coverage: 30, Tot. Cov: 31.000000, 31/54, STDB: 21492500.000000, IPB: 7870028.000000, STDT: 867969321.000000, IPT: 119217602.000000, BOH/LOH: 2.730931,7.280547, MAX:1
Coverage: 30, Tot. Cov: 33.000000, 32/54, STDB: 19842500.000000, IPB: 4670260.000000, STDT: 189598354.000000, IPT: 117248738.000000, BOH/LOH: 4.248693,1.617061, MAX:1
Coverage: 30, Tot. Cov: 33.000000, 32/54, STDB: 20177500.000000, IPB: 4645260.000000, STDT: 135341584.000000, IPT: 116187994.000000, BOH/LOH: 4.343675,1.164850, MAX:1
Coverage: 30, Tot. Cov: 31.000000, 32/54, STDB: 9585000.000000, IPB: 4366984.000000, STDT: 240177873.000000, IPT: 109605972.000000, BOH/LOH: 2.194879,2.191285, MAX:1
Coverage: 30, Tot. Cov: 1170.000000, 33/54, STDB: 865920000.000000, IPB: 159684520.000000, STDT: 7497294765.000000, IPT: 4943349817.000000, BOH/LOH: 5.422692,1.516643, MAX:1
Coverage: 30, Tot. Cov: 1159.000000, 33/54, STDB: 469380000.000000, IPB: 155992064.000000, STDT: 26754820061.000000, IPT: 4952101960.000000, BOH/LOH: 3.008999,5.402720, MAX:1
Coverage: 30, Tot. Cov: 30.000000, 34/54, STDB: 23890000.000000, IPB: 4640844.000000, STDT: 269415378.000000, IPT: 223330818.000000, BOH/LOH: 5.147771,1.206351, MAX:1
Coverage: 30, Tot. Cov: 30.000000, 34/54, STDB: 17895000.000000, IPB: 4642072.000000, STDT: 248902924.000000, IPT: 222983848.000000, BOH/LOH: 3.854960,1.116237, MAX:1
Coverage: 30, Tot. Cov: 37.000000, 34/54, STDB: 10315000.000000, IPB: 5775792.000000, STDT: 839432644.000000, IPT: 290910537.000000, BOH/LOH: 1.785902,2.885535, MAX:1
Coverage: 30, Tot. Cov: 1324.000000, 35/54, STDB: 1479660000.000000, IPB: 331165800.000000, STDT: 10003882343.000000, IPT: 6219369115.000000, BOH/LOH: 4.468034,1.608504, MAX:1
Coverage: 30, Tot. Cov: 1347.000000, 35/54, STDB: 1184120000.000000, IPB: 337113248.000000, STDT: 7201568221.000000, IPT: 6402454563.000000, BOH/LOH: 3.512529,1.124814, MAX:1
Coverage: 30, Tot. Cov: 1342.000000, 35/54, STDB: 856100000.000000, IPB: 333100904.000000, STDT: 44731853209.000000, IPT: 6435330891.000000, BOH/LOH: 2.570092,6.950980, MAX:1
Coverage: 30, Tot. Cov: 1649.000000, 36/54, STDB: 2333930000.000000, IPB: 476319172.000000, STDT: 21216814895.000000, IPT: 6947975591.000000, BOH/LOH: 4.899929,3.053669, MAX:1
Coverage: 30, Tot. Cov: 1615.000000, 36/54, STDB: 1662770000.000000, IPB: 472766192.000000, STDT: 7493150940.000000, IPT: 6558455699.000000, BOH/LOH: 3.517109,1.142518, MAX:1
Coverage: 30, Tot. Cov: 1631.000000, 36/54, STDB: 1251880000.000000, IPB: 467336384.000000, STDT: 63483400563.000000, IPT: 6874617343.000000, BOH/LOH: 2.678756,9.234463, MAX:1
Coverage: 30, Tot. Cov: 40.000000, 37/54, STDB: 54072500.000000, IPB: 18763276.000000, STDT: 208869167.000000, IPT: 173420301.000000, BOH/LOH: 2.881826,1.204410, MAX:1
Coverage: 30, Tot. Cov: 32.000000, 37/54, STDB: 33912500.000000, IPB: 15000036.000000, STDT: 931489963.000000, IPT: 139265816.000000, BOH/LOH: 2.260828,6.688576, MAX:1
Coverage: 30, Tot. Cov: 125.000000, 38/54, STDB: 268290000.000000, IPB: 73761772.000000, STDT: 1189253479.000000, IPT: 953927580.000000, BOH/LOH: 3.637250,1.246692, MAX:1
Coverage: 30, Tot. Cov: 127.000000, 38/54, STDB: 212520000.000000, IPB: 71443764.000000, STDT: 1272547449.000000, IPT: 1016881181.000000, BOH/LOH: 2.974647,1.251422, MAX:1
Coverage: 30, Tot. Cov: 123.000000, 38/54, STDB: 167332500.000000, IPB: 64025164.000000, STDT: 7614898492.000000, IPT: 1017672887.000000, BOH/LOH: 2.613543,7.482658, MAX:1
Coverage: 30, Tot. Cov: 127.000000, 39/54, STDB: 1120522500.000000, IPB: 211413636.000000, STDT: 1331899652.000000, IPT: 795277651.000000, BOH/LOH: 5.300143,1.674761, MAX:1
Coverage: 30, Tot. Cov: 128.000000, 39/54, STDB: 690000000.000000, IPB: 217476600.000000, STDT: 1249416378.000000, IPT: 792286532.000000, BOH/LOH: 3.172755,1.576975, MAX:1
Coverage: 30, Tot. Cov: 110.000000, 39/54, STDB: 442282500.000000, IPB: 172684452.000000, STDT: 5563556903.000000, IPT: 696811552.000000, BOH/LOH: 2.561218,7.984306, MAX:1
Coverage: 30, Tot. Cov: 733.000000, 40/54, STDB: 2915840000.000000, IPB: 587853276.000000, STDT: 7244349004.000000, IPT: 4887961392.000000, BOH/LOH: 4.960149,1.482080, MAX:1
Coverage: 30, Tot. Cov: 721.000000, 40/54, STDB: 1951480000.000000, IPB: 576948328.000000, STDT: 5374046591.000000, IPT: 4799394281.000000, BOH/LOH: 3.382417,1.119734, MAX:1
Coverage: 30, Tot. Cov: 761.000000, 40/54, STDB: 1959160000.000000, IPB: 606854092.000000, STDT: 66481890954.000000, IPT: 5184752860.000000, BOH/LOH: 3.228387,12.822577, MAX:1
Coverage: 30, Tot. Cov: 641.000000, 41/54, STDB: 3080740000.000000, IPB: 805542540.000000, STDT: 8148038662.000000, IPT: 3483089668.000000, BOH/LOH: 3.824429,2.339313, MAX:1
Coverage: 30, Tot. Cov: 598.000000, 41/54, STDB: 2223845000.000000, IPB: 755934424.000000, STDT: 3278505290.000000, IPT: 3131910114.000000, BOH/LOH: 2.941849,1.046807, MAX:1
Coverage: 30, Tot. Cov: 586.000000, 41/54, STDB: 1389212500.000000, IPB: 722632628.000000, STDT: 37775189778.000000, IPT: 3179136867.000000, BOH/LOH: 1.922433,11.882216, MAX:1
Coverage: 30, Tot. Cov: 117.000000, 42/54, STDB: 501022500.000000, IPB: 181097744.000000, STDT: 804425081.000000, IPT: 723030914.000000, BOH/LOH: 2.766586,1.112574, MAX:1
Coverage: 30, Tot. Cov: 118.000000, 42/54, STDB: 361972500.000000, IPB: 171901184.000000, STDT: 9134327172.000000, IPT: 816975689.000000, BOH/LOH: 2.105701,11.180660, MAX:1
Coverage: 30, Tot. Cov: 88.000000, 43/54, STDB: 389080000.000000, IPB: 120563312.000000, STDT: 626925232.000000, IPT: 438843079.000000, BOH/LOH: 3.227184,1.428586, MAX:1
Coverage: 30, Tot. Cov: 64.000000, 43/54, STDB: 210665000.000000, IPB: 83342420.000000, STDT: 3366589762.000000, IPT: 321989197.000000, BOH/LOH: 2.527704,10.455598, MAX:1
Coverage: 30, Tot. Cov: 94.000000, 44/54, STDB: 537020000.000000, IPB: 135487140.000000, STDT: 763204904.000000, IPT: 456369186.000000, BOH/LOH: 3.963623,1.672341, MAX:1
Coverage: 30, Tot. Cov: 78.000000, 44/54, STDB: 310925000.000000, IPB: 114962192.000000, STDT: 422159883.000000, IPT: 358628888.000000, BOH/LOH: 2.704585,1.177150, MAX:1
Coverage: 30, Tot. Cov: 71.000000, 44/54, STDB: 228485000.000000, IPB: 95812500.000000, STDT: 2642092998.000000, IPT: 336213621.000000, BOH/LOH: 2.384710,7.858376, MAX:1
Coverage: 30, Tot. Cov: 165.000000, 45/54, STDB: 893950000.000000, IPB: 268995372.000000, STDT: 1187923526.000000, IPT: 720920210.000000, BOH/LOH: 3.323291,1.647788, MAX:1
Coverage: 30, Tot. Cov: 166.000000, 45/54, STDB: 746170000.000000, IPB: 270665088.000000, STDT: 1044679596.000000, IPT: 723708563.000000, BOH/LOH: 2.756802,1.443509, MAX:1
Coverage: 30, Tot. Cov: 183.000000, 45/54, STDB: 493180000.000000, IPB: 290822564.000000, STDT: 5585573168.000000, IPT: 815430890.000000, BOH/LOH: 1.695811,6.849843, MAX:1
Coverage: 30, Tot. Cov: 32.000000, 46/54, STDB: 281325000.000000, IPB: 63936072.000000, STDT: 265944310.000000, IPT: 147516489.000000, BOH/LOH: 4.400098,1.802811, MAX:1
Coverage: 30, Tot. Cov: 37.000000, 46/54, STDB: 187775000.000000, IPB: 74436372.000000, STDT: 208738196.000000, IPT: 170850098.000000, BOH/LOH: 2.522624,1.221762, MAX:1
Coverage: 30, Tot. Cov: 33.000000, 46/54, STDB: 136280000.000000, IPB: 66330596.000000, STDT: 1229942567.000000, IPT: 158190952.000000, BOH/LOH: 2.054557,7.775050, MAX:1
Coverage: 30, Tot. Cov: 570.000000, 47/54, STDB: 3999690000.000000, IPB: 1590803456.000000, STDT: 3257795683.000000, IPT: 3148331109.000000, BOH/LOH: 2.514258,1.034769, MAX:1
Coverage: 30, Tot. Cov: 563.000000, 47/54, STDB: 2765940000.000000, IPB: 1537334724.000000, STDT: 23444591966.000000, IPT: 3192947145.000000, BOH/LOH: 1.799179,7.342618, MAX:1
Coverage: 30, Tot. Cov: 133.000000, 48/54, STDB: 960622500.000000, IPB: 257831788.000000, STDT: 1918466260.000000, IPT: 759004885.000000, BOH/LOH: 3.725772,2.527607, MAX:1
Coverage: 30, Tot. Cov: 135.000000, 48/54, STDB: 663067500.000000, IPB: 260701740.000000, STDT: 1438184968.000000, IPT: 775700392.000000, BOH/LOH: 2.543395,1.854047, MAX:1
Coverage: 30, Tot. Cov: 131.000000, 48/54, STDB: 505762500.000000, IPB: 249779872.000000, STDT: 6317723392.000000, IPT: 760933110.000000, BOH/LOH: 2.024833,8.302600, MAX:1
Coverage: 30, Tot. Cov: 319.000000, 49/54, STDB: 1650355000.000000, IPB: 381848988.000000, STDT: 3332907918.000000, IPT: 2712774920.000000, BOH/LOH: 4.322010,1.228597, MAX:1
Coverage: 30, Tot. Cov: 316.000000, 49/54, STDB: 1395047500.000000, IPB: 362507440.000000, STDT: 3207190307.000000, IPT: 2744607914.000000, BOH/LOH: 3.848328,1.168542, MAX:1
Coverage: 30, Tot. Cov: 310.000000, 49/54, STDB: 995155000.000000, IPB: 350700956.000000, STDT: 11632919185.000000, IPT: 2686995847.000000, BOH/LOH: 2.837617,4.329340, MAX:1
Coverage: 30, Tot. Cov: 281.000000, 50/54, STDB: 844035000.000000, IPB: 239816268.000000, STDT: 2907763541.000000, IPT: 2431387515.000000, BOH/LOH: 3.519507,1.195928, MAX:1
Coverage: 30, Tot. Cov: 279.000000, 50/54, STDB: 712560000.000000, IPB: 236702084.000000, STDT: 4039135008.000000, IPT: 2416573270.000000, BOH/LOH: 3.010366,1.671431, MAX:1
Coverage: 30, Tot. Cov: 272.000000, 50/54, STDB: 604035000.000000, IPB: 227113348.000000, STDT: 10592505075.000000, IPT: 2351566347.000000, BOH/LOH: 2.659619,4.504447, MAX:1
Coverage: 30, Tot. Cov: 276.000000, 51/54, STDB: 1418625000.000000, IPB: 318629084.000000, STDT: 3916128594.000000, IPT: 2243802493.000000, BOH/LOH: 4.452277,1.745309, MAX:1
Coverage: 30, Tot. Cov: 288.000000, 51/54, STDB: 811245000.000000, IPB: 335695396.000000, STDT: 3842954503.000000, IPT: 2354838515.000000, BOH/LOH: 2.416610,1.631940, MAX:1
Coverage: 30, Tot. Cov: 264.000000, 51/54, STDB: 653115000.000000, IPB: 300763048.000000, STDT: 20588939189.000000, IPT: 2129882869.000000, BOH/LOH: 2.171527,9.666700, MAX:1
Coverage: 30, Tot. Cov: 169.000000, 52/54, STDB: 1000610000.000000, IPB: 248435216.000000, STDT: 2123860823.000000, IPT: 925835288.000000, BOH/LOH: 4.027650,2.293994, MAX:1
Coverage: 30, Tot. Cov: 172.000000, 52/54, STDB: 677370000.000000, IPB: 254202724.000000, STDT: 1289378097.000000, IPT: 935516253.000000, BOH/LOH: 2.664684,1.378253, MAX:1
Coverage: 30, Tot. Cov: 154.000000, 52/54, STDB: 513690000.000000, IPB: 221301452.000000, STDT: 9674836710.000000, IPT: 853534552.000000, BOH/LOH: 2.321223,11.335026, MAX:1
Coverage: 30, Tot. Cov: 1540.000000, 53/54, STDB: 27712760000.000000, IPB: 3990436028.000000, STDT: 27060882039.000000, IPT: 12565303555.000000, BOH/LOH: 6.944795,2.153619, MAX:1
Coverage: 30, Tot. Cov: 1543.000000, 53/54, STDB: 21970940000.000000, IPB: 4017050216.000000, STDT: 13690977675.000000, IPT: 12589823558.000000, BOH/LOH: 5.469421,1.087464, MAX:1
Coverage: 30, Tot. Cov: 1530.000000, 53/54, STDB: 15337637500.000000, IPB: 3916812292.000000, STDT: 61271003620.000000, IPT: 12470791829.000000, BOH/LOH: 3.915847,4.913161, MAX:1
